lsi_index	chembl-id	pot.(log,IC50)	pot.(muMol,IC50)	doc_id	year	description
167168	CHEMBL196797	9.820000	0.150000	30175	2005	Inhibitory concentration against Src kinase
20601367	CHEMBL3976548	9.740000	0.180000	101332	2016	Inhibition of human SRC by time-resolved fluorescence or time-resolved fluorescence assay
359253	CHEMBL425389	9.660000	0.220000	30175	2005	Inhibitory concentration against Src kinase
66077	CHEMBL78455	9.600000	0.250000	16501	2002	Inhibitory concentration against SH2 domain of human p60 Src tyrosine kinase
168412	CHEMBL198650	9.540000	0.290000	30175	2005	Inhibitory concentration against Src kinase
354741	CHEMBL421024	9.520000	0.300000	5759	2003	Inhibition of Src protein tyrosine kinase
329311	CHEMBL1421	9.520000	0.300000	91795	2015	Inhibition of human Src
167398	CHEMBL196889	9.510000	0.310000	30175	2005	Inhibitory concentration against Src kinase
435632	CHEMBL516062	9.500000	0.316200	71498	2013	Inhibition of c-Src kinase (unknown origin)
398834	CHEMBL474998	9.500000	0.316200	71498	2013	Inhibition of c-Src kinase (unknown origin)
314124	CHEMBL370633	9.480000	0.330000	30175	2005	Inhibitory concentration against Src kinase
20618285	CHEMBL3984621	9.370000	0.430000	101332	2016	Inhibition of human SRC by time-resolved fluorescence or time-resolved fluorescence assay
571943	CHEMBL1089405	9.350000	0.450000	99720	2016	Inhibition of 6x-His-tagged human Src kinase domain (T250 to L536 residues) expressed in Sf9 cells incubated for 2 hrs in presence of biotinylated cdc2 peptide substrate by homogenous TR-FRET assay
165081	CHEMBL195029	9.340000	0.460000	30175	2005	Inhibitory concentration against Src kinase
170046	CHEMBL198868	9.320000	0.480000	30175	2005	Inhibitory concentration against Src kinase
329311	CHEMBL1421	9.300000	0.500000	31833	2006	Inhibition of Src in presence of ATP
329311	CHEMBL1421	9.300000	0.500000	35313	2004	Inhibition of src kinase
367539	CHEMBL436486	9.260000	0.550000	30175	2005	Inhibitory concentration against Src kinase
151257	CHEMBL178787	9.220000	0.600000	20905	2005	Inhibition of human Src kinase
20522106	CHEMBL3823104	9.220000	0.600000	99696	2016	Inhibition of C-terminal His-tagged full length human SRC expressed in insect cells preincubated for 20 mins using poly[Glu,Tyr]4:1 as substrate measured after 5 to 120 mins in presence of [gamma-33P]ATP by Kinome assay
168174	CHEMBL197713	9.160000	0.690000	30175	2005	Inhibitory concentration against Src kinase
167430	CHEMBL197744	9.140000	0.720000	30175	2005	Inhibitory concentration against Src kinase
188168	CHEMBL219964	9.120000	0.750000	34796	2006	Inhibition of Src
187409	CHEMBL219557	9.110000	0.780000	34796	2006	Inhibition of Src
385156	CHEMBL459877	9.050000	0.890000	45110	2008	Inhibition of human Src kinase by TR-FRET assay
20166213	CHEMBL3426225	9.050000	0.900000	91795	2015	Inhibition of human Src
655715	CHEMBL385898	9.000000	1.000000	31529	2006	Inhibition of Src
602694	CHEMBL212143	9.000000	1.000000	31529	2006	Inhibition of Src
632008	CHEMBL442485	9.000000	1.000000	31529	2006	Inhibition of Src
334379	CHEMBL386760	9.000000	1.000000	31529	2006	Inhibition of Src
20164326	CHEMBL3425518	9.000000	1.000000	91795	2015	Inhibition of human Src
247044	CHEMBL288441	9.000000	1.000000	99322	2016	Inhibition of human SRC (1 to 530 residues) using GGEEEEYFELVKKKK as substrate after 40 mins by scintillation counting analysis in presence of [gamma-33P-ATP]
20522560	CHEMBL3823620	9.000000	1.000000	99696	2016	Inhibition of C-terminal His-tagged full length human SRC expressed in insect cells preincubated for 20 mins using poly[Glu,Tyr]4:1 as substrate measured after 5 to 120 mins in presence of [gamma-33P]ATP by Kinome assay
20522561	CHEMBL3824116	9.000000	1.000000	99696	2016	Inhibition of C-terminal His-tagged full length human SRC expressed in insect cells preincubated for 20 mins using poly[Glu,Tyr]4:1 as substrate measured after 5 to 120 mins in presence of [gamma-33P]ATP by Kinome assay
165666	CHEMBL194969	8.960000	1.100000	30175	2005	Inhibitory concentration against Src kinase
490952	CHEMBL566515	8.940000	1.140000	72364	2013	Inhibition of Src (unknown origin) using [gamma-33P]ATP after 30 mins by radiometric assay
247044	CHEMBL288441	8.920000	1.200000	30175	2005	Inhibitory concentration against Src kinase
166806	CHEMBL194352	8.920000	1.200000	30175	2005	Inhibitory concentration against Src kinase
247044	CHEMBL288441	8.920000	1.200000	42168	2008	Inhibition of human recombinant cSrc by ELISA
385451	CHEMBL460074	8.890000	1.290000	45110	2008	Inhibition of human Src kinase by TR-FRET assay
284517	CHEMBL335025	8.850000	1.400000	30175	2005	Inhibitory concentration against Src kinase
371436	CHEMBL451790	8.840000	1.430000	45110	2008	Inhibition of human Src kinase by TR-FRET assay
166632	CHEMBL196411	8.820000	1.500000	30175	2005	Inhibitory concentration against Src kinase
237893	CHEMBL276934	8.820000	1.500000	34796	2006	Inhibition of Src
555473	CHEMBL1087978	8.770000	1.700000	51097	2010	Inhibition of human recombinant Src after 70 mins by FRET assay
449705	CHEMBL528330	8.750000	1.780000	45110	2008	Inhibition of human Src kinase by TR-FRET assay
169075	CHEMBL198211	8.740000	1.800000	30175	2005	Inhibitory concentration against Src kinase
351106	CHEMBL419360	8.700000	2.000000	5759	2003	Inhibition of Src protein tyrosine kinase
303886	CHEMBL360914	8.700000	2.000000	20905	2005	Inhibition of human Src kinase
623934	CHEMBL427544	8.700000	2.000000	30175	2005	Inhibitory concentration against Src kinase
228017	CHEMBL264803	8.700000	2.000000	31529	2006	Inhibition of Src
184650	CHEMBL215730	8.700000	2.000000	31529	2006	Inhibition of Src
601610	CHEMBL211845	8.700000	2.000000	31529	2006	Inhibition of Src
322034	CHEMBL379080	8.700000	2.000000	31529	2006	Inhibition of Src
184764	CHEMBL215943	8.700000	2.000000	31708	2006	Inhibition of Src by HTRF kinase assay
20166205	CHEMBL3426217	8.700000	2.000000	91795	2015	Inhibition of human Src
20166210	CHEMBL3426222	8.700000	2.000000	91795	2015	Inhibition of human Src
20166207	CHEMBL3426219	8.700000	2.000000	91795	2015	Inhibition of human Src
20125847	CHEMBL3335371	8.700000	2.000000	93867	2015	Inhibition of SRC (unknown origin)
167789	CHEMBL198084	8.680000	2.100000	30175	2005	Inhibitory concentration against Src kinase
168789	CHEMBL197930	8.680000	2.100000	30175	2005	Inhibitory concentration against Src kinase
557448	CHEMBL1088240	8.680000	2.100000	51097	2010	Inhibition of human recombinant Src after 70 mins by FRET assay
674064	CHEMBL1087216	8.660000	2.200000	51097	2010	Inhibition of human recombinant Src after 70 mins by FRET assay
546421	CHEMBL1087215	8.660000	2.200000	51097	2010	Inhibition of human recombinant Src after 70 mins by FRET assay
622379	CHEMBL219014	8.640000	2.300000	34796	2006	Inhibition of Src
551466	CHEMBL1087340	8.620000	2.400000	51097	2010	Inhibition of human recombinant Src after 70 mins by FRET assay
316705	CHEMBL372552	8.600000	2.500000	30175	2005	Inhibitory concentration against Src kinase
625836	CHEMBL1088241	8.600000	2.500000	51097	2010	Inhibition of human recombinant Src after 70 mins by FRET assay
576729	CHEMBL1171837	8.600000	2.500000	104053	2017	Inhibition of recombinant c-Src (unknown origin) using poly (Glu,Tyr) 4:1 as substrate after 60 mins by ELISA
639601	CHEMBL197715	8.590000	2.600000	30175	2005	Inhibitory concentration against Src kinase
558252	CHEMBL1088372	8.590000	2.600000	51097	2010	Inhibition of human recombinant Src after 70 mins by FRET assay
615616	CHEMBL290921	8.570000	2.700000	17750	2004	Inhibition of recombinant human Src kinase
567667	CHEMBL217092	8.570000	2.700000	31836	2006	Inhibition of human c-Src in NIH3T3 cells
187172	CHEMBL219260	8.570000	2.700000	34796	2006	Inhibition of Src
183518	CHEMBL215847	8.520000	3.000000	31529	2006	Inhibition of Src
327627	CHEMBL379517	8.520000	3.000000	31608	2006	Inhibition of human recombinant Src in presence of 10 mM ATP
186580	CHEMBL217463	8.520000	3.000000	31836	2006	Inhibition of human c-Src in NIH3T3 cells
226376	CHEMBL260861	8.520000	3.000000	39024	2008	Inhibition of human cSrc
554093	CHEMBL1087834	8.520000	3.000000	51097	2010	Inhibition of human recombinant Src after 70 mins by FRET assay
20166208	CHEMBL3426220	8.520000	3.000000	91795	2015	Inhibition of human Src
576729	CHEMBL1171837	8.520000	3.000000	91795	2015	Inhibition of human Src
395553	CHEMBL473024	8.500000	3.162000	71498	2013	Inhibition of c-Src kinase (unknown origin)
20116700	CHEMBL3347388	8.470000	3.400000	85883	2012	Inhibition of Src kinase (unknown origin)
20525256	CHEMBL3823543	8.460000	3.500000	99696	2016	Inhibition of C-terminal His-tagged full length human SRC expressed in insect cells preincubated for 20 mins using poly[Glu,Tyr]4:1 as substrate measured after 5 to 120 mins in presence of [gamma-33P]ATP by Kinome assay
247044	CHEMBL288441	8.440000	3.600000	20905	2005	Inhibition of human Src kinase
373019	CHEMBL445319	8.440000	3.600000	31555	2006	Inhibition of human recombinant Src
180484	CHEMBL211647	8.440000	3.600000	31555	2006	Inhibition of human recombinant Src
615600	CHEMBL278495	8.440000	3.600000	34796	2006	Inhibition of Src
376761	CHEMBL454873	8.430000	3.740000	45110	2008	Inhibition of human Src kinase by TR-FRET assay
247044	CHEMBL288441	8.420000	3.800000	17750	2004	Inhibition of recombinant human Src kinase
247044	CHEMBL288441	8.420000	3.800000	30228	2005	Inhibitory concentration against Src kinase
247044	CHEMBL288441	8.420000	3.800000	30074	2005	Inhibitory activity against non-receptor tyrosine kinase Src in enzyme assay
259356	CHEMBL303786	8.420000	3.800000	34796	2006	Inhibition of Src
247044	CHEMBL288441	8.420000	3.800000	34796	2006	Inhibition of Src
247044	CHEMBL288441	8.420000	3.800000	51097	2010	Inhibition of human recombinant Src after 70 mins by FRET assay
36172722	CHEMBL4105329	8.410000	3.900000	104675	2017	Inhibition of recombinant c-Src (unknown origin) using poly (Glu,Tyr) 4:1 as substrate after 60 mins by ELISA
183504	CHEMBL214775	8.400000	4.000000	31529	2006	Inhibition of Src
182457	CHEMBL212721	8.400000	4.000000	31529	2006	Inhibition of Src
181799	CHEMBL211460	8.400000	4.000000	31529	2006	Inhibition of Src
186584	CHEMBL217464	8.400000	4.000000	31836	2006	Inhibition of human c-Src in NIH3T3 cells
376760	CHEMBL454872	8.400000	4.000000	45110	2008	Inhibition of human Src kinase by TR-FRET assay
1018741	CHEMBL1784637	8.400000	4.000000	57824	2011	Inhibition of human Src using poly[Glu:Tyr] by Hotspot assay
20166211	CHEMBL3426223	8.400000	4.000000	91795	2015	Inhibition of human Src
20166206	CHEMBL3426218	8.400000	4.000000	91795	2015	Inhibition of human Src
154432	CHEMBL181408	8.380000	4.200000	20905	2005	Inhibition of human Src kinase
262324	CHEMBL307087	8.380000	4.200000	20905	2005	Inhibition of human Src kinase
181866	CHEMBL211613	8.380000	4.200000	31555	2006	Inhibition of human recombinant Src
322074	CHEMBL378484	8.370000	4.300000	31555	2006	Inhibition of human recombinant Src
20621491	CHEMBL3981956	8.370000	4.300000	101332	2016	Inhibition of human SRC by time-resolved fluorescence or time-resolved fluorescence assay
182900	CHEMBL214308	8.350000	4.500000	31555	2006	Inhibition of human recombinant Src
152041	CHEMBL179882	8.330000	4.700000	20905	2005	Inhibition of human Src kinase
331503	CHEMBL388978	8.330000	4.700000	99644	2016	Inhibition of SRC (unknown origin) incubated for 1 hr by spectrophotometric analysis
553100	CHEMBL1088680	8.320000	4.800000	51097	2010	Inhibition of human recombinant Src after 70 mins by FRET assay
180273	CHEMBL211417	8.310000	4.900000	31555	2006	Inhibition of human recombinant Src
168329	CHEMBL197287	8.300000	5.000000	30423	2005	Inhibitory activity against c-Src kinase
358354	CHEMBL424664	8.300000	5.000000	30423	2005	Inhibitory activity against c-Src kinase
182548	CHEMBL215289	8.300000	5.000000	31529	2006	Inhibition of Src
606851	CHEMBL385723	8.300000	5.000000	31836	2006	Inhibition of human c-Src in NIH3T3 cells
640142	CHEMBL170984	8.300000	5.000000	31836	2006	Inhibition of human c-Src in NIH3T3 cells
364699	CHEMBL436968	8.300000	5.000000	31836	2006	Inhibition of human c-Src in NIH3T3 cells
271744	CHEMBL317821	8.300000	5.000000	34796	2006	Inhibition of Src
226581	CHEMBL261188	8.300000	5.000000	39024	2008	Inhibition of human cSrc
639505	CHEMBL260157	8.300000	5.000000	39024	2008	Inhibition of human cSrc
20166222	CHEMBL3426234	8.300000	5.000000	91795	2015	Inhibition of human Src
261843	CHEMBL306380	8.300000	5.000000	97683	2015	Inhibition of GST-tagged human recombinant c-src using biotinylated peptide as substrate preincubated for 5 mins followed by substrate addition measured after 30 mins by microplate reader analysis
184279	CHEMBL214346	8.280000	5.300000	31555	2006	Inhibition of human recombinant Src
179297	CHEMBL211079	8.280000	5.300000	31555	2006	Inhibition of human recombinant Src
553540	CHEMBL1088681	8.270000	5.400000	51097	2010	Inhibition of human recombinant Src after 70 mins by FRET assay
375532	CHEMBL454611	8.250000	5.560000	45110	2008	Inhibition of human Src kinase by TR-FRET assay
278130	CHEMBL327127	8.250000	5.680000	48306	2000	Inhibition of c-Src 
36139904	CHEMBL4062877	8.240000	5.700000	104675	2017	Inhibition of recombinant c-Src (unknown origin) using poly (Glu,Tyr) 4:1 as substrate after 60 mins by ELISA
357882	CHEMBL424839	8.220000	6.000000	30423	2005	Inhibitory activity against c-Src kinase
182572	CHEMBL213100	8.220000	6.000000	31529	2006	Inhibition of Src
180936	CHEMBL212668	8.220000	6.000000	31529	2006	Inhibition of Src
183651	CHEMBL216105	8.220000	6.000000	31836	2006	Inhibition of human c-Src in NIH3T3 cells
325667	CHEMBL385563	8.220000	6.000000	31836	2006	Inhibition of human c-Src in NIH3T3 cells
187824	CHEMBL218549	8.220000	6.000000	34878	2006	Inhibition of human recombinant Src kinase
36159202	CHEMBL4075917	8.220000	6.000000	104675	2017	Inhibition of recombinant c-Src (unknown origin) using poly (Glu,Tyr) 4:1 as substrate after 60 mins by ELISA
366341	CHEMBL436137	8.190000	6.400000	35926	2007	Inhibition of Src
365868	CHEMBL437004	8.190000	6.400000	35926	2007	Inhibition of Src
36132833	CHEMBL4067871	8.190000	6.400000	104675	2017	Inhibition of recombinant c-Src (unknown origin) using poly (Glu,Tyr) 4:1 as substrate after 60 mins by ELISA
440837	CHEMBL520540	8.180000	6.580000	45110	2008	Inhibition of human Src kinase by TR-FRET assay
151173	CHEMBL180051	8.180000	6.600000	20905	2005	Inhibition of human Src kinase
546035	CHEMBL1087212	8.170000	6.800000	51097	2010	Inhibition of human recombinant Src after 70 mins by FRET assay
34906	CHEMBL42136	8.150000	7.000000	17750	2004	Inhibition of recombinant human Src kinase
315905	CHEMBL371688	8.150000	7.000000	30423	2005	Inhibitory activity against c-Src kinase
317302	CHEMBL369899	8.150000	7.000000	30423	2005	Inhibitory activity against c-Src kinase
325850	CHEMBL379733	8.150000	7.000000	31529	2006	Inhibition of Src
624609	CHEMBL213762	8.150000	7.000000	31836	2006	Inhibition of human c-Src in NIH3T3 cells
366341	CHEMBL436137	8.150000	7.000000	34878	2006	Inhibition of human recombinant Src kinase
366341	CHEMBL436137	8.150000	7.000000	35926	2007	Inhibition of Src
20166212	CHEMBL3426224	8.150000	7.000000	91795	2015	Inhibition of human Src
20166217	CHEMBL3426229	8.150000	7.000000	91795	2015	Inhibition of human Src
20166218	CHEMBL3426230	8.150000	7.000000	91795	2015	Inhibition of human Src
165708	CHEMBL194664	8.140000	7.200000	30074	2005	Inhibitory activity against non-receptor tyrosine kinase Src in enzyme assay
635197	CHEMBL415625	8.120000	7.500000	34796	2006	Inhibition of Src
32935	CHEMBL41465	8.110000	7.700000	17750	2004	Inhibition of recombinant human Src kinase
398042	CHEMBL475156	8.100000	7.943000	71498	2013	Inhibition of c-Src kinase (unknown origin)
169120	CHEMBL199110	8.100000	8.000000	30423	2005	Inhibitory activity against c-Src kinase
346073	CHEMBL406418	8.100000	8.000000	39024	2008	Inhibition of human cSrc
20166216	CHEMBL3426228	8.100000	8.000000	91795	2015	Inhibition of human Src
417031	CHEMBL488840	8.080000	8.310000	45110	2008	Inhibition of human Src kinase by TR-FRET assay
89785	CHEMBL106772	8.080000	8.350000	48306	2000	Inhibition of c-Src 
569816	CHEMBL1088679	8.060000	8.700000	51097	2010	Inhibition of human recombinant Src after 70 mins by FRET assay
32399	CHEMBL40557	8.050000	9.000000	17750	2004	Inhibition of recombinant human Src kinase
19672	CHEMBL25826	8.050000	9.000000	16501	2002	Inhibitory concentration against SH2 domain of human p60 Src tyrosine kinase
181666	CHEMBL212629	8.050000	9.000000	31555	2006	Inhibition of human recombinant Src
190147	CHEMBL221742	8.050000	9.000000	34878	2006	Inhibition of human recombinant Src kinase
198535	CHEMBL231218	8.050000	9.000000	35926	2007	Inhibition of Src
226051	CHEMBL261743	8.050000	9.000000	39024	2008	Inhibition of human cSrc
20166214	CHEMBL3426226	8.050000	9.000000	91795	2015	Inhibition of human Src
501184	CHEMBL573820	8.040000	9.030000	48306	2000	Inhibition of c-Src 
501989	CHEMBL576218	8.040000	9.200000	49064	2009	Inhibition of human recombinant Src
427030	CHEMBL499623	8.030000	9.230000	42168	2008	Inhibition of human recombinant cSrc by ELISA
186008	CHEMBL217091	8.020000	9.500000	31836	2006	Inhibition of human c-Src in NIH3T3 cells
20116627	CHEMBL3347468	8.020000	9.500000	85883	2012	Inhibition of Src kinase (unknown origin)
331503	CHEMBL388978	8.010000	9.700000	93726	2015	Inhibition of human Src kinase by kinase inhibition assay
57523	CHEMBL69230	8.000000	9.900000	20905	2005	Inhibition of human Src kinase
181060	CHEMBL212818	8.000000	9.900000	31555	2006	Inhibition of human recombinant Src
299578	CHEMBL352992	8.000000	10.000000	17686	2004	Inhibition of human src-tyrosine kinase
304670	CHEMBL360499	8.000000	10.000000	20905	2005	Inhibition of human Src kinase
170979	CHEMBL200217	8.000000	10.000000	30423	2005	Inhibitory activity against c-Src kinase
169979	CHEMBL198701	8.000000	10.000000	30423	2005	Inhibitory activity against c-Src kinase
362808	CHEMBL427047	8.000000	10.000000	31529	2006	Inhibition of Src
183351	CHEMBL214665	8.000000	10.000000	31836	2006	Inhibition of human c-Src in NIH3T3 cells
364034	CHEMBL426161	8.000000	10.000000	31836	2006	Inhibition of human c-Src in NIH3T3 cells
185649	CHEMBL218102	8.000000	10.000000	34878	2006	Inhibition of human recombinant Src kinase
187841	CHEMBL218656	8.000000	10.000000	34878	2006	Inhibition of human recombinant Src kinase
612389	CHEMBL230830	8.000000	10.000000	35926	2007	Inhibition of Src
198683	CHEMBL231237	8.000000	10.000000	35926	2007	Inhibition of Src
185649	CHEMBL218102	8.000000	10.000000	35926	2007	Inhibition of Src
198174	CHEMBL230829	8.000000	10.000000	35926	2007	Inhibition of Src
187841	CHEMBL218656	8.000000	10.000000	35926	2007	Inhibition of Src
438372	CHEMBL515751	8.000000	10.000000	71498	2013	Inhibition of c-Src kinase (unknown origin)
149678	CHEMBL176702	8.000000	10.000000	71498	2013	Inhibition of c-Src kinase (unknown origin)
36162003	CHEMBL4091628	7.970000	10.800000	104053	2017	Inhibition of recombinant c-Src (unknown origin) using poly (Glu,Tyr) 4:1 as substrate after 60 mins by ELISA
314581	CHEMBL369339	7.960000	11.000000	20905	2005	Inhibition of human Src kinase
185219	CHEMBL216599	7.960000	11.000000	34796	2006	Inhibition of Src
194973	CHEMBL227906	7.960000	11.000000	35527	2007	Inhibition of cSrc by coupled spectrophotometric enzyme assay
198087	CHEMBL230816	7.960000	11.000000	35926	2007	Inhibition of Src
197520	CHEMBL230686	7.960000	11.000000	35926	2007	Inhibition of Src
20166223	CHEMBL3426235	7.960000	11.000000	91795	2015	Inhibition of human Src
20577452	CHEMBL3956001	7.960000	11.000000	101332	2016	Inhibition of human SRC by time-resolved fluorescence or time-resolved fluorescence assay
248069	CHEMBL290664	7.920000	12.000000	17750	2004	Inhibition of recombinant human Src kinase
55385	CHEMBL67259	7.920000	12.000000	20905	2005	Inhibition of human Src kinase
184351	CHEMBL215411	7.920000	12.000000	31529	2006	Inhibition of Src
325613	CHEMBL387641	7.920000	12.000000	35527	2007	Inhibition of cSrc by coupled spectrophotometric enzyme assay
197116	CHEMBL230272	7.920000	12.000000	35926	2007	Inhibition of Src
331113	CHEMBL395984	7.920000	12.000000	35926	2007	Inhibition of Src
226371	CHEMBL260860	7.920000	12.000000	39024	2008	Inhibition of human cSrc
20116609	CHEMBL3347452	7.920000	12.000000	85883	2012	Inhibition of Src kinase (unknown origin)
20166220	CHEMBL3426232	7.920000	12.000000	91795	2015	Inhibition of human Src
39457	CHEMBL47787	7.900000	12.500000	4891	2002	Inhibition of human src kinase.
32998	CHEMBL41633	7.890000	13.000000	17750	2004	Inhibition of recombinant human Src kinase
39457	CHEMBL47787	7.890000	13.000000	6348	2004	Inhibition of Src protein tyrosine kinase activity with 1 mM ATP and biotinylated lck peptide
166534	CHEMBL196474	7.890000	13.000000	30175	2005	Inhibitory concentration against Src kinase
168065	CHEMBL197094	7.890000	13.000000	30074	2005	Inhibitory activity against non-receptor tyrosine kinase Src in enzyme assay
164131	CHEMBL193452	7.890000	13.000000	30074	2005	Inhibitory activity against non-receptor tyrosine kinase Src in enzyme assay
317310	CHEMBL373101	7.890000	13.000000	30074	2005	Inhibitory activity against non-receptor tyrosine kinase Src in enzyme assay
305595	CHEMBL364955	7.890000	13.000000	30074	2005	Inhibitory activity against non-receptor tyrosine kinase Src in enzyme assay
228913	CHEMBL263769	7.890000	13.000000	31529	2006	Inhibition of Src
187037	CHEMBL219085	7.890000	13.000000	34796	2006	Inhibition of Src
322464	CHEMBL375844	7.890000	13.000000	35315	2004	Inhibition of Src kinase
189737	CHEMBL223873	7.890000	13.000000	35527	2007	Inhibition of cSrc by coupled spectrophotometric enzyme assay
612286	CHEMBL230720	7.890000	13.000000	35926	2007	Inhibition of Src
198537	CHEMBL231220	7.890000	13.000000	35926	2007	Inhibition of Src
339974	CHEMBL397692	7.890000	13.000000	35926	2007	Inhibition of Src
314397	CHEMBL370693	7.850000	14.000000	30074	2005	Inhibitory activity against non-receptor tyrosine kinase Src in enzyme assay
320885	CHEMBL377481	7.850000	14.000000	31529	2006	Inhibition of Src
198600	CHEMBL231219	7.850000	14.000000	35926	2007	Inhibition of Src
197736	CHEMBL231251	7.850000	14.000000	35926	2007	Inhibition of Src
565501	CHEMBL1081312	7.850000	14.000000	81902	2012	Inhibition of Src (unknown origin)
168973	CHEMBL199016	7.820000	15.000000	30423	2005	Inhibitory activity against c-Src kinase
170040	CHEMBL198946	7.820000	15.000000	30423	2005	Inhibitory activity against c-Src kinase
182034	CHEMBL213988	7.820000	15.000000	31555	2006	Inhibition of human recombinant Src
185159	CHEMBL216369	7.820000	15.000000	31836	2006	Inhibition of human c-Src in NIH3T3 cells
194731	CHEMBL227699	7.820000	15.000000	35527	2007	Inhibition of cSrc by coupled spectrophotometric enzyme assay
334562	CHEMBL389031	7.820000	15.000000	35527	2007	Inhibition of cSrc by coupled spectrophotometric enzyme assay
198627	CHEMBL230999	7.820000	15.000000	35926	2007	Inhibition of Src
197239	CHEMBL230719	7.820000	15.000000	35926	2007	Inhibition of Src
565602	CHEMBL1088121	7.820000	15.000000	51097	2010	Inhibition of human recombinant Src after 70 mins by FRET assay
629396	CHEMBL1230790	7.820000	15.000000	81902	2012	Inhibition of Src (unknown origin)
20166221	CHEMBL3426233	7.820000	15.000000	91795	2015	Inhibition of human Src
447436	CHEMBL526547	7.810000	15.400000	42168	2008	Inhibition of human recombinant cSrc by ELISA
258252	CHEMBL301612	7.800000	16.000000	5759	2003	Inhibition of Src protein tyrosine kinase
306686	CHEMBL360937	7.800000	16.000000	20905	2005	Inhibition of human Src kinase
601558	CHEMBL231235	7.800000	16.000000	35926	2007	Inhibition of Src
501360	CHEMBL578006	7.790000	16.300000	48306	2000	Inhibition of c-Src 
635458	CHEMBL574058	7.770000	16.800000	48306	2000	Inhibition of c-Src 
155266	CHEMBL182201	7.770000	17.000000	20905	2005	Inhibition of human Src kinase
326227	CHEMBL386661	7.770000	17.000000	31708	2006	Inhibition of Src by HTRF kinase assay
375504	CHEMBL452563	7.770000	17.000000	45110	2008	Inhibition of human Src kinase by TR-FRET assay
20399679	CHEMBL3604937	7.770000	17.000000	93183	2015	Inhibition of cSrc T338M/S345C mutant (unknown origin) pre-incubated for 30 mins before substrate and ATP addition by HTRF assay
261843	CHEMBL306380	7.770000	17.000000	99696	2016	Inhibition of C-terminal His-tagged full length human SRC expressed in insect cells preincubated for 20 mins using poly[Glu,Tyr]4:1 as substrate measured after 5 to 120 mins in presence of [gamma-33P]ATP by Kinome assay
183990	CHEMBL214035	7.740000	18.000000	31555	2006	Inhibition of human recombinant Src
198165	CHEMBL230820	7.740000	18.000000	35926	2007	Inhibition of Src
500306	CHEMBL566635	7.740000	18.000000	49064	2009	Inhibition of human recombinant Src
556270	CHEMBL1088120	7.740000	18.000000	51097	2010	Inhibition of human recombinant Src after 70 mins by FRET assay
360718	CHEMBL426953	7.720000	19.000000	20905	2005	Inhibition of human Src kinase
330342	CHEMBL389422	7.720000	19.000000	35527	2007	Inhibition of cSrc by coupled spectrophotometric enzyme assay
192752	CHEMBL226613	7.720000	19.000000	35527	2007	Inhibition of cSrc by coupled spectrophotometric enzyme assay
20166215	CHEMBL3426227	7.720000	19.000000	91795	2015	Inhibition of human Src
401475	CHEMBL475584	7.700000	19.950000	71498	2013	Inhibition of c-Src kinase (unknown origin)
399883	CHEMBL474657	7.700000	19.950000	71498	2013	Inhibition of c-Src kinase (unknown origin)
397518	CHEMBL470925	7.700000	19.950000	71498	2013	Inhibition of c-Src kinase (unknown origin)
397110	CHEMBL473155	7.700000	19.950000	71498	2013	Inhibition of c-Src kinase (unknown origin)
396205	CHEMBL474656	7.700000	19.950000	71498	2013	Inhibition of c-Src kinase (unknown origin)
316564	CHEMBL367442	7.700000	19.950000	71498	2013	Inhibition of c-Src kinase (unknown origin)
148411	CHEMBL175409	7.700000	19.950000	71498	2013	Inhibition of c-Src kinase (unknown origin)
357013	CHEMBL425209	7.700000	20.000000	30423	2005	Inhibitory activity against c-Src kinase
170979	CHEMBL200217	7.700000	20.000000	31836	2006	Inhibition of human c-Src in NIH3T3 cells
185058	CHEMBL217493	7.700000	20.000000	31836	2006	Inhibition of human c-Src in NIH3T3 cells
330159	CHEMBL386996	7.700000	20.000000	31836	2006	Inhibition of human c-Src in NIH3T3 cells
193860	CHEMBL227753	7.700000	20.000000	35527	2007	Inhibition of cSrc by coupled spectrophotometric enzyme assay
193860	CHEMBL534948	7.700000	20.000000	35527	2007	Inhibition of cSrc by coupled spectrophotometric enzyme assay
339973	CHEMBL397691	7.700000	20.000000	35926	2007	Inhibition of Src
34017	CHEMBL43577	7.680000	21.000000	17750	2004	Inhibition of recombinant human Src kinase
153882	CHEMBL181405	7.680000	21.000000	20905	2005	Inhibition of human Src kinase
165445	CHEMBL193392	7.680000	21.000000	30074	2005	Inhibitory activity against non-receptor tyrosine kinase Src in enzyme assay
189704	CHEMBL221236	7.680000	21.000000	34878	2006	Inhibition of human recombinant Src kinase
189733	CHEMBL222548	7.680000	21.000000	35315	2004	Inhibition of Src kinase
197373	CHEMBL230614	7.680000	21.000000	35926	2007	Inhibition of Src
653030	CHEMBL390479	7.680000	21.000000	35926	2007	Inhibition of Src
20166209	CHEMBL3426221	7.680000	21.000000	91795	2015	Inhibition of human Src
20523889	CHEMBL3823451	7.680000	21.000000	99696	2016	Inhibition of C-terminal His-tagged full length human SRC expressed in insect cells preincubated for 20 mins using poly[Glu,Tyr]4:1 as substrate measured after 5 to 120 mins in presence of [gamma-33P]ATP by Kinome assay
329316	CHEMBL379431	7.660000	22.000000	31555	2006	Inhibition of human recombinant Src
85458	CHEMBL101917	7.640000	23.000000	16324	2001	Inhibition of Src Kinase at 0.1 mM ATP
333294	CHEMBL389451	7.640000	23.000000	35527	2007	Inhibition of cSrc by coupled spectrophotometric enzyme assay
249029	CHEMBL290308	7.620000	24.000000	17750	2004	Inhibition of recombinant human Src kinase
329101	CHEMBL386051	7.610000	24.500000	48306	2000	Inhibition of c-Src 
162959	CHEMBL192652	7.600000	25.000000	30074	2005	Inhibitory activity against non-receptor tyrosine kinase Src in enzyme assay
197730	CHEMBL231316	7.600000	25.000000	35926	2007	Inhibition of Src
226052	CHEMBL261744	7.600000	25.000000	39024	2008	Inhibition of human cSrc
188040	CHEMBL220931	7.590000	26.000000	34878	2006	Inhibition of human recombinant Src kinase
347970	CHEMBL416091	7.570000	27.000000	4891	2002	Inhibition of human src kinase.
20523320	CHEMBL3823861	7.570000	27.000000	99696	2016	Inhibition of C-terminal His-tagged full length human SRC expressed in insect cells preincubated for 20 mins using poly[Glu,Tyr]4:1 as substrate measured after 5 to 120 mins in presence of [gamma-33P]ATP by Kinome assay
20114086	CHEMBL3310054	7.560000	27.300000	90148	2014	Inhibition of c-Src (unknown origin)
20399663	CHEMBL3604921	7.550000	28.000000	93183	2015	Inhibition of cSrc T338M/S345C mutant (unknown origin) pre-incubated for 30 mins before substrate and ATP addition by HTRF assay
180648	CHEMBL211191	7.540000	29.000000	31555	2006	Inhibition of human recombinant Src
20120789	CHEMBL3347637	7.540000	29.000000	85883	2012	Inhibition of Src kinase (unknown origin)
325190	CHEMBL385240	7.520000	30.000000	31836	2006	Inhibition of human c-Src in NIH3T3 cells
197049	CHEMBL230271	7.520000	30.000000	35926	2007	Inhibition of Src
515712	CHEMBL585666	7.520000	30.000000	49064	2009	Inhibition of human recombinant Src
20166213	CHEMBL3426225	7.520000	30.000000	91795	2015	Inhibition of human Src T341M mutant
20166213	CHEMBL3426225	7.520000	30.000000	91795	2015	Inhibition of Src phosphorylation in human MDA-MB-231 cells after 20 hrs by Western blot analysis
20587030	CHEMBL3947281	7.510000	31.000000	101332	2016	Inhibition of human SRC by time-resolved fluorescence or time-resolved fluorescence assay
357308	CHEMBL424375	7.500000	31.620000	71498	2013	Inhibition of c-Src kinase (unknown origin)
88222	CHEMBL105436	7.500000	31.620000	71498	2013	Inhibition of c-Src kinase (unknown origin)
146861	CHEMBL173453	7.500000	31.620000	71498	2013	Inhibition of c-Src kinase (unknown origin)
410724	CHEMBL488658	7.500000	31.800000	45110	2008	Inhibition of human Src kinase by TR-FRET assay
368811	CHEMBL434578	7.490000	32.000000	34878	2006	Inhibition of human recombinant Src kinase
1330378	CHEMBL2419760	7.490000	32.000000	74644	2013	Inhibition of Src (unknown origin)
1330378	CHEMBL3040861	7.490000	32.000000	84059	2014	Inhibition of Src (unknown origin) assessed as incorporation of [32P] gamma-ATP in to myelin basic protein after 30 mins by autoradiographic analysis
197525	CHEMBL230613	7.480000	33.000000	35926	2007	Inhibition of Src
66276	CHEMBL81073	7.470000	34.000000	3971	2000	Inhibition of Src kinase at 100 nM ATP
304799	CHEMBL361205	7.470000	34.000000	20905	2005	Inhibition of human Src kinase
363430	CHEMBL426990	7.470000	34.000000	35315	2004	Inhibition of Src kinase
624686	CHEMBL440847	7.460000	35.000000	17750	2004	Inhibition of recombinant human Src kinase
617402	CHEMBL44577	7.460000	35.000000	4891	2002	Inhibition of Src protein tyrosine kinase
168275	CHEMBL197339	7.460000	35.000000	30423	2005	Inhibitory activity against c-Src kinase
232445	CHEMBL268825	7.460000	35.000000	35926	2007	Inhibition of Src
492110	CHEMBL565366	7.460000	35.000000	49064	2009	Inhibition of human recombinant Src
188035	CHEMBL220929	7.440000	36.000000	34878	2006	Inhibition of human recombinant Src kinase
197235	CHEMBL230718	7.440000	36.000000	35926	2007	Inhibition of Src
500307	CHEMBL566636	7.440000	36.000000	49064	2009	Inhibition of human recombinant Src
306104	CHEMBL359464	7.430000	37.000000	20905	2005	Inhibition of human Src kinase
193857	CHEMBL227836	7.430000	37.000000	35527	2007	Inhibition of cSrc by coupled spectrophotometric enzyme assay
1133308	CHEMBL2010872	7.430000	37.000000	61436	2012	Inhibition of human cSrc using ATP as substrate
328221	CHEMBL388859	7.420000	38.000000	35527	2007	Inhibition of cSrc by coupled spectrophotometric enzyme assay
500968	CHEMBL577269	7.420000	38.000000	49064	2009	Inhibition of human recombinant Src
498563	CHEMBL567068	7.420000	38.000000	49064	2009	Inhibition of human recombinant Src
340190	CHEMBL397936	7.410000	39.000000	35926	2007	Inhibition of Src
400895	CHEMBL475355	7.400000	39.810000	71498	2013	Inhibition of c-Src kinase (unknown origin)
398916	CHEMBL470746	7.400000	39.810000	71498	2013	Inhibition of c-Src kinase (unknown origin)
1350209	CHEMBL2441273	7.400000	39.810000	75260	2013	Inhibition of Src (unknown origin)
353359	CHEMBL419082	7.400000	40.000000	3891	2000	Inhibition of src at 5 mM ATP
321388	CHEMBL381206	7.400000	40.000000	30423	2005	Inhibitory activity against c-Src kinase
321388	CHEMBL381206	7.400000	40.000000	31836	2006	Inhibition of human c-Src in NIH3T3 cells
182270	CHEMBL214893	7.400000	40.000000	31836	2006	Inhibition of human c-Src in NIH3T3 cells
189993	CHEMBL221582	7.400000	40.000000	34878	2006	Inhibition of human recombinant Src kinase
314668	CHEMBL375433	7.400000	40.000000	34878	2006	Inhibition of human recombinant Src kinase
197374	CHEMBL230615	7.400000	40.000000	35926	2007	Inhibition of Src
331503	CHEMBL388978	7.400000	40.000000	76491	2014	Inhibition of SRC (unknown origin)
20515103	CHEMBL3808884	7.400000	40.000000	99340	2016	Inhibition of full length His-tagged human recombinant cSRC expressed in baculovirus using Fluorescein-Poly GT as substrate
186129	CHEMBL218386	7.390000	41.000000	34878	2006	Inhibition of human recombinant Src kinase
345443	CHEMBL405893	7.390000	41.000000	39024	2008	Inhibition of human cSrc
556271	CHEMBL1088122	7.390000	41.000000	51097	2010	Inhibition of human recombinant Src after 70 mins by FRET assay
1164077	CHEMBL2070062	7.390000	41.000000	62937	2012	Inhibition of human SRC using Ac-EIYGEFKKK-OH as substrate after 60 mins by phosphor imaging method
37584	CHEMBL47203	7.380000	42.000000	4890	2002	Inhibition of Src protein tyrosine kinase
35814	CHEMBL45177	7.380000	42.000000	4891	2002	Inhibition of Src protein tyrosine kinase
352587	CHEMBL420549	7.380000	42.000000	20905	2005	Inhibition of human Src kinase
195841	CHEMBL228091	7.380000	42.000000	35527	2007	Inhibition of cSrc by coupled spectrophotometric enzyme assay
191116	CHEMBL223912	7.380000	42.000000	35527	2007	Inhibition of cSrc by coupled spectrophotometric enzyme assay
34177	CHEMBL43773	7.370000	43.000000	4891	2002	Inhibition of human src kinase.
275241	CHEMBL321193	7.370000	43.000000	49064	2009	Inhibition of human recombinant Src
278130	CHEMBL327127	7.370000	43.000000	49064	2009	Inhibition of human recombinant Src
494631	CHEMBL566850	7.370000	43.000000	49064	2009	Inhibition of human recombinant Src
20388943	CHEMBL1232944	7.370000	43.000000	93183	2015	Inhibition of cSrc T338M/S345C mutant (unknown origin) pre-incubated for 30 mins before substrate and ATP addition by HTRF assay
19223	CHEMBL24828	7.360000	44.000000	84059	2014	Inhibition of Src (unknown origin) assessed as incorporation of [32P] gamma-ATP in to myelin basic protein after 30 mins by autoradiographic analysis
153458	CHEMBL181639	7.340000	46.000000	20905	2005	Inhibition of human Src kinase
1226995	CHEMBL2333602	7.340000	46.000000	72364	2013	Inhibition of Src (unknown origin) using [gamma-33P]ATP after 30 mins by radiometric assay
55529	CHEMBL67445	7.330000	47.000000	20905	2005	Inhibition of human Src kinase
165861	CHEMBL194674	7.330000	47.000000	30074	2005	Inhibitory activity against non-receptor tyrosine kinase Src in enzyme assay
264963	CHEMBL307982	7.320000	48.000000	3891	2000	Inhibition of src at 5 mM ATP
20399334	CHEMBL3604910	7.320000	48.000000	93183	2015	Inhibition of cSrc T338M/S345C mutant (unknown origin) pre-incubated for 30 mins before substrate and ATP addition by HTRF assay
358593	CHEMBL425371	7.300000	50.000000	35315	2004	Inhibition of Src kinase
434228	CHEMBL511320	7.300000	50.120000	71498	2013	Inhibition of c-Src kinase (unknown origin)
145139	CHEMBL172973	7.300000	50.120000	71498	2013	Inhibition of c-Src kinase (unknown origin)
164261	CHEMBL193695	7.290000	51.000000	30074	2005	Inhibitory activity against non-receptor tyrosine kinase Src in enzyme assay
197638	CHEMBL231524	7.290000	51.000000	35926	2007	Inhibition of Src
20120796	CHEMBL3347601	7.290000	51.000000	85883	2012	Inhibition of Src kinase (unknown origin)
318044	CHEMBL370371	7.280000	52.000000	30074	2005	Inhibitory activity against non-receptor tyrosine kinase Src in enzyme assay
323939	CHEMBL374376	7.280000	52.000000	35527	2007	Inhibition of cSrc by coupled spectrophotometric enzyme assay
20155083	CHEMBL3392166	7.280000	52.000000	35527	2007	Inhibition of cSrc by coupled spectrophotometric enzyme assay
20120790	CHEMBL3347638	7.270000	54.000000	85883	2012	Inhibition of Src kinase (unknown origin)
183444	CHEMBL215682	7.260000	55.000000	31836	2006	Inhibition of human c-Src in NIH3T3 cells
457416	CHEMBL534947	7.260000	55.000000	35527	2007	Inhibition of cSrc by coupled spectrophotometric enzyme assay
36159524	CHEMBL4076024	7.260000	55.000000	106101	2017	Inhibition of SRC (unknown origin)
363919	CHEMBL431609	7.250000	56.000000	6348	2004	Inhibition of Src protein tyrosine kinase activity with 1 mM ATP and biotinylated lck peptide
313923	CHEMBL372178	7.250000	56.000000	30074	2005	Inhibitory activity against non-receptor tyrosine kinase Src in enzyme assay
34177	CHEMBL43773	7.240000	57.000000	6348	2004	Inhibition of Src protein tyrosine kinase activity with 1 mM ATP and biotinylated lck peptide
194075	CHEMBL226773	7.230000	59.000000	35527	2007	Inhibition of cSrc by coupled spectrophotometric enzyme assay
20166227	CHEMBL3426239	7.230000	59.000000	91795	2015	Inhibition of human Src
20399334	CHEMBL3604910	7.220000	60.000000	93183	2015	Inhibition of cSrc T338M mutant (unknown origin) pre-incubated for 30 mins before substrate and ATP addition by HTRF assay
661385	CHEMBL567875	7.210000	61.000000	48813	2009	Inhibition of human Src expressed in rat fibroblasts assessed as anchorage independent growth after 3 days
32683	CHEMBL40912	7.200000	63.000000	17750	2004	Inhibition of recombinant human Src kinase
145969	CHEMBL173478	7.200000	63.100000	71498	2013	Inhibition of c-Src kinase (unknown origin)
150050	CHEMBL176815	7.200000	63.100000	71498	2013	Inhibition of c-Src kinase (unknown origin)
38649	CHEMBL46785	7.190000	65.000000	4891	2002	Inhibition of human src kinase.
182413	CHEMBL214894	7.190000	65.000000	31836	2006	Inhibition of human c-Src in NIH3T3 cells
403957	CHEMBL2069956	7.190000	65.000000	62937	2012	Inhibition of human SRC using Ac-EIYGEFKKK-OH as substrate after 60 mins by phosphor imaging method
20388943	CHEMBL1232944	7.190000	65.000000	93183	2015	Inhibition of cSrc T338M mutant (unknown origin) pre-incubated for 30 mins before substrate and ATP addition by HTRF assay
499968	CHEMBL566834	7.180000	66.000000	49064	2009	Inhibition of human recombinant Src
504152	CHEMBL574059	7.180000	66.300000	48306	2000	Inhibition of c-Src 
199090	CHEMBL231338	7.170000	67.000000	35926	2007	Inhibition of Src
20408969	CHEMBL3586447	7.170000	67.000000	92596	2015	Inhibition of human recombinant Src
38090	CHEMBL45582	7.170000	68.000000	4891	2002	Inhibition of Src protein tyrosine kinase
224979	CHEMBL259200	7.170000	68.000000	39024	2008	Inhibition of human cSrc
268768	CHEMBL314627	7.150000	70.000000	6348	2004	Inhibition of Src protein tyrosine kinase activity with 1 mM ATP and biotinylated lck peptide
39353	CHEMBL47940	7.150000	70.000000	3891	2000	Inhibition of src at 5 mM ATP
1223981	CHEMBL2333603	7.150000	71.000000	72364	2013	Inhibition of Src (unknown origin) using [gamma-33P]ATP after 30 mins by radiometric assay
20526020	CHEMBL3824228	7.150000	71.000000	99696	2016	Inhibition of C-terminal His-tagged full length human SRC expressed in insect cells preincubated for 20 mins using poly[Glu,Tyr]4:1 as substrate measured after 5 to 120 mins in presence of [gamma-33P]ATP by Kinome assay
648853	CHEMBL230509	7.140000	72.000000	35926	2007	Inhibition of Src
330151	CHEMBL387093	7.120000	75.000000	31836	2006	Inhibition of human c-Src in NIH3T3 cells
20501175	CHEMBL3735648	7.120000	75.400000	99814	2016	Inhibition of recombinant human c-Src expressed in insect Sf9 cells using poly(Glu,Tyr)4:1 as substrate incubated for 60 mins by ELISA
439173	CHEMBL520160	7.120000	75.900000	42168	2008	Inhibition of human recombinant cSrc by ELISA
89496	CHEMBL106442	7.110000	77.000000	5759	2003	Inhibition of Src protein tyrosine kinase
36156129	CHEMBL4077588	7.110000	77.000000	106101	2017	Inhibition of SRC (unknown origin)
328548	CHEMBL385958	7.100000	80.000000	31836	2006	Inhibition of human c-Src in NIH3T3 cells
20166224	CHEMBL3426236	7.080000	83.000000	91795	2015	Inhibition of human Src
58622	CHEMBL69827	7.080000	84.000000	3891	2000	Inhibition of src at 5 mM ATP
188266	CHEMBL220348	7.080000	84.000000	34796	2006	Inhibition of Src
483440	CHEMBL559838	7.080000	84.000000	47381	2009	Inhibition of human Src kinase by TR-FRET assay
230908	CHEMBL266188	7.070000	85.000000	31836	2006	Inhibition of human c-Src in NIH3T3 cells
253538	CHEMBL296844	7.060000	87.000000	17750	2004	Inhibition of recombinant human Src kinase
57383	CHEMBL69129	7.060000	88.000000	3891	2000	Inhibition of src at 5 mM ATP
151973	CHEMBL179802	7.050000	89.000000	20905	2005	Inhibition of human Src kinase
20497614	CHEMBL3780219	7.050000	90.000000	98661	2016	Inhibition of full length recombinant human C-terminal His-tagged SRC expressed in Baculovirus expression system
197265	CHEMBL230508	7.040000	92.000000	35926	2007	Inhibition of Src
227479	CHEMBL261450	7.030000	93.000000	39024	2008	Inhibition of human cSrc
20558233	CHEMBL3923175	7.030000	93.000000	101529	2016	Inhibition of N-terminal His6-tagged recombinant human Src (1 to 530 residues) expressed in baculovirus infected sf21 cells
160738	CHEMBL189338	7.020000	96.000000	35527	2007	Inhibition of cSrc by coupled spectrophotometric enzyme assay
499947	CHEMBL566577	7.020000	96.000000	48813	2009	Inhibition of human Src expressed in rat fibroblasts assessed as anchorage independent growth after 3 days
362794	CHEMBL431407	7.010000	97.000000	6348	2004	Inhibition of Src protein tyrosine kinase activity with 1 mM ATP and biotinylated lck peptide
179198	CHEMBL209908	7.010000	98.000000	31529	2006	Inhibition of Src
329406	CHEMBL384031	7.000000	100.000000	31836	2006	Inhibition of human c-Src in NIH3T3 cells
229113	CHEMBL263947	7.000000	100.000000	31836	2006	Inhibition of human c-Src in NIH3T3 cells
226376	CHEMBL260861	7.000000	100.000000	39024	2008	Inhibition of human cSrc in COS7 cells by ELISA
346073	CHEMBL406418	7.000000	100.000000	39024	2008	Inhibition of human cSrc in COS7 cells by ELISA
226581	CHEMBL261188	7.000000	100.000000	39024	2008	Inhibition of human cSrc in COS7 cells by ELISA
247044	CHEMBL288441	7.000000	100.000000	48813	2009	Inhibition of human Src expressed in rat fibroblasts assessed as anchorage independent growth after 3 days
143713	CHEMBL169757	7.000000	100.000000	71498	2013	Inhibition of c-Src kinase (unknown origin)
274877	CHEMBL320417	7.000000	100.000000	71498	2013	Inhibition of c-Src kinase (unknown origin)
181773	CHEMBL213745	6.980000	104.000000	31608	2006	Inhibition of human recombinant Src in presence of 10 mM ATP
66276	CHEMBL81073	6.970000	108.000000	3971	2000	Inhibition of Src kinase at 500 nM ATP
316143	CHEMBL376555	6.970000	108.000000	35527	2007	Inhibition of cSrc by coupled spectrophotometric enzyme assay
183698	CHEMBL215087	6.960000	110.000000	31836	2006	Inhibition of human c-Src in NIH3T3 cells
189937	CHEMBL221431	6.960000	110.000000	34878	2006	Inhibition of human recombinant Src kinase
1225269	CHEMBL2333595	6.960000	110.000000	72364	2013	Inhibition of Src (unknown origin) using [gamma-33P]ATP after 30 mins by radiometric assay
1185951	CHEMBL2110732	6.960000	110.000000	101064	2016	Inhibition of Src (unknown origin)
424500	CHEMBL501458	6.950000	111.000000	42168	2008	Inhibition of human recombinant cSrc by ELISA
36139498	CHEMBL4060757	6.950000	112.000000	106101	2017	Inhibition of SRC (unknown origin)
20524241	CHEMBL3823255	6.940000	114.000000	99696	2016	Inhibition of C-terminal His-tagged full length human SRC expressed in insect cells preincubated for 20 mins using poly[Glu,Tyr]4:1 as substrate measured after 5 to 120 mins in presence of [gamma-33P]ATP by Kinome assay
253790	CHEMBL295528	6.940000	115.000000	4891	2002	Inhibition of human src kinase.
179431	CHEMBL208861	6.920000	120.000000	31555	2006	Inhibition of human recombinant Src
638157	CHEMBL2069957	6.920000	120.000000	62937	2012	Inhibition of human SRC using Ac-EIYGEFKKK-OH as substrate after 60 mins by phosphor imaging method
36137084	CHEMBL4062498	6.910000	123.000000	106101	2017	Inhibition of SRC (unknown origin)
401701	CHEMBL475413	6.900000	125.890000	71498	2013	Inhibition of c-Src kinase (unknown origin)
430260	CHEMBL510891	6.900000	126.000000	45110	2008	Inhibition of human Src kinase by TR-FRET assay
20526016	CHEMBL3823212	6.900000	126.000000	99696	2016	Inhibition of C-terminal His-tagged full length human SRC expressed in insect cells preincubated for 20 mins using poly[Glu,Tyr]4:1 as substrate measured after 5 to 120 mins in presence of [gamma-33P]ATP by Kinome assay
185963	CHEMBL218281	6.890000	128.000000	34878	2006	Inhibition of human recombinant Src kinase
85458	CHEMBL101917	6.890000	130.000000	16324	2001	Inhibition of Src Kinase at 1 mM ATP
368727	CHEMBL436961	6.890000	130.000000	14455	1998	Inhibition of c-Src tyrosine kinase against 100 uM cdc2 substrate
185599	CHEMBL217961	6.890000	130.000000	34878	2006	Inhibition of human recombinant Src kinase
190196	CHEMBL221975	6.890000	130.000000	34878	2006	Inhibition of human recombinant Src kinase
512731	CHEMBL585198	6.890000	130.000000	48813	2009	Inhibition of human Src expressed in rat fibroblasts assessed as anchorage independent growth after 3 days
514953	CHEMBL584054	6.890000	130.000000	48813	2009	Inhibition of human Src expressed in rat fibroblasts assessed as anchorage independent growth after 3 days
563755	CHEMBL1098363	6.890000	130.000000	51097	2010	Inhibition of human recombinant Src after 70 mins by FRET assay
1155057	CHEMBL2069938	6.890000	130.000000	62937	2012	Inhibition of human SRC using Ac-EIYGEFKKK-OH as substrate after 60 mins by phosphor imaging method
447519	CHEMBL526321	6.880000	133.000000	42168	2008	Inhibition of human recombinant cSrc by ELISA
379874	CHEMBL446951	6.860000	137.000000	34878	2006	Inhibition of human recombinant Src kinase
187720	CHEMBL218597	6.850000	140.000000	34878	2006	Inhibition of human recombinant Src kinase
188868	CHEMBL220798	6.850000	140.000000	34878	2006	Inhibition of human recombinant Src kinase
620737	CHEMBL444037	6.840000	143.000000	16501	2002	Inhibitory concentration against SH2 domain of human p60 Src tyrosine kinase
192130	CHEMBL224691	6.840000	145.000000	35527	2007	Inhibition of cSrc by coupled spectrophotometric enzyme assay
620511	CHEMBL306012	6.820000	150.000000	3891	2000	Inhibition of src at 5 mM ATP
329636	CHEMBL384260	6.820000	150.000000	31836	2006	Inhibition of human c-Src in NIH3T3 cells
489548	CHEMBL565801	6.820000	150.000000	49064	2009	Inhibition of human recombinant Src
253761	CHEMBL295601	6.810000	155.000000	4891	2002	Inhibition of human src kinase.
253761	CHEMBL295601	6.810000	155.000000	6348	2004	Inhibition of Src protein tyrosine kinase activity with 1 mM ATP and biotinylated lck peptide
36135969	CHEMBL4069365	6.810000	156.000000	104289	2016	Inhibition of SRC (unknown origin) after 60 mins by TR-FRET assay
400894	CHEMBL475354	6.800000	158.490000	71498	2013	Inhibition of c-Src kinase (unknown origin)
149685	CHEMBL176705	6.800000	158.490000	71498	2013	Inhibition of c-Src kinase (unknown origin)
365539	CHEMBL434369	6.790000	162.000000	34959	2006	Inhibition of human recombinant Src by ProFlour assay
20116608	CHEMBL3347451	6.770000	168.000000	85883	2012	Inhibition of Src kinase (unknown origin)
261843	CHEMBL306380	6.770000	170.000000	3891	2000	Inhibition of src at 5 mM ATP
512821	CHEMBL584915	6.770000	170.000000	48813	2009	Inhibition of human Src expressed in rat fibroblasts assessed as anchorage independent growth after 3 days
637794	CHEMBL1233881	6.770000	170.000000	81902	2012	Inhibition of Src (unknown origin)
20399663	CHEMBL3604921	6.770000	170.000000	93183	2015	Inhibition of cSrc T338M mutant (unknown origin) pre-incubated for 30 mins before substrate and ATP addition by HTRF assay
407380	CHEMBL484311	6.760000	172.000000	42168	2008	Inhibition of human recombinant cSrc by ELISA
224035	CHEMBL260114	6.760000	175.000000	39024	2008	Inhibition of human cSrc
429182	CHEMBL499120	6.750000	178.000000	42168	2008	Inhibition of human recombinant cSrc by ELISA
186835	CHEMBL218742	6.740000	180.000000	34878	2006	Inhibition of human recombinant Src kinase
1156248	CHEMBL2069944	6.740000	180.000000	62937	2012	Inhibition of human SRC using Ac-EIYGEFKKK-OH as substrate after 60 mins by phosphor imaging method
100965	CHEMBL120077	6.730000	185.000000	30310	2005	Inhibitory activity against c-SRC
19223	CHEMBL24828	6.730000	186.000000	16792	2002	In vitro inhibition of c-SRC kinase expressed in baculovirus
604419	CHEMBL499616	6.730000	186.000000	42168	2008	Inhibition of human recombinant cSrc by ELISA
255275	CHEMBL297363	6.720000	189.000000	4891	2002	Inhibition of human src kinase.
255275	CHEMBL297363	6.720000	189.000000	6348	2004	Inhibition of Src protein tyrosine kinase activity with 1 mM ATP and biotinylated lck peptide
66276	CHEMBL81073	6.720000	190.000000	3971	2000	Inhibition of Src kinase at 1000 nM ATP
20524240	CHEMBL3823711	6.710000	194.000000	99696	2016	Inhibition of C-terminal His-tagged full length human SRC expressed in insect cells preincubated for 20 mins using poly[Glu,Tyr]4:1 as substrate measured after 5 to 120 mins in presence of [gamma-33P]ATP by Kinome assay
36161239	CHEMBL4095253	6.710000	197.000000	106110	2017	Inhibition of recombinant human full length N-terminal His6-tagged SRC expressed in Sf21 insect cells preincubated for 5 mins followed by substrate addition after 30 to 60 mins in presence of ATP by fluorescence assay
380121	CHEMBL454868	6.700000	198.000000	45110	2008	Inhibition of human Src kinase by TR-FRET assay
149480	CHEMBL176309	6.700000	199.530000	71498	2013	Inhibition of c-Src kinase (unknown origin)
86594	CHEMBL102801	6.700000	200.000000	5759	2003	Inhibition of Src protein tyrosine kinase
376427	CHEMBL2069959	6.700000	200.000000	62937	2012	Inhibition of human SRC using Ac-EIYGEFKKK-OH as substrate after 60 mins by phosphor imaging method
1154141	CHEMBL2070054	6.700000	200.000000	62937	2012	Inhibition of human SRC using Ac-EIYGEFKKK-OH as substrate after 60 mins by phosphor imaging method
198247	CHEMBL230897	6.690000	204.000000	35926	2007	Inhibition of Src
198308	CHEMBL230898	6.680000	207.000000	35926	2007	Inhibition of Src
409749	CHEMBL484312	6.680000	209.000000	42168	2008	Inhibition of human recombinant cSrc by ELISA
20116701	CHEMBL3347389	6.680000	209.000000	85883	2012	Inhibition of Src kinase (unknown origin)
20388943	CHEMBL1232944	6.680000	211.000000	93183	2015	Inhibition of wild type cSrc (251 to 533 residues) (unknown origin) pre-incubated for 30 mins before substrate and ATP addition by HTRF assay
490430	CHEMBL565609	6.670000	213.000000	49064	2009	Inhibition of human recombinant Src
276646	CHEMBL323405	6.650000	223.000000	49064	2009	Inhibition of human recombinant Src
250316	CHEMBL291297	6.640000	230.000000	17750	2004	Inhibition of recombinant human Src kinase
237774	CHEMBL275513	6.640000	230.000000	31836	2006	Inhibition of human c-Src in NIH3T3 cells
495531	CHEMBL567018	6.640000	230.000000	48813	2009	Inhibition of human Src expressed in rat fibroblasts assessed as anchorage independent growth after 3 days
20583640	CHEMBL3941474	6.640000	230.000000	101332	2016	Inhibition of human SRC by time-resolved fluorescence or time-resolved fluorescence assay
493035	CHEMBL565372	6.630000	234.000000	49064	2009	Inhibition of human recombinant Src
319307	CHEMBL375904	6.630000	235.000000	35527	2007	Inhibition of cSrc by coupled spectrophotometric enzyme assay
357844	CHEMBL425492	6.630000	235.000000	35527	2007	Inhibition of cSrc by coupled spectrophotometric enzyme assay
333088	CHEMBL388820	6.630000	235.000000	35527	2007	Inhibition of cSrc by coupled spectrophotometric enzyme assay
188967	CHEMBL220912	6.620000	240.000000	34878	2006	Inhibition of human recombinant Src kinase
192275	CHEMBL224856	6.620000	240.000000	35315	2004	Inhibition of Src kinase
637795	CHEMBL1233882	6.620000	240.000000	81902	2012	Inhibition of Src (unknown origin)
184096	CHEMBL216586	6.600000	250.000000	31836	2006	Inhibition of human c-Src in NIH3T3 cells
322517	CHEMBL373582	6.600000	250.000000	35315	2004	Inhibition of Src kinase
20545123	CHEMBL3905685	6.600000	250.000000	101332	2016	Inhibition of human SRC by time-resolved fluorescence or time-resolved fluorescence assay
20399666	CHEMBL3604924	6.600000	254.000000	93183	2015	Inhibition of cSrc T338M mutant (unknown origin) pre-incubated for 30 mins before substrate and ATP addition by HTRF assay
193576	CHEMBL227859	6.590000	260.000000	35527	2007	Inhibition of cSrc by coupled spectrophotometric enzyme assay
1154009	CHEMBL2070057	6.590000	260.000000	62937	2012	Inhibition of human SRC using Ac-EIYGEFKKK-OH as substrate after 60 mins by phosphor imaging method
20399680	CHEMBL3604938	6.590000	260.000000	93183	2015	Inhibition of cSrc T338M/S345C mutant (unknown origin) pre-incubated for 30 mins before substrate and ATP addition by HTRF assay
36135478	CHEMBL4069387	6.580000	265.000000	106101	2017	Inhibition of SRC (unknown origin)
85458	CHEMBL101917	6.570000	270.000000	16324	2001	Inhibition of Src Kinase at 5 mM ATP
1156224	CHEMBL2070068	6.570000	270.000000	62937	2012	Inhibition of human SRC using Ac-EIYGEFKKK-OH as substrate after 60 mins by phosphor imaging method
181846	CHEMBL211852	6.560000	273.000000	31608	2006	Inhibition of human recombinant Src in presence of 10 mM ATP
362137	CHEMBL428631	6.550000	280.000000	31254	2006	Inhibition of SRC using polyE4Y as substrate
1163709	CHEMBL2070064	6.550000	280.000000	62937	2012	Inhibition of human SRC using Ac-EIYGEFKKK-OH as substrate after 60 mins by phosphor imaging method
1155037	CHEMBL2070066	6.550000	280.000000	62937	2012	Inhibition of human SRC using Ac-EIYGEFKKK-OH as substrate after 60 mins by phosphor imaging method
197639	CHEMBL231525	6.550000	282.000000	35926	2007	Inhibition of Src
245971	CHEMBL286258	6.540000	290.000000	16501	2002	Inhibitory concentration against SH2 domain of human p60 Src tyrosine kinase
430769	CHEMBL2069950	6.540000	290.000000	62937	2012	Inhibition of human SRC using Ac-EIYGEFKKK-OH as substrate after 60 mins by phosphor imaging method
1216860	CHEMBL2178352	6.540000	290.000000	66686	2012	Inhibition of human recombinant SRC by radiometric kinase assay
35763	CHEMBL44942	6.530000	298.000000	4890	2002	Inhibition of Src protein tyrosine kinase
164174	CHEMBL193751	6.520000	300.000000	30074	2005	Inhibitory activity against non-receptor tyrosine kinase Src in enzyme assay
328835	CHEMBL386584	6.520000	300.000000	31836	2006	Inhibition of human c-Src in NIH3T3 cells
1154008	CHEMBL2070055	6.520000	300.000000	62937	2012	Inhibition of human SRC using Ac-EIYGEFKKK-OH as substrate after 60 mins by phosphor imaging method
20425733	CHEMBL3681278	6.520000	300.000000	101332	2016	Inhibition of human SRC by time-resolved fluorescence or time-resolved fluorescence assay
20526017	CHEMBL3823849	6.520000	303.000000	99696	2016	Inhibition of C-terminal His-tagged full length human SRC expressed in insect cells preincubated for 20 mins using poly[Glu,Tyr]4:1 as substrate measured after 5 to 120 mins in presence of [gamma-33P]ATP by Kinome assay
20150489	CHEMBL3392187	6.520000	305.000000	35527	2007	Inhibition of cSrc by coupled spectrophotometric enzyme assay
467324	CHEMBL550281	6.510000	307.000000	47381	2009	Inhibition of human Src kinase by TR-FRET assay
36908	CHEMBL45651	6.510000	310.000000	4891	2002	Inhibition of human src kinase.
492027	CHEMBL565546	6.510000	310.000000	48813	2009	Inhibition of human Src expressed in rat fibroblasts assessed as anchorage independent growth after 3 days
20403513	CHEMBL3577124	6.510000	310.000000	92396	2015	Competitive binding affinity to SRC in human A375 cells after 15 mins in presence of ATP analogue
198482	CHEMBL230918	6.500000	315.000000	35926	2007	Inhibition of Src
363264	CHEMBL429057	6.500000	316.230000	71498	2013	Inhibition of c-Src kinase (unknown origin)
40479	CHEMBL48554	6.490000	320.000000	4890	2002	Inhibition of Src protein tyrosine kinase
367801	CHEMBL436516	6.490000	320.000000	34878	2006	Inhibition of human recombinant Src kinase
20120776	CHEMBL3347624	6.490000	324.000000	85883	2012	Inhibition of Src kinase (unknown origin)
497754	CHEMBL569073	6.480000	330.000000	48813	2009	Inhibition of human Src expressed in rat fibroblasts assessed as anchorage independent growth after 3 days
20616037	CHEMBL3959997	6.480000	330.000000	101332	2016	Inhibition of human SRC by time-resolved fluorescence or time-resolved fluorescence assay
20399334	CHEMBL3604910	6.470000	336.000000	93183	2015	Inhibition of wild type cSrc (251 to 533 residues) (unknown origin) pre-incubated for 30 mins before substrate and ATP addition by HTRF assay
555387	CHEMBL1086679	6.470000	340.000000	51097	2010	Inhibition of human recombinant Src after 70 mins by FRET assay
197443	CHEMBL230685	6.470000	341.000000	35926	2007	Inhibition of Src
498966	CHEMBL570175	6.470000	341.000000	49064	2009	Inhibition of human recombinant Src
20399666	CHEMBL3604924	6.460000	349.000000	93183	2015	Inhibition of cSrc T338M/S345C mutant (unknown origin) pre-incubated for 30 mins before substrate and ATP addition by HTRF assay
296819	CHEMBL348743	6.460000	350.000000	81916	2012	Inhibition of SH2 domain of Src (unknown origin) interaction to pTyr
197959	CHEMBL231626	6.450000	353.000000	35926	2007	Inhibition of Src
492199	CHEMBL566174	6.440000	360.000000	48813	2009	Inhibition of human Src expressed in rat fibroblasts assessed as anchorage independent growth after 3 days
426074	CHEMBL501199	6.430000	371.000000	42168	2008	Inhibition of human recombinant cSrc by ELISA
410725	CHEMBL488659	6.420000	376.000000	45110	2008	Inhibition of human Src kinase by TR-FRET assay
1020975	CHEMBL2070048	6.420000	380.000000	62937	2012	Inhibition of human SRC using Ac-EIYGEFKKK-OH as substrate after 60 mins by phosphor imaging method
1156223	CHEMBL2070067	6.420000	380.000000	62937	2012	Inhibition of human SRC using Ac-EIYGEFKKK-OH as substrate after 60 mins by phosphor imaging method
253220	CHEMBL296534	6.410000	390.000000	4890	2002	Inhibition of Src protein tyrosine kinase
169274	CHEMBL197186	6.400000	400.000000	30423	2005	Inhibitory activity against c-Src kinase
327807	CHEMBL385533	6.400000	400.000000	31836	2006	Inhibition of human c-Src in NIH3T3 cells
1170642	CHEMBL2096880	6.390000	403.000000	35527	2007	Inhibition of cSrc by coupled spectrophotometric enzyme assay
223290	CHEMBL258677	6.390000	408.000000	39024	2008	Inhibition of human cSrc
319116	CHEMBL374248	6.390000	410.000000	34878	2006	Inhibition of human recombinant Src kinase
38267	CHEMBL45693	6.370000	427.000000	4891	2002	Inhibition of human src kinase.
225110	CHEMBL260024	6.360000	432.000000	39024	2008	Inhibition of human cSrc
491746	CHEMBL565587	6.360000	433.000000	49064	2009	Inhibition of human recombinant Src
20165118	CHEMBL3426891	6.360000	438.000000	91755	2015	Inhibition of human c-Src using poly[Glu:Tyr] (4:1) peptide substrate by 33P Hotspot assay
619566	CHEMBL425872	6.360000	440.000000	20905	2005	Inhibition of human Src kinase
355109	CHEMBL417006	6.340000	460.000000	4891	2002	Inhibition of human src kinase.
499909	CHEMBL567230	6.340000	460.000000	48813	2009	Inhibition of human Src expressed in rat fibroblasts assessed as anchorage independent growth after 3 days
37180	CHEMBL46176	6.330000	463.000000	4891	2002	Inhibition of human src kinase.
180086	CHEMBL210390	6.320000	480.000000	31216	2006	Inhibition of SRC at 5 uM ATP
185752	CHEMBL218049	6.320000	480.000000	34878	2006	Inhibition of human recombinant Src kinase
324978	CHEMBL388136	6.310000	490.000000	35527	2007	Inhibition of cSrc by coupled spectrophotometric enzyme assay
94253	CHEMBL111339	6.310000	492.000000	49064	2009	Inhibition of human recombinant Src
184648	CHEMBL215726	6.300000	500.000000	31529	2006	Inhibition of Src
588919	CHEMBL439182	6.300000	500.000000	31836	2006	Inhibition of human c-Src in NIH3T3 cells
639505	CHEMBL260157	6.300000	500.000000	39024	2008	Inhibition of human cSrc in COS7 cells by ELISA
347107	CHEMBL406845	6.300000	500.000000	73629	2013	Inhibition of 6xHis-tagged Src catalytic domain (unknown origin) expressed in Escherichia coli using AEEEIYGEFEAKKKK as substrate incubated for 10 mins prior to substrate addition measured after 30 mins by fluorescence intensity assay
197300	CHEMBL230792	6.300000	505.000000	35926	2007	Inhibition of Src
20549397	CHEMBL3891894	6.290000	510.000000	101332	2016	Inhibition of human SRC by time-resolved fluorescence or time-resolved fluorescence assay
36160759	CHEMBL4075954	6.290000	512.000000	106101	2017	Inhibition of SRC (unknown origin)
20120773	CHEMBL3347621	6.290000	513.000000	85883	2012	Inhibition of Src kinase (unknown origin)
1156275	CHEMBL2069951	6.280000	520.000000	62937	2012	Inhibition of human SRC using Ac-EIYGEFKKK-OH as substrate after 60 mins by phosphor imaging method
38173	CHEMBL45683	6.280000	526.000000	4891	2002	Inhibition of human src kinase.
193860	CHEMBL227753	6.280000	530.000000	35527	2007	Inhibition of cSrc in COS7 cells by ELISA
185236	CHEMBL216490	6.270000	540.000000	14455	1998	Inhibition of c-Src tyrosine kinase against 100 uM cdc2 substrate
185690	CHEMBL217977	6.270000	540.000000	31836	2006	Inhibition of human c-Src in NIH3T3 cells
1163666	CHEMBL2070052	6.260000	550.000000	62937	2012	Inhibition of human SRC using Ac-EIYGEFKKK-OH as substrate after 60 mins by phosphor imaging method
39353	CHEMBL47940	6.250000	560.000000	4890	2002	Inhibition of Src protein tyrosine kinase
588767	CHEMBL262721	6.240000	570.000000	31836	2006	Inhibition of human c-Src in NIH3T3 cells
589011	CHEMBL413418	6.240000	580.000000	35315	2004	Inhibition of Src kinase
1157055	CHEMBL2069941	6.240000	580.000000	62937	2012	Inhibition of human SRC using Ac-EIYGEFKKK-OH as substrate after 60 mins by phosphor imaging method
359986	CHEMBL426148	6.220000	600.000000	31836	2006	Inhibition of human c-Src in NIH3T3 cells
331503	CHEMBL388978	6.220000	600.000000	73629	2013	Inhibition of 6xHis-tagged Src catalytic domain (unknown origin) expressed in Escherichia coli using AEEEIYGEFEAKKKK as substrate incubated for 10 mins prior to substrate addition measured after 30 mins by fluorescence intensity assay
1219674	CHEMBL2324597	6.220000	607.000000	105084	2017	Inhibition of human Src kinase domain (254 to 536 residues) expressed in Escherichia coli BL21 (DE3) using abltide as substrate pre-incubated for 10 mins followed by ATP addition measured after 20 mins by ELISA
258706	CHEMBL302281	6.210000	610.000000	3891	2000	Inhibition of src at 5 mM ATP
153326	CHEMBL180299	6.210000	610.000000	20905	2005	Inhibition of human Src kinase
20404730	CHEMBL3623290	6.210000	622.000000	93627	2015	Inhibition of recombinant Src (unknown origin) after 40 mins by scintillation counting analysis in presence of [gamma33P]-ATP
197964	CHEMBL231627	6.200000	631.000000	35926	2007	Inhibition of Src
1330379	CHEMBL2419761	6.190000	642.000000	74644	2013	Inhibition of Src (unknown origin)
1330379	CHEMBL3040806	6.190000	642.000000	84059	2014	Inhibition of Src (unknown origin) assessed as incorporation of [32P] gamma-ATP in to myelin basic protein after 30 mins by autoradiographic analysis
1330380	CHEMBL2419762	6.190000	645.000000	74644	2013	Inhibition of Src (unknown origin)
1330380	CHEMBL3040910	6.190000	645.000000	84059	2014	Inhibition of Src (unknown origin) assessed as incorporation of [32P] gamma-ATP in to myelin basic protein after 30 mins by autoradiographic analysis
407621	CHEMBL482499	6.190000	646.000000	42168	2008	Inhibition of human recombinant cSrc by ELISA
66276	CHEMBL81073	6.190000	650.000000	3971	2000	Inhibition of Src kinase at 5000 nM ATP
1020972	CHEMBL2069943	6.190000	650.000000	62937	2012	Inhibition of human SRC using Ac-EIYGEFKKK-OH as substrate after 60 mins by phosphor imaging method
20528481	CHEMBL3884319	6.180000	668.000000	102068	2017	Inhibition of human recombinant full length C-terminal His-tagged SRC cytoplasmic domain expressed in baculovirus expression system
1020974	CHEMBL2070045	6.170000	670.000000	62937	2012	Inhibition of human SRC using Ac-EIYGEFKKK-OH as substrate after 60 mins by phosphor imaging method
333199	CHEMBL390367	6.160000	693.000000	35527	2007	Inhibition of cSrc by coupled spectrophotometric enzyme assay
193857	CHEMBL227836	6.150000	700.000000	35527	2007	Inhibition of cSrc in COS7 cells by ELISA
1222406	CHEMBL2333163	6.150000	700.000000	72362	2013	Inhibition of SRC (unknown origin)
184118	CHEMBL214329	6.150000	710.000000	32125	2006	Inhibition of c-src
198424	CHEMBL231568	6.140000	720.000000	36657	2007	Inhibition of Src kinase
1155062	CHEMBL2070078	6.140000	730.000000	62937	2012	Inhibition of human SRC using Ac-EIYGEFKKK-OH as substrate after 60 mins by phosphor imaging method
152295	CHEMBL179755	6.130000	740.000000	20905	2005	Inhibition of human Src kinase
330342	CHEMBL389422	6.130000	740.000000	35527	2007	Inhibition of cSrc in COS7 cells by ELISA
84174	CHEMBL102217	6.120000	750.000000	5759	2003	Inhibition of Src protein tyrosine kinase
20116574	CHEMBL3347419	6.120000	759.000000	85883	2012	Inhibition of Src kinase (unknown origin)
182775	CHEMBL213356	6.120000	764.000000	31608	2006	Inhibition of human recombinant Src in presence of 10 mM ATP
337802	CHEMBL394765	6.110000	778.000000	35926	2007	Inhibition of Src
1035532	CHEMBL1791362	6.110000	780.000000	31254	2006	Inhibition of SRC using polyE4Y as substrate
1164075	CHEMBL2070060	6.110000	780.000000	62937	2012	Inhibition of human SRC using Ac-EIYGEFKKK-OH as substrate after 60 mins by phosphor imaging method
614219	CHEMBL13462	6.100000	800.000000	2186	1997	Radioligand displacement assay for the binding of [125I]Glu-Pro-Gln-pTyr-Glu-Glu-Ile-Pro-Ile-Tyr-Leu to SRC SH2 domain
1325839	CHEMBL2382016	6.100000	800.000000	73629	2013	Inhibition of 6xHis-tagged Src catalytic domain (unknown origin) expressed in Escherichia coli using polyE4Y as substrate after 20 mins by scintillation counting analysis in presence of [gamma-32P]-ATP
1154317	CHEMBL2070080	6.090000	810.000000	62937	2012	Inhibition of human SRC using Ac-EIYGEFKKK-OH as substrate after 60 mins by phosphor imaging method
20155083	CHEMBL3392166	6.090000	820.000000	35527	2007	Inhibition of cSrc in COS7 cells by ELISA
36150679	CHEMBL4086945	6.080000	828.000000	105084	2017	Inhibition of human Src kinase domain (254 to 536 residues) expressed in Escherichia coli BL21 (DE3) using abltide as substrate pre-incubated for 10 mins followed by ATP addition measured after 20 mins by ELISA
320242	CHEMBL375012	6.080000	830.000000	35315	2004	Inhibition of Src kinase
498632	CHEMBL569256	6.070000	860.000000	48813	2009	Inhibition of human Src expressed in rat fibroblasts assessed as anchorage independent growth after 3 days
224035	CHEMBL260114	6.050000	900.000000	39024	2008	Inhibition of human cSrc in COS7 cells by ELISA
36175057	CHEMBL4098582	6.050000	901.000000	105084	2017	Inhibition of human Src kinase domain (254 to 536 residues) expressed in Escherichia coli BL21 (DE3) using abltide as substrate pre-incubated for 10 mins followed by ATP addition measured after 20 mins by ELISA
152886	CHEMBL179955	6.040000	910.000000	20905	2005	Inhibition of human Src kinase
504152	CHEMBL574059	6.040000	921.000000	49064	2009	Inhibition of human recombinant Src
20510769	CHEMBL3746293	6.030000	924.000000	97634	2016	Inhibition of Src (unknown origin)
194731	CHEMBL227699	6.020000	950.000000	35527	2007	Inhibition of cSrc in COS7 cells by ELISA
188595	CHEMBL220480	6.020000	960.000000	34878	2006	Inhibition of human recombinant Src kinase
19829868	CHEMBL3108991	6.010000	980.000000	76618	2014	Inhibition of Src (unknown origin)
19829868	CHEMBL3108991	6.010000	980.000000	101506	2016	Inhibition of human SRC using Ac-EIYGEFKKK as substrate after 90 mins by Kinase glo luciferase assay
346994	CHEMBL412218	6.000000	1000.000000	14455	1998	Inhibition of c-Src tyrosine kinase against 100 uM cdc2 substrate
457416	CHEMBL534947	6.000000	1000.000000	35527	2007	Inhibition of cSrc in COS7 cells by ELISA
328907	CHEMBL381743	6.000000	1000.000000	37654	2007	Inhibition of Src
20526018	CHEMBL3822591	5.980000	1040.000000	99696	2016	Inhibition of C-terminal His-tagged full length human SRC expressed in insect cells preincubated for 20 mins using poly[Glu,Tyr]4:1 as substrate measured after 5 to 120 mins in presence of [gamma-33P]ATP by Kinome assay
1154808	CHEMBL2070058	5.960000	1100.000000	62937	2012	Inhibition of human SRC using Ac-EIYGEFKKK-OH as substrate after 60 mins by phosphor imaging method
973696	CHEMBL1234815	5.960000	1100.000000	81902	2012	Inhibition of Src (unknown origin)
20539333	CHEMBL3900554	5.960000	1100.000000	101195	2016	Inhibition of SRC (unknown origin)
253028	CHEMBL296103	5.950000	1120.000000	4890	2002	Inhibition of Src protein tyrosine kinase
20120797	CHEMBL3347602	5.950000	1127.000000	85883	2012	Inhibition of Src kinase (unknown origin)
20116573	CHEMBL3347418	5.930000	1167.000000	85883	2012	Inhibition of Src kinase (unknown origin)
35814	CHEMBL45177	5.920000	1190.000000	4890	2002	Inhibition of Src protein tyrosine kinase
612359	CHEMBL230793	5.920000	1200.000000	35926	2007	Inhibition of Src
633011	CHEMBL1086680	5.920000	1200.000000	51097	2010	Inhibition of human recombinant Src after 70 mins by FRET assay
1151131	CHEMBL2069948	5.920000	1200.000000	62937	2012	Inhibition of human SRC using Ac-EIYGEFKKK-OH as substrate after 60 mins by phosphor imaging method
349338	CHEMBL410296	5.920000	1210.000000	39024	2008	Inhibition of human cSrc
273327	CHEMBL320374	5.890000	1300.000000	5759	2003	Inhibition of Src protein tyrosine kinase
1012727	CHEMBL2069940	5.890000	1300.000000	62937	2012	Inhibition of human SRC using Ac-EIYGEFKKK-OH as substrate after 60 mins by phosphor imaging method
19829394	CHEMBL3108912	5.890000	1300.000000	76618	2014	Inhibition of Src (unknown origin)
19829394	CHEMBL3108912	5.880000	1320.000000	101506	2016	Inhibition of human SRC using Ac-EIYGEFKKK as substrate after 90 mins by Kinase glo luciferase assay
597419	CHEMBL290398	5.850000	1400.000000	17750	2004	Inhibition of Src kinase
20166225	CHEMBL3426237	5.850000	1409.000000	91795	2015	Inhibition of human Src
20116610	CHEMBL3347453	5.850000	1423.000000	85883	2012	Inhibition of Src kinase (unknown origin)
255271	CHEMBL297359	5.830000	1470.000000	4890	2002	Inhibition of Src protein tyrosine kinase
20116702	CHEMBL3347390	5.830000	1473.000000	85883	2012	Inhibition of Src kinase (unknown origin)
1059341	CHEMBL1922225	5.830000	1480.000000	60276	2011	Inhibition of recombinant human SRC using poly(Glu,Tyr)4:1 as substrate
630565	CHEMBL414159	5.820000	1500.000000	14455	1998	Inhibition of c-Src tyrosine kinase against 100 uM cdc2 substrate
184539	CHEMBL218317	5.820000	1500.000000	34878	2006	Inhibition of human recombinant Src kinase
185677	CHEMBL218042	5.820000	1500.000000	34878	2006	Inhibition of human recombinant Src kinase
337888	CHEMBL396205	5.820000	1500.000000	35926	2007	Inhibition of Src
1156249	CHEMBL2069946	5.820000	1500.000000	62937	2012	Inhibition of human SRC using Ac-EIYGEFKKK-OH as substrate after 60 mins by phosphor imaging method
597601	CHEMBL405681	5.800000	1600.000000	14455	1998	Inhibition of c-Src tyrosine kinase against 100 uM cdc2 substrate
1153919	CHEMBL2070079	5.800000	1600.000000	62937	2012	Inhibition of human SRC using Ac-EIYGEFKKK-OH as substrate after 60 mins by phosphor imaging method
1153770	CHEMBL2070069	5.800000	1600.000000	62937	2012	Inhibition of human SRC using Ac-EIYGEFKKK-OH as substrate after 60 mins by phosphor imaging method
1338536	CHEMBL2403108	5.770000	1694.000000	74184	2013	Inhibition of TEL-fused SRC (unknown origin) by cell-based assay
20137799	CHEMBL3357634	5.760000	1731.000000	89730	2014	Inhibition of wild type SRC (unknown origin) incubated for 5 mins by HTRF assay
37583	CHEMBL47202	5.750000	1780.000000	4890	2002	Inhibition of Src protein tyrosine kinase
251305	CHEMBL293803	5.740000	1800.000000	2186	1997	Radioligand displacement assay for the binding of [125I]Glu-Pro-Gln-pTyr-Glu-Glu-Ile-Pro-Ile-Tyr-Leu to SRC SH2 domain
596018	CHEMBL413670	5.740000	1800.000000	14455	1998	Inhibition of c-Src tyrosine kinase against 100 uM cdc2 substrate
187721	CHEMBL218598	5.740000	1800.000000	34878	2006	Inhibition of human recombinant Src kinase
198248	CHEMBL230899	5.740000	1800.000000	35926	2007	Inhibition of Src
1154524	CHEMBL2070065	5.740000	1800.000000	62937	2012	Inhibition of human SRC using Ac-EIYGEFKKK-OH as substrate after 60 mins by phosphor imaging method
177766	CHEMBL209045	5.720000	1900.000000	31254	2006	Inhibition of SRC using polyE4Y as substrate
425702	CHEMBL505637	5.720000	1900.000000	72362	2013	Inhibition of SRC (unknown origin)
435821	CHEMBL517956	5.720000	1910.000000	60276	2011	Inhibition of recombinant human SRC using poly(Glu,Tyr)4:1 as substrate
331503	CHEMBL388978	5.720000	1920.000000	30897	2006	Inhibition of SRC kinase using 1.0 mM ATP
331503	CHEMBL388978	5.720000	1920.000000	30942	2006	Inhibition of SRC kinase at 1.0 mM ATP
272088	CHEMBL319516	5.700000	2000.000000	16501	2002	Inhibitory concentration against SH2 domain of human p60 Src tyrosine kinase
324801	CHEMBL383264	5.700000	2000.000000	31216	2006	Inhibition of SRC at 5 uM ATP
1154339	CHEMBL2070046	5.700000	2000.000000	62937	2012	Inhibition of human SRC using Ac-EIYGEFKKK-OH as substrate after 60 mins by phosphor imaging method
306999	CHEMBL360190	5.700000	2000.000000	72362	2013	Inhibition of SRC (unknown origin)
20120845	CHEMBL3347647	5.700000	2000.000000	85883	2012	Inhibition of Src kinase (unknown origin)
20554906	CHEMBL3934547	5.700000	2000.000000	101332	2016	Inhibition of human SRC by time-resolved fluorescence or time-resolved fluorescence assay
341548	CHEMBL404595	5.680000	2100.000000	14455	1998	Inhibition of c-Src tyrosine kinase against 100 uM cdc2 substrate
1154138	CHEMBL2069952	5.680000	2100.000000	62937	2012	Inhibition of human SRC using Ac-EIYGEFKKK-OH as substrate after 60 mins by phosphor imaging method
383509	CHEMBL456936	5.660000	2170.000000	60276	2011	Inhibition of recombinant human SRC using poly(Glu,Tyr)4:1 as substrate
315588	CHEMBL374002	5.660000	2200.000000	34878	2006	Inhibition of human recombinant Src kinase
1163664	CHEMBL2070049	5.660000	2200.000000	62937	2012	Inhibition of human SRC using Ac-EIYGEFKKK-OH as substrate after 60 mins by phosphor imaging method
503828	CHEMBL2069955	5.660000	2200.000000	62937	2012	Inhibition of human SRC using Ac-EIYGEFKKK-OH as substrate after 60 mins by phosphor imaging method
20116625	CHEMBL3347466	5.650000	2224.000000	85883	2012	Inhibition of Src kinase (unknown origin)
434736	CHEMBL518060	5.650000	2240.000000	60276	2011	Inhibition of recombinant human SRC using poly(Glu,Tyr)4:1 as substrate
578901	CHEMBL1160752	5.640000	2300.000000	16501	2002	Inhibitory concentration against SH2 domain of human p60 Src tyrosine kinase
20150489	CHEMBL3392187	5.640000	2300.000000	35527	2007	Inhibition of cSrc in COS7 cells by ELISA
255210	CHEMBL297278	5.630000	2360.000000	4890	2002	Inhibition of Src protein tyrosine kinase
1058911	CHEMBL1922224	5.620000	2400.000000	60276	2011	Inhibition of recombinant human SRC using poly(Glu,Tyr)4:1 as substrate
19881191	CHEMBL3263640	5.610000	2434.000000	83073	2014	Inhibition of SRC (unknown origin)
20518836	CHEMBL3799221	5.610000	2450.000000	99238	2016	Inhibition of human SRC using (poly [Glu, Tyr] 4:1) as substrate assessed as incorporation of 33P in substrate by [gamma33P] ATP-based kinase assay
20518836	CHEMBL3799221	5.610000	2453.000000	99696	2016	Inhibition of C-terminal His-tagged full length human SRC expressed in insect cells preincubated for 20 mins using poly[Glu,Tyr]4:1 as substrate measured after 5 to 120 mins in presence of [gamma-33P]ATP by Kinome assay
189273	CHEMBL222035	5.600000	2500.000000	35315	2004	Inhibition of Src kinase
20408847	CHEMBL3582441	5.600000	2500.000000	92531	2015	Inhibition of Tel-fused SRC (unknown origin) expressed in mouse BA/F3 cells after 48 hrs by luciferase reporter gene assay in absence of recombinant mouse IL3
677576	CHEMBL1160754	5.570000	2700.000000	16501	2002	Inhibitory concentration against SH2 domain of human p60 Src tyrosine kinase
181808	CHEMBL211399	5.570000	2700.000000	31555	2006	Inhibition of human recombinant Src
19829869	CHEMBL3108992	5.570000	2700.000000	76618	2014	Inhibition of Src (unknown origin)
493645	CHEMBL569064	5.550000	2800.000000	48813	2009	Inhibition of human Src expressed in rat fibroblasts assessed as anchorage independent growth after 3 days
1325839	CHEMBL2382016	5.550000	2800.000000	73629	2013	Inhibition of 6xHis-tagged Src catalytic domain (unknown origin) expressed in Escherichia coli using AEEEIYGEFEAKKKK as substrate incubated for 10 mins prior to substrate addition measured after 30 mins by fluorescence intensity assay
226720	CHEMBL262212	5.540000	2900.000000	14455	1998	Inhibition of c-Src tyrosine kinase against 100 uM cdc2 substrate
198086	CHEMBL230815	5.540000	2900.000000	35926	2007	Inhibition of Src
500107	CHEMBL567678	5.540000	2900.000000	48813	2009	Inhibition of human Src expressed in rat fibroblasts assessed as anchorage independent growth after 3 days
347904	CHEMBL412139	5.520000	2990.000000	39024	2008	Inhibition of human cSrc
331503	CHEMBL388978	5.520000	3000.000000	11789	1993	Inhibition of human p60 c-src
172436	CHEMBL201307	5.520000	3000.000000	30599	2006	Inhibitory activity against SRC
20116580	CHEMBL3347425	5.520000	3037.000000	85883	2012	Inhibition of Src kinase (unknown origin)
19846647	CHEMBL3133821	5.520000	3040.000000	82225	2014	Inhibition of human Src
1164272	CHEMBL2064374	5.510000	3100.000000	62861	2012	Inhibition of SRC
1154142	CHEMBL2070063	5.510000	3100.000000	62937	2012	Inhibition of human SRC using Ac-EIYGEFKKK-OH as substrate after 60 mins by phosphor imaging method
342096	CHEMBL402673	5.500000	3190.000000	4891	2002	Inhibition of human src kinase.
20166228	CHEMBL3426240	5.500000	3191.000000	91795	2015	Inhibition of human Src
194606	CHEMBL227376	5.480000	3300.000000	35527	2007	Inhibition of cSrc by coupled spectrophotometric enzyme assay
1157902	CHEMBL2070085	5.480000	3300.000000	62937	2012	Inhibition of human SRC using Ac-EIYGEFKKK-OH as substrate after 60 mins by phosphor imaging method
20491549	CHEMBL3770142	5.480000	3300.000000	98464	2015	Inhibition of human SRC using Ac-EIYGEFKKK as substrate after 90 mins by luciferase reporter assay
20491549	CHEMBL3770142	5.480000	3330.000000	101506	2016	Inhibition of human SRC using Ac-EIYGEFKKK as substrate after 90 mins by Kinase glo luciferase assay
20535472	CHEMBL3908956	5.480000	3330.000000	101506	2016	Inhibition of human SRC using Ac-EIYGEFKKK as substrate after 90 mins by Kinase glo luciferase assay
20549275	CHEMBL3895337	5.470000	3400.000000	101332	2016	Inhibition of human SRC by time-resolved fluorescence or time-resolved fluorescence assay
346917	CHEMBL412273	5.460000	3480.000000	39024	2008	Inhibition of human cSrc
185537	CHEMBL218072	5.440000	3600.000000	34878	2006	Inhibition of human recombinant Src kinase
1231695	CHEMBL2312290	5.430000	3690.000000	71954	2013	Inhibition of SRC (unknown origin)
186001	CHEMBL217088	5.430000	3700.000000	31836	2006	Inhibition of human c-Src in NIH3T3 cells
331354	CHEMBL390957	5.430000	3700.000000	35527	2007	Inhibition of cSrc by coupled spectrophotometric enzyme assay
411756	CHEMBL489083	5.420000	3800.000000	44828	2008	Inhibition of human SRC
473972	CHEMBL554084	5.420000	3800.000000	47381	2009	Inhibition of human Src kinase by TR-FRET assay
967243	CHEMBL1614712	5.400000	4000.000000	98852	2016	Inhibition of SRC (unknown origin) in presence of [gamma33P]ATP
1154139	CHEMBL2069961	5.390000	4100.000000	62937	2012	Inhibition of human SRC using Ac-EIYGEFKKK-OH as substrate after 60 mins by phosphor imaging method
1349122	CHEMBL2436978	5.360000	4330.000000	75153	2013	Inhibition of wild type human SRC by high throughput ATP-[33P] radiolabeled assay
415162	CHEMBL488646	5.360000	4400.000000	44431	2008	Inhibition of human recombinant SRC
412597	CHEMBL486437	5.350000	4500.000000	44431	2008	Inhibition of human recombinant SRC
20408833	CHEMBL3582427	5.340000	4600.000000	92531	2015	Inhibition of Tel-fused SRC (unknown origin) expressed in mouse BA/F3 cells after 48 hrs by luciferase reporter gene assay in absence of recombinant mouse IL3
20408848	CHEMBL3582442	5.340000	4600.000000	92531	2015	Inhibition of Tel-fused SRC (unknown origin) expressed in mouse BA/F3 cells after 48 hrs by luciferase reporter gene assay in absence of recombinant mouse IL3
473567	CHEMBL551229	5.330000	4700.000000	47381	2009	Inhibition of human Src kinase by TR-FRET assay
20534292	CHEMBL3911525	5.330000	4700.000000	101866	2016	Inhibition of recombinant human Src using KVEKIGEGTYGVVYK as substrate by [gamma-32P]ATP based assay
20491567	CHEMBL3770313	5.320000	4750.000000	98464	2015	Inhibition of human SRC using Ac-EIYGEFKKK as substrate after 90 mins by luciferase reporter assay
20491567	CHEMBL3770313	5.320000	4750.000000	101506	2016	Inhibition of human SRC using Ac-EIYGEFKKK as substrate after 90 mins by Kinase glo luciferase assay
481927	CHEMBL559628	5.320000	4800.000000	47381	2009	Inhibition of human Src kinase by TR-FRET assay
346946	CHEMBL10	5.300000	5000.000000	21295	2005	Inhibition v-src sarcoma viral oncogene homolog (Src) at 100 uM ATP
1156658	CHEMBL2070074	5.300000	5000.000000	62937	2012	Inhibition of human SRC using Ac-EIYGEFKKK-OH as substrate after 60 mins by phosphor imaging method
150643	CHEMBL176470	5.300000	5011.870000	71498	2013	Inhibition of c-Src kinase (unknown origin)
439386	CHEMBL2069942	5.290000	5100.000000	62937	2012	Inhibition of human SRC using Ac-EIYGEFKKK-OH as substrate after 60 mins by phosphor imaging method
327710	CHEMBL385112	5.280000	5200.000000	34878	2006	Inhibition of human recombinant Src kinase
1153771	CHEMBL2070086	5.280000	5200.000000	62937	2012	Inhibition of human SRC using Ac-EIYGEFKKK-OH as substrate after 60 mins by phosphor imaging method
359880	CHEMBL431342	5.260000	5460.000000	4890	2002	Inhibition of Src protein tyrosine kinase
1134836	CHEMBL2018882	5.260000	5470.000000	93810	2015	Inhibition of Src (unknown origin) by radiometric protein kinase assay
258754	CHEMBL301845	5.260000	5500.000000	2186	1997	Radioligand displacement assay for the binding of [125I]Glu-Pro-Gln-pTyr-Glu-Glu-Ile-Pro-Ile-Tyr-Leu to SRC SH2 domain
624658	CHEMBL426903	5.260000	5500.000000	35527	2007	Inhibition of cSrc by coupled spectrophotometric enzyme assay
1155461	CHEMBL2070075	5.250000	5600.000000	62937	2012	Inhibition of human SRC using Ac-EIYGEFKKK-OH as substrate after 60 mins by phosphor imaging method
659754	CHEMBL373882	5.240000	5750.000000	35003	2007	inhibition of Src
20534041	CHEMBL3907479	5.230000	5900.000000	101332	2016	Inhibition of human SRC by time-resolved fluorescence or time-resolved fluorescence assay
1036528	CHEMBL1791368	5.220000	6000.000000	31254	2006	Inhibition of SRC using polyE4Y as substrate
46958	CHEMBL58421	5.210000	6100.000000	2186	1997	Radioligand displacement assay for the binding of [125I]Glu-Pro-Gln-pTyr-Glu-Glu-Ile-Pro-Ile-Tyr-Leu to SRC SH2 domain
1158297	CHEMBL2070087	5.200000	6300.000000	62937	2012	Inhibition of human SRC using Ac-EIYGEFKKK-OH as substrate after 60 mins by phosphor imaging method
147662	CHEMBL174634	5.200000	6309.570000	71498	2013	Inhibition of c-Src kinase (unknown origin)
624303	CHEMBL429525	5.190000	6400.000000	31254	2006	Inhibition of SRC using polyE4Y as substrate
576895	CHEMBL1160313	5.190000	6500.000000	3871	2000	Binding affinity for Human pp60c-src SH2 domain
478660	CHEMBL556669	5.180000	6600.000000	47381	2009	Inhibition of human Src kinase by TR-FRET assay
364098	CHEMBL427741	5.170000	6690.000000	39024	2008	Inhibition of human cSrc
1158298	CHEMBL2070088	5.170000	6700.000000	62937	2012	Inhibition of human SRC using Ac-EIYGEFKKK-OH as substrate after 60 mins by phosphor imaging method
19829875	CHEMBL3108998	5.160000	6900.000000	76618	2014	Inhibition of Src (unknown origin)
19829875	CHEMBL3108998	5.160000	6930.000000	101506	2016	Inhibition of human SRC using Ac-EIYGEFKKK as substrate after 90 mins by Kinase glo luciferase assay
472904	CHEMBL556874	5.150000	7000.000000	47381	2009	Inhibition of human Src kinase by TR-FRET assay
20425772	CHEMBL3681317	5.150000	7000.000000	101332	2016	Inhibition of human SRC by time-resolved fluorescence or time-resolved fluorescence assay
1325841	CHEMBL2382018	5.150000	7100.000000	73629	2013	Inhibition of 6xHis-tagged Src catalytic domain (unknown origin) expressed in Escherichia coli using AEEEIYGEFEAKKKK as substrate incubated for 10 mins prior to substrate addition measured after 30 mins by fluorescence intensity assay
19829395	CHEMBL3108913	5.140000	7270.000000	101506	2016	Inhibition of human SRC using Ac-EIYGEFKKK as substrate after 90 mins by Kinase glo luciferase assay
1048022	CHEMBL1791356	5.140000	7300.000000	31254	2006	Inhibition of SRC using polyE4Y as substrate
19829395	CHEMBL3108913	5.140000	7300.000000	76618	2014	Inhibition of Src (unknown origin)
185719	CHEMBL218177	5.130000	7400.000000	34878	2006	Inhibition of human recombinant Src kinase
1161486	CHEMBL2064383	5.120000	7500.000000	62861	2012	Inhibition of SRC
970831	CHEMBL539433	5.120000	7600.000000	47381	2009	Inhibition of human Src kinase by TR-FRET assay
20415522	CHEMBL3628799	5.120000	7640.000000	93810	2015	Inhibition of Src (unknown origin) by radiometric protein kinase assay
1173421	CHEMBL2111784	5.100000	8000.000000	6484	2004	Inhibition of human c-Src
479973	CHEMBL559826	5.100000	8000.000000	47381	2009	Inhibition of human Src kinase by TR-FRET assay
610189	CHEMBL120069	5.090000	8080.000000	14171	1997	Inhibition of c-Src tyrosine kinase
1153772	CHEMBL2070089	5.090000	8200.000000	62937	2012	Inhibition of human SRC using Ac-EIYGEFKKK-OH as substrate after 60 mins by phosphor imaging method
20415532	CHEMBL3628811	5.070000	8460.000000	93810	2015	Inhibition of Src (unknown origin) by radiometric protein kinase assay
1155462	CHEMBL2070076	5.060000	8700.000000	62937	2012	Inhibition of human SRC using Ac-EIYGEFKKK-OH as substrate after 60 mins by phosphor imaging method
632236	CHEMBL2069954	5.060000	8800.000000	62937	2012	Inhibition of human SRC using Ac-EIYGEFKKK-OH as substrate after 60 mins by phosphor imaging method
168522	CHEMBL197603	5.040000	9050.000000	30509	2006	Inhibitory activity against src
374764	CHEMBL453336	5.040000	9100.000000	44431	2008	Inhibition of human recombinant SRC
226347	CHEMBL259627	5.040000	9200.000000	39024	2008	Inhibition of human cSrc
47005	CHEMBL57393	5.030000	9300.000000	2186	1997	Radioligand displacement assay for the binding of [125I]Glu-Pro-Gln-pTyr-Glu-Glu-Ile-Pro-Ile-Tyr-Leu to SRC SH2 domain
476681	CHEMBL551031	5.030000	9300.000000	47381	2009	Inhibition of human Src kinase by TR-FRET assay
311368	CHEMBL369014	5.000000	10000.000000	71498	2013	Inhibition of c-Src kinase (unknown origin)
20492307	CHEMBL3769798	5.000000	10000.000000	101506	2016	Inhibition of human SRC using Ac-EIYGEFKKK as substrate after 90 mins by Kinase glo luciferase assay
20607677	CHEMBL3973192	5.000000	10000.000000	101506	2016	Inhibition of human SRC using Ac-EIYGEFKKK as substrate after 90 mins by Kinase glo luciferase assay
484601	CHEMBL564726	4.960000	11000.000000	47381	2009	Inhibition of human Src kinase by TR-FRET assay
185473	CHEMBL218003	4.920000	12000.000000	34878	2006	Inhibition of human recombinant Src kinase
325480	CHEMBL384877	4.920000	12000.000000	34878	2006	Inhibition of human recombinant Src kinase
320254	CHEMBL378963	4.920000	12100.000000	31216	2006	Inhibition of SRC at 5 uM ATP
449541	CHEMBL529663	4.850000	14000.000000	44431	2008	Inhibition of human recombinant SRC
20113658	CHEMBL3309834	4.840000	14500.000000	90283	2014	Inhibition of Src kinase (unknown origin)
20524050	CHEMBL3818247	4.810000	15453.000000	99644	2016	Inhibition of SRC (unknown origin) incubated for 1 hr by spectrophotometric analysis
602744	CHEMBL277931	4.800000	15700.000000	30228	2005	Inhibitory concentration against Src kinase
1318112	CHEMBL2371922	4.800000	16000.000000	31254	2006	Inhibition of SRC using polyE4Y as substrate
20425742	CHEMBL3681287	4.800000	16000.000000	101332	2016	Inhibition of human SRC by time-resolved fluorescence or time-resolved fluorescence assay
1036979	CHEMBL1791369	4.770000	17000.000000	31254	2006	Inhibition of SRC using polyE4Y as substrate
36145533	CHEMBL4074262	4.770000	17056.000000	104766	2017	Inhibition of c-Src (unknown origin) using FAM-labeled peptide as substrate preincubated for 5 to 10 mins followed by substrate/ATP addition measured after 30 to 60 mins by mobility shift assay
315018	CHEMBL370773	4.770000	17150.000000	30509	2006	Inhibitory activity against src
180191	CHEMBL210246	4.740000	18000.000000	31216	2006	Inhibition of SRC at 5 uM ATP
1328591	CHEMBL2420911	4.740000	18000.000000	74678	2013	Inhibition of SRC (unknown origin) by microfluidic mobility shift assay
19825053	CHEMBL3109402	4.710000	19700.000000	76713	2014	Inhibition of recombinant SRC (unknown origin) using casein as substrate assessed as incorporation of [gamma-33P]-ATP into substrate by radiometric assay
598818	CHEMBL436817	4.700000	19900.000000	36673	2007	Inhibition of Src
171128	CHEMBL201511	4.700000	20000.000000	32691	2006	Inhibition of human SRC
212055	CHEMBL245212	4.700000	20000.000000	36673	2007	Inhibition of Src
171128	CHEMBL201511	4.680000	21000.000000	44431	2008	Inhibition of human recombinant SRC
1325837	CHEMBL2382014	4.670000	21500.000000	73629	2013	Inhibition of 6xHis-tagged Src catalytic domain (unknown origin) expressed in Escherichia coli using AEEEIYGEFEAKKKK as substrate incubated for 10 mins prior to substrate addition measured after 30 mins by fluorescence intensity assay
20402488	CHEMBL3612750	4.670000	21600.000000	93330	2015	Inhibition of His6-tagged Src kinase domain (unknown origin) using AEEEIYGEFEAKKKK as substrate preincubated for 10 mins followed by substrate/ATP addition measured after 30 mins by fluorescence assay
20543342	CHEMBL3904850	4.620000	24000.000000	101866	2016	Inhibition of recombinant human Src using KVEKIGEGTYGVVYK as substrate by [gamma-32P]ATP based assay
1325838	CHEMBL2382015	4.600000	25000.000000	73629	2013	Inhibition of 6xHis-tagged Src catalytic domain (unknown origin) expressed in Escherichia coli using AEEEIYGEFEAKKKK as substrate incubated for 10 mins prior to substrate addition measured after 30 mins by fluorescence intensity assay
1035043	CHEMBL1791360	4.590000	26000.000000	31254	2006	Inhibition of SRC using polyE4Y as substrate
492275	CHEMBL565084	4.590000	26000.000000	47381	2009	Inhibition of human Src kinase by TR-FRET assay
414855	CHEMBL488645	4.540000	29000.000000	44431	2008	Inhibition of human recombinant SRC
567521	CHEMBL1160318	4.520000	30000.000000	3871	2000	Binding affinity for Human pp60c-src SH2 domain
331245	CHEMBL390156	4.520000	30400.000000	35630	2007	Inhibition of Src
653225	CHEMBL1301731	4.510000	30900.000000	93330	2015	Inhibition of His6-tagged Src kinase domain (unknown origin) using AEEEIYGEFEAKKKK as substrate preincubated for 10 mins followed by substrate/ATP addition measured after 30 mins by fluorescence assay
1325836	CHEMBL2382013	4.500000	31300.000000	73629	2013	Inhibition of 6xHis-tagged Src catalytic domain (unknown origin) expressed in Escherichia coli using AEEEIYGEFEAKKKK as substrate incubated for 10 mins prior to substrate addition measured after 30 mins by fluorescence intensity assay
351668	CHEMBL416444	4.490000	32340.000000	4890	2002	Inhibition of Src protein tyrosine kinase
475229	CHEMBL553695	4.480000	33000.000000	47381	2009	Inhibition of human Src kinase by TR-FRET assay
20577219	CHEMBL3952373	4.480000	33000.000000	101332	2016	Inhibition of human SRC by time-resolved fluorescence or time-resolved fluorescence assay
618399	CHEMBL267213	4.470000	33600.000000	31254	2006	Inhibition of SRC using polyE4Y as substrate
378213	CHEMBL451860	4.450000	35800.000000	85871	2012	Inhibition of Src (unknown origin)
20402487	CHEMBL3612749	4.440000	36500.000000	93330	2015	Inhibition of His6-tagged Src kinase domain (unknown origin) using AEEEIYGEFEAKKKK as substrate preincubated for 10 mins followed by substrate/ATP addition measured after 30 mins by fluorescence assay
122338	CHEMBL144785	4.420000	38000.000000	4095	2000	Inhibition of human recombinant p60 c-Src tyrosine kinase
425186	CHEMBL507056	4.410000	39000.000000	44431	2008	Inhibition of human recombinant SRC
449477	CHEMBL529217	4.400000	40000.000000	44431	2008	Inhibition of human recombinant SRC
196796	CHEMBL230232	4.390000	40800.000000	36673	2007	Inhibition of Src
439134	CHEMBL521201	4.390000	41000.000000	44431	2008	Inhibition of human recombinant SRC
473606	CHEMBL556746	4.390000	41000.000000	47381	2009	Inhibition of human Src kinase by TR-FRET assay
489609	CHEMBL564235	4.350000	45000.000000	47381	2009	Inhibition of human Src kinase by TR-FRET assay
482558	CHEMBL559702	4.340000	46000.000000	47381	2009	Inhibition of human Src kinase by TR-FRET assay
478661	CHEMBL556670	4.340000	46000.000000	47381	2009	Inhibition of human Src kinase by TR-FRET assay
1325840	CHEMBL2382017	4.330000	46900.000000	73629	2013	Inhibition of 6xHis-tagged Src catalytic domain (unknown origin) expressed in Escherichia coli using AEEEIYGEFEAKKKK as substrate incubated for 10 mins prior to substrate addition measured after 30 mins by fluorescence intensity assay
412047	CHEMBL488811	4.310000	49000.000000	44431	2008	Inhibition of human recombinant SRC
592661	CHEMBL223360	4.300000	50000.000000	35219	2007	Inhibition of SRC
486066	CHEMBL558475	4.280000	52000.000000	47381	2009	Inhibition of human Src kinase by TR-FRET assay
1036497	CHEMBL1791364	4.260000	54500.000000	31254	2006	Inhibition of SRC using polyE4Y as substrate
1161484	CHEMBL2064381	4.180000	66000.000000	62861	2012	Inhibition of SRC
20574291	CHEMBL3954137	4.170000	67000.000000	101866	2016	Inhibition of recombinant human Src using KVEKIGEGTYGVVYK as substrate by [gamma-32P]ATP based assay
567520	CHEMBL1160317	4.160000	69000.000000	3871	2000	Binding affinity for Human pp60c-src SH2 domain
1325842	CHEMBL2382019	4.160000	69100.000000	73629	2013	Inhibition of 6xHis-tagged Src catalytic domain (unknown origin) expressed in Escherichia coli using AEEEIYGEFEAKKKK as substrate incubated for 10 mins prior to substrate addition measured after 30 mins by fluorescence intensity assay
20402489	CHEMBL3612751	4.130000	73500.000000	93330	2015	Inhibition of His6-tagged Src kinase domain (unknown origin) using AEEEIYGEFEAKKKK as substrate preincubated for 10 mins followed by substrate/ATP addition measured after 30 mins by fluorescence assay
1036498	CHEMBL1791365	4.120000	75000.000000	31254	2006	Inhibition of SRC using polyE4Y as substrate
476491	CHEMBL551838	4.070000	86000.000000	47381	2009	Inhibition of human Src kinase by TR-FRET assay
490732	CHEMBL564575	4.040000	91000.000000	47381	2009	Inhibition of human Src kinase by TR-FRET assay
1036527	CHEMBL1791367	4.030000	93000.000000	31254	2006	Inhibition of SRC using polyE4Y as substrate
1328589	CHEMBL2420909	3.820000	150000.000000	74678	2013	Inhibition of SRC (unknown origin) by microfluidic mobility shift assay
483181	CHEMBL559068	3.800000	159000.000000	47381	2009	Inhibition of human Src kinase by TR-FRET assay
476680	CHEMBL551030	3.700000	201000.000000	47381	2009	Inhibition of human Src kinase by TR-FRET assay
466126	CHEMBL550623	3.520000	300000.000000	47381	2009	Inhibition of human Src kinase by TR-FRET assay
484163	CHEMBL559438	3.510000	310000.000000	47381	2009	Inhibition of human Src kinase by TR-FRET assay
1037014	CHEMBL1791370	3.400000	400000.000000	31254	2006	Inhibition of SRC using polyE4Y as substrate
483484	CHEMBL559069	3.290000	517000.000000	47381	2009	Inhibition of human Src kinase by TR-FRET assay
1035042	CHEMBL1791359	3.120000	760000.000000	31254	2006	Inhibition of SRC using polyE4Y as substrate
329478	CHEMBL388807	3.000000	1000000.000000	35527	2007	Inhibition of cSrc by coupled spectrophotometric enzyme assay
20412057	CHEMBL3629013	3.000000	1010000.000000	93760	2015	Inhibition of Src (unknown origin) by FRET method
1325843	CHEMBL2382020	2.800000	1567600.000000	73629	2013	Inhibition of 6xHis-tagged Src catalytic domain (unknown origin) expressed in Escherichia coli using AEEEIYGEFEAKKKK as substrate incubated for 10 mins prior to substrate addition measured after 30 mins by fluorescence intensity assay
