lsi_index	chembl-id	pot.(log,IC50)	pot.(muMol,IC50)	doc_id	year	description
1048466	CHEMBL296588	9.460000	0.350000	99484	2016	Inhibition of human liver cathepsin D using Mca-Gly-Lys-Pro-Ile-Leu-Phe-Phe-Arg-Leu-Lys-(Dnp)-D-Arg-NH2 as substrate preincubated for 15 mins followed by substrate addition measured every 5 mins for 120 mins by fluorescence analysis
1048466	CHEMBL296588	9.260000	0.550000	39531	2008	Inhibition of human cathepsin D by FRET assay
1070511	CHEMBL1076907	9.200000	0.630000	50376	2010	Inhibition of human liver cathepsin D after 20 mins by homogeneous time resolved fluorescence assay
1331468	CHEMBL2407339	9.080000	0.840000	74334	2013	Inhibition of Cathepsin D (unknown origin) by FRET assay
480021	CHEMBL558488	9.000000	1.000000	47495	2009	Inhibition of human cathepsin D
1333523	CHEMBL2408751	9.000000	1.000000	74444	2013	Inhibition of cathepsin-D (unknown origin) using C-terminal biotinylated peptide substrate treated 30 mins before addition of peptide substrate measured after 110 mins by fluorescence polarization assay
1333524	CHEMBL2408752	8.700000	2.000000	74444	2013	Inhibition of cathepsin-D (unknown origin) using C-terminal biotinylated peptide substrate treated 30 mins before addition of peptide substrate measured after 110 mins by fluorescence polarization assay
1332624	CHEMBL2407492	8.700000	2.000000	74334	2013	Inhibition of Cathepsin D (unknown origin) by FRET assay
1048466	CHEMBL296588	8.640000	2.300000	31794	2006	Inhibition of human cathepsin D
1332619	CHEMBL2407487	8.370000	4.300000	74334	2013	Inhibition of Cathepsin D (unknown origin) by FRET assay
1208643	CHEMBL2151151	8.350000	4.500000	74334	2013	Inhibition of Cathepsin D (unknown origin) by FRET assay
1048466	CHEMBL296588	8.300000	5.000000	48936	2009	Inhibition of cathepsin D in human MCF7 cells by fluorescence assay
1333525	CHEMBL2408753	8.300000	5.000000	74444	2013	Inhibition of cathepsin-D (unknown origin) using C-terminal biotinylated peptide substrate treated 30 mins before addition of peptide substrate measured after 110 mins by fluorescence polarization assay
1333527	CHEMBL2408755	8.220000	6.000000	74444	2013	Inhibition of cathepsin-D (unknown origin) using C-terminal biotinylated peptide substrate treated 30 mins before addition of peptide substrate measured after 110 mins by fluorescence polarization assay
1332628	CHEMBL2407496	8.200000	6.300000	74334	2013	Inhibition of Cathepsin D (unknown origin) by FRET assay
1333529	CHEMBL2408757	8.100000	8.000000	74444	2013	Inhibition of cathepsin-D (unknown origin) using C-terminal biotinylated peptide substrate treated 30 mins before addition of peptide substrate measured after 110 mins by fluorescence polarization assay
1333532	CHEMBL2408760	8.100000	8.000000	74444	2013	Inhibition of cathepsin-D (unknown origin) using C-terminal biotinylated peptide substrate treated 30 mins before addition of peptide substrate measured after 110 mins by fluorescence polarization assay
1332622	CHEMBL2407490	8.090000	8.100000	74334	2013	Inhibition of Cathepsin D (unknown origin) by FRET assay
20119032	CHEMBL3321939	8.070000	8.600000	90656	2014	Inhibition of human liver cathepsin D using MCA-labeled GKPILFFRLK(Dnp)-D-R-NH2 peptide by fluorescence-based assay
340875	CHEMBL404394	8.050000	9.000000	39531	2008	Inhibition of human cathepsin D by FRET assay
180115	CHEMBL210240	8.000000	10.000000	31322	2006	Inhibition of Cathepsin D
319350	CHEMBL377149	7.960000	11.000000	31322	2006	Inhibition of Cathepsin D
1333311	CHEMBL2408737	7.920000	12.000000	74444	2013	Inhibition of cathepsin-D (unknown origin) using C-terminal biotinylated peptide substrate treated 30 mins before addition of peptide substrate measured after 110 mins by fluorescence polarization assay
1333522	CHEMBL2408750	7.740000	18.000000	74444	2013	Inhibition of cathepsin-D (unknown origin) using C-terminal biotinylated peptide substrate treated 30 mins before addition of peptide substrate measured after 110 mins by fluorescence polarization assay
19881769	CHEMBL3264810	7.720000	19.000000	83020	2014	Inhibition of human cathepsin-D using DABCYL-Glu-Arg-Nle-Phe-Leu-Ser-Phe-Pro-EDANS as substrate preincubated for 30 mins by FRET assay
180284	CHEMBL211432	7.700000	20.000000	31322	2006	Inhibition of Cathepsin D
1244267	CHEMBL2349486	7.680000	21.000000	72868	2013	Inhibition of human spleen cathepsin D using 5-FAM/QXL as peptide substrate after 1 hr by FRET assay
20119014	CHEMBL3321931	7.620000	24.000000	90656	2014	Inhibition of human liver cathepsin D using MCA-labeled GKPILFFRLK(Dnp)-D-R-NH2 peptide by fluorescence-based assay
312348	CHEMBL364446	7.600000	25.000000	21392	2005	Inhibitory concentration against human Cathepsin D
180579	CHEMBL211107	7.600000	25.000000	31322	2006	Inhibition of Cathepsin D
309032	CHEMBL364664	7.550000	28.000000	21392	2005	Inhibitory concentration against human Cathepsin D
1331471	CHEMBL2407342	7.540000	29.000000	74334	2013	Inhibition of Cathepsin D (unknown origin) by FRET assay
1332627	CHEMBL2407495	7.540000	29.000000	74334	2013	Inhibition of Cathepsin D (unknown origin) by FRET assay
19881770	CHEMBL3264811	7.490000	32.000000	83020	2014	Inhibition of human cathepsin-D using DABCYL-Glu-Arg-Nle-Phe-Leu-Ser-Phe-Pro-EDANS as substrate preincubated for 30 mins by FRET assay
1331467	CHEMBL2407338	7.440000	36.000000	74334	2013	Inhibition of Cathepsin D (unknown origin) by FRET assay
19881767	CHEMBL3264808	7.420000	38.000000	83020	2014	Inhibition of human cathepsin-D using DABCYL-Glu-Arg-Nle-Phe-Leu-Ser-Phe-Pro-EDANS as substrate preincubated for 30 mins by FRET assay
495064	CHEMBL567893	7.400000	40.000000	62842	2012	Inhibition of cathepsin D using MCA-KPILFFRLK(Dnp)-D-R-NH2 as substrate incubated for 10 to 15 mins prior to substrate addition measured every 5 min for 2 hrs by fluorometry
19881759	CHEMBL3264800	7.400000	40.000000	83020	2014	Inhibition of human cathepsin-D using DABCYL-Glu-Arg-Nle-Phe-Leu-Ser-Phe-Pro-EDANS as substrate preincubated for 30 mins by FRET assay
1075566	CHEMBL1076901	7.390000	41.000000	50376	2010	Inhibition of human liver cathepsin D after 20 mins by homogeneous time resolved fluorescence assay
19881758	CHEMBL3264799	7.380000	42.000000	83020	2014	Inhibition of human cathepsin-D using DABCYL-Glu-Arg-Nle-Phe-Leu-Ser-Phe-Pro-EDANS as substrate preincubated for 30 mins by FRET assay
1312659	CHEMBL587764	7.370000	43.000000	83020	2014	Inhibition of human cathepsin-D using DABCYL-Glu-Arg-Nle-Phe-Leu-Ser-Phe-Pro-EDANS as substrate preincubated for 30 mins by FRET assay
20130240	CHEMBL3344159	7.370000	43.000000	89236	2014	Inhibition of human cathepsin D assessed as cleavage of wtKAHRP fluorogenic substrate
20119016	CHEMBL3321933	7.360000	44.000000	90656	2014	Inhibition of human liver cathepsin D using MCA-labeled GKPILFFRLK(Dnp)-D-R-NH2 peptide by fluorescence-based assay
178162	CHEMBL208681	7.300000	50.000000	31322	2006	Inhibition of Cathepsin D
560723	CHEMBL1098668	7.300000	50.000000	50990	2010	Inhibition of human cathepsin D after 30 mins by FRET assay
631891	CHEMBL1098671	7.300000	50.000000	50990	2010	Inhibition of human cathepsin D after 30 mins by FRET assay
559658	CHEMBL1098670	7.300000	50.000000	50990	2010	Inhibition of human cathepsin D after 30 mins by FRET assay
572530	CHEMBL1098669	7.300000	50.000000	50990	2010	Inhibition of human cathepsin D after 30 mins by FRET assay
1215572	CHEMBL2181015	7.300000	50.000000	99484	2016	Inhibition of human liver cathepsin D using Mca-Gly-Lys-Pro-Ile-Leu-Phe-Phe-Arg-Leu-Lys-(Dnp)-D-Arg-NH2 as substrate preincubated for 15 mins followed by substrate addition measured every 5 mins for 120 mins by fluorescence analysis
19881760	CHEMBL3264801	7.290000	51.000000	83020	2014	Inhibition of human cathepsin-D using DABCYL-Glu-Arg-Nle-Phe-Leu-Ser-Phe-Pro-EDANS as substrate preincubated for 30 mins by FRET assay
1332621	CHEMBL2407489	7.270000	54.000000	74334	2013	Inhibition of Cathepsin D (unknown origin) by FRET assay
19881771	CHEMBL3264812	7.270000	54.000000	83020	2014	Inhibition of human cathepsin-D using DABCYL-Glu-Arg-Nle-Phe-Leu-Ser-Phe-Pro-EDANS as substrate preincubated for 30 mins by FRET assay
630570	CHEMBL191129	7.250000	56.000000	21392	2005	Inhibitory concentration against human Cathepsin D
20523941	CHEMBL3813928	7.240000	57.000000	99484	2016	Inhibition of human liver cathepsin D using Mca-Gly-Lys-Pro-Ile-Leu-Phe-Phe-Arg-Leu-Lys-(Dnp)-D-Arg-NH2 as substrate preincubated for 15 mins followed by substrate addition measured every 5 mins for 120 mins by fluorescence analysis
20119003	CHEMBL3321925	7.240000	58.000000	90656	2014	Inhibition of human liver cathepsin D using MCA-labeled GKPILFFRLK(Dnp)-D-R-NH2 peptide by fluorescence-based assay
20516516	CHEMBL3809897	7.240000	58.000000	99330	2016	Inhibition of Cathepsin D (unknown origin) by fluorescence assay
1604	CHEMBL1076905	7.230000	59.000000	50376	2010	Inhibition of human liver cathepsin D after 20 mins by homogeneous time resolved fluorescence assay
1333530	CHEMBL2408758	7.230000	59.000000	74444	2013	Inhibition of cathepsin-D (unknown origin) using C-terminal biotinylated peptide substrate treated 30 mins before addition of peptide substrate measured after 110 mins by fluorescence polarization assay
161523	CHEMBL190058	7.220000	60.000000	21392	2005	Inhibitory concentration against human Cathepsin D
616919	CHEMBL212787	7.220000	60.000000	31794	2006	Inhibition of human cathepsin D
612779	CHEMBL253800	7.170000	67.000000	37926	2007	Inhibition of human recombinant cathepsin D
20119005	CHEMBL3321927	7.170000	67.000000	90656	2014	Inhibition of human liver cathepsin D using MCA-labeled GKPILFFRLK(Dnp)-D-R-NH2 peptide by fluorescence-based assay
1333310	CHEMBL2408736	7.170000	68.000000	74444	2013	Inhibition of cathepsin-D (unknown origin) using C-terminal biotinylated peptide substrate treated 30 mins before addition of peptide substrate measured after 110 mins by fluorescence polarization assay
19881764	CHEMBL3264805	7.170000	68.000000	83020	2014	Inhibition of human cathepsin-D using DABCYL-Glu-Arg-Nle-Phe-Leu-Ser-Phe-Pro-EDANS as substrate preincubated for 30 mins by FRET assay
605639	CHEMBL436104	7.150000	70.000000	21392	2005	Inhibitory concentration against human Cathepsin D
1333516	CHEMBL2408744	7.150000	70.000000	74444	2013	Inhibition of cathepsin-D (unknown origin) using C-terminal biotinylated peptide substrate treated 30 mins before addition of peptide substrate measured after 110 mins by fluorescence polarization assay
1332620	CHEMBL2407488	7.140000	72.000000	74334	2013	Inhibition of Cathepsin D (unknown origin) by FRET assay
1333537	CHEMBL2408765	7.130000	74.000000	74444	2013	Inhibition of cathepsin-D (unknown origin) using C-terminal biotinylated peptide substrate treated 30 mins before addition of peptide substrate measured after 110 mins by fluorescence polarization assay
1333535	CHEMBL2408763	7.110000	77.000000	74444	2013	Inhibition of cathepsin-D (unknown origin) using C-terminal biotinylated peptide substrate treated 30 mins before addition of peptide substrate measured after 110 mins by fluorescence polarization assay
1331470	CHEMBL2407341	7.110000	78.000000	74334	2013	Inhibition of Cathepsin D (unknown origin) by FRET assay
1333316	CHEMBL2408742	7.100000	80.000000	74444	2013	Inhibition of cathepsin-D (unknown origin) using C-terminal biotinylated peptide substrate treated 30 mins before addition of peptide substrate measured after 110 mins by fluorescence polarization assay
20119017	CHEMBL3321934	7.090000	81.000000	90656	2014	Inhibition of human liver cathepsin D using MCA-labeled GKPILFFRLK(Dnp)-D-R-NH2 peptide by fluorescence-based assay
68081	CHEMBL81927	7.070000	85.000000	90656	2014	Inhibition of cathepsin D (unknown origin)
162361	CHEMBL190010	7.050000	90.000000	21392	2005	Inhibitory concentration against human Cathepsin D
20119015	CHEMBL3321932	7.040000	92.000000	90656	2014	Inhibition of human liver cathepsin D using MCA-labeled GKPILFFRLK(Dnp)-D-R-NH2 peptide by fluorescence-based assay
20119012	CHEMBL3321929	7.010000	98.000000	90656	2014	Inhibition of human liver cathepsin D using MCA-labeled GKPILFFRLK(Dnp)-D-R-NH2 peptide by fluorescence-based assay
20516221	CHEMBL3808441	7.000000	99.000000	99330	2016	Inhibition of Cathepsin D (unknown origin) by fluorescence assay
19881765	CHEMBL3264806	7.000000	100.000000	83020	2014	Inhibition of human cathepsin-D using DABCYL-Glu-Arg-Nle-Phe-Leu-Ser-Phe-Pro-EDANS as substrate preincubated for 30 mins by FRET assay
323686	CHEMBL377548	6.960000	110.000000	31322	2006	Inhibition of Cathepsin D
19877855	CHEMBL3259870	6.960000	110.000000	83020	2014	Inhibition of human cathepsin-D using DABCYL-Glu-Arg-Nle-Phe-Leu-Ser-Phe-Pro-EDANS as substrate preincubated for 30 mins by FRET assay
1628	CHEMBL1076906	6.920000	120.000000	50376	2010	Inhibition of human liver cathepsin D after 20 mins by homogeneous time resolved fluorescence assay
19881756	CHEMBL3264797	6.920000	120.000000	83020	2014	Inhibition of human cathepsin-D using DABCYL-Glu-Arg-Nle-Phe-Leu-Ser-Phe-Pro-EDANS as substrate preincubated for 30 mins by FRET assay
20119004	CHEMBL3321926	6.920000	120.000000	90656	2014	Inhibition of human liver cathepsin D using MCA-labeled GKPILFFRLK(Dnp)-D-R-NH2 peptide by fluorescence-based assay
1333534	CHEMBL2408762	6.900000	126.000000	74444	2013	Inhibition of cathepsin-D (unknown origin) using C-terminal biotinylated peptide substrate treated 30 mins before addition of peptide substrate measured after 110 mins by fluorescence polarization assay
162482	CHEMBL191100	6.890000	130.000000	21392	2005	Inhibitory concentration against human Cathepsin D
182414	CHEMBL214974	6.850000	140.000000	31794	2006	Inhibition of human cathepsin D
19881762	CHEMBL3264803	6.850000	140.000000	83020	2014	Inhibition of human cathepsin-D using DABCYL-Glu-Arg-Nle-Phe-Leu-Ser-Phe-Pro-EDANS as substrate preincubated for 30 mins by FRET assay
20119039	CHEMBL3321940	6.850000	140.000000	90656	2014	Inhibition of human liver cathepsin D using MCA-labeled GKPILFFRLK(Dnp)-D-R-NH2 peptide by fluorescence-based assay
20152884	CHEMBL3422242	6.850000	140.000000	104950	2018	Inhibition of cathepsin D (unknown origin) by cell based assay
1333519	CHEMBL2408747	6.840000	145.000000	74444	2013	Inhibition of cathepsin-D (unknown origin) using C-terminal biotinylated peptide substrate treated 30 mins before addition of peptide substrate measured after 110 mins by fluorescence polarization assay
178335	CHEMBL209847	6.820000	150.000000	31322	2006	Inhibition of Cathepsin D
19881763	CHEMBL3264804	6.770000	170.000000	83020	2014	Inhibition of human cathepsin-D using DABCYL-Glu-Arg-Nle-Phe-Leu-Ser-Phe-Pro-EDANS as substrate preincubated for 30 mins by FRET assay
20119013	CHEMBL3321930	6.770000	170.000000	90656	2014	Inhibition of human liver cathepsin D using MCA-labeled GKPILFFRLK(Dnp)-D-R-NH2 peptide by fluorescence-based assay
20119006	CHEMBL3321928	6.770000	170.000000	90656	2014	Inhibition of human liver cathepsin D using MCA-labeled GKPILFFRLK(Dnp)-D-R-NH2 peptide by fluorescence-based assay
182943	CHEMBL213301	6.740000	180.000000	31322	2006	Inhibition of Cathepsin D
1243017	CHEMBL2349617	6.730000	185.000000	72868	2013	Inhibition of human spleen cathepsin D using 5-FAM/QXL as peptide substrate after 1 hr by FRET assay
181658	CHEMBL211384	6.720000	190.000000	31322	2006	Inhibition of Cathepsin D
319094	CHEMBL378897	6.720000	190.000000	31322	2006	Inhibition of Cathepsin D
181221	CHEMBL212357	6.710000	195.000000	31322	2006	Inhibition of Cathepsin D
20516289	CHEMBL3808967	6.710000	197.000000	99330	2016	Inhibition of Cathepsin D (unknown origin) by fluorescence assay
180651	CHEMBL211194	6.700000	200.000000	31322	2006	Inhibition of Cathepsin D
19881766	CHEMBL3264807	6.700000	200.000000	83020	2014	Inhibition of human cathepsin-D using DABCYL-Glu-Arg-Nle-Phe-Leu-Ser-Phe-Pro-EDANS as substrate preincubated for 30 mins by FRET assay
542451	CHEMBL1076902	6.680000	210.000000	50376	2010	Inhibition of human liver cathepsin D after 20 mins by homogeneous time resolved fluorescence assay
1156061	CHEMBL2069612	6.660000	220.000000	63036	2012	Inhibition of human cathepsin D
1150347	CHEMBL2048051	6.640000	230.000000	62414	2012	Inhibition of human recombinant CatD using Mca-GKPILFFRLK(DNP)-dR-NH2 as substrate after 1 hr by fluorescence analysis
1331472	CHEMBL2407343	6.640000	230.000000	74334	2013	Inhibition of Cathepsin D (unknown origin) by FRET assay
20119078	CHEMBL3321941	6.620000	240.000000	90656	2014	Inhibition of human liver cathepsin D using MCA-labeled GKPILFFRLK(Dnp)-D-R-NH2 peptide by fluorescence-based assay
1243453	CHEMBL2349619	6.600000	249.000000	72868	2013	Inhibition of human spleen cathepsin D using 5-FAM/QXL as peptide substrate after 1 hr by FRET assay
1150349	CHEMBL2048053	6.600000	250.000000	62414	2012	Inhibition of human recombinant CatD using Mca-GKPILFFRLK(DNP)-dR-NH2 as substrate after 1 hr by fluorescence analysis
1147319	CHEMBL2048054	6.600000	250.000000	62414	2012	Inhibition of human recombinant CatD using Mca-GKPILFFRLK(DNP)-dR-NH2 as substrate after 1 hr by fluorescence analysis
610079	CHEMBL83114	6.600000	250.000000	90656	2014	Inhibition of cathepsin D (unknown origin)
1333533	CHEMBL2408761	6.600000	251.000000	74444	2013	Inhibition of cathepsin-D (unknown origin) using C-terminal biotinylated peptide substrate treated 30 mins before addition of peptide substrate measured after 110 mins by fluorescence polarization assay
1333521	CHEMBL2408749	6.590000	255.000000	74444	2013	Inhibition of cathepsin-D (unknown origin) using C-terminal biotinylated peptide substrate treated 30 mins before addition of peptide substrate measured after 110 mins by fluorescence polarization assay
592015	CHEMBL209795	6.590000	260.000000	31322	2006	Inhibition of Cathepsin D
1243391	CHEMBL2349491	6.580000	265.000000	72868	2013	Inhibition of human spleen cathepsin D using 5-FAM/QXL as peptide substrate after 1 hr by FRET assay
20119029	CHEMBL3321936	6.550000	280.000000	90656	2014	Inhibition of human liver cathepsin D using MCA-labeled GKPILFFRLK(Dnp)-D-R-NH2 peptide by fluorescence-based assay
1333520	CHEMBL2408748	6.540000	286.000000	74444	2013	Inhibition of cathepsin-D (unknown origin) using C-terminal biotinylated peptide substrate treated 30 mins before addition of peptide substrate measured after 110 mins by fluorescence polarization assay
1151719	CHEMBL2047914	6.540000	290.000000	62414	2012	Inhibition of human recombinant CatD using Mca-GKPILFFRLK(DNP)-dR-NH2 as substrate after 1 hr by fluorescence analysis
1345154	CHEMBL2425600	6.540000	290.000000	74904	2013	Inhibition of human cathepsin-D
1241178	CHEMBL2349614	6.530000	295.000000	72868	2013	Inhibition of human spleen cathepsin D using 5-FAM/QXL as peptide substrate after 1 hr by FRET assay
1153156	CHEMBL2069614	6.520000	300.000000	63036	2012	Inhibition of human cathepsin D
19830123	CHEMBL3127070	6.520000	300.000000	77102	2014	Inhibition of human liver cathepsin D measured for 1 hr by FRET assay
20119001	CHEMBL3321923	6.490000	320.000000	90656	2014	Inhibition of human liver cathepsin D using MCA-labeled GKPILFFRLK(Dnp)-D-R-NH2 peptide by fluorescence-based assay
1244649	CHEMBL2349485	6.480000	329.000000	72868	2013	Inhibition of human spleen cathepsin D using 5-FAM/QXL as peptide substrate after 1 hr by FRET assay
1150733	CHEMBL2047889	6.470000	340.000000	62414	2012	Inhibition of human recombinant CatD using Mca-GKPILFFRLK(DNP)-dR-NH2 as substrate after 1 hr by fluorescence analysis
19881761	CHEMBL3264802	6.460000	350.000000	83020	2014	Inhibition of human cathepsin-D using DABCYL-Glu-Arg-Nle-Phe-Leu-Ser-Phe-Pro-EDANS as substrate preincubated for 30 mins by FRET assay
1148965	CHEMBL2047909	6.440000	360.000000	62414	2012	Inhibition of human recombinant CatD using Mca-GKPILFFRLK(DNP)-dR-NH2 as substrate after 1 hr by fluorescence analysis
511662	CHEMBL581498	6.440000	360.000000	83020	2014	Inhibition of human cathepsin-D using DABCYL-Glu-Arg-Nle-Phe-Leu-Ser-Phe-Pro-EDANS as substrate preincubated for 30 mins by FRET assay
1333315	CHEMBL2408741	6.440000	362.000000	74444	2013	Inhibition of cathepsin-D (unknown origin) using C-terminal biotinylated peptide substrate treated 30 mins before addition of peptide substrate measured after 110 mins by fluorescence polarization assay
384499	CHEMBL461606	6.430000	370.000000	46100	2009	Inhibition of human cathepsin D
384499	CHEMBL461606	6.430000	370.000000	47495	2009	Inhibition of human cathepsin D
1016443	CHEMBL1760860	6.430000	370.000000	57229	2011	Inhibition of human cathepsin D
1331473	CHEMBL2407344	6.430000	370.000000	74334	2013	Inhibition of Cathepsin D (unknown origin) by FRET assay
20119018	CHEMBL3321935	6.430000	370.000000	90656	2014	Inhibition of human liver cathepsin D using MCA-labeled GKPILFFRLK(Dnp)-D-R-NH2 peptide by fluorescence-based assay
1333531	CHEMBL2408759	6.430000	374.000000	74444	2013	Inhibition of cathepsin-D (unknown origin) using C-terminal biotinylated peptide substrate treated 30 mins before addition of peptide substrate measured after 110 mins by fluorescence polarization assay
1151529	CHEMBL2048040	6.410000	390.000000	62414	2012	Inhibition of human recombinant CatD using Mca-GKPILFFRLK(DNP)-dR-NH2 as substrate after 1 hr by fluorescence analysis
1241099	CHEMBL2349477	6.390000	404.000000	72868	2013	Inhibition of human spleen cathepsin D using 5-FAM/QXL as peptide substrate after 1 hr by FRET assay
1005560	CHEMBL1760865	6.380000	420.000000	57229	2011	Inhibition of human cathepsin D
1241177	CHEMBL2349484	6.380000	420.000000	72868	2013	Inhibition of human spleen cathepsin D using 5-FAM/QXL as peptide substrate after 1 hr by FRET assay
1333518	CHEMBL2408746	6.370000	429.000000	74444	2013	Inhibition of cathepsin-D (unknown origin) using C-terminal biotinylated peptide substrate treated 30 mins before addition of peptide substrate measured after 110 mins by fluorescence polarization assay
162062	CHEMBL191123	6.370000	430.000000	21392	2005	Inhibitory concentration against human Cathepsin D
1240112	CHEMBL2349492	6.370000	430.000000	72868	2013	Inhibition of human spleen cathepsin D using 5-FAM/QXL as peptide substrate after 1 hr by FRET assay
1241990	CHEMBL2349495	6.350000	447.000000	72868	2013	Inhibition of human spleen cathepsin D using 5-FAM/QXL as peptide substrate after 1 hr by FRET assay
20130577	CHEMBL3344165	6.350000	447.000000	89236	2014	Inhibition of human cathepsin D assessed as cleavage of wtKAHRP fluorogenic substrate
1151944	CHEMBL2048047	6.350000	450.000000	62414	2012	Inhibition of human recombinant CatD using Mca-GKPILFFRLK(DNP)-dR-NH2 as substrate after 1 hr by fluorescence analysis
1151944	CHEMBL2048047	6.350000	450.000000	74904	2013	Inhibition of human cathepsin-D
180425	CHEMBL211499	6.340000	460.000000	31322	2006	Inhibition of Cathepsin D
1240208	CHEMBL2349472	6.320000	477.000000	72868	2013	Inhibition of human spleen cathepsin D using 5-FAM/QXL as peptide substrate after 1 hr by FRET assay
1149899	CHEMBL2048050	6.320000	480.000000	62414	2012	Inhibition of human recombinant CatD using Mca-GKPILFFRLK(DNP)-dR-NH2 as substrate after 1 hr by fluorescence analysis
19830133	CHEMBL3127080	6.310000	490.000000	77102	2014	Inhibition of human liver cathepsin D measured for 1 hr by FRET assay
19881768	CHEMBL3264809	6.300000	500.000000	83020	2014	Inhibition of human cathepsin-D using DABCYL-Glu-Arg-Nle-Phe-Leu-Ser-Phe-Pro-EDANS as substrate preincubated for 30 mins by FRET assay
1148373	CHEMBL2047910	6.290000	510.000000	62414	2012	Inhibition of human recombinant CatD using Mca-GKPILFFRLK(DNP)-dR-NH2 as substrate after 1 hr by fluorescence analysis
1148188	CHEMBL2048063	6.290000	510.000000	62414	2012	Inhibition of human recombinant CatD using Mca-GKPILFFRLK(DNP)-dR-NH2 as substrate after 1 hr by fluorescence analysis
20119030	CHEMBL3321937	6.290000	510.000000	90656	2014	Inhibition of human liver cathepsin D using MCA-labeled GKPILFFRLK(Dnp)-D-R-NH2 peptide by fluorescence-based assay
20516220	CHEMBL3808672	6.290000	510.000000	99330	2016	Inhibition of Cathepsin D (unknown origin) by fluorescence assay
20163840	CHEMBL3394047	6.280000	530.000000	90948	2015	Inhibition of cathepsin D (unknown origin)
1150709	CHEMBL2048042	6.270000	540.000000	62414	2012	Inhibition of human recombinant CatD using Mca-GKPILFFRLK(DNP)-dR-NH2 as substrate after 1 hr by fluorescence analysis
1153155	CHEMBL2069613	6.270000	540.000000	63036	2012	Inhibition of human cathepsin D
1148964	CHEMBL2047908	6.220000	600.000000	62414	2012	Inhibition of human recombinant CatD using Mca-GKPILFFRLK(DNP)-dR-NH2 as substrate after 1 hr by fluorescence analysis
1148156	CHEMBL2048059	6.220000	600.000000	62414	2012	Inhibition of human recombinant CatD using Mca-GKPILFFRLK(DNP)-dR-NH2 as substrate after 1 hr by fluorescence analysis
20163839	CHEMBL3394046	6.220000	600.000000	90948	2015	Inhibition of cathepsin D (unknown origin)
1242025	CHEMBL2349474	6.220000	603.000000	72868	2013	Inhibition of human spleen cathepsin D using 5-FAM/QXL as peptide substrate after 1 hr by FRET assay
1240579	CHEMBL2349473	6.200000	624.000000	72868	2013	Inhibition of human spleen cathepsin D using 5-FAM/QXL as peptide substrate after 1 hr by FRET assay
20163832	CHEMBL3394039	6.190000	640.000000	90948	2015	Inhibition of cathepsin D (unknown origin)
20163845	CHEMBL3394052	6.190000	650.000000	90948	2015	Inhibition of cathepsin D (unknown origin)
20163850	CHEMBL3394057	6.180000	660.000000	90948	2015	Inhibition of cathepsin D (unknown origin)
1005561	CHEMBL1760866	6.170000	670.000000	57229	2011	Inhibition of human cathepsin D
20163844	CHEMBL3394051	6.170000	680.000000	90948	2015	Inhibition of cathepsin D (unknown origin)
1246243	CHEMBL2349618	6.170000	683.000000	72868	2013	Inhibition of human spleen cathepsin D using 5-FAM/QXL as peptide substrate after 1 hr by FRET assay
1146925	CHEMBL2048045	6.160000	690.000000	62414	2012	Inhibition of human recombinant CatD using Mca-GKPILFFRLK(DNP)-dR-NH2 as substrate after 1 hr by fluorescence analysis
20119031	CHEMBL3321938	6.160000	690.000000	90656	2014	Inhibition of human liver cathepsin D using MCA-labeled GKPILFFRLK(Dnp)-D-R-NH2 peptide by fluorescence-based assay
1209733	CHEMBL2151149	6.150000	700.000000	74334	2013	Inhibition of Cathepsin D (unknown origin) by FRET assay
20163833	CHEMBL3394040	6.150000	710.000000	90948	2015	Inhibition of cathepsin D (unknown origin)
20130576	CHEMBL3344164	6.150000	713.000000	89236	2014	Inhibition of human cathepsin D assessed as cleavage of wtKAHRP fluorogenic substrate
1150734	CHEMBL2047890	6.140000	720.000000	62414	2012	Inhibition of human recombinant CatD using Mca-GKPILFFRLK(DNP)-dR-NH2 as substrate after 1 hr by fluorescence analysis
1245513	CHEMBL2349612	6.130000	735.000000	72868	2013	Inhibition of human spleen cathepsin D using 5-FAM/QXL as peptide substrate after 1 hr by FRET assay
1345153	CHEMBL2425599	6.120000	750.000000	74904	2013	Inhibition of human cathepsin-D
1345157	CHEMBL2425603	6.110000	780.000000	74904	2013	Inhibition of human cathepsin-D
1243499	CHEMBL2349494	6.100000	798.000000	72868	2013	Inhibition of human spleen cathepsin D using 5-FAM/QXL as peptide substrate after 1 hr by FRET assay
19830122	CHEMBL3127069	6.090000	810.000000	77102	2014	Inhibition of human liver cathepsin D measured for 1 hr by FRET assay
499036	CHEMBL567477	6.090000	820.000000	49114	2010	Inhibition of human cathepsin D by FRET based peptide cleavage assay
1345836	CHEMBL2425612	6.090000	820.000000	74904	2013	Inhibition of human cathepsin-D
20515980	CHEMBL3808988	6.090000	820.000000	99330	2016	Inhibition of Cathepsin D (unknown origin) by fluorescence assay
19830159	CHEMBL3127106	6.080000	840.000000	77102	2014	Inhibition of human liver cathepsin D measured for 1 hr by FRET assay
1345832	CHEMBL2425608	6.060000	870.000000	74904	2013	Inhibition of human cathepsin-D
1331474	CHEMBL2407345	6.050000	890.000000	74334	2013	Inhibition of Cathepsin D (unknown origin) by FRET assay
1004284	CHEMBL1760734	6.050000	900.000000	57229	2011	Inhibition of human cathepsin D
182911	CHEMBL213595	6.040000	910.000000	31322	2006	Inhibition of Cathepsin D
1333314	CHEMBL2408740	6.030000	940.000000	74444	2013	Inhibition of cathepsin-D (unknown origin) using C-terminal biotinylated peptide substrate treated 30 mins before addition of peptide substrate measured after 110 mins by fluorescence polarization assay
19830137	CHEMBL3127084	6.030000	940.000000	77102	2014	Inhibition of human liver cathepsin D measured for 1 hr by FRET assay
19830157	CHEMBL3127104	6.020000	960.000000	77102	2014	Inhibition of human liver cathepsin D measured for 1 hr by FRET assay
1246628	CHEMBL2349506	6.010000	973.000000	72868	2013	Inhibition of human spleen cathepsin D using 5-FAM/QXL as peptide substrate after 1 hr by FRET assay
1148374	CHEMBL2047911	6.010000	980.000000	62414	2012	Inhibition of human recombinant CatD using Mca-GKPILFFRLK(DNP)-dR-NH2 as substrate after 1 hr by fluorescence analysis
1242561	CHEMBL2349469	6.000000	990.000000	72868	2013	Inhibition of human spleen cathepsin D using 5-FAM/QXL as peptide substrate after 1 hr by FRET assay
495064	CHEMBL567893	6.000000	1000.000000	48936	2009	Inhibition of cathepsin D in human MCF7 cells by fluorescence assay
20163847	CHEMBL3394054	6.000000	1000.000000	90948	2015	Inhibition of cathepsin D (unknown origin)
1151528	CHEMBL2048039	5.990000	1030.000000	62414	2012	Inhibition of human recombinant CatD using Mca-GKPILFFRLK(DNP)-dR-NH2 as substrate after 1 hr by fluorescence analysis
1243028	CHEMBL2349490	5.990000	1030.000000	72868	2013	Inhibition of human spleen cathepsin D using 5-FAM/QXL as peptide substrate after 1 hr by FRET assay
20163838	CHEMBL3394045	5.980000	1040.000000	90948	2015	Inhibition of cathepsin D (unknown origin)
1148375	CHEMBL2047912	5.980000	1050.000000	62414	2012	Inhibition of human recombinant CatD using Mca-GKPILFFRLK(DNP)-dR-NH2 as substrate after 1 hr by fluorescence analysis
20163834	CHEMBL3394041	5.970000	1080.000000	90948	2015	Inhibition of cathepsin D (unknown origin)
1240736	CHEMBL2349493	5.960000	1085.000000	72868	2013	Inhibition of human spleen cathepsin D using 5-FAM/QXL as peptide substrate after 1 hr by FRET assay
19830159	CHEMBL3127106	5.960000	1100.000000	77102	2014	Inhibition of human liver cathepsin D measured for 1 hr by FRET assay
20137739	CHEMBL3354688	5.960000	1100.000000	89669	2014	Inhibition of cathepsin D (unknown origin)
326823	CHEMBL379824	5.950000	1110.000000	31322	2006	Inhibition of Cathepsin D
1151718	CHEMBL2047913	5.940000	1140.000000	62414	2012	Inhibition of human recombinant CatD using Mca-GKPILFFRLK(DNP)-dR-NH2 as substrate after 1 hr by fluorescence analysis
1150708	CHEMBL2048041	5.940000	1150.000000	62414	2012	Inhibition of human recombinant CatD using Mca-GKPILFFRLK(DNP)-dR-NH2 as substrate after 1 hr by fluorescence analysis
1246741	CHEMBL2349613	5.930000	1176.000000	72868	2013	Inhibition of human spleen cathepsin D using 5-FAM/QXL as peptide substrate after 1 hr by FRET assay
1020755	CHEMBL1760859	5.920000	1200.000000	57229	2011	Inhibition of human cathepsin D
1345836	CHEMBL2425617	5.920000	1200.000000	74904	2013	Inhibition of human cathepsin-D
1345835	CHEMBL2425611	5.920000	1200.000000	74904	2013	Inhibition of human cathepsin-D
1246633	CHEMBL2349483	5.910000	1224.000000	72868	2013	Inhibition of human spleen cathepsin D using 5-FAM/QXL as peptide substrate after 1 hr by FRET assay
370359	CHEMBL439671	5.910000	1230.000000	21392	2005	Inhibitory concentration against human Cathepsin D
1150348	CHEMBL2048052	5.910000	1230.000000	62414	2012	Inhibition of human recombinant CatD using Mca-GKPILFFRLK(DNP)-dR-NH2 as substrate after 1 hr by fluorescence analysis
1345834	CHEMBL2425610	5.910000	1240.000000	74904	2013	Inhibition of human cathepsin-D
181909	CHEMBL213830	5.900000	1250.000000	31322	2006	Inhibition of Cathepsin D
1243508	CHEMBL2349468	5.900000	1259.000000	72868	2013	Inhibition of human spleen cathepsin D using 5-FAM/QXL as peptide substrate after 1 hr by FRET assay
1147760	CHEMBL2048058	5.880000	1320.000000	62414	2012	Inhibition of human recombinant CatD using Mca-GKPILFFRLK(DNP)-dR-NH2 as substrate after 1 hr by fluorescence analysis
1150769	CHEMBL2047893	5.860000	1390.000000	62414	2012	Inhibition of human recombinant CatD using Mca-GKPILFFRLK(DNP)-dR-NH2 as substrate after 1 hr by fluorescence analysis
488027	CHEMBL564010	5.850000	1400.000000	47495	2009	Inhibition of human cathepsin D
20491506	CHEMBL3765317	5.850000	1400.000000	98301	2016	Inhibition of CatD (unknown origin) preincubated for 30 mins followed by DABCYL-Glu-Arg-Nle-Phe-Leu-Ser-Phe-Pro-EDANS substrate addition by FRET assay
1148136	CHEMBL2047899	5.830000	1490.000000	62414	2012	Inhibition of human recombinant CatD using Mca-GKPILFFRLK(DNP)-dR-NH2 as substrate after 1 hr by fluorescence analysis
160134	CHEMBL187765	5.820000	1500.000000	21392	2005	Inhibitory concentration against human Cathepsin D
1148185	CHEMBL2048060	5.820000	1510.000000	62414	2012	Inhibition of human recombinant CatD using Mca-GKPILFFRLK(DNP)-dR-NH2 as substrate after 1 hr by fluorescence analysis
1246330	CHEMBL2349504	5.790000	1606.000000	72868	2013	Inhibition of human spleen cathepsin D using 5-FAM/QXL as peptide substrate after 1 hr by FRET assay
1150020	CHEMBL2047896	5.790000	1630.000000	62414	2012	Inhibition of human recombinant CatD using Mca-GKPILFFRLK(DNP)-dR-NH2 as substrate after 1 hr by fluorescence analysis
1246701	CHEMBL2349478	5.780000	1665.000000	72868	2013	Inhibition of human spleen cathepsin D using 5-FAM/QXL as peptide substrate after 1 hr by FRET assay
182067	CHEMBL213858	5.770000	1700.000000	31322	2006	Inhibition of Cathepsin D
623641	CHEMBL490305	5.770000	1700.000000	46100	2009	Inhibition of human cathepsin D
623641	CHEMBL490305	5.770000	1700.000000	47495	2009	Inhibition of human cathepsin D
1020751	CHEMBL1760855	5.770000	1700.000000	57229	2011	Inhibition of human cathepsin D
19830132	CHEMBL3127079	5.770000	1700.000000	77102	2014	Inhibition of human liver cathepsin D measured for 1 hr by FRET assay
1245849	CHEMBL2349467	5.770000	1717.000000	72868	2013	Inhibition of human spleen cathepsin D using 5-FAM/QXL as peptide substrate after 1 hr by FRET assay
1148543	CHEMBL2047902	5.760000	1720.000000	62414	2012	Inhibition of human recombinant CatD using Mca-GKPILFFRLK(DNP)-dR-NH2 as substrate after 1 hr by fluorescence analysis
1148963	CHEMBL2047907	5.760000	1740.000000	62414	2012	Inhibition of human recombinant CatD using Mca-GKPILFFRLK(DNP)-dR-NH2 as substrate after 1 hr by fluorescence analysis
1243902	CHEMBL2349476	5.750000	1760.000000	72868	2013	Inhibition of human spleen cathepsin D using 5-FAM/QXL as peptide substrate after 1 hr by FRET assay
1345838	CHEMBL2425614	5.750000	1780.000000	74904	2013	Inhibition of human cathepsin-D
1020753	CHEMBL1760857	5.740000	1800.000000	57229	2011	Inhibition of human cathepsin D
19830155	CHEMBL3127102	5.740000	1800.000000	77102	2014	Inhibition of human liver cathepsin D measured for 1 hr by FRET assay
488836	CHEMBL565790	5.730000	1870.000000	49114	2010	Inhibition of human cathepsin D by FRET based peptide cleavage assay
1240546	CHEMBL2349475	5.720000	1894.000000	72868	2013	Inhibition of human spleen cathepsin D using 5-FAM/QXL as peptide substrate after 1 hr by FRET assay
1020641	CHEMBL1760731	5.720000	1900.000000	57229	2011	Inhibition of human cathepsin D
1020752	CHEMBL1760856	5.720000	1900.000000	57229	2011	Inhibition of human cathepsin D
20118993	CHEMBL3321915	5.720000	1900.000000	90656	2014	Inhibition of human liver cathepsin D using MCA-labeled GKPILFFRLK(Dnp)-D-R-NH2 peptide by fluorescence-based assay
20516517	CHEMBL3809870	5.720000	1900.000000	99330	2016	Inhibition of Cathepsin D (unknown origin) by fluorescence assay
1004283	CHEMBL1760733	5.700000	2000.000000	57229	2011	Inhibition of human cathepsin D
1097542	CHEMBL1941013	5.700000	2000.000000	60858	2012	Inhibition of human cathepsin D using DABCYL-Glu-Arg-Nle-Phe-Leu-Ser-Phe-Pro-EDANS as substrate by FRET analysis
1148372	CHEMBL2047904	5.700000	2000.000000	62414	2012	Inhibition of human recombinant CatD using Mca-GKPILFFRLK(DNP)-dR-NH2 as substrate after 1 hr by fluorescence analysis
1150710	CHEMBL2048043	5.700000	2000.000000	62414	2012	Inhibition of human recombinant CatD using Mca-GKPILFFRLK(DNP)-dR-NH2 as substrate after 1 hr by fluorescence analysis
496904	CHEMBL567259	5.690000	2050.000000	49114	2010	Inhibition of human cathepsin D by FRET based peptide cleavage assay
1243939	CHEMBL2349505	5.680000	2069.000000	72868	2013	Inhibition of human spleen cathepsin D using 5-FAM/QXL as peptide substrate after 1 hr by FRET assay
1021486	CHEMBL1760854	5.680000	2100.000000	57229	2011	Inhibition of human cathepsin D
338030	CHEMBL401338	5.670000	2116.000000	37926	2007	Inhibition of human recombinant cathepsin D
488035	CHEMBL565378	5.660000	2190.000000	49114	2010	Inhibition of human cathepsin D by FRET based peptide cleavage assay
20491101	CHEMBL3763261	5.660000	2200.000000	98301	2016	Inhibition of CatD (unknown origin) preincubated for 30 mins followed by DABCYL-Glu-Arg-Nle-Phe-Leu-Ser-Phe-Pro-EDANS substrate addition by FRET assay
1151527	CHEMBL2048038	5.650000	2220.000000	62414	2012	Inhibition of human recombinant CatD using Mca-GKPILFFRLK(DNP)-dR-NH2 as substrate after 1 hr by fluorescence analysis
1149528	CHEMBL2048049	5.650000	2220.000000	62414	2012	Inhibition of human recombinant CatD using Mca-GKPILFFRLK(DNP)-dR-NH2 as substrate after 1 hr by fluorescence analysis
20163843	CHEMBL3394050	5.650000	2220.000000	90948	2015	Inhibition of cathepsin D (unknown origin)
1243879	CHEMBL2349497	5.640000	2292.000000	72868	2013	Inhibition of human spleen cathepsin D using 5-FAM/QXL as peptide substrate after 1 hr by FRET assay
1004282	CHEMBL1760732	5.640000	2300.000000	57229	2011	Inhibition of human cathepsin D
1148547	CHEMBL2047905	5.640000	2300.000000	62414	2012	Inhibition of human recombinant CatD using Mca-GKPILFFRLK(DNP)-dR-NH2 as substrate after 1 hr by fluorescence analysis
19830158	CHEMBL3127105	5.640000	2300.000000	77102	2014	Inhibition of human spleen cathepsin D measured for 1 hr by FRET assay
20139105	CHEMBL3359763	5.640000	2300.000000	89669	2014	Inhibition of cathepsin D (unknown origin)
495894	CHEMBL568115	5.630000	2330.000000	49114	2010	Inhibition of human cathepsin D by FRET based peptide cleavage assay
494224	CHEMBL567430	5.620000	2400.000000	48738	2009	Inhibition of human cathepsin D by FRET
1005825	CHEMBL1760852	5.620000	2400.000000	57229	2011	Inhibition of human cathepsin D
1020754	CHEMBL1760858	5.620000	2400.000000	57229	2011	Inhibition of human cathepsin D
1151943	CHEMBL2048046	5.620000	2400.000000	62414	2012	Inhibition of human recombinant CatD using Mca-GKPILFFRLK(DNP)-dR-NH2 as substrate after 1 hr by fluorescence analysis
512885	CHEMBL584926	5.620000	2410.000000	49114	2010	Inhibition of human cathepsin D by FRET based peptide cleavage assay
1345837	CHEMBL2425613	5.610000	2450.000000	74904	2013	Inhibition of human cathepsin-D
493091	CHEMBL565995	5.610000	2470.000000	49114	2010	Inhibition of human cathepsin D by FRET based peptide cleavage assay
1148137	CHEMBL2047900	5.610000	2480.000000	62414	2012	Inhibition of human recombinant CatD using Mca-GKPILFFRLK(DNP)-dR-NH2 as substrate after 1 hr by fluorescence analysis
1245062	CHEMBL2349498	5.600000	2513.000000	72868	2013	Inhibition of human spleen cathepsin D using 5-FAM/QXL as peptide substrate after 1 hr by FRET assay
1169112	CHEMBL2047888	5.600000	2520.000000	62414	2012	Inhibition of human recombinant CatD using Mca-GKPILFFRLK(DNP)-dR-NH2 as substrate after 1 hr by fluorescence analysis
1148186	CHEMBL2048061	5.600000	2530.000000	62414	2012	Inhibition of human recombinant CatD using Mca-GKPILFFRLK(DNP)-dR-NH2 as substrate after 1 hr by fluorescence analysis
491195	CHEMBL566011	5.590000	2580.000000	49114	2010	Inhibition of human cathepsin D by FRET based peptide cleavage assay
491195	CHEMBL566011	5.590000	2600.000000	49933	2010	Inhibition of human cathepsin D by FRET assay
19830134	CHEMBL3127081	5.590000	2600.000000	77102	2014	Inhibition of human liver cathepsin D measured for 1 hr by FRET assay
19830157	CHEMBL3127104	5.570000	2700.000000	77102	2014	Inhibition of human liver cathepsin D measured for 1 hr by FRET assay
517146	CHEMBL584695	5.570000	2710.000000	49114	2010	Inhibition of human cathepsin D by FRET based peptide cleavage assay
1148187	CHEMBL2048062	5.550000	2810.000000	62414	2012	Inhibition of human recombinant CatD using Mca-GKPILFFRLK(DNP)-dR-NH2 as substrate after 1 hr by fluorescence analysis
1241476	CHEMBL2349608	5.550000	2829.000000	72868	2013	Inhibition of human spleen cathepsin D using 5-FAM/QXL as peptide substrate after 1 hr by FRET assay
1333313	CHEMBL2408739	5.550000	2844.000000	74444	2013	Inhibition of cathepsin-D (unknown origin) using C-terminal biotinylated peptide substrate treated 30 mins before addition of peptide substrate measured after 110 mins by fluorescence polarization assay
20491103	CHEMBL3765238	5.520000	3000.000000	98301	2016	Inhibition of CatD (unknown origin) preincubated for 30 mins followed by DABCYL-Glu-Arg-Nle-Phe-Leu-Ser-Phe-Pro-EDANS substrate addition by FRET assay
1147731	CHEMBL2048057	5.510000	3070.000000	62414	2012	Inhibition of human recombinant CatD using Mca-GKPILFFRLK(DNP)-dR-NH2 as substrate after 1 hr by fluorescence analysis
1240268	CHEMBL2349479	5.510000	3072.000000	72868	2013	Inhibition of human spleen cathepsin D using 5-FAM/QXL as peptide substrate after 1 hr by FRET assay
498663	CHEMBL567258	5.500000	3150.000000	49114	2010	Inhibition of human cathepsin D by FRET based peptide cleavage assay
20163848	CHEMBL3394055	5.500000	3190.000000	90948	2015	Inhibition of cathepsin D (unknown origin)
19830140	CHEMBL3127087	5.490000	3200.000000	77102	2014	Inhibition of human liver cathepsin D measured for 1 hr by FRET assay
20492287	CHEMBL3765358	5.490000	3200.000000	98301	2016	Inhibition of CatD (unknown origin) preincubated for 30 mins followed by DABCYL-Glu-Arg-Nle-Phe-Leu-Ser-Phe-Pro-EDANS substrate addition by FRET assay
1345842	CHEMBL2425598	5.480000	3290.000000	74904	2013	Inhibition of human cathepsin-D
1345155	CHEMBL2425601	5.470000	3390.000000	74904	2013	Inhibition of human cathepsin-D
20163835	CHEMBL3394042	5.470000	3390.000000	90948	2015	Inhibition of cathepsin D (unknown origin)
1245553	CHEMBL2349615	5.460000	3462.000000	72868	2013	Inhibition of human spleen cathepsin D using 5-FAM/QXL as peptide substrate after 1 hr by FRET assay
517318	CHEMBL585289	5.450000	3510.000000	49114	2010	Inhibition of human cathepsin D by FRET based peptide cleavage assay
1345830	CHEMBL2425606	5.450000	3570.000000	74904	2013	Inhibition of human cathepsin-D
359139	CHEMBL425424	5.440000	3600.000000	31322	2006	Inhibition of Cathepsin D
19830125	CHEMBL3127072	5.430000	3700.000000	77102	2014	Inhibition of human liver cathepsin D measured for 1 hr by FRET assay
1245436	CHEMBL2349507	5.430000	3709.000000	72868	2013	Inhibition of human spleen cathepsin D using 5-FAM/QXL as peptide substrate after 1 hr by FRET assay
1147321	CHEMBL2048056	5.430000	3710.000000	62414	2012	Inhibition of human recombinant CatD using Mca-GKPILFFRLK(DNP)-dR-NH2 as substrate after 1 hr by fluorescence analysis
1150771	CHEMBL2047895	5.430000	3750.000000	62414	2012	Inhibition of human recombinant CatD using Mca-GKPILFFRLK(DNP)-dR-NH2 as substrate after 1 hr by fluorescence analysis
20163849	CHEMBL3394056	5.410000	3870.000000	90948	2015	Inhibition of cathepsin D (unknown origin)
181465	CHEMBL212321	5.410000	3900.000000	31322	2006	Inhibition of Cathepsin D
1152334	CHEMBL2048048	5.400000	3980.000000	62414	2012	Inhibition of human recombinant CatD using Mca-GKPILFFRLK(DNP)-dR-NH2 as substrate after 1 hr by fluorescence analysis
1345842	CHEMBL2425618	5.390000	4030.000000	74904	2013	Inhibition of human cathepsin-D
20163846	CHEMBL3394053	5.390000	4100.000000	90948	2015	Inhibition of cathepsin D (unknown origin)
515576	CHEMBL585506	5.380000	4180.000000	49114	2010	Inhibition of human cathepsin D by FRET based peptide cleavage assay
1240669	CHEMBL2349611	5.360000	4368.000000	72868	2013	Inhibition of human spleen cathepsin D using 5-FAM/QXL as peptide substrate after 1 hr by FRET assay
1150635	CHEMBL2048037	5.360000	4370.000000	62414	2012	Inhibition of human recombinant CatD using Mca-GKPILFFRLK(DNP)-dR-NH2 as substrate after 1 hr by fluorescence analysis
19881755	CHEMBL3264796	5.360000	4400.000000	83020	2014	Inhibition of human cathepsin-D using DABCYL-Glu-Arg-Nle-Phe-Leu-Ser-Phe-Pro-EDANS as substrate preincubated for 30 mins by FRET assay
487700	CHEMBL566212	5.350000	4430.000000	49114	2010	Inhibition of human cathepsin D by FRET based peptide cleavage assay
19830130	CHEMBL3127077	5.340000	4600.000000	77102	2014	Inhibition of human liver cathepsin D measured for 1 hr by FRET assay
20491092	CHEMBL3763404	5.340000	4600.000000	98301	2016	Inhibition of CatD (unknown origin) preincubated for 30 mins followed by DABCYL-Glu-Arg-Nle-Phe-Leu-Ser-Phe-Pro-EDANS substrate addition by FRET assay
1016444	CHEMBL1760861	5.330000	4700.000000	57229	2011	Inhibition of human cathepsin D
644778	CHEMBL212492	5.330000	4710.000000	31794	2006	Inhibition of human cathepsin D
20130344	CHEMBL3344261	5.320000	4800.000000	89236	2014	Inhibition of human cathepsin D assessed as cleavage of wtKAHRP fluorogenic substrate
219674	CHEMBL253165	5.310000	4880.000000	37926	2007	Inhibition of human recombinant cathepsin D
218143	CHEMBL252961	5.310000	4900.000000	37926	2007	Inhibition of human recombinant cathepsin D
1048466	CHEMBL296588	5.300000	5000.000000	48936	2009	Inhibition of cathepsin D in human MCF7 cells treated for 1 hr measured after washout and trypsin treatment by fluorescence assay
495064	CHEMBL567893	5.300000	5000.000000	48936	2009	Inhibition of cathepsin D in human MCF7 cells treated for 1 hr measured after washout and trypsin treatment by fluorescence assay
20491102	CHEMBL3764174	5.300000	5000.000000	98301	2016	Inhibition of CatD (unknown origin) preincubated for 30 mins followed by DABCYL-Glu-Arg-Nle-Phe-Leu-Ser-Phe-Pro-EDANS substrate addition by FRET assay
20130578	CHEMBL3344166	5.290000	5100.000000	89236	2014	Inhibition of human cathepsin D assessed as cleavage of wtKAHRP fluorogenic substrate
1242878	CHEMBL2349470	5.290000	5166.000000	72868	2013	Inhibition of human spleen cathepsin D using 5-FAM/QXL as peptide substrate after 1 hr by FRET assay
491510	CHEMBL566223	5.280000	5200.000000	49114	2010	Inhibition of human cathepsin D by FRET based peptide cleavage assay
1148379	CHEMBL2047915	5.280000	5200.000000	62414	2012	Inhibition of human recombinant CatD using Mca-GKPILFFRLK(DNP)-dR-NH2 as substrate after 1 hr by fluorescence analysis
1021422	CHEMBL1760729	5.270000	5400.000000	57229	2011	Inhibition of human cathepsin D
19830141	CHEMBL3127088	5.270000	5400.000000	77102	2014	Inhibition of human liver cathepsin D measured for 1 hr by FRET assay
1150021	CHEMBL2047897	5.260000	5530.000000	62414	2012	Inhibition of human recombinant CatD using Mca-GKPILFFRLK(DNP)-dR-NH2 as substrate after 1 hr by fluorescence analysis
19881757	CHEMBL3264798	5.240000	5800.000000	83020	2014	Inhibition of human cathepsin-D using DABCYL-Glu-Arg-Nle-Phe-Leu-Ser-Phe-Pro-EDANS as substrate preincubated for 30 mins by FRET assay
20163836	CHEMBL3394043	5.240000	5800.000000	90948	2015	Inhibition of cathepsin D (unknown origin)
180930	CHEMBL212102	5.220000	6000.000000	31322	2006	Inhibition of Cathepsin D
20492686	CHEMBL3763523	5.220000	6000.000000	98301	2016	Inhibition of CatD (unknown origin) preincubated for 30 mins followed by DABCYL-Glu-Arg-Nle-Phe-Leu-Ser-Phe-Pro-EDANS substrate addition by FRET assay
368749	CHEMBL437961	5.220000	6042.000000	37926	2007	Inhibition of human recombinant cathepsin D
20118996	CHEMBL3321918	5.210000	6100.000000	90656	2014	Inhibition of human liver cathepsin D using MCA-labeled GKPILFFRLK(Dnp)-D-R-NH2 peptide by fluorescence-based assay
19830139	CHEMBL3127086	5.210000	6200.000000	77102	2014	Inhibition of human liver cathepsin D measured for 1 hr by FRET assay
513413	CHEMBL583899	5.210000	6220.000000	49114	2010	Inhibition of human cathepsin D by FRET based peptide cleavage assay
491919	CHEMBL565996	5.200000	6280.000000	49114	2010	Inhibition of human cathepsin D by FRET based peptide cleavage assay
19830142	CHEMBL3127089	5.200000	6300.000000	77102	2014	Inhibition of human liver cathepsin D measured for 1 hr by FRET assay
1242933	CHEMBL2349616	5.200000	6340.000000	72868	2013	Inhibition of human spleen cathepsin D using 5-FAM/QXL as peptide substrate after 1 hr by FRET assay
972177	CHEMBL1615184	5.190000	6400.000000	57229	2011	Inhibition of human cathepsin D
20152888	CHEMBL3422246	5.180000	6600.000000	91664	2015	Inhibition of CatD (unknown origin) assessed as fluorescence polarization by cell free assay
489125	CHEMBL567688	5.170000	6700.000000	49114	2010	Inhibition of human cathepsin D by FRET based peptide cleavage assay
1240709	CHEMBL2349606	5.170000	6760.000000	72868	2013	Inhibition of human spleen cathepsin D using 5-FAM/QXL as peptide substrate after 1 hr by FRET assay
1345158	CHEMBL2425604	5.170000	6830.000000	74904	2013	Inhibition of human cathepsin-D
178553	CHEMBL210022	5.160000	6900.000000	31322	2006	Inhibition of Cathepsin D
505686	CHEMBL576258	5.160000	6900.000000	48738	2009	Inhibition of human cathepsin D by FRET
336026	CHEMBL398925	5.160000	6946.000000	37926	2007	Inhibition of human recombinant cathepsin D
1005462	CHEMBL1760853	5.150000	7100.000000	57229	2011	Inhibition of human cathepsin D
495893	CHEMBL568114	5.140000	7300.000000	49114	2010	Inhibition of human cathepsin D by FRET based peptide cleavage assay
19830153	CHEMBL3127100	5.120000	7500.000000	77102	2014	Inhibition of human liver cathepsin D measured for 1 hr by FRET assay
218778	CHEMBL252549	5.120000	7593.000000	37926	2007	Inhibition of human recombinant cathepsin D
189744	CHEMBL221454	5.120000	7620.000000	35290	2004	Inhibition of cathepsin D
318586	CHEMBL378225	5.120000	7620.000000	75288	2013	Inhibition of human cathepsin D
1345156	CHEMBL2425602	5.100000	7900.000000	74904	2013	Inhibition of human cathepsin-D
1151162	CHEMBL2047892	5.100000	7990.000000	62414	2012	Inhibition of human recombinant CatD using Mca-GKPILFFRLK(DNP)-dR-NH2 as substrate after 1 hr by fluorescence analysis
20152887	CHEMBL3422245	5.100000	8000.000000	91664	2015	Inhibition of CatD (unknown origin) assessed as fluorescence polarization by cell free assay
1245090	CHEMBL2349488	5.090000	8096.000000	72868	2013	Inhibition of human spleen cathepsin D using 5-FAM/QXL as peptide substrate after 1 hr by FRET assay
620468	CHEMBL461602	5.090000	8100.000000	47495	2009	Inhibition of human cathepsin D
495370	CHEMBL567061	5.090000	8180.000000	49114	2010	Inhibition of human cathepsin D by FRET based peptide cleavage assay
500309	CHEMBL566638	5.080000	8300.000000	49114	2010	Inhibition of human cathepsin D by FRET based peptide cleavage assay
20119002	CHEMBL3321924	5.080000	8300.000000	90656	2014	Inhibition of human liver cathepsin D using MCA-labeled GKPILFFRLK(Dnp)-D-R-NH2 peptide by fluorescence-based assay
516947	CHEMBL585286	5.080000	8400.000000	49114	2010	Inhibition of human cathepsin D by FRET based peptide cleavage assay
494008	CHEMBL566633	5.070000	8550.000000	49114	2010	Inhibition of human cathepsin D by FRET based peptide cleavage assay
20491507	CHEMBL3763159	5.070000	8600.000000	98301	2016	Inhibition of CatD (unknown origin) preincubated for 30 mins followed by DABCYL-Glu-Arg-Nle-Phe-Leu-Ser-Phe-Pro-EDANS substrate addition by FRET assay
1246300	CHEMBL2349501	5.060000	8611.000000	72868	2013	Inhibition of human spleen cathepsin D using 5-FAM/QXL as peptide substrate after 1 hr by FRET assay
182860	CHEMBL213373	5.050000	8900.000000	31794	2006	Inhibition of human cathepsin D
182942	CHEMBL213300	5.050000	9000.000000	31322	2006	Inhibition of Cathepsin D
20491095	CHEMBL3763524	5.050000	9000.000000	98301	2016	Inhibition of CatD (unknown origin) preincubated for 30 mins followed by DABCYL-Glu-Arg-Nle-Phe-Leu-Ser-Phe-Pro-EDANS substrate addition by FRET assay
20489823	CHEMBL3764837	5.050000	9000.000000	98301	2016	Inhibition of CatD (unknown origin) preincubated for 30 mins followed by DABCYL-Glu-Arg-Nle-Phe-Leu-Ser-Phe-Pro-EDANS substrate addition by FRET assay
1240091	CHEMBL2349481	5.040000	9034.000000	72868	2013	Inhibition of human spleen cathepsin D using 5-FAM/QXL as peptide substrate after 1 hr by FRET assay
493716	CHEMBL567653	5.040000	9200.000000	48738	2009	Inhibition of human cathepsin D by FRET
496686	CHEMBL571320	5.040000	9210.000000	49114	2010	Inhibition of human cathepsin D by FRET based peptide cleavage assay
189818	CHEMBL221543	5.030000	9400.000000	71567	2013	Inhibition of cathepsin D (unknown origin) using hemoglobin as substrate after 30 min by spectrophotometric analysis
20152879	CHEMBL3422237	5.030000	9400.000000	91664	2015	Inhibition of CatD (unknown origin) assessed as fluorescence polarization by cell free assay
496261	CHEMBL566968	5.020000	9600.000000	48738	2009	Inhibition of human cathepsin D by FRET
341008	CHEMBL401141	5.010000	9669.000000	37926	2007	Inhibition of human recombinant cathepsin D
1345829	CHEMBL2425605	5.010000	9680.000000	74904	2013	Inhibition of human cathepsin-D
179214	CHEMBL211152	5.010000	9700.000000	31322	2006	Inhibition of Cathepsin D
554890	CHEMBL1088572	5.010000	9790.000000	50421	2010	Inhibition of human cathepsin D by enzyme assay
487597	CHEMBL566407	5.000000	10100.000000	49114	2010	Inhibition of human cathepsin D by FRET based peptide cleavage assay
1243403	CHEMBL2349480	4.990000	10144.000000	72868	2013	Inhibition of human spleen cathepsin D using 5-FAM/QXL as peptide substrate after 1 hr by FRET assay
487596	CHEMBL566406	4.990000	10300.000000	49114	2010	Inhibition of human cathepsin D by FRET based peptide cleavage assay
490194	CHEMBL566112	4.970000	10700.000000	48738	2009	Inhibition of human cathepsin D by FRET
487810	CHEMBL565914	4.970000	10800.000000	48738	2009	Inhibition of human cathepsin D by FRET
512493	CHEMBL584917	4.960000	10900.000000	49114	2010	Inhibition of human cathepsin D by FRET based peptide cleavage assay
217529	CHEMBL252755	4.960000	10986.000000	37926	2007	Inhibition of human recombinant cathepsin D
1219533	CHEMBL2322896	4.960000	11000.000000	72177	2013	Inhibition of human recombinant cathepsin-D expressed in baculovirus-infected insect sf9 cells using Ac- E-D(EDANS)-KPILFFRLG-K(Dabcyl)-E-Amid as substrate incubated for 1 hr prior to substrate addition measured after 1 hr by FRET-based enzymatic assay
19830124	CHEMBL3127071	4.960000	11000.000000	77102	2014	Inhibition of human liver cathepsin D measured for 1 hr by FRET assay
19830143	CHEMBL3127090	4.960000	11000.000000	77102	2014	Inhibition of human liver cathepsin D measured for 1 hr by FRET assay
512365	CHEMBL584284	4.950000	11100.000000	49114	2010	Inhibition of human cathepsin D by FRET based peptide cleavage assay
344259	CHEMBL399749	4.950000	11202.000000	37926	2007	Inhibition of human recombinant cathepsin D
500379	CHEMBL568960	4.950000	11300.000000	48738	2009	Inhibition of human cathepsin D by FRET
486900	CHEMBL566198	4.940000	11530.000000	49114	2010	Inhibition of human cathepsin D by FRET based peptide cleavage assay
494007	CHEMBL566632	4.940000	11570.000000	49114	2010	Inhibition of human cathepsin D by FRET based peptide cleavage assay
20163837	CHEMBL3394044	4.940000	11600.000000	90948	2015	Inhibition of cathepsin D (unknown origin)
218074	CHEMBL252962	4.930000	11700.000000	37926	2007	Inhibition of human recombinant cathepsin D
1243352	CHEMBL2349487	4.930000	11844.000000	72868	2013	Inhibition of human spleen cathepsin D using 5-FAM/QXL as peptide substrate after 1 hr by FRET assay
19830144	CHEMBL3127091	4.920000	12000.000000	77102	2014	Inhibition of human liver cathepsin D measured for 1 hr by FRET assay
20152884	CHEMBL3422242	4.920000	12000.000000	104950	2018	Inhibition of recombinant cathepsin D (unknown origin)
489124	CHEMBL567687	4.910000	12200.000000	49114	2010	Inhibition of human cathepsin D by FRET based peptide cleavage assay
181906	CHEMBL213744	4.910000	12290.000000	31794	2006	Inhibition of human cathepsin D
488656	CHEMBL566200	4.900000	12500.000000	49114	2010	Inhibition of human cathepsin D by FRET based peptide cleavage assay
488656	CHEMBL566200	4.900000	12500.000000	49933	2010	Inhibition of human cathepsin D by FRET assay
20152880	CHEMBL3422238	4.880000	13100.000000	91664	2015	Inhibition of CatD (unknown origin) assessed as fluorescence polarization by cell free assay
513757	CHEMBL585120	4.880000	13140.000000	49114	2010	Inhibition of human cathepsin D by FRET based peptide cleavage assay
516225	CHEMBL585128	4.870000	13370.000000	49114	2010	Inhibition of human cathepsin D by FRET based peptide cleavage assay
20489822	CHEMBL3764405	4.860000	13800.000000	98301	2016	Inhibition of CatD (unknown origin) preincubated for 30 mins followed by DABCYL-Glu-Arg-Nle-Phe-Leu-Ser-Phe-Pro-EDANS substrate addition by FRET assay
20152878	CHEMBL3422236	4.860000	13900.000000	91664	2015	Inhibition of CatD (unknown origin) assessed as fluorescence polarization by cell free assay
19830138	CHEMBL3127085	4.850000	14000.000000	77102	2014	Inhibition of human liver cathepsin D measured for 1 hr by FRET assay
515250	CHEMBL584109	4.850000	14100.000000	49114	2010	Inhibition of human cathepsin D by FRET based peptide cleavage assay
1090553	CHEMBL1941014	4.850000	14200.000000	60858	2012	Inhibition of human cathepsin D using DABCYL-Glu-Arg-Nle-Phe-Leu-Ser-Phe-Pro-EDANS as substrate by FRET analysis
20152884	CHEMBL3422242	4.850000	14200.000000	91664	2015	Inhibition of CatD (unknown origin) assessed as fluorescence polarization by cell free assay
491196	CHEMBL566012	4.840000	14300.000000	49114	2010	Inhibition of human cathepsin D by FRET based peptide cleavage assay
1242609	CHEMBL2349607	4.830000	14704.000000	72868	2013	Inhibition of human spleen cathepsin D using 5-FAM/QXL as peptide substrate after 1 hr by FRET assay
19830146	CHEMBL3127093	4.820000	15000.000000	77102	2014	Inhibition of human spleen cathepsin D measured for 1 hr by FRET assay
238071	CHEMBL116	4.820000	15200.000000	46830	2007	Inhibition of human cathepsin D
517145	CHEMBL584694	4.810000	15320.000000	49114	2010	Inhibition of human cathepsin D by FRET based peptide cleavage assay
513999	CHEMBL583608	4.810000	15400.000000	48738	2009	Inhibition of human cathepsin D by FRET
20152883	CHEMBL3422241	4.800000	15700.000000	91664	2015	Inhibition of CatD (unknown origin) assessed as fluorescence polarization by cell free assay
515417	CHEMBL583888	4.780000	16440.000000	48738	2009	Inhibition of human cathepsin D by FRET
516858	CHEMBL584267	4.780000	16500.000000	48738	2009	Inhibition of human cathepsin D by FRET
1240072	CHEMBL2349499	4.770000	16820.000000	72868	2013	Inhibition of human spleen cathepsin D using 5-FAM/QXL as peptide substrate after 1 hr by FRET assay
521312	CHEMBL590830	4.770000	17100.000000	49463	2010	Inhibition of human cathepsin D by FRET assay
515876	CHEMBL584288	4.740000	18100.000000	48738	2009	Inhibition of human cathepsin D by FRET
101381	CHEMBL169	4.740000	18200.000000	71567	2013	Inhibition of cathepsin D (unknown origin) using hemoglobin as substrate after 30 min by spectrophotometric analysis
20152886	CHEMBL3422244	4.720000	19100.000000	91664	2015	Inhibition of CatD (unknown origin) assessed as fluorescence polarization by cell free assay
20152885	CHEMBL3422243	4.710000	19300.000000	91664	2015	Inhibition of CatD (unknown origin) assessed as fluorescence polarization by cell free assay
20491094	CHEMBL3763955	4.710000	19500.000000	98301	2016	Inhibition of CatD (unknown origin) preincubated for 30 mins followed by DABCYL-Glu-Arg-Nle-Phe-Leu-Ser-Phe-Pro-EDANS substrate addition by FRET assay
496685	CHEMBL571319	4.680000	20780.000000	49114	2010	Inhibition of human cathepsin D by FRET based peptide cleavage assay
1090554	CHEMBL1941015	4.670000	21200.000000	60858	2012	Inhibition of human cathepsin D using DABCYL-Glu-Arg-Nle-Phe-Leu-Ser-Phe-Pro-EDANS as substrate by FRET analysis
487313	CHEMBL566415	4.670000	21440.000000	49114	2010	Inhibition of human cathepsin D by FRET based peptide cleavage assay
20489822	CHEMBL3764405	4.660000	22000.000000	98301	2016	Inhibition of CatD (unknown origin) preincubated for 30 mins followed by DABCYL-Glu-Arg-Nle-Phe-Leu-Ser-Phe-Pro-EDANS substrate addition by FRET assay
1333526	CHEMBL2408754	4.650000	22506.000000	74444	2013	Inhibition of cathepsin-D (unknown origin) using C-terminal biotinylated peptide substrate treated 30 mins before addition of peptide substrate measured after 110 mins by fluorescence polarization assay
490652	CHEMBL566403	4.640000	23100.000000	49114	2010	Inhibition of human cathepsin D by FRET based peptide cleavage assay
633306	CHEMBL566414	4.620000	23920.000000	49114	2010	Inhibition of human cathepsin D by FRET based peptide cleavage assay
603563	CHEMBL599965	4.620000	24000.000000	49463	2010	Inhibition of human cathepsin D by FRET assay
19830154	CHEMBL3127101	4.620000	24000.000000	77102	2014	Inhibition of human liver cathepsin D measured for 1 hr by FRET assay
496290	CHEMBL568506	4.600000	24900.000000	48738	2009	Inhibition of human cathepsin D by FRET
20118999	CHEMBL3321921	4.600000	25000.000000	90656	2014	Inhibition of human liver cathepsin D using MCA-labeled GKPILFFRLK(Dnp)-D-R-NH2 peptide by fluorescence-based assay
20491093	CHEMBL3764953	4.600000	25000.000000	98301	2016	Inhibition of CatD (unknown origin) preincubated for 30 mins followed by DABCYL-Glu-Arg-Nle-Phe-Leu-Ser-Phe-Pro-EDANS substrate addition by FRET assay
20150679	CHEMBL3414711	4.600000	25100.000000	91520	2015	Inhibition of CatD (unknown origin) by fluorescence polarization assay
487158	CHEMBL566404	4.580000	26180.000000	49114	2010	Inhibition of human cathepsin D by FRET based peptide cleavage assay
512966	CHEMBL585952	4.560000	27280.000000	49114	2010	Inhibition of human cathepsin D by FRET based peptide cleavage assay
20119000	CHEMBL3321922	4.540000	29000.000000	90656	2014	Inhibition of human liver cathepsin D using MCA-labeled GKPILFFRLK(Dnp)-D-R-NH2 peptide by fluorescence-based assay
20129572	CHEMBL3344263	4.540000	29000.000000	89236	2014	Inhibition of human cathepsin D assessed as cleavage of wtKAHRP fluorogenic substrate
1244633	CHEMBL2349465	4.530000	29540.000000	72868	2013	Inhibition of human spleen cathepsin D using 5-FAM/QXL as peptide substrate after 1 hr by FRET assay
533877	CHEMBL598876	4.520000	30000.000000	49933	2010	Inhibition of human cathepsin D by FRET assay
1088051	CHEMBL1941007	4.500000	31900.000000	60858	2012	Inhibition of human cathepsin D using DABCYL-Glu-Arg-Nle-Phe-Leu-Ser-Phe-Pro-EDANS as substrate by FRET analysis
1088477	CHEMBL1941010	4.500000	31900.000000	60858	2012	Inhibition of human cathepsin D using DABCYL-Glu-Arg-Nle-Phe-Leu-Ser-Phe-Pro-EDANS as substrate by FRET analysis
20130484	CHEMBL3344272	4.490000	32000.000000	89236	2014	Inhibition of human cathepsin D assessed as cleavage of wtKAHRP fluorogenic substrate
491393	CHEMBL566548	4.480000	33000.000000	48738	2009	Inhibition of human cathepsin D by FRET
509179	CHEMBL582045	4.440000	36200.000000	48738	2009	Inhibition of human cathepsin D by FRET
496386	CHEMBL567485	4.440000	36600.000000	49114	2010	Inhibition of human cathepsin D by FRET based peptide cleavage assay
1243930	CHEMBL2349502	4.420000	37940.000000	72868	2013	Inhibition of human spleen cathepsin D using 5-FAM/QXL as peptide substrate after 1 hr by FRET assay
488093	CHEMBL566007	4.420000	38180.000000	49114	2010	Inhibition of human cathepsin D by FRET based peptide cleavage assay
1096644	CHEMBL1941012	4.410000	39200.000000	60858	2012	Inhibition of human cathepsin D using DABCYL-Glu-Arg-Nle-Phe-Leu-Ser-Phe-Pro-EDANS as substrate by FRET analysis
19830128	CHEMBL3127075	4.380000	42000.000000	77102	2014	Inhibition of human liver cathepsin D measured for 1 hr by FRET assay
35213	CHEMBL43185	4.370000	42300.000000	71567	2013	Inhibition of cathepsin D (unknown origin) using hemoglobin as substrate after 30 min by spectrophotometric analysis
1245155	CHEMBL2349489	4.350000	44161.000000	72868	2013	Inhibition of human spleen cathepsin D using 5-FAM/QXL as peptide substrate after 1 hr by FRET assay
1087097	CHEMBL1941011	4.350000	44500.000000	60858	2012	Inhibition of human cathepsin D using DABCYL-Glu-Arg-Nle-Phe-Leu-Ser-Phe-Pro-EDANS as substrate by FRET analysis
20150678	CHEMBL3414710	4.350000	45000.000000	91520	2015	Inhibition of CatD (unknown origin) by fluorescence polarization assay
19829510	CHEMBL3124962	4.330000	47000.000000	77102	2014	Inhibition of human liver cathepsin D measured for 1 hr by FRET assay
499134	CHEMBL567654	4.320000	47400.000000	48738	2009	Inhibition of human cathepsin D by FRET
1240203	CHEMBL2349464	4.310000	48603.000000	72868	2013	Inhibition of human spleen cathepsin D using 5-FAM/QXL as peptide substrate after 1 hr by FRET assay
1245923	CHEMBL2349503	4.300000	49700.000000	72868	2013	Inhibition of human spleen cathepsin D using 5-FAM/QXL as peptide substrate after 1 hr by FRET assay
20510064	CHEMBL3763900	4.280000	52000.000000	98301	2016	Inhibition of CatD (unknown origin) preincubated for 30 mins followed by DABCYL-Glu-Arg-Nle-Phe-Leu-Ser-Phe-Pro-EDANS substrate addition by FRET assay
498125	CHEMBL566977	4.280000	52500.000000	48738	2009	Inhibition of human cathepsin D by FRET
20489821	CHEMBL3764744	4.270000	53400.000000	98301	2016	Inhibition of CatD (unknown origin) preincubated for 30 mins followed by DABCYL-Glu-Arg-Nle-Phe-Leu-Ser-Phe-Pro-EDANS substrate addition by FRET assay
523699	CHEMBL598290	4.270000	54000.000000	49933	2010	Inhibition of human cathepsin D by FRET assay
516426	CHEMBL584509	4.240000	56900.000000	48738	2009	Inhibition of human cathepsin D by FRET
19830131	CHEMBL3127078	4.240000	57000.000000	77102	2014	Inhibition of human liver cathepsin D measured for 1 hr by FRET assay
19830150	CHEMBL3127097	4.240000	57000.000000	77102	2014	Inhibition of human liver cathepsin D measured for 1 hr by FRET assay
1243335	CHEMBL2349466	4.220000	59798.000000	72868	2013	Inhibition of human spleen cathepsin D using 5-FAM/QXL as peptide substrate after 1 hr by FRET assay
20150677	CHEMBL3414709	4.200000	63000.000000	91520	2015	Inhibition of CatD (unknown origin) by fluorescence polarization assay
498126	CHEMBL566978	4.200000	63400.000000	48738	2009	Inhibition of human cathepsin D by FRET
19830152	CHEMBL3127099	4.160000	69000.000000	77102	2014	Inhibition of human liver cathepsin D measured for 1 hr by FRET assay
509971	CHEMBL578410	4.160000	69180.000000	49114	2010	Inhibition of human cathepsin D by FRET based peptide cleavage assay
509815	CHEMBL582828	4.160000	69500.000000	48738	2009	Inhibition of human cathepsin D by FRET
20150675	CHEMBL3414707	4.140000	72000.000000	91520	2015	Inhibition of CatD (unknown origin) by fluorescence polarization assay
20152877	CHEMBL3422235	4.130000	74900.000000	91664	2015	Inhibition of CatD (unknown origin) assessed as fluorescence polarization by cell free assay
19830148	CHEMBL3127095	4.120000	76000.000000	77102	2014	Inhibition of human spleen cathepsin D measured for 1 hr by FRET assay
512238	CHEMBL584521	4.100000	78700.000000	48738	2009	Inhibition of human cathepsin D by FRET
1242436	CHEMBL2349471	4.050000	88464.000000	72868	2013	Inhibition of human spleen cathepsin D using 5-FAM/QXL as peptide substrate after 1 hr by FRET assay
20509683	CHEMBL3763489	4.040000	91000.000000	98301	2016	Inhibition of CatD (unknown origin) preincubated for 30 mins followed by DABCYL-Glu-Arg-Nle-Phe-Leu-Ser-Phe-Pro-EDANS substrate addition by FRET assay
515088	CHEMBL583887	4.030000	93700.000000	48738	2009	Inhibition of human cathepsin D by FRET
19830151	CHEMBL3127098	4.020000	96000.000000	77102	2014	Inhibition of human liver cathepsin D measured for 1 hr by FRET assay
1240534	CHEMBL2349610	4.010000	97740.000000	72868	2013	Inhibition of human spleen cathepsin D using 5-FAM/QXL as peptide substrate after 1 hr by FRET assay
20492286	CHEMBL3764518	4.000000	100000.000000	98301	2016	Inhibition of CatD (unknown origin) preincubated for 30 mins followed by DABCYL-Glu-Arg-Nle-Phe-Leu-Ser-Phe-Pro-EDANS substrate addition by FRET assay
457203	CHEMBL1821803	3.970000	108000.000000	99330	2016	Inhibition of Cathepsin D (unknown origin) by fluorescence assay
19830145	CHEMBL3127092	3.920000	120000.000000	77102	2014	Inhibition of human liver cathepsin D measured for 1 hr by FRET assay
19830126	CHEMBL3127073	3.850000	140000.000000	77102	2014	Inhibition of human liver cathepsin D measured for 1 hr by FRET assay
506523	CHEMBL583213	3.820000	150100.000000	48738	2009	Inhibition of human cathepsin D by FRET
19830127	CHEMBL3127074	3.800000	160000.000000	77102	2014	Inhibition of human liver cathepsin D measured for 1 hr by FRET assay
19830147	CHEMBL3127094	3.770000	170000.000000	77102	2014	Inhibition of human spleen cathepsin D measured for 1 hr by FRET assay
1244660	CHEMBL2349609	3.740000	180420.000000	72868	2013	Inhibition of human spleen cathepsin D using 5-FAM/QXL as peptide substrate after 1 hr by FRET assay
20492685	CHEMBL3763442	3.660000	220000.000000	98301	2016	Inhibition of CatD (unknown origin) preincubated for 30 mins followed by DABCYL-Glu-Arg-Nle-Phe-Leu-Ser-Phe-Pro-EDANS substrate addition by FRET assay
319944	CHEMBL378015	3.640000	231500.000000	31794	2006	Inhibition of human cathepsin D
20410580	CHEMBL3586132	3.560000	277000.000000	92564	2015	Inhibition of human cathepsin D
20516219	CHEMBL3809662	3.330000	470000.000000	99330	2016	Inhibition of Cathepsin D (unknown origin) by fluorescence assay
20408690	CHEMBL3586138	3.100000	797000.000000	92564	2015	Inhibition of human cathepsin D
