lsi_index	chembl-id	pot.(log,IC50)	pot.(muMol,IC50)	doc_id	year	description
184927	CHEMBL215969	11.000000	0.010000	31708	2006	Inhibition of Lck by HTRF kinase assay
179795	CHEMBL212181	10.150000	0.070000	31708	2006	Inhibition of Lck by HTRF kinase assay
184764	CHEMBL215943	9.700000	0.200000	31708	2006	Inhibition of Lck by HTRF kinase assay
328469	CHEMBL385937	9.700000	0.200000	31708	2006	Inhibition of Lck by HTRF kinase assay
600414	CHEMBL386118	9.700000	0.200000	31833	2006	Inhibition of human Lck in presence of ATP
181164	CHEMBL212128	9.520000	0.300000	31708	2006	Inhibition of Lck by HTRF kinase assay
182598	CHEMBL212964	9.520000	0.300000	31708	2006	Inhibition of Lck by HTRF kinase assay
347621	CHEMBL405630	9.520000	0.300000	31833	2006	Inhibition of human Lck in presence of ATP
362678	CHEMBL427233	9.520000	0.300000	31708	2006	Inhibition of Lck by HTRF kinase assay
536057	CHEMBL607366	9.520000	0.300000	49438	2010	Inhibition of GST-tagged human LCK by scintillation counting
181057	CHEMBL212900	9.400000	0.400000	31708	2006	Inhibition of Lck by HTRF kinase assay
181910	CHEMBL213831	9.400000	0.400000	31708	2006	Inhibition of Lck by HTRF kinase assay
183372	CHEMBL214530	9.400000	0.400000	31708	2006	Inhibition of Lck by HTRF kinase assay
329311	CHEMBL1421	9.400000	0.400000	35313	2004	Inhibition of lck inase
329311	CHEMBL1421	9.400000	0.400000	31833	2006	Inhibition of human Lck in presence of ATP
519127	CHEMBL591324	9.390000	0.410000	49438	2010	Inhibition of GST-tagged human LCK by scintillation counting
158382	CHEMBL186568	9.300000	0.500000	31833	2006	Inhibition of human Lck in presence of ATP
160581	CHEMBL189649	9.300000	0.500000	31833	2006	Inhibition of human Lck in presence of ATP
182513	CHEMBL212953	9.300000	0.500000	31708	2006	Inhibition of Lck by HTRF kinase assay
183707	CHEMBL215019	9.300000	0.500000	31708	2006	Inhibition of Lck by HTRF kinase assay
184798	CHEMBL215745	9.300000	0.500000	31708	2006	Inhibition of Lck by HTRF kinase assay
236020	CHEMBL273250	9.300000	0.500000	31833	2006	Inhibition of human Lck in presence of ATP
326227	CHEMBL386661	9.300000	0.500000	31708	2006	Inhibition of Lck by HTRF kinase assay
517855	CHEMBL592260	9.290000	0.510000	49438	2010	Inhibition of GST-tagged human LCK by scintillation counting
519580	CHEMBL592262	9.260000	0.550000	49438	2010	Inhibition of GST-tagged human LCK by scintillation counting
526228	CHEMBL596079	9.250000	0.560000	49438	2010	Inhibition of GST-tagged human LCK by scintillation counting
183385	CHEMBL215691	9.220000	0.600000	31708	2006	Inhibition of Lck by HTRF kinase assay
184718	CHEMBL215813	9.220000	0.600000	31708	2006	Inhibition of Lck by HTRF kinase assay
309053	CHEMBL365505	9.220000	0.600000	31833	2006	Inhibition of human Lck in presence of ATP
334379	CHEMBL386760	9.220000	0.600000	31529	2006	Inhibition of Lck in presence of 0.5 uM ATP by HTRF kinase assay
183024	CHEMBL214617	9.150000	0.700000	31833	2006	Inhibition of human Lck in presence of ATP
184985	CHEMBL216240	9.150000	0.700000	31833	2006	Inhibition of human Lck in presence of ATP
519128	CHEMBL591325	9.140000	0.720000	49438	2010	Inhibition of GST-tagged human LCK by scintillation counting
530862	CHEMBL601096	9.120000	0.750000	49438	2010	Inhibition of GST-tagged human LCK by scintillation counting
521033	CHEMBL591793	9.110000	0.770000	49438	2010	Inhibition of GST-tagged human LCK by scintillation counting
526326	CHEMBL595624	9.100000	0.800000	49438	2010	Inhibition of GST-tagged human LCK by scintillation counting
182699	CHEMBL213428	9.050000	0.900000	31708	2006	Inhibition of Lck by HTRF kinase assay
19890460	CHEMBL3290125	9.050000	0.900000	83959	2014	Inhibition of Lck (unknown origin) after 1 hr by HTRF assay
515926	CHEMBL582959	9.030000	0.940000	49438	2010	Inhibition of GST-tagged human LCK by scintillation counting
91483	CHEMBL108907	9.000000	1.000000	5174	2002	50% inhibition of the phosphorylation of an exogenous substrate by human Lck enzyme.
180936	CHEMBL212668	9.000000	1.000000	31529	2006	Inhibition of Lck in presence of 0.5 uM ATP by HTRF kinase assay
181799	CHEMBL211460	9.000000	1.000000	31529	2006	Inhibition of Lck in presence of 0.5 uM ATP by HTRF kinase assay
182457	CHEMBL212721	9.000000	1.000000	31529	2006	Inhibition of Lck in presence of 0.5 uM ATP by HTRF kinase assay
182548	CHEMBL215289	9.000000	1.000000	31529	2006	Inhibition of Lck in presence of 0.5 uM ATP by HTRF kinase assay
183504	CHEMBL214775	9.000000	1.000000	31529	2006	Inhibition of Lck in presence of 0.5 uM ATP by HTRF kinase assay
184650	CHEMBL215730	9.000000	1.000000	31529	2006	Inhibition of Lck in presence of 0.5 uM ATP by HTRF kinase assay
184697	CHEMBL215863	9.000000	1.000000	31708	2006	Inhibition of Lck by HTRF kinase assay
187292	CHEMBL219584	9.000000	1.000000	35004	2007	Inhibition of LCK
228017	CHEMBL264803	9.000000	1.000000	31529	2006	Inhibition of Lck in presence of 0.5 uM ATP by HTRF kinase assay
228913	CHEMBL263769	9.000000	1.000000	31529	2006	Inhibition of Lck in presence of 0.5 uM ATP by HTRF kinase assay
306488	CHEMBL364623	9.000000	1.000000	31833	2006	Inhibition of human Lck in presence of ATP
322034	CHEMBL379080	9.000000	1.000000	31529	2006	Inhibition of Lck in presence of 0.5 uM ATP by HTRF kinase assay
325850	CHEMBL379733	9.000000	1.000000	31529	2006	Inhibition of Lck in presence of 0.5 uM ATP by HTRF kinase assay
363160	CHEMBL427998	9.000000	1.000000	35004	2007	Inhibition of LCK
363208	CHEMBL427226	9.000000	1.000000	31708	2006	Inhibition of Lck by HTRF kinase assay
519481	CHEMBL591326	9.000000	1.000000	49438	2010	Inhibition of GST-tagged human LCK by scintillation counting
526491	CHEMBL595401	9.000000	1.000000	49438	2010	Inhibition of GST-tagged human LCK by scintillation counting
537622	CHEMBL605724	9.000000	1.000000	49438	2010	Inhibition of GST-tagged human LCK by scintillation counting
601610	CHEMBL211845	9.000000	1.000000	31529	2006	Inhibition of Lck in presence of 0.5 uM ATP by HTRF kinase assay
602694	CHEMBL212143	9.000000	1.000000	31529	2006	Inhibition of Lck in presence of 0.5 uM ATP by HTRF kinase assay
616962	CHEMBL220874	9.000000	1.000000	35004	2007	Inhibition of LCK
632008	CHEMBL442485	9.000000	1.000000	31529	2006	Inhibition of Lck in presence of 0.5 uM ATP by HTRF kinase assay
655715	CHEMBL385898	9.000000	1.000000	31529	2006	Inhibition of Lck in presence of 0.5 uM ATP by HTRF kinase assay
538973	CHEMBL603859	8.960000	1.100000	49438	2010	Inhibition of GST-tagged human LCK by scintillation counting
160342	CHEMBL189776	8.920000	1.200000	31833	2006	Inhibition of human Lck in presence of ATP
334370	CHEMBL386745	8.920000	1.200000	31833	2006	Inhibition of human Lck in presence of ATP
520139	CHEMBL591322	8.920000	1.200000	49438	2010	Inhibition of GST-tagged human LCK by scintillation counting
529719	CHEMBL603737	8.920000	1.200000	49438	2010	Inhibition of GST-tagged human LCK by scintillation counting
186180	CHEMBL217039	8.890000	1.300000	31833	2006	Inhibition of human Lck in presence of ATP
490952	CHEMBL566515	8.890000	1.300000	72364	2013	Inhibition of Lck (unknown origin) using [gamma-33P]ATP after 30 mins by radiometric assay
519579	CHEMBL592261	8.820000	1.500000	49438	2010	Inhibition of GST-tagged human LCK by scintillation counting
519988	CHEMBL591559	8.820000	1.500000	49438	2010	Inhibition of GST-tagged human LCK by scintillation counting
92040	CHEMBL108362	8.770000	1.700000	5174	2002	50% inhibition of the phosphorylation of an exogenous substrate by human Lck enzyme.
331503	CHEMBL388978	8.740000	1.800000	99644	2016	Inhibition of LCK (unknown origin) incubated for 1 hr by spectrophotometric analysis
39353	CHEMBL47940	8.700000	2.000000	3891	2000	Inhibition of p56 Lck tyrosine kinase catalytic domain at 5 uM ATP
72668	CHEMBL85629	8.700000	2.000000	5174	2002	50% inhibition of the phosphorylation of an exogenous substrate by human Lck enzyme.
90712	CHEMBL107048	8.700000	2.000000	5174	2002	50% inhibition of the phosphorylation of an exogenous substrate by human Lck enzyme.
91445	CHEMBL108686	8.700000	2.000000	5174	2002	50% inhibition of the phosphorylation of an exogenous substrate by human Lck enzyme.
182572	CHEMBL213100	8.700000	2.000000	31529	2006	Inhibition of Lck in presence of 0.5 uM ATP by HTRF kinase assay
184351	CHEMBL215411	8.700000	2.000000	31529	2006	Inhibition of Lck in presence of 0.5 uM ATP by HTRF kinase assay
258706	CHEMBL302281	8.700000	2.000000	3891	2000	Inhibition of p56 Lck tyrosine kinase at 5 uM ATP
327627	CHEMBL379517	8.700000	2.000000	31608	2006	Inhibition of human recombinant Lck in presence of 10 mM ATP
329265	CHEMBL385055	8.700000	2.000000	31708	2006	Inhibition of Lck by HTRF kinase assay
331163	CHEMBL385598	8.700000	2.000000	31708	2006	Inhibition of Lck by HTRF kinase assay
526327	CHEMBL595625	8.700000	2.000000	49438	2010	Inhibition of GST-tagged human LCK by scintillation counting
517854	CHEMBL592259	8.640000	2.300000	49438	2010	Inhibition of GST-tagged human LCK by scintillation counting
521056	CHEMBL592267	8.640000	2.300000	49438	2010	Inhibition of GST-tagged human LCK by scintillation counting
73154	CHEMBL85920	8.620000	2.400000	5174	2002	50% inhibition of the phosphorylation of an exogenous substrate by human Lck enzyme.
89653	CHEMBL106457	8.620000	2.400000	5174	2002	50% inhibition of the phosphorylation of an exogenous substrate by human Lck enzyme.
331503	CHEMBL388978	8.570000	2.680000	105824	2017	Inhibition of human LCK using poly[Glu:Tyr] (4:1) as substrate in presence of [gamma-32P]ATP
529965	CHEMBL600873	8.550000	2.800000	49438	2010	Inhibition of GST-tagged human LCK by scintillation counting
56818	CHEMBL68261	8.520000	3.000000	5596	2003	Inhibition of human Lck protein tyrosine kinase
71736	CHEMBL86230	8.520000	3.000000	5174	2002	50% inhibition of the phosphorylation of an exogenous substrate by human Lck enzyme.
89438	CHEMBL106213	8.520000	3.000000	5174	2002	50% inhibition of the phosphorylation of an exogenous substrate by human Lck enzyme.
91626	CHEMBL109157	8.520000	3.000000	5174	2002	50% inhibition of the phosphorylation of an exogenous substrate by human Lck enzyme.
92441	CHEMBL110732	8.520000	3.000000	5174	2002	50% inhibition of the phosphorylation of an exogenous substrate by human Lck enzyme.
93284	CHEMBL110622	8.520000	3.000000	5174	2002	50% inhibition of the phosphorylation of an exogenous substrate by human Lck enzyme.
177065	CHEMBL206873	8.520000	3.000000	31462	2006	Inhibition of Lck
179859	CHEMBL212183	8.520000	3.000000	31708	2006	Inhibition of Lck by HTRF kinase assay
181773	CHEMBL213745	8.520000	3.000000	31608	2006	Inhibition of human recombinant Lck in presence of 10 mM ATP
182934	CHEMBL213290	8.520000	3.000000	31708	2006	Inhibition of Lck by HTRF kinase assay
188656	CHEMBL220643	8.520000	3.000000	34959	2006	Inhibition of human recombinant Lck by ProFlour assay
188730	CHEMBL220645	8.520000	3.000000	34959	2006	Inhibition of human recombinant Lck by ProFlour assay
20125847	CHEMBL3335371	8.520000	3.000000	93867	2015	Inhibition of LCK (unknown origin)
278112	CHEMBL325986	8.520000	3.000000	5174	2002	50% inhibition of the phosphorylation of an exogenous substrate by human Lck enzyme.
321523	CHEMBL378410	8.520000	3.000000	31462	2006	Inhibition of Lck
326300	CHEMBL384307	8.520000	3.000000	31833	2006	Inhibition of human Lck in presence of ATP
365539	CHEMBL434369	8.520000	3.000000	34959	2006	Inhibition of human recombinant Lck by ProFlour assay
518644	CHEMBL592507	8.410000	3.900000	49438	2010	Inhibition of GST-tagged human LCK by scintillation counting
536746	CHEMBL604694	8.410000	3.900000	49438	2010	Inhibition of GST-tagged human LCK by scintillation counting
39457	CHEMBL47787	8.400000	4.000000	4891	2002	Inhibition of human lck kinase.
159863	CHEMBL188478	8.400000	4.000000	31833	2006	Inhibition of human Lck in presence of ATP
188113	CHEMBL221019	8.400000	4.000000	35004	2007	Inhibition of LCK
274580	CHEMBL320280	8.400000	4.000000	5174	2002	50% inhibition of the phosphorylation of an exogenous substrate by human Lck enzyme.
322943	CHEMBL378882	8.400000	4.000000	31462	2006	Inhibition of Lck
329370	CHEMBL383275	8.400000	4.000000	31462	2006	Inhibition of Lck
347469	CHEMBL407005	8.400000	4.000000	31833	2006	Inhibition of human Lck in presence of ATP
616973	CHEMBL320967	8.400000	4.000000	5174	2002	50% inhibition of the phosphorylation of an exogenous substrate by human Lck enzyme.
19890457	CHEMBL3290122	8.400000	4.000000	83959	2014	Inhibition of Lck (unknown origin) after 1 hr by HTRF assay
19890456	CHEMBL3290121	8.400000	4.000000	83959	2014	Inhibition of Lck (unknown origin) after 1 hr by HTRF assay
19890455	CHEMBL3290120	8.400000	4.000000	83959	2014	Inhibition of Lck (unknown origin) after 1 hr by HTRF assay
617674	CHEMBL220551	8.380000	4.200000	34959	2006	Inhibition of human recombinant Lck by ProFlour assay
521983	CHEMBL592026	8.320000	4.800000	49438	2010	Inhibition of GST-tagged human LCK by scintillation counting
324787	CHEMBL385172	8.310000	4.900000	31833	2006	Inhibition of human Lck in presence of ATP
39457	CHEMBL47787	8.300000	5.000000	6348	2004	Inhibition of p56 Lck tyrosine kinase activity with 1 mM ATP and biotinylated lck peptide
57383	CHEMBL69129	8.300000	5.000000	3891	2000	Inhibition of p56 Lck tyrosine kinase at 1 mM ATP
58622	CHEMBL69827	8.300000	5.000000	3891	2000	Inhibition of p56 Lck tyrosine kinase catalytic domain at 5 uM ATP
276092	CHEMBL321862	8.300000	5.000000	5174	2002	50% inhibition of the phosphorylation of an exogenous substrate by human Lck enzyme.
614964	CHEMBL326476	8.300000	5.000000	5174	2002	50% inhibition of the phosphorylation of an exogenous substrate by human Lck enzyme.
648190	CHEMBL386371	8.300000	5.000000	31833	2006	Inhibition of human Lck in presence of ATP
19890458	CHEMBL3290123	8.300000	5.000000	83959	2014	Inhibition of Lck (unknown origin) after 1 hr by HTRF assay
275435	CHEMBL322598	8.270000	5.400000	5174	2002	50% inhibition of the phosphorylation of an exogenous substrate by human Lck enzyme.
517756	CHEMBL591091	8.270000	5.400000	49438	2010	Inhibition of GST-tagged human LCK by scintillation counting
69873	CHEMBL84046	8.220000	6.000000	5174	2002	50% inhibition of the phosphorylation of an exogenous substrate by human Lck enzyme.
92661	CHEMBL110654	8.220000	6.000000	5174	2002	50% inhibition of the phosphorylation of an exogenous substrate by human Lck enzyme.
181670	CHEMBL212632	8.220000	6.000000	31462	2006	Inhibition of Lck
184250	CHEMBL214556	8.220000	6.000000	31708	2006	Inhibition of Lck by HTRF kinase assay
213497	CHEMBL247479	8.220000	6.000000	91755	2015	Inhibition of human LCK using peptide poly[Glu:Tyr] (4:1) substrate by 33P Hotspot assay
635112	CHEMBL384942	8.220000	6.000000	31708	2006	Inhibition of Lck by HTRF kinase assay
326404	CHEMBL384545	8.200000	6.300000	31833	2006	Inhibition of human Lck in presence of ATP
161107	CHEMBL189675	8.170000	6.700000	31833	2006	Inhibition of human Lck in presence of ATP
187963	CHEMBL220924	8.170000	6.800000	34959	2006	Inhibition of human recombinant Lck by ProFlour assay
57332	CHEMBL68882	8.150000	7.000000	5596	2003	Inhibition of human Lck protein tyrosine kinase
89393	CHEMBL106654	8.150000	7.000000	5174	2002	50% inhibition of the phosphorylation of an exogenous substrate by human Lck enzyme.
186003	CHEMBL217090	8.150000	7.000000	31836	2006	Inhibition of recombinant LCK by ELISA
263162	CHEMBL309103	8.150000	7.000000	5596	2003	Inhibition of human Lck protein tyrosine kinase
271849	CHEMBL319199	8.150000	7.000000	5174	2002	50% inhibition of the phosphorylation of an exogenous substrate by human Lck enzyme.
1155888	CHEMBL2071201	8.150000	7.000000	62959	2012	Inhibition of Lck by TR-FRET analysis
19890459	CHEMBL3290124	8.150000	7.000000	83959	2014	Inhibition of Lck (unknown origin) after 1 hr by HTRF assay
19890453	CHEMBL3290118	8.150000	7.000000	83959	2014	Inhibition of Lck (unknown origin) after 1 hr by HTRF assay
36156129	CHEMBL4077588	8.150000	7.000000	106101	2017	Inhibition of LCK (unknown origin)
90227	CHEMBL108044	8.100000	8.000000	5174	2002	50% inhibition of the phosphorylation of an exogenous substrate by human Lck enzyme.
359051	CHEMBL424719	8.100000	8.000000	31708	2006	Inhibition of Lck by HTRF kinase assay
193860	CHEMBL534948	8.100000	8.000000	35527	2007	Inhibition of Lck
537997	CHEMBL606459	8.090000	8.200000	49438	2010	Inhibition of GST-tagged human LCK by scintillation counting
267518	CHEMBL311309	8.060000	8.700000	5174	2002	50% inhibition of the phosphorylation of an exogenous substrate by human Lck enzyme.
92181	CHEMBL110783	8.050000	9.000000	5174	2002	50% inhibition of the phosphorylation of an exogenous substrate by human Lck enzyme.
92525	CHEMBL110394	8.050000	9.000000	5174	2002	50% inhibition of the phosphorylation of an exogenous substrate by human Lck enzyme.
180798	CHEMBL211283	8.050000	9.000000	31462	2006	Inhibition of Lck
595536	CHEMBL84877	8.050000	9.000000	5174	2002	50% inhibition of the phosphorylation of an exogenous substrate by human Lck enzyme.
610129	CHEMBL110550	8.050000	9.000000	5174	2002	50% inhibition of the phosphorylation of an exogenous substrate by human Lck enzyme.
89581	CHEMBL106378	8.030000	9.400000	5174	2002	50% inhibition of the phosphorylation of an exogenous substrate by human Lck enzyme.
305649	CHEMBL360810	8.030000	9.400000	31833	2006	Inhibition of human Lck in presence of ATP
34177	CHEMBL43773	8.000000	10.000000	4891	2002	Inhibition of human lck kinase.
89248	CHEMBL106482	8.000000	10.000000	5174	2002	50% inhibition of the phosphorylation of an exogenous substrate by human Lck enzyme.
92262	CHEMBL110932	8.000000	10.000000	5174	2002	50% inhibition of the phosphorylation of an exogenous substrate by human Lck enzyme.
181846	CHEMBL211852	8.000000	10.000000	31608	2006	Inhibition of human recombinant Lck in presence of 10 mM ATP
264963	CHEMBL307982	8.000000	10.000000	3891	2000	Inhibition of p56 Lck tyrosine kinase catalytic domain at 5 uM ATP
320885	CHEMBL377481	8.000000	10.000000	31529	2006	Inhibition of Lck in presence of 0.5 uM ATP by HTRF kinase assay
329436	CHEMBL386842	8.000000	10.000000	31708	2006	Inhibition of Lck by HTRF kinase assay
357020	CHEMBL421600	8.000000	10.000000	5174	2002	50% inhibition of the phosphorylation of an exogenous substrate by human Lck enzyme.
526227	CHEMBL596078	8.000000	10.000000	49438	2010	Inhibition of GST-tagged human LCK by scintillation counting
55795	CHEMBL68038	7.960000	11.000000	5596	2003	Inhibition of human Lck protein tyrosine kinase
90135	CHEMBL106822	7.960000	11.000000	5174	2002	50% inhibition of the phosphorylation of an exogenous substrate by human Lck enzyme.
264963	CHEMBL307982	7.960000	11.000000	3891	2000	Inhibition of p56 Lck tyrosine kinase at 1 mM ATP
267331	CHEMBL313466	7.960000	11.000000	5174	2002	50% inhibition of the phosphorylation of an exogenous substrate by human Lck enzyme.
36159524	CHEMBL4076024	7.960000	11.000000	106101	2017	Inhibition of LCK (unknown origin)
183518	CHEMBL215847	7.920000	12.000000	31529	2006	Inhibition of Lck in presence of 0.5 uM ATP by HTRF kinase assay
20592226	CHEMBL3939150	7.920000	12.000000	102188	2017	Inhibition of recombinant C-terminal His-tagged human LCK cytoplasmic domain expressed in baculovirus expression system measured after 1 hr by FRET based Z'Lyte assay
179198	CHEMBL209908	7.890000	13.000000	31529	2006	Inhibition of Lck in presence of 0.5 uM ATP by HTRF kinase assay
275437	CHEMBL322600	7.890000	13.000000	5174	2002	50% inhibition of the phosphorylation of an exogenous substrate by human Lck enzyme.
366341	CHEMBL436137	7.890000	13.000000	34878	2006	Inhibition of Lck
561592	CHEMBL1084234	7.890000	13.000000	51393	2010	Inhibition of LCK in human Jurkat cells assessed as ZAP70 phosphorylation by FACS assay
258706	CHEMBL302281	7.860000	13.800000	3891	2000	Inhibition of p56 Lck tyrosine kinase catalytic domain at 5 uM ATP
72968	CHEMBL86068	7.850000	14.000000	5174	2002	50% inhibition of the phosphorylation of an exogenous substrate by human Lck enzyme.
215146	CHEMBL249097	7.850000	14.000000	37693	2007	Inhibition of human Lck by TR-FRET assay
362808	CHEMBL427047	7.850000	14.000000	31529	2006	Inhibition of Lck in presence of 0.5 uM ATP by HTRF kinase assay
614390	CHEMBL212195	7.850000	14.000000	31708	2006	Inhibition of Lck by HTRF kinase assay
35814	CHEMBL45177	7.820000	15.000000	73712	2013	Inhibition of LCK (64 to 509 amino acids) (unknown origin) by HTRF assay
35814	CHEMBL45177	7.820000	15.000000	4891	2002	Inhibition of human p56 Lck tyrosine kinase
37584	CHEMBL47203	7.820000	15.000000	4890	2002	Inhibition of human p56 Lck tyrosine kinase (lck64-509)
276183	CHEMBL321869	7.820000	15.000000	5174	2002	50% inhibition of the phosphorylation of an exogenous substrate by human Lck enzyme.
39353	CHEMBL47940	7.800000	16.000000	3891	2000	Inhibition of p56 Lck tyrosine kinase at 1 mM ATP
546223	CHEMBL1084028	7.800000	16.000000	51393	2010	Inhibition of LCK in human Jurkat cells assessed as ZAP70 phosphorylation by FACS assay
19890454	CHEMBL3290119	7.800000	16.000000	83959	2014	Inhibition of Lck (unknown origin) after 1 hr by HTRF assay
189699	CHEMBL221233	7.770000	17.000000	34959	2006	Inhibition of human recombinant Lck by ProFlour assay
327799	CHEMBL386167	7.770000	17.000000	31833	2006	Inhibition of human Lck in presence of ATP
274343	CHEMBL322651	7.740000	18.000000	5174	2002	50% inhibition of the phosphorylation of an exogenous substrate by human Lck enzyme.
36165170	CHEMBL4091764	7.740000	18.000000	104719	2017	Inhibition of His-tagged full length recombinant human LCK expressed in baculovirus expression system using TK-substrate-biotin after 40 mins by HTRF assay
318932	CHEMBL375819	7.720000	19.000000	35004	2007	Inhibition of LCK
347970	CHEMBL416091	7.720000	19.000000	4891	2002	Inhibition of human lck kinase.
363919	CHEMBL431609	7.700000	20.000000	6348	2004	Inhibition of p56 Lck tyrosine kinase activity with 1 mM ATP and biotinylated lck peptide
68539	CHEMBL83008	7.680000	21.000000	5174	2002	50% inhibition of the phosphorylation of an exogenous substrate by human Lck enzyme.
319835	CHEMBL373621	7.680000	21.000000	35004	2007	Inhibition of LCK
372908	CHEMBL441361	7.680000	21.000000	31608	2006	Inhibition of human recombinant Lck in presence of 10 mM ATP
36139498	CHEMBL4060757	7.680000	21.000000	106101	2017	Inhibition of LCK (unknown origin)
58622	CHEMBL69827	7.640000	23.000000	3891	2000	Inhibition of p56 Lck tyrosine kinase at 1 mM ATP
315834	CHEMBL371295	7.640000	23.000000	30509	2006	Inhibitory activity against lck
34177	CHEMBL43773	7.620000	24.000000	6348	2004	Inhibition of p56 Lck tyrosine kinase activity with 1 mM ATP and biotinylated lck peptide
187962	CHEMBL220923	7.620000	24.000000	34959	2006	Inhibition of human recombinant Lck by ProFlour assay
184112	CHEMBL214402	7.590000	26.000000	31608	2006	Inhibition of human recombinant Lck in presence of 10 mM ATP
273032	CHEMBL321464	7.590000	26.000000	5174	2002	50% inhibition of the phosphorylation of an exogenous substrate by human Lck enzyme.
274341	CHEMBL322745	7.590000	26.000000	5174	2002	50% inhibition of the phosphorylation of an exogenous substrate by human Lck enzyme.
57340	CHEMBL68887	7.570000	27.000000	5596	2003	Inhibition of human Lck protein tyrosine kinase
179077	CHEMBL210762	7.550000	28.000000	31462	2006	Inhibition of Lck
253761	CHEMBL295601	7.550000	28.000000	6348	2004	Inhibition of p56 Lck tyrosine kinase activity with 1 mM ATP and biotinylated lck peptide
253761	CHEMBL295601	7.550000	28.000000	4891	2002	Inhibition of human lck kinase.
36137084	CHEMBL4062498	7.550000	28.000000	106101	2017	Inhibition of LCK (unknown origin)
72891	CHEMBL85979	7.520000	30.000000	5174	2002	50% inhibition of the phosphorylation of an exogenous substrate by human Lck enzyme.
111220	CHEMBL131346	7.520000	30.000000	31833	2006	Inhibition of human Lck in presence of ATP
253790	CHEMBL295528	7.510000	31.000000	4891	2002	Inhibition of human lck kinase.
572189	CHEMBL1085061	7.510000	31.000000	51393	2010	Inhibition of LCK in human Jurkat cells assessed as ZAP70 phosphorylation by FACS assay
179174	CHEMBL208994	7.490000	32.000000	31462	2006	Inhibition of Lck
546230	CHEMBL1085316	7.480000	33.000000	51393	2010	Inhibition of LCK in human Jurkat cells assessed as ZAP70 phosphorylation by FACS assay
111575	CHEMBL131577	7.460000	35.000000	101164	2016	Inhibition of human Lck
111575	CHEMBL131577	7.460000	35.000000	31833	2006	Inhibition of human Lck in presence of ATP
183251	CHEMBL215529	7.460000	35.000000	31708	2006	Inhibition of Lck by HTRF kinase assay
91587	CHEMBL108841	7.440000	36.000000	5174	2002	50% inhibition of the phosphorylation of an exogenous substrate by human Lck enzyme.
20558233	CHEMBL3923175	7.440000	36.000000	101529	2016	Inhibition of N-terminal 6His-tagged full length recombinant human LCK expressed in baculovirus expression system
268768	CHEMBL314627	7.430000	37.000000	6348	2004	Inhibition of p56 Lck tyrosine kinase activity with 1 mM ATP and biotinylated lck peptide
550269	CHEMBL1085512	7.430000	37.000000	51393	2010	Inhibition of LCK in human Jurkat cells assessed as ZAP70 phosphorylation by FACS assay
38649	CHEMBL46785	7.400000	40.000000	4891	2002	Inhibition of human lck kinase.
617402	CHEMBL44577	7.400000	40.000000	4891	2002	Inhibition of human p56 Lck tyrosine kinase
40479	CHEMBL48554	7.380000	42.000000	4890	2002	Inhibition of human p56 Lck tyrosine kinase (lck64-509)
187055	CHEMBL219103	7.380000	42.000000	35004	2007	Inhibition of LCK
182796	CHEMBL213196	7.370000	43.000000	31608	2006	Inhibition of human recombinant Lck in presence of 10 mM ATP
187288	CHEMBL220602	7.370000	43.000000	34959	2006	Inhibition of human recombinant Lck by ProFlour assay
319480	CHEMBL376298	7.360000	44.000000	34959	2006	Inhibition of human recombinant Lck by ProFlour assay
36178387	CHEMBL4101977	7.360000	44.000000	104719	2017	Inhibition of His-tagged full length recombinant human LCK expressed in baculovirus expression system using TK-substrate-biotin after 40 mins by HTRF assay
188646	CHEMBL220544	7.350000	45.000000	34959	2006	Inhibition of human recombinant Lck by ProFlour assay
253220	CHEMBL296534	7.340000	46.000000	4890	2002	Inhibition of human p56 Lck tyrosine kinase (lck64-509)
182775	CHEMBL213356	7.330000	47.000000	31608	2006	Inhibition of human recombinant Lck in presence of 10 mM ATP
184193	CHEMBL214495	7.320000	48.000000	31708	2006	Inhibition of Lck by HTRF kinase assay
184648	CHEMBL215726	7.310000	49.000000	31529	2006	Inhibition of Lck in presence of 0.5 uM ATP by HTRF kinase assay
38173	CHEMBL45683	7.300000	50.000000	4891	2002	Inhibition of human lck kinase.
158377	CHEMBL186564	7.300000	50.000000	31833	2006	Inhibition of human Lck in presence of ATP
321522	CHEMBL378409	7.280000	52.000000	31462	2006	Inhibition of Lck
1020975	CHEMBL2070048	7.280000	52.000000	62937	2012	Inhibition of human LCK using Ac-EIYGEFKKK-OH as substrate after 60 mins
20493591	CHEMBL3770443	7.280000	52.000000	98474	2015	Inhibition of human recombinant LCK
169391	CHEMBL199438	7.270000	54.000000	30509	2006	Inhibitory activity against lck
38090	CHEMBL45582	7.260000	55.000000	4891	2002	Inhibition of human p56 Lck tyrosine kinase
85868	CHEMBL102362	7.220000	60.000000	12010	1993	Inhibition of protein-tyrosine kinase p56lck
566108	CHEMBL1085317	7.200000	63.000000	51393	2010	Inhibition of LCK in human Jurkat cells assessed as ZAP70 phosphorylation by FACS assay
362794	CHEMBL431407	7.190000	64.000000	6348	2004	Inhibition of p56 Lck tyrosine kinase activity with 1 mM ATP and biotinylated lck peptide
187564	CHEMBL220847	7.190000	65.000000	34959	2006	Inhibition of human recombinant Lck by ProFlour assay
187820	CHEMBL218631	7.190000	65.000000	35004	2007	Inhibition of LCK
397037	CHEMBL470808	7.190000	65.000000	93867	2015	Inhibition of LCK (unknown origin)
20515103	CHEMBL3808884	7.160000	69.000000	99340	2016	Inhibition of His-tagged full length human recombinant LCK expressed in baculovirus using Fluorescein-Poly GT as substrate
89517	CHEMBL106304	7.150000	70.000000	5174	2002	50% inhibition of the phosphorylation of an exogenous substrate by human Lck enzyme.
190243	CHEMBL221859	7.150000	71.000000	34959	2006	Inhibition of human recombinant Lck by ProFlour assay
363619	CHEMBL426506	7.150000	71.000000	31608	2006	Inhibition of human recombinant Lck in presence of 10 mM ATP
20539333	CHEMBL3900554	7.150000	71.000000	101195	2016	Inhibition of LCK (unknown origin)
315018	CHEMBL370773	7.130000	74.000000	30509	2006	Inhibitory activity against lck
36135478	CHEMBL4069387	7.130000	74.000000	106101	2017	Inhibition of LCK (unknown origin)
258706	CHEMBL302281	7.120000	75.000000	3891	2000	Inhibition of p56 Lck tyrosine kinase at 1 mM ATP
562676	CHEMBL1083001	7.120000	76.000000	51393	2010	Inhibition of LCK in human Jurkat cells assessed as ZAP70 phosphorylation by FACS assay
36136551	CHEMBL4064000	7.110000	77.000000	104719	2017	Inhibition of His-tagged full length recombinant human LCK expressed in baculovirus expression system using TK-substrate-biotin after 40 mins by HTRF assay
184397	CHEMBL218170	7.100000	79.000000	34959	2006	Inhibition of human recombinant Lck by ProFlour assay
1020974	CHEMBL2070045	7.100000	79.000000	62937	2012	Inhibition of human LCK using Ac-EIYGEFKKK-OH as substrate after 60 mins
169959	CHEMBL200587	7.100000	80.000000	30509	2006	Inhibitory activity against lck
20407219	CHEMBL3621496	7.090000	81.000000	93632	2015	Inhibition of LCK (unknown origin)
35763	CHEMBL44942	7.090000	82.000000	4890	2002	Inhibition of human p56 Lck tyrosine kinase (lck64-509)
54647	CHEMBL66376	7.070000	85.000000	5596	2003	Inhibition of human Lck protein tyrosine kinase
180679	CHEMBL210817	7.060000	87.000000	31462	2006	Inhibition of Lck
355109	CHEMBL417006	7.040000	92.000000	4891	2002	Inhibition of human lck kinase.
548517	CHEMBL1084233	7.040000	92.000000	51393	2010	Inhibition of LCK in human Jurkat cells assessed as ZAP70 phosphorylation by FACS assay
255275	CHEMBL297363	7.030000	93.000000	6348	2004	Inhibition of p56 Lck tyrosine kinase activity with 1 mM ATP and biotinylated lck peptide
255275	CHEMBL297363	7.030000	93.000000	4891	2002	Inhibition of human lck kinase.
316311	CHEMBL371459	7.030000	93.000000	30509	2006	Inhibitory activity against lck
184841	CHEMBL215952	7.030000	94.000000	31708	2006	Inhibition of Lck by HTRF kinase assay
1185951	CHEMBL2110732	7.030000	94.000000	101064	2016	Inhibition of LCK (unknown origin)
180611	CHEMBL210813	7.020000	96.000000	31462	2006	Inhibition of Lck
39353	CHEMBL47940	7.000000	100.000000	4890	2002	Inhibition of human p56 Lck tyrosine kinase (lck64-509)
100965	CHEMBL120077	7.000000	100.000000	30310	2005	Inhibitory activity against LCK
359218	CHEMBL423321	7.000000	100.000000	5174	2002	50% inhibition of the phosphorylation of an exogenous substrate by human Lck enzyme.
370921	CHEMBL438469	7.000000	100.000000	4575	2001	Inhibition of lck catalytic domain expressed in baculovirus
36160759	CHEMBL4075954	7.000000	100.000000	106101	2017	Inhibition of LCK (unknown origin)
169172	CHEMBL198239	6.990000	102.000000	30509	2006	Inhibitory activity against lck
167473	CHEMBL198136	6.970000	106.000000	30509	2006	Inhibitory activity against lck
169483	CHEMBL199369	6.970000	106.000000	30509	2006	Inhibitory activity against lck
547868	CHEMBL1085733	6.970000	106.000000	51393	2010	Inhibition of LCK in human Jurkat cells assessed as ZAP70 phosphorylation by FACS assay
36145571	CHEMBL4073371	6.970000	106.000000	104719	2017	Inhibition of His-tagged full length recombinant human LCK expressed in baculovirus expression system using TK-substrate-biotin after 40 mins by HTRF assay
546256	CHEMBL1085511	6.970000	107.000000	51393	2010	Inhibition of LCK in human Jurkat cells assessed as ZAP70 phosphorylation by FACS assay
597621	CHEMBL381203	6.970000	107.000000	30509	2006	Inhibitory activity against lck
20407238	CHEMBL3621515	6.970000	108.000000	93632	2015	Inhibition of LCK (unknown origin)
221839	CHEMBL255863	6.970000	108.200000	71891	2013	Inhibition of human LCK using poly[Glu:Tyr] (4:1) peptide substrate
38267	CHEMBL45693	6.960000	110.000000	4891	2002	Inhibition of human lck kinase.
56329	CHEMBL67052	6.920000	120.000000	5596	2003	Inhibition of human Lck protein tyrosine kinase
253028	CHEMBL296103	6.920000	120.000000	4890	2002	Inhibition of human p56 Lck tyrosine kinase (lck64-509)
1155461	CHEMBL2070075	6.920000	120.000000	62937	2012	Inhibition of human LCK using Ac-EIYGEFKKK-OH as substrate after 60 mins
213091	CHEMBL247070	6.910000	122.000000	91755	2015	Inhibition of human LCK using peptide poly[Glu:Tyr] (4:1) substrate by 33P Hotspot assay
182969	CHEMBL214387	6.910000	124.000000	31608	2006	Inhibition of human recombinant Lck in presence of 10 mM ATP
1350209	CHEMBL2441273	6.900000	125.890000	75260	2013	Inhibition of LCK (unknown origin)
559718	CHEMBL1082693	6.890000	128.000000	51393	2010	Inhibition of LCK in human Jurkat cells assessed as ZAP70 phosphorylation by FACS assay
54872	CHEMBL66486	6.890000	130.000000	5596	2003	Inhibition of human Lck protein tyrosine kinase
184554	CHEMBL215630	6.890000	130.000000	31833	2006	Inhibition of human Lck in presence of ATP
255271	CHEMBL297359	6.890000	130.000000	4890	2002	Inhibition of human p56 Lck tyrosine kinase (lck64-509)
325935	CHEMBL386953	6.890000	130.000000	34959	2006	Inhibition of human recombinant Lck by ProFlour assay
328722	CHEMBL384822	6.890000	130.000000	31833	2006	Inhibition of human Lck in presence of ATP
538389	CHEMBL386637	6.890000	130.000000	35004	2007	Inhibition of LCK
20165118	CHEMBL3426891	6.870000	136.000000	91755	2015	Inhibition of human LCK using peptide poly[Glu:Tyr] (4:1) substrate by 33P Hotspot assay
189896	CHEMBL221553	6.860000	137.000000	34959	2006	Inhibition of human recombinant Lck by ProFlour assay
36178922	CHEMBL4100228	6.860000	137.000000	104719	2017	Inhibition of His-tagged full length recombinant human LCK expressed in baculovirus expression system using TK-substrate-biotin after 40 mins by HTRF assay
58480	CHEMBL69638	6.850000	140.000000	3891	2000	Inhibition of p56 Lck tyrosine kinase at 5 uM ATP
546258	CHEMBL1085564	6.850000	140.000000	51393	2010	Inhibition of LCK in human Jurkat cells assessed as ZAP70 phosphorylation by FACS assay
19890451	CHEMBL3290116	6.850000	142.000000	83959	2014	Inhibition of Lck (unknown origin) after 1 hr by HTRF assay
181496	CHEMBL211438	6.840000	143.000000	31608	2006	Inhibition of human recombinant Lck in presence of 10 mM ATP
168522	CHEMBL197603	6.830000	147.000000	30509	2006	Inhibitory activity against lck
177915	CHEMBL209195	6.830000	149.000000	31462	2006	Inhibition of Lck
346341	CHEMBL411632	6.830000	149.000000	83959	2014	Inhibition of Lck (unknown origin) after 1 hr by HTRF assay
187775	CHEMBL221193	6.820000	150.000000	35004	2007	Inhibition of LCK
651545	CHEMBL385477	6.820000	150.000000	31708	2006	Inhibition of Lck by HTRF kinase assay
261843	CHEMBL306380	6.820000	151.000000	3891	2000	Inhibition of p56 Lck tyrosine kinase at 5 uM ATP
377873	CHEMBL450024	6.810000	154.000000	35004	2007	Inhibition of LCK
177064	CHEMBL206872	6.810000	155.000000	31462	2006	Inhibition of Lck
343161	CHEMBL402548	6.810000	155.000000	31867	2006	Inhibition of LCK
186076	CHEMBL217195	6.800000	160.000000	31833	2006	Inhibition of human Lck in presence of ATP
187212	CHEMBL220600	6.780000	165.000000	34959	2006	Inhibition of human recombinant Lck by ProFlour assay
37180	CHEMBL46176	6.780000	167.000000	4891	2002	Inhibition of human lck kinase.
23044	CHEMBL28916	6.770000	170.000000	5174	2002	50% inhibition of the phosphorylation of an exogenous substrate by human Lck enzyme.
37583	CHEMBL47202	6.770000	170.000000	4890	2002	Inhibition of human p56 Lck tyrosine kinase (lck64-509)
652580	CHEMBL385819	6.750000	179.000000	31608	2006	Inhibition of human recombinant Lck in presence of 10 mM ATP
186734	CHEMBL217565	6.740000	180.000000	31833	2006	Inhibition of human Lck in presence of ATP
182720	CHEMBL213185	6.740000	182.000000	31608	2006	Inhibition of human recombinant Lck in presence of 10 mM ATP
178564	CHEMBL209690	6.720000	190.000000	31462	2006	Inhibition of Lck
188852	CHEMBL220958	6.710000	193.000000	34959	2006	Inhibition of human recombinant Lck by ProFlour assay
36161239	CHEMBL4095253	6.710000	194.700000	106110	2017	Inhibition of recombinant human full length N-terminal His6-tagged LCK expressed in Sf21 insect cells preincubated for 5 mins followed by substrate addition after 30 to 60 mins in presence of ATP by fluorescence assay
184863	CHEMBL215892	6.700000	200.000000	31708	2006	Inhibition of Lck by HTRF kinase assay
20413293	CHEMBL3632717	6.700000	200.000000	93867	2015	Inhibition of LCK (unknown origin)
36908	CHEMBL45651	6.680000	209.000000	4891	2002	Inhibition of human lck kinase.
320055	CHEMBL376475	6.680000	210.000000	35004	2007	Inhibition of LCK
1021963	CHEMBL1774056	6.670000	215.000000	57597	2011	Inhibition of human Lck
620511	CHEMBL306012	6.660000	220.000000	3891	2000	Inhibition of p56 Lck tyrosine kinase at 5 uM ATP
1234658	CHEMBL2312654	6.660000	220.000000	71957	2013	Inhibition of LCK (unknown origin) in presence of ATP
180523	CHEMBL210872	6.640000	229.000000	31462	2006	Inhibition of Lck
325823	CHEMBL379729	6.640000	230.000000	31462	2006	Inhibition of Lck
35814	CHEMBL45177	6.620000	240.000000	4890	2002	Inhibition of human p56 Lck tyrosine kinase (lck64-509)
90607	CHEMBL107183	6.620000	240.000000	5174	2002	50% inhibition of the phosphorylation of an exogenous substrate by human Lck enzyme.
20125909	CHEMBL3335387	6.620000	240.000000	89347	2014	Inhibition of LCK (unknown origin)
255210	CHEMBL297278	6.620000	240.000000	4890	2002	Inhibition of human p56 Lck tyrosine kinase (lck64-509)
288482	CHEMBL338159	6.620000	240.000000	31833	2006	Inhibition of human Lck in presence of ATP
353359	CHEMBL419082	6.620000	240.000000	3891	2000	Inhibition of p56 Lck tyrosine kinase at 1 mM ATP
261843	CHEMBL306380	6.600000	250.000000	3891	2000	Inhibition of p56 Lck tyrosine kinase catalytic domain at 5 uM ATP
1226995	CHEMBL2333602	6.580000	264.000000	72364	2013	Inhibition of Lck (unknown origin) using [gamma-33P]ATP after 30 mins by radiometric assay
268104	CHEMBL315272	6.550000	280.000000	5174	2002	50% inhibition of the phosphorylation of an exogenous substrate by human Lck enzyme.
184205	CHEMBL214340	6.550000	285.000000	31608	2006	Inhibition of human recombinant Lck in presence of 10 mM ATP
19890461	CHEMBL3290126	6.540000	287.000000	83959	2014	Inhibition of Lck (unknown origin) after 1 hr by HTRF assay
540045	CHEMBL375363	6.530000	294.000000	34959	2006	Inhibition of human recombinant Lck by ProFlour assay
183159	CHEMBL213478	6.530000	297.000000	31708	2006	Inhibition of Lck by HTRF kinase assay
324793	CHEMBL379967	6.520000	301.000000	31462	2006	Inhibition of Lck
58622	CHEMBL69827	6.500000	317.000000	3891	2000	Inhibition of p56 Lck tyrosine kinase catalytic domain at 1 mM ATP
321457	CHEMBL382939	6.500000	318.000000	30509	2006	Inhibitory activity against lck
551823	CHEMBL1085240	6.490000	323.000000	51393	2010	Inhibition of LCK in human Jurkat cells assessed as ZAP70 phosphorylation by FACS assay
314682	CHEMBL375666	6.480000	333.000000	34959	2006	Inhibition of human recombinant Lck by ProFlour assay
547414	CHEMBL1084302	6.480000	333.000000	51393	2010	Inhibition of LCK in human Jurkat cells assessed as ZAP70 phosphorylation by FACS assay
1349122	CHEMBL2436978	6.480000	333.000000	75153	2013	Inhibition of wild type human LCK by high throughput ATP-[33P] radiolabeled assay
57353	CHEMBL68813	6.470000	337.000000	5596	2003	Inhibition of human Lck protein tyrosine kinase
36159399	CHEMBL4079354	6.470000	337.000000	104719	2017	Inhibition of His-tagged full length recombinant human LCK expressed in baculovirus expression system using TK-substrate-biotin after 40 mins by HTRF assay
318051	CHEMBL373054	6.470000	341.000000	30509	2006	Inhibitory activity against lck
340966	CHEMBL401930	6.470000	341.000000	30151	2005	In vitro inhibitory concentration against LCK with ATP concentration at 1/2Km
111650	CHEMBL131661	6.440000	360.000000	31833	2006	Inhibition of human Lck in presence of ATP
318849	CHEMBL374985	6.430000	370.000000	35004	2007	Inhibition of LCK
58356	CHEMBL69867	6.420000	380.000000	5596	2003	Inhibition of human Lck protein tyrosine kinase
318268	CHEMBL375581	6.420000	384.000000	34959	2006	Inhibition of human recombinant Lck by ProFlour assay
57170	CHEMBL68774	6.410000	390.000000	3891	2000	Inhibition of p56 Lck tyrosine kinase at 5 uM ATP
185135	CHEMBL217486	6.410000	390.000000	31833	2006	Inhibition of human Lck in presence of ATP
186224	CHEMBL217284	6.410000	390.000000	4575	2001	Inhibition of lck catalytic domain expressed in baculovirus
188668	CHEMBL220482	6.390000	410.000000	35004	2007	Inhibition of LCK
20408969	CHEMBL3586447	6.390000	412.000000	92596	2015	Inhibition of Lck (unknown origin)
598910	CHEMBL378266	6.380000	418.000000	31462	2006	Inhibition of Lck
36177093	CHEMBL4101411	6.370000	425.000000	105091	2017	Inhibition of full length recombinant human His-tagged LCK expressed in Baculovirus expression system by Z'Lyte assay
36169948	CHEMBL4103618	6.330000	468.000000	104719	2017	Inhibition of His-tagged full length recombinant human LCK expressed in baculovirus expression system using TK-substrate-biotin after 40 mins by HTRF assay
183836	CHEMBL214028	6.320000	480.000000	31833	2006	Inhibition of human Lck in presence of ATP
1223981	CHEMBL2333603	6.310000	493.000000	72364	2013	Inhibition of Lck (unknown origin) using [gamma-33P]ATP after 30 mins by radiometric assay
310336	CHEMBL365318	6.300000	500.000000	21286	2005	Inhibition of human p56 lck tyrosine kinase
264026	CHEMBL543904	6.300000	500.000000	2424	1997	Inhibition of p56lck kinase autophosphorylation in Jurkat cells
319064	CHEMBL374517	6.280000	519.000000	34959	2006	Inhibition of human recombinant Lck by ProFlour assay
359880	CHEMBL431342	6.280000	520.000000	4890	2002	Inhibition of human p56 Lck tyrosine kinase (lck64-509)
655892	CHEMBL1354522	6.270000	531.000000	104719	2017	Inhibition of His-tagged full length recombinant human LCK expressed in baculovirus expression system using TK-substrate-biotin after 40 mins by HTRF assay
57383	CHEMBL69129	6.260000	544.000000	3891	2000	Inhibition of p56 Lck tyrosine kinase catalytic domain at 1 mM ATP
1338536	CHEMBL2403108	6.250000	560.000000	74184	2013	Inhibition of LCK (unknown origin) after 60 mins
1144214	CHEMBL1990583	6.250000	566.000000	62837	2012	Inhibition of lck in presence of 10 uM ATP
20404665	CHEMBL3622193	6.240000	569.000000	93632	2015	Inhibition of LCK (unknown origin)
1230214	CHEMBL2312649	6.210000	610.000000	71957	2013	Inhibition of LCK (unknown origin) in presence of ATP
1225269	CHEMBL2333595	6.210000	617.000000	72364	2013	Inhibition of Lck (unknown origin) using [gamma-33P]ATP after 30 mins by radiometric assay
109293	CHEMBL130160	6.210000	620.000000	31833	2006	Inhibition of human Lck in presence of ATP
188483	CHEMBL220532	6.210000	620.000000	35004	2007	Inhibition of LCK
1149987	CHEMBL2070047	6.210000	620.000000	62937	2012	Inhibition of human LCK using Ac-EIYGEFKKK-OH as substrate after 60 mins
1338536	CHEMBL2403108	6.170000	672.000000	74184	2013	Inhibition of TEL-fused LCK (unknown origin) by cell-based assay
20499856	CHEMBL3787112	6.160000	690.000000	98850	2016	Inhibition of Lck (unknown origin)
20499856	CHEMBL3787112	6.160000	690.000000	98852	2016	Inhibition of LCK (unknown origin) in presence of [gamma33P]ATP
36135969	CHEMBL4069365	6.160000	699.000000	104289	2016	Inhibition of Lck (unknown origin) after 60 mins by TR-FRET assay
109932	CHEMBL128589	6.150000	700.000000	31833	2006	Inhibition of human Lck in presence of ATP
180975	CHEMBL211804	6.150000	708.000000	31462	2006	Inhibition of Lck
108037	CHEMBL127500	6.150000	710.000000	31833	2006	Inhibition of human Lck in presence of ATP
1064080	CHEMBL1916891	6.120000	755.000000	60137	2011	Inhibition of C-terminal His6-tagged human full-length LCK expressed in Sf9 cells preincubated for 60 mins measured after 60 mins by TR-FRET Assay
1064080	CHEMBL1916891	6.110000	772.000000	60137	2011	Inhibition of C-terminal His6-tagged human full-length LCK expressed in Sf9 cells after 60 mins by TR-FRET Assay
185657	CHEMBL218110	6.110000	780.000000	35004	2007	Inhibition of LCK
109690	CHEMBL130719	6.100000	800.000000	31833	2006	Inhibition of human Lck in presence of ATP
20528481	CHEMBL3884319	6.090000	818.000000	102068	2017	Inhibition of human recombinant full length C-terminal His-tagged LCK cytoplasmic domain expressed in baculovirus expression system
357359	CHEMBL425296	6.060000	867.000000	34959	2006	Inhibition of human recombinant Lck by ProFlour assay
112619	CHEMBL131393	6.050000	890.000000	101164	2016	Inhibition of human Lck
112619	CHEMBL131393	6.050000	890.000000	31833	2006	Inhibition of human Lck in presence of ATP
351668	CHEMBL416444	6.050000	890.000000	4890	2002	Inhibition of human p56 Lck tyrosine kinase (lck64-509)
1150368	CHEMBL2070050	6.020000	960.000000	62937	2012	Inhibition of human LCK using Ac-EIYGEFKKK-OH as substrate after 60 mins
324423	CHEMBL377030	6.010000	971.000000	31462	2006	Inhibition of Lck
115682	CHEMBL135853	6.000000	1000.000000	2424	1997	Inhibition of p56lck kinase autophosphorylation in Jurkat cells
1322116	CHEMBL2381601	6.000000	1000.000000	73619	2013	Inhibition of human LCK
39353	CHEMBL47940	5.970000	1070.000000	3891	2000	Inhibition of p56 Lck tyrosine kinase catalytic domain at 1 mM ATP
188974	CHEMBL220750	5.960000	1100.000000	35004	2007	Inhibition of LCK
659754	CHEMBL373882	5.960000	1100.000000	35003	2007	Inhibition of Lck
198424	CHEMBL231568	5.940000	1140.000000	36657	2007	Inhibition of Lck
58480	CHEMBL69638	5.930000	1180.000000	3891	2000	Inhibition of p56 Lck tyrosine kinase at 1 mM ATP
58480	CHEMBL69638	5.920000	1200.000000	3891	2000	Inhibition of p56 Lck tyrosine kinase catalytic domain at 5 uM ATP
590751	CHEMBL217506	5.920000	1200.000000	31833	2006	Inhibition of human Lck in presence of ATP
20413962	CHEMBL3633929	5.910000	1220.000000	93934	2015	Inhibition of LCK (unknown origin) after 120 mins by HotSpot assay
187817	CHEMBL218542	5.890000	1286.000000	34959	2006	Inhibition of human recombinant Lck by ProFlour assay
184026	CHEMBL216448	5.890000	1300.000000	31833	2006	Inhibition of human Lck in presence of ATP
20408968	CHEMBL3586446	5.890000	1300.000000	92596	2015	Inhibition of Lck (unknown origin)
353359	CHEMBL419082	5.880000	1320.000000	3891	2000	Inhibition of p56 Lck tyrosine kinase catalytic domain at 1 mM ATP
634006	CHEMBL408027	5.870000	1340.000000	31833	2006	Inhibition of human Lck in presence of ATP
1230149	CHEMBL2312646	5.870000	1360.000000	71957	2013	Inhibition of LCK (unknown origin) in presence of ATP
108172	CHEMBL128377	5.850000	1400.000000	31833	2006	Inhibition of human Lck in presence of ATP
605686	CHEMBL340322	5.850000	1400.000000	31833	2006	Inhibition of human Lck in presence of ATP
605686	CHEMBL340322	5.850000	1400.000000	5941	2003	Inhibition of human p56 Lck tyrosine kinase
614430	CHEMBL277350	5.850000	1400.000000	15857	2000	Inhibition of p56 Lck SH2-domain in ELISA
1233764	CHEMBL2311806	5.840000	1448.000000	71891	2013	Inhibition of human LCK using poly[Glu:Tyr] (4:1) peptide substrate
365372	CHEMBL437502	5.840000	1450.000000	31462	2006	Inhibition of Lck
322950	CHEMBL374079	5.830000	1480.000000	35004	2007	Inhibition of LCK
53217	CHEMBL66109	5.820000	1500.000000	31833	2006	Inhibition of human Lck in presence of ATP
53217	CHEMBL66109	5.820000	1500.000000	5941	2003	Inhibition of human p56 Lck tyrosine kinase
349337	CHEMBL410295	5.800000	1600.000000	38873	2008	Inhibition of human T-cell receptor zeta chain phosphorylation in Jurkat cells
20404346	CHEMBL3622137	5.740000	1800.000000	93598	2015	Inhibition of recombinant LCK (unknown origin) using fluoresceinated peptide as substrate after 60 mins by HTRF assay
176742	CHEMBL208719	5.740000	1820.000000	31462	2006	Inhibition of Lck
189886	CHEMBL221544	5.720000	1920.000000	35004	2007	Inhibition of LCK
20408833	CHEMBL3582427	5.700000	2000.000000	92531	2015	Inhibition of Tel-fused LCK (unknown origin) expressed in mouse BA/F3 cells after 48 hrs by luciferase reporter gene assay in absence of recombinant mouse IL3
20413295	CHEMBL3632719	5.700000	2000.000000	93867	2015	Inhibition of LCK (unknown origin)
331503	CHEMBL388978	5.680000	2100.000000	11789	1993	Inhibition of human p56 lck
186379	CHEMBL217507	5.650000	2230.000000	31833	2006	Inhibition of human Lck in presence of ATP
120163	CHEMBL141247	5.640000	2300.000000	16264	2001	Inhibition of Lck tyrosine kinase.
1145218	CHEMBL2006765	5.630000	2330.000000	104289	2016	Inhibition of Lck (unknown origin) after 60 mins by TR-FRET assay
169818	CHEMBL200424	5.630000	2350.000000	30509	2006	Inhibitory activity against lck
321519	CHEMBL378406	5.630000	2350.000000	31462	2006	Inhibition of Lck
179324	CHEMBL209148	5.620000	2400.000000	31474	2006	Inhibition of LCK
240055	CHEMBL279990	5.620000	2400.000000	15857	2000	Inhibition of p56 Lck SH2-domain in ELISA
114548	CHEMBL135902	5.600000	2500.000000	2424	1997	Inhibition of p56lck kinase autophosphorylation in Jurkat cells
335646	CHEMBL398606	5.590000	2550.000000	37072	2007	Inhibition of human LCK
615394	CHEMBL212040	5.590000	2580.000000	31462	2006	Inhibition of Lck
529969	CHEMBL601719	5.560000	2741.000000	58865	2011	Inhibition of LCK in human Jurkat cells assessed as growth factor-induced autophosphorylation by sandwich ELISA method
1076669	CHEMBL1916897	5.550000	2790.000000	60137	2011	Inhibition of C-terminal His6-tagged human full-length LCK expressed in Sf9 cells preincubated for 60 mins measured after 60 mins by TR-FRET Assay
183749	CHEMBL214007	5.550000	2814.000000	31608	2006	Inhibition of human recombinant Lck in presence of 10 mM ATP
318336	CHEMBL377617	5.550000	2837.000000	31608	2006	Inhibition of human recombinant Lck in presence of 10 mM ATP
20408847	CHEMBL3582441	5.520000	3000.000000	92531	2015	Inhibition of Tel-fused LCK (unknown origin) expressed in mouse BA/F3 cells after 48 hrs by luciferase reporter gene assay in absence of recombinant mouse IL3
342096	CHEMBL402673	5.510000	3120.000000	4891	2002	Inhibition of human lck kinase.
176087	CHEMBL207333	5.500000	3130.000000	31462	2006	Inhibition of Lck
182215	CHEMBL212767	5.490000	3200.000000	31608	2006	Inhibition of human recombinant Lck in presence of 10 mM ATP
1244750	CHEMBL2348417	5.490000	3200.000000	72855	2013	Inhibition of LCK (unknown origin) incubated for 5 mins prior to ATP addition measured after 30 mins by Alphascreen assay
1154318	CHEMBL2070081	5.480000	3300.000000	62937	2012	Inhibition of human LCK using Ac-EIYGEFKKK-OH as substrate after 60 mins
369721	CHEMBL440213	5.460000	3480.000000	30509	2006	Inhibitory activity against lck
1234942	CHEMBL2312652	5.430000	3680.000000	71957	2013	Inhibition of LCK (unknown origin) in presence of ATP
36157145	CHEMBL4078893	5.430000	3700.000000	104289	2016	Inhibition of Lck (unknown origin) after 60 mins by TR-FRET assay
85132	CHEMBL101965	5.420000	3800.000000	4575	2001	Inhibition of lck catalytic domain expressed in baculovirus
20539333	CHEMBL3900554	5.420000	3800.000000	101195	2016	Inhibition of LCK in human peripheral T cells assessed as suppression of TCR-dependant cell proliferation
179796	CHEMBL210201	5.410000	3860.000000	31462	2006	Inhibition of Lck
1062059	CHEMBL1908842	5.410000	3900.000000	65609	2011	Inhibition of LCK in human Jurkat cells assessed as inhibition of PMA and antiCD3-induced IL2 secretion after 24 hrs by ELISA
178565	CHEMBL209691	5.370000	4290.000000	31462	2006	Inhibition of Lck
108981	CHEMBL129454	5.360000	4400.000000	31833	2006	Inhibition of human Lck in presence of ATP
108981	CHEMBL129454	5.360000	4400.000000	5941	2003	Inhibition of human p56 Lck tyrosine kinase
20139607	CHEMBL3360318	5.350000	4440.000000	89675	2014	Inhibition of LCK (unknown origin)
288581	CHEMBL337985	5.350000	4470.000000	31833	2006	Inhibition of human Lck in presence of ATP
181429	CHEMBL211356	5.350000	4490.000000	31462	2006	Inhibition of Lck
196339	CHEMBL230761	5.350000	4500.000000	36673	2007	Inhibition of LCK
321389	CHEMBL381207	5.350000	4500.000000	30187	2005	Inhibitory concentration against LCK
316573	CHEMBL370266	5.330000	4700.000000	21286	2005	Inhibition of human p56 lck tyrosine kinase
178397	CHEMBL209846	5.320000	4802.000000	31608	2006	Inhibition of human recombinant Lck in presence of 10 mM ATP
20498741	CHEMBL3786167	5.310000	4900.000000	98852	2016	Inhibition of LCK (unknown origin) in presence of [gamma33P]ATP
264958	CHEMBL307976	5.300000	5000.000000	31833	2006	Inhibition of human Lck in presence of ATP
264958	CHEMBL307976	5.300000	5000.000000	5941	2003	Inhibition of human p56 Lck tyrosine kinase
4721	CHEMBL540068	5.300000	5000.000000	2424	1997	Inhibition of p56lck kinase autophosphorylation in Jurkat cells
186554	CHEMBL217631	5.300000	5020.000000	4575	2001	Inhibition of lck catalytic domain expressed in baculovirus
165894	CHEMBL195218	5.290000	5100.000000	21286	2005	Inhibition of human p56 lck tyrosine kinase
20408848	CHEMBL3582442	5.280000	5200.000000	92531	2015	Inhibition of Tel-fused LCK (unknown origin) expressed in mouse BA/F3 cells after 48 hrs by luciferase reporter gene assay in absence of recombinant mouse IL3
187357	CHEMBL220606	5.250000	5564.000000	34959	2006	Inhibition of human recombinant Lck by ProFlour assay
967243	CHEMBL1614712	5.250000	5600.000000	98850	2016	Inhibition of Lck (unknown origin)
967243	CHEMBL1614712	5.250000	5600.000000	98852	2016	Inhibition of LCK (unknown origin) in presence of [gamma33P]ATP
20408670	CHEMBL3586444	5.230000	5900.000000	92596	2015	Inhibition of Lck (unknown origin)
179398	CHEMBL209226	5.220000	5990.000000	31462	2006	Inhibition of Lck
387351	CHEMBL460989	5.190000	6400.000000	45172	2008	Inhibition of human Lck expressed in baculovirus insect cell system
20408671	CHEMBL3586445	5.190000	6400.000000	92596	2015	Inhibition of Lck (unknown origin)
182440	CHEMBL212865	5.140000	7269.000000	31608	2006	Inhibition of human recombinant Lck in presence of 10 mM ATP
20497543	CHEMBL3786567	5.130000	7400.000000	98850	2016	Inhibition of Lck (unknown origin)
36140227	CHEMBL4062803	5.120000	7510.000000	104289	2016	Inhibition of Lck (unknown origin) after 60 mins by TR-FRET assay
314058	CHEMBL374009	5.110000	7700.000000	34959	2006	Inhibition of human recombinant Lck by ProFlour assay
36135068	CHEMBL4066664	5.110000	7790.000000	104289	2016	Inhibition of Lck (unknown origin) after 60 mins by TR-FRET assay
190135	CHEMBL221734	5.060000	8640.000000	34959	2006	Inhibition of human recombinant Lck by ProFlour assay
20495897	CHEMBL3787614	5.050000	8900.000000	98850	2016	Inhibition of Lck (unknown origin)
20495897	CHEMBL3787614	5.050000	8900.000000	98852	2016	Inhibition of LCK (unknown origin) in presence of [gamma33P]ATP
20499526	CHEMBL3785951	5.050000	8900.000000	98852	2016	Inhibition of LCK (unknown origin) in presence of [gamma33P]ATP
318085	CHEMBL370383	5.050000	8960.000000	30509	2006	Inhibitory activity against lck
170151	CHEMBL199816	5.040000	9180.000000	30509	2006	Inhibitory activity against lck
148404	CHEMBL175306	5.020000	9650.000000	5596	2003	Inhibition of human Lck protein tyrosine kinase
79687	CHEMBL542484	5.000000	10000.000000	2424	1997	Inhibition of p56lck kinase autophosphorylation in Jurkat cells
464249	CHEMBL543661	5.000000	10000.000000	2424	1997	Inhibition of p56lck kinase autophosphorylation in Jurkat cells
14754610	CHEMBL3355482	4.960000	10900.000000	90101	2015	Inhibition of LCK (unknown origin) in presence of 1 mM ATP
185236	CHEMBL216490	4.960000	11000.000000	14455	1998	Inhibition of p56 Lck kinase against 100 uM cdc2 substrate
368727	CHEMBL436961	4.960000	11000.000000	14455	1998	Inhibition of p56 Lck kinase against 100 uM cdc2 substrate
1234175	CHEMBL2311807	4.960000	11050.000000	71891	2013	Inhibition of human LCK using poly[Glu:Tyr] (4:1) peptide substrate
191016	CHEMBL223971	4.930000	11700.000000	35630	2007	Inhibition of Lck
660676	CHEMBL385191	4.920000	12080.000000	31833	2006	Inhibition of human Lck in presence of ATP
110860	CHEMBL132448	4.900000	12500.000000	31833	2006	Inhibition of human Lck in presence of ATP
110860	CHEMBL132448	4.900000	12500.000000	5941	2003	Inhibition of human Lck(hLck) kinase
20408669	CHEMBL3586443	4.890000	13000.000000	92596	2015	Inhibition of Lck (unknown origin)
1230871	CHEMBL2312645	4.820000	15020.000000	71957	2013	Inhibition of LCK (unknown origin) in presence of ATP
166792	CHEMBL196363	4.700000	20000.000000	30187	2005	Inhibitory concentration against LCK
1328591	CHEMBL2420911	4.700000	20000.000000	74678	2013	Inhibition of LCK (unknown origin) by microfluidic mobility shift assay
180842	CHEMBL212084	4.670000	21141.000000	31508	2006	Inhibition of Lck by HTRF assay
615564	CHEMBL17578	4.660000	22000.000000	15857	2000	Inhibition of p56 Lck SH2-domain in ELISA
313657	CHEMBL370670	4.630000	23200.000000	30509	2006	Inhibitory activity against lck
284095	CHEMBL334333	4.550000	28000.000000	31833	2006	Inhibition of human Lck in presence of ATP
284095	CHEMBL334333	4.550000	28000.000000	5941	2003	Inhibition of human p56 Lck tyrosine kinase
379851	CHEMBL449216	4.420000	38000.000000	92596	2015	Inhibition of Lck (unknown origin)
1234687	CHEMBL2311808	4.350000	44620.000000	71891	2013	Inhibition of human LCK using poly[Glu:Tyr] (4:1) peptide substrate
282538	CHEMBL555321	4.300000	50000.000000	2424	1997	Inhibition of p56lck kinase autophosphorylation in Jurkat cells
597601	CHEMBL405681	4.300000	50000.000000	14455	1998	Inhibition of p56 Lck kinase against 100 uM cdc2 substrate
13415	CHEMBL17637	4.280000	53000.000000	15857	2000	Inhibition of p56 Lck SH2-domain in ELISA
84870	CHEMBL100446	4.190000	65000.000000	12010	1993	Inhibition of protein-tyrosine kinase p56lck
1328589	CHEMBL2420909	3.950000	113000.000000	74678	2013	Inhibition of LCK (unknown origin) by microfluidic mobility shift assay
630565	CHEMBL414159	3.660000	220000.000000	14455	1998	Inhibition of p56 Lck kinase against 100 uM cdc2 substrate
346994	CHEMBL412218	3.590000	260000.000000	14455	1998	Inhibition of p56 Lck kinase against 100 uM cdc2 substrate
596018	CHEMBL413670	3.590000	260000.000000	14455	1998	Inhibition of p56 Lck kinase against 100 uM cdc2 substrate
226720	CHEMBL262212	3.330000	470000.000000	14455	1998	Inhibition of p56 Lck kinase against 100 uM cdc2 substrate
592661	CHEMBL223360	3.300000	500000.000000	35219	2007	Inhibition of LCK
