lsi_index	chembl-id	pot.(log,IC50)	pot.(muMol,IC50)	doc_id	year	description
325176	CHEMBL379629	10.220000	0.060000	31350	2006	Inhibition of [125I]leuprorelin binding to human recombinant LHRH receptor expressed in CHO cells
179947	CHEMBL210294	10.150000	0.070000	31350	2006	Inhibition of [125I]leuprorelin binding to human recombinant LHRH receptor expressed in CHO cells
514037	CHEMBL1800155	10.150000	0.070000	58231	2011	Displacement of [125I]leuprorelin from recombinant human GnRH receptor expressed in CHO cells after 60 mins by X-ray counter
517645	CHEMBL1800663	10.150000	0.070000	58231	2011	Displacement of [125I]leuprorelin from recombinant human GnRH receptor expressed in CHO cells after 60 mins by X-ray counter
515500	CHEMBL1800159	10.100000	0.080000	58231	2011	Displacement of [125I]leuprorelin from recombinant human GnRH receptor expressed in CHO cells after 60 mins by X-ray counter
514056	CHEMBL1800157	10.100000	0.080000	58231	2011	Displacement of [125I]leuprorelin from recombinant human GnRH receptor expressed in CHO cells after 60 mins by X-ray counter
518359	CHEMBL1800666	10.050000	0.090000	58231	2011	Displacement of [125I]leuprorelin from recombinant human GnRH receptor expressed in CHO cells after 60 mins by X-ray counter
519935	CHEMBL1800661	10.050000	0.090000	58231	2011	Displacement of [125I]leuprorelin from recombinant human GnRH receptor expressed in CHO cells after 60 mins by X-ray counter
371271	CHEMBL441676	10.000000	0.100000	20277	2004	Binding affinity towards human gonadotropin releasing hormone receptor expressed in CHO cells was determined by using [125I]-buserelin as radioligand
180339	CHEMBL211485	10.000000	0.100000	31350	2006	Inhibition of [125I]leuprorelin binding to human recombinant LHRH receptor expressed in CHO cells
322732	CHEMBL377396	10.000000	0.100000	31350	2006	Inhibition of [125I]leuprorelin binding to human recombinant LHRH receptor expressed in CHO cells
177785	CHEMBL208812	10.000000	0.100000	31350	2006	Inhibition of [125I]leuprorelin binding to human recombinant LHRH receptor expressed in CHO cells
180389	CHEMBL210709	10.000000	0.100000	31350	2006	Inhibition of [125I]leuprorelin binding to human recombinant LHRH receptor expressed in CHO cells
16900	CHEMBL22055	10.000000	0.100000	42049	2008	Binding affinity at human GnRH receptor
514016	CHEMBL1800153	10.000000	0.100000	58231	2011	Displacement of [125I]leuprorelin from recombinant human GnRH receptor expressed in CHO cells after 60 mins by X-ray counter
519451	CHEMBL1800668	10.000000	0.100000	58231	2011	Displacement of [125I]leuprorelin from recombinant human GnRH receptor expressed in CHO cells after 60 mins by X-ray counter
521698	CHEMBL1800664	10.000000	0.100000	58231	2011	Displacement of [125I]leuprorelin from recombinant human GnRH receptor expressed in CHO cells after 60 mins by X-ray counter
16900	CHEMBL22055	10.000000	0.100000	58231	2011	Displacement of [125I]leuprorelin from recombinant human GnRH receptor expressed in CHO cells after 60 mins by X-ray counter
514076	CHEMBL1800158	9.920000	0.120000	58231	2011	Displacement of [125I]leuprorelin from recombinant human GnRH receptor expressed in CHO cells after 60 mins by X-ray counter
181083	CHEMBL212121	9.700000	0.200000	31350	2006	Inhibition of [125I]leuprorelin binding to human recombinant LHRH receptor expressed in CHO cells
320816	CHEMBL377015	9.700000	0.200000	31350	2006	Inhibition of [125I]leuprorelin binding to human recombinant LHRH receptor expressed in CHO cells
180429	CHEMBL211503	9.700000	0.200000	31350	2006	Inhibition of [125I]leuprorelin binding to human recombinant LHRH receptor expressed in CHO cells
59456	CHEMBL71917	9.700000	0.200000	31350	2006	Inhibition of [125I]leuprorelin binding to human recombinant LHRH receptor expressed in CHO cells
464056	CHEMBL540109	9.700000	0.200000	31350	2006	Inhibition of [125I]leuprorelin binding to human recombinant LHRH receptor expressed in CHO cells
59456	CHEMBL71917	9.700000	0.200000	42049	2008	Binding affinity at human GnRH receptor
514055	CHEMBL1800156	9.700000	0.200000	58231	2011	Displacement of [125I]leuprorelin from recombinant human GnRH receptor expressed in CHO cells after 60 mins by X-ray counter
514036	CHEMBL1800154	9.700000	0.200000	58231	2011	Displacement of [125I]leuprorelin from recombinant human GnRH receptor expressed in CHO cells after 60 mins by X-ray counter
513653	CHEMBL1800152	9.700000	0.200000	58231	2011	Displacement of [125I]leuprorelin from recombinant human GnRH receptor expressed in CHO cells after 60 mins by X-ray counter
520542	CHEMBL1800670	9.700000	0.200000	58231	2011	Displacement of [125I]leuprorelin from recombinant human GnRH receptor expressed in CHO cells after 60 mins by X-ray counter
520541	CHEMBL1800669	9.700000	0.200000	58231	2011	Displacement of [125I]leuprorelin from recombinant human GnRH receptor expressed in CHO cells after 60 mins by X-ray counter
518729	CHEMBL1800667	9.700000	0.200000	58231	2011	Displacement of [125I]leuprorelin from recombinant human GnRH receptor expressed in CHO cells after 60 mins by X-ray counter
518935	CHEMBL1800662	9.700000	0.200000	58231	2011	Displacement of [125I]leuprorelin from recombinant human GnRH receptor expressed in CHO cells after 60 mins by X-ray counter
514056	CHEMBL1800157	9.620000	0.240000	58231	2011	Displacement of [125I]leuprorelin from recombinant human GnRH receptor expressed in CHO cells after 60 mins by X-ray counter in presence of 40% fetal bovine serum
584997	CHEMBL1201199	9.540000	0.288400	97706	2015	Displacement of [125I]-DTyr6-His5-GnRH from human type 1 GnRH receptor expressed in HEK293 cell membranes after 16 to 19 hrs by gamma counting analysis
514037	CHEMBL1800155	9.540000	0.290000	58231	2011	Displacement of [125I]leuprorelin from recombinant human GnRH receptor expressed in CHO cells after 60 mins by X-ray counter in presence of 40% fetal bovine serum
38909	CHEMBL48192	9.520000	0.300000	3806	2000	Inhibition of recombinant human Gonadotropin-releasing hormone receptor
38909	CHEMBL48192	9.520000	0.300000	6762	2004	Inhibitory concentration against binding of [125I]buserelin to human Gonadotropin-releasing hormone receptor
251892	CHEMBL293921	9.520000	0.300000	4945	2002	In vitro inhibition of specific [125I]leuprorelin binding to the cloned human LHRH receptor expressed in chinese hamster ovary cells
38909	CHEMBL48192	9.520000	0.300000	20277	2004	Binding affinity towards human gonadotropin releasing hormone receptor expressed in CHO cells was determined by using [125I]-buserelin as radioligand
655247	CHEMBL364167	9.520000	0.300000	20277	2004	Binding affinity towards human gonadotropin releasing hormone receptor expressed in CHO cells was determined by using [125I]-buserelin as radioligand
16900	CHEMBL22055	9.520000	0.300000	30461	2006	Displacement of [125I]-His5, D-Tyr6]GnRH from mutant GnRHR, GnRHR H182A
584997	CHEMBL1201199	9.520000	0.300000	31350	2006	Inhibition of [125I]leuprorelin binding to human recombinant LHRH receptor expressed in CHO cells
513652	CHEMBL1800151	9.520000	0.300000	58231	2011	Displacement of [125I]leuprorelin from recombinant human GnRH receptor expressed in CHO cells after 60 mins by X-ray counter
512900	CHEMBL1800150	9.520000	0.300000	58231	2011	Displacement of [125I]leuprorelin from recombinant human GnRH receptor expressed in CHO cells after 60 mins by X-ray counter
523465	CHEMBL1800665	9.520000	0.300000	58231	2011	Displacement of [125I]leuprorelin from recombinant human GnRH receptor expressed in CHO cells after 60 mins by X-ray counter
514016	CHEMBL1800153	9.520000	0.300000	58231	2011	Displacement of [125I]leuprorelin from recombinant human GnRH receptor expressed in CHO cells after 60 mins by X-ray counter in presence of 40% fetal bovine serum
513653	CHEMBL1800152	9.520000	0.300000	58231	2011	Displacement of [125I]leuprorelin from recombinant human GnRH receptor expressed in CHO cells after 60 mins by X-ray counter in presence of 40% fetal bovine serum
364830	CHEMBL435167	9.510000	0.310000	31850	2006	Displacement of [His5, D-Tyr6]GnRH from GnRHR Y290L mutant expressed in COS7 cells
309453	CHEMBL362371	9.490000	0.320000	20277	2004	Binding affinity towards human gonadotropin releasing hormone receptor expressed in CHO cells was determined by using [125I]-buserelin as radioligand
515500	CHEMBL1800159	9.480000	0.330000	58231	2011	Displacement of [125I]leuprorelin from recombinant human GnRH receptor expressed in CHO cells after 60 mins by X-ray counter in presence of 40% fetal bovine serum
54200	CHEMBL65769	9.400000	0.400000	4945	2002	In vitro inhibition of specific [125I]leuprorelin binding to the cloned human LHRH receptor expressed in chinese hamster ovary cells
16900	CHEMBL22055	9.400000	0.400000	30461	2006	Displacement of [125I]-His5, D-Tyr6]GnRH from mutant GnRHR, GnRHR E111A
16900	CHEMBL22055	9.400000	0.400000	30461	2006	Displacement of [125I]-His5, D-Tyr6]GnRH from mutant GnRHR, GnRHR L117A
16900	CHEMBL22055	9.400000	0.400000	30461	2006	Displacement of [125I]-His5, D-Tyr6]GnRH from mutant GnRHR, GnRHR N305A
321076	CHEMBL378979	9.400000	0.400000	31350	2006	Inhibition of [125I]leuprorelin binding to human recombinant LHRH receptor expressed in CHO cells
180173	CHEMBL210321	9.400000	0.400000	31350	2006	Inhibition of [125I]leuprorelin binding to human recombinant LHRH receptor expressed in CHO cells
322819	CHEMBL379198	9.400000	0.400000	31350	2006	Inhibition of [125I]leuprorelin binding to human recombinant LHRH receptor expressed in CHO cells
101257	CHEMBL120432	9.360000	0.440000	21496	2005	Inhibition of Human gonadotropin-releasing hormone receptor
101257	CHEMBL120432	9.360000	0.440000	20277	2004	Binding affinity towards human gonadotropin releasing hormone receptor expressed in CHO cells was determined by using [125I]-buserelin as radioligand
38284	CHEMBL48165	9.300000	0.500000	3806	2000	Inhibition of recombinant human Gonadotropin-releasing hormone receptor
253879	CHEMBL295948	9.300000	0.500000	6762	2004	Inhibitory concentration against binding of [125I]buserelin to human Gonadotropin-releasing hormone receptor
256836	CHEMBL300295	9.300000	0.500000	6762	2004	Inhibitory concentration against binding of [125I]buserelin to human Gonadotropin-releasing hormone receptor
249782	CHEMBL292291	9.300000	0.500000	4945	2002	In vitro inhibition of specific [125I]leuprorelin binding to the cloned human LHRH receptor expressed in chinese hamster ovary cells
152320	CHEMBL179691	9.300000	0.500000	30461	2006	Displacement of [125I]-His5, D-Tyr6]GnRH from mutant GnRHR, GnRHR H182A
16900	CHEMBL22055	9.300000	0.500000	30461	2006	Displacement of [125I]-His5, D-Tyr6]GnRH from mutant GnRHR, GnRHR H182E
16900	CHEMBL22055	9.300000	0.500000	30461	2006	Displacement of [125I]-His5, D-Tyr6]GnRH from mutant GnRHR, GnRHR S186D
16900	CHEMBL22055	9.300000	0.500000	30461	2006	Displacement of [125I]-His5, D-Tyr6]GnRH from mutant GnRHR, GnRHR Q189P
16900	CHEMBL22055	9.300000	0.500000	30461	2006	Displacement of [125I]-His5, D-Tyr6]GnRH from mutant GnRHR, GnRHR K191E
16900	CHEMBL22055	9.300000	0.500000	30461	2006	Displacement of [125I]-His5, D-Tyr6]GnRH from mutant GnRHR, GnRHR S203E
16900	CHEMBL22055	9.300000	0.500000	30461	2006	Displacement of [125I]-His5, D-Tyr6]GnRH from mutant GnRHR, GnRHR S203K
16900	CHEMBL22055	9.300000	0.500000	30461	2006	Displacement of [125I]-His5, D-Tyr6]GnRH from mutant GnRHR, GnRHR S203Q
16900	CHEMBL22055	9.300000	0.500000	30461	2006	Displacement of [125I]-His5, D-Tyr6]GnRH from mutant GnRHR, GnRHR Y283F
19828940	CHEMBL3085508	9.300000	0.500000	30461	2006	Displacement of [125I]-His5, D-Tyr6]GnRH from mutant GnRHR, GnRHR Y284F
16900	CHEMBL22055	9.300000	0.500000	30461	2006	Displacement of [125I]-His5, D-Tyr6]GnRH from mutant GnRHR, GnRHR Y290L
16900	CHEMBL22055	9.300000	0.500000	30461	2006	Displacement of [125I]-His5, D-Tyr6]GnRH from mutant GnRHR, GnRHR E295A
16900	CHEMBL22055	9.300000	0.500000	30461	2006	Displacement of [125I]-His5, D-Tyr6]GnRH from mutant GnRHR, GnRHR E295K
16900	CHEMBL22055	9.300000	0.500000	31850	2006	Displacement of [His5, D-Tyr6]GnRH from GnRHR Y290L mutant expressed in COS7 cells
519451	CHEMBL1800668	9.300000	0.500000	58231	2011	Displacement of [125I]leuprorelin from recombinant human GnRH receptor expressed in CHO cells after 60 mins by X-ray counter in presence of 40% fetal bovine serum
367867	CHEMBL433594	9.260000	0.550000	20277	2004	Binding affinity towards human gonadotropin releasing hormone receptor expressed in CHO cells was determined by using [125I]-buserelin as radioligand
514076	CHEMBL1800158	9.260000	0.550000	58231	2011	Displacement of [125I]leuprorelin from recombinant human GnRH receptor expressed in CHO cells after 60 mins by X-ray counter in presence of 40% fetal bovine serum
39617	CHEMBL48879	9.220000	0.600000	6762	2004	Inhibitory concentration against binding of [125I]buserelin to human Gonadotropin-releasing hormone receptor
158113	CHEMBL185986	9.220000	0.600000	20277	2004	Binding affinity towards human gonadotropin releasing hormone receptor expressed in CHO cells was determined by using [125I]-buserelin as radioligand
157838	CHEMBL184819	9.220000	0.600000	20277	2004	Binding affinity towards human gonadotropin releasing hormone receptor expressed in CHO cells was determined by using [125I]-buserelin as radioligand
157006	CHEMBL185785	9.220000	0.600000	20277	2004	Binding affinity towards human gonadotropin releasing hormone receptor expressed in CHO cells was determined by using [125I]-buserelin as radioligand
16900	CHEMBL22055	9.220000	0.600000	30461	2006	Displacement of [125I]-His5, D-Tyr6]GnRH from mutant GnRHR, GnRHR A50T
16900	CHEMBL22055	9.220000	0.600000	30461	2006	Displacement of [125I]-His5, D-Tyr6]GnRH from mutant GnRHR, GnRHR T51A
16900	CHEMBL22055	9.220000	0.600000	30461	2006	Displacement of [125I]-His5, D-Tyr6]GnRH from mutant GnRHR, GnRHR E111Q
16900	CHEMBL22055	9.220000	0.600000	30461	2006	Displacement of [125I]-His5, D-Tyr6]GnRH from mutant GnRHR, GnRHR L112A
16900	CHEMBL22055	9.220000	0.600000	30461	2006	Displacement of [125I]-His5, D-Tyr6]GnRH from mutant GnRHR, GnRHR L112F
16900	CHEMBL22055	9.220000	0.600000	30461	2006	Displacement of [125I]-His5, D-Tyr6]GnRH from mutant GnRHR, GnRHR S118A
16900	CHEMBL22055	9.220000	0.600000	30461	2006	Displacement of [125I]-His5, D-Tyr6]GnRH from mutant GnRHR, GnRHR S168A
152320	CHEMBL179691	9.220000	0.600000	30461	2006	Displacement of [125I]-His5, D-Tyr6]GnRH from mutant GnRHR, GnRHR H182E
16900	CHEMBL22055	9.220000	0.600000	30461	2006	Displacement of [125I]-His5, D-Tyr6]GnRH from mutant GnRHR, GnRHR Q189E
16900	CHEMBL22055	9.220000	0.600000	30461	2006	Displacement of [125I]-His5, D-Tyr6]GnRH from mutant GnRHR, GnRHR Y290F
16900	CHEMBL22055	9.220000	0.600000	30461	2006	Displacement of [125I]-His5, D-Tyr6]GnRH from mutant GnRHR, GnRHR D293A
16900	CHEMBL22055	9.220000	0.600000	30461	2006	Displacement of [125I]-His5, D-Tyr6]GnRH from mutant GnRHR, GnRHR E295Q
19828940	CHEMBL3085508	9.220000	0.600000	30461	2006	Displacement of [125I]-His5, D-Tyr6]GnRH from mutant GnRHR, GnRHR N315A
180672	CHEMBL210888	9.220000	0.600000	31350	2006	Inhibition of [125I]leuprorelin binding to human recombinant LHRH receptor expressed in CHO cells
40696	CHEMBL48674	9.150000	0.700000	3806	2000	Inhibition of recombinant human Gonadotropin-releasing hormone receptor
38675	CHEMBL49230	9.150000	0.700000	3806	2000	Inhibition of recombinant human Gonadotropin-releasing hormone receptor
249703	CHEMBL291896	9.150000	0.700000	4945	2002	In vitro inhibition of specific [125I]leuprorelin binding to the cloned human LHRH receptor expressed in chinese hamster ovary cells
358405	CHEMBL424991	9.150000	0.700000	20277	2004	Binding affinity towards human gonadotropin releasing hormone receptor expressed in CHO cells was determined by using [125I]-buserelin as radioligand
16900	CHEMBL22055	9.150000	0.700000	30461	2006	Displacement of [125I]-His5, D-Tyr6]GnRH from mutant GnRHR, GnRHR N27A
152320	CHEMBL179691	9.150000	0.700000	30461	2006	Displacement of [125I]-His5, D-Tyr6]GnRH from mutant GnRHR, GnRHR E111K
16900	CHEMBL22055	9.150000	0.700000	30461	2006	Displacement of [125I]-His5, D-Tyr6]GnRH from mutant GnRHR, GnRHR Q189A
16900	CHEMBL22055	9.150000	0.700000	30461	2006	Displacement of [125I]-His5, D-Tyr6]GnRH from mutant GnRHR, GnRHR Q189K
16900	CHEMBL22055	9.150000	0.700000	30461	2006	Displacement of [125I]-His5, D-Tyr6]GnRH from mutant GnRHR, GnRHR N315D
16900	CHEMBL22055	9.150000	0.700000	31850	2006	Displacement of [His5, D-Tyr6]GnRH from GnRHR N27A mutant expressed in COS7 cells
1176203	CHEMBL2111955	9.100000	0.800000	4086	2000	In vitro inhibitory activity against rat CHO cells stably expressing human gonadotropin-releasing hormone receptor
308583	CHEMBL362544	9.100000	0.800000	20277	2004	Binding affinity towards human gonadotropin releasing hormone receptor expressed in CHO cells was determined by using [125I]-buserelin as radioligand
16900	CHEMBL22055	9.100000	0.800000	30461	2006	Displacement of [125I]-His5, D-Tyr6]GnRH from mutant GnRHR, GnRHR F272L
152320	CHEMBL179691	9.100000	0.800000	30461	2006	Displacement of [125I]-His5, D-Tyr6]GnRH from mutant GnRHR, GnRHR E111A
16900	CHEMBL22055	9.100000	0.800000	30461	2006	Displacement of [125I]-His5, D-Tyr6]GnRH from mutant GnRHR, GnRHR E111K
16900	CHEMBL22055	9.100000	0.800000	30461	2006	Displacement of [125I]-His5, D-Tyr6]GnRH from mutant GnRHR, GnRHR S168I
16900	CHEMBL22055	9.100000	0.800000	30461	2006	Displacement of [125I]-His5, D-Tyr6]GnRH from mutant GnRHR, GnRHR S186K
16900	CHEMBL22055	9.100000	0.800000	30461	2006	Displacement of [125I]-His5, D-Tyr6]GnRH from mutant GnRHR, GnRHR D293N
16900	CHEMBL22055	9.100000	0.800000	31850	2006	Displacement of [125I]-His5, D-Tyr6]GnRH from GnRHR F272L mutant expressed in COS7 cells
514055	CHEMBL1800156	9.100000	0.800000	58231	2011	Displacement of [125I]leuprorelin from recombinant human GnRH receptor expressed in CHO cells after 60 mins by X-ray counter in presence of 40% fetal bovine serum
38418	CHEMBL45883	9.050000	0.900000	3806	2000	Inhibition of recombinant human Gonadotropin-releasing hormone receptor
41054	CHEMBL52278	9.050000	0.900000	6762	2004	Inhibitory concentration against binding of [125I]buserelin to human Gonadotropin-releasing hormone receptor
41054	CHEMBL2111956	9.050000	0.900000	4086	2000	In vitro inhibitory activity against rat CHO cells stably expressing human gonadotropin-releasing hormone receptor
308949	CHEMBL363663	9.050000	0.900000	20277	2004	Binding affinity towards human gonadotropin releasing hormone receptor expressed in CHO cells was determined by using [125I]-buserelin as radioligand
16900	CHEMBL22055	9.050000	0.900000	30461	2006	Displacement of [125I]-His5, D-Tyr6]GnRH from mutant GnRHR, GnRHR S124A
16900	CHEMBL22055	9.050000	0.900000	30461	2006	Displacement of [125I]-His5, D-Tyr6]GnRH from mutant GnRHR, GnRHR T190K
16900	CHEMBL22055	9.050000	0.900000	30461	2006	Displacement of [125I]-His5, D-Tyr6]GnRH from mutant GnRHR, GnRHR Y284F
16900	CHEMBL22055	9.050000	0.900000	30461	2006	Displacement of [125I]-His5, D-Tyr6]GnRH from mutant GnRHR, GnRHR W291F
152320	CHEMBL179691	9.050000	0.900000	30461	2006	Displacement of [125I]-His5, D-Tyr6]GnRH from human wild type GnRHR
364830	CHEMBL435167	9.050000	0.900000	31850	2006	Displacement of [125I]-His5, D-Tyr6]GnRH from GnRHR F272L mutant expressed in COS7 cells
615533	CHEMBL45784	9.000000	1.000000	3806	2000	Inhibition of recombinant human Gonadotropin-releasing hormone receptor
152320	CHEMBL179691	9.000000	1.000000	30461	2006	Displacement of [125I]-His5, D-Tyr6]GnRH from mutant GnRHR, GnRHR S203K
152320	CHEMBL179691	9.000000	1.000000	30461	2006	Displacement of [125I]-His5, D-Tyr6]GnRH from mutant GnRHR, GnRHR N305A
19828940	CHEMBL3085508	9.000000	1.000000	30461	2006	Displacement of [125I]-His5, D-Tyr6]GnRH from mutant GnRHR, GnRHR N315D
603927	CHEMBL264121	9.000000	1.000000	31350	2006	Inhibition of [125I]leuprorelin binding to human recombinant LHRH receptor expressed in CHO cells
364830	CHEMBL435167	9.000000	1.000000	31850	2006	Displacement of [His5, D-Tyr6]GnRH from GnRHR N27A mutant expressed in COS7 cells
101257	CHEMBL120432	9.000000	1.000000	42049	2008	Activity at human GnRH receptor by inositol phosphate functional assay
354140	CHEMBL416651	8.960000	1.100000	3806	2000	Inhibition of recombinant human Gonadotropin-releasing hormone receptor
37181	CHEMBL46177	8.960000	1.100000	3806	2000	Inhibition of recombinant human Gonadotropin-releasing hormone receptor
152320	CHEMBL179691	8.960000	1.100000	30461	2006	Displacement of [125I]-His5, D-Tyr6]GnRH from mutant GnRHR, GnRHR S168A
152320	CHEMBL179691	8.960000	1.100000	30461	2006	Displacement of [125I]-His5, D-Tyr6]GnRH from mutant GnRHR, GnRHR S186D
152320	CHEMBL179691	8.960000	1.100000	30461	2006	Displacement of [125I]-His5, D-Tyr6]GnRH from mutant GnRHR, GnRHR Q189A
152320	CHEMBL179691	8.960000	1.100000	30461	2006	Displacement of [125I]-His5, D-Tyr6]GnRH from mutant GnRHR, GnRHR Q189K
152320	CHEMBL179691	8.960000	1.100000	30461	2006	Displacement of [125I]-His5, D-Tyr6]GnRH from mutant GnRHR, GnRHR K191E
16900	CHEMBL22055	8.960000	1.100000	30461	2006	Displacement of [125I]-His5, D-Tyr6]GnRH from mutant GnRHR, GnRHR Y290Q
152320	CHEMBL179691	8.960000	1.100000	30461	2006	Displacement of [125I]-His5, D-Tyr6]GnRH from mutant GnRHR, GnRHR E295A
364830	CHEMBL435167	8.960000	1.100000	31850	2006	Displacement of [His5, D-Tyr6]GnRH from GnRHR Q208E mutant expressed in COS7 cells
19828940	CHEMBL3085508	8.920000	1.200000	30461	2006	Displacement of [125I]-His5, D-Tyr6]GnRH from mutant GnRHR, GnRHR M24A
152320	CHEMBL179691	8.920000	1.200000	30461	2006	Displacement of [125I]-His5, D-Tyr6]GnRH from mutant GnRHR, GnRHR A50T
152320	CHEMBL179691	8.920000	1.200000	30461	2006	Displacement of [125I]-His5, D-Tyr6]GnRH from mutant GnRHR, GnRHR T51A
152320	CHEMBL179691	8.920000	1.200000	30461	2006	Displacement of [125I]-His5, D-Tyr6]GnRH from mutant GnRHR, GnRHR L112K
16900	CHEMBL22055	8.920000	1.200000	30461	2006	Displacement of [125I]-His5, D-Tyr6]GnRH from mutant GnRHR, GnRHR K115Q
152320	CHEMBL179691	8.920000	1.200000	30461	2006	Displacement of [125I]-His5, D-Tyr6]GnRH from mutant GnRHR, GnRHR L117A
19828940	CHEMBL3085508	8.920000	1.200000	30461	2006	Displacement of [125I]-His5, D-Tyr6]GnRH from mutant GnRHR, GnRHR S118N
152320	CHEMBL179691	8.920000	1.200000	30461	2006	Displacement of [125I]-His5, D-Tyr6]GnRH from mutant GnRHR, GnRHR Q189P
16900	CHEMBL22055	8.920000	1.200000	30461	2006	Displacement of [125I]-His5, D-Tyr6]GnRH from mutant GnRHR, GnRHR D293E
16900	CHEMBL22055	8.920000	1.200000	30461	2006	Displacement of [125I]-His5, D-Tyr6]GnRH from mutant GnRHR, GnRHR N315A
16900	CHEMBL22055	8.920000	1.200000	31850	2006	Displacement of [His5, D-Tyr6]GnRH from GnRHR Q208E mutant expressed in COS7 cells
627827	CHEMBL415547	8.900000	1.259000	20474	2005	In vitro inhibition of human gonadotropin-releasing hormone expressed in HEK293 cells
19828940	CHEMBL3085508	8.890000	1.300000	30461	2006	Displacement of [125I]-His5, D-Tyr6]GnRH from mutant GnRHR, GnRHR M24I
152320	CHEMBL179691	8.890000	1.300000	30461	2006	Displacement of [125I]-His5, D-Tyr6]GnRH from mutant GnRHR, GnRHR S118A
19828940	CHEMBL3085508	8.890000	1.300000	30461	2006	Displacement of [125I]-His5, D-Tyr6]GnRH from mutant GnRHR, GnRHR S124A
152320	CHEMBL179691	8.890000	1.300000	30461	2006	Displacement of [125I]-His5, D-Tyr6]GnRH from mutant GnRHR, GnRHR Q189E
16900	CHEMBL22055	8.890000	1.300000	30461	2006	Displacement of [125I]-His5, D-Tyr6]GnRH from mutant GnRHR, GnRHR Q208E
19828940	CHEMBL3085508	8.890000	1.300000	30461	2006	Displacement of [125I]-His5, D-Tyr6]GnRH from mutant GnRHR, GnRHR L300V
19828940	CHEMBL3085508	8.890000	1.300000	30461	2006	Displacement of [125I]-His5, D-Tyr6]GnRH from mutant GnRHR, GnRHR N305A
627827	CHEMBL415547	8.870000	1.360000	20474	2005	In vitro inhibition of human gonadotropin-releasing hormone expressed in HEK293 cells
116821	CHEMBL138747	8.850000	1.400000	4086	2000	In vitro inhibitory activity against rat CHO cells stably expressing human gonadotropin-releasing hormone receptor
157379	CHEMBL185738	8.850000	1.400000	20277	2004	Binding affinity towards human gonadotropin releasing hormone receptor expressed in CHO cells was determined by using [125I]-buserelin as radioligand
152320	CHEMBL179691	8.850000	1.400000	30461	2006	Displacement of [125I]-His5, D-Tyr6]GnRH from mutant GnRHR, GnRHR E111Q
152320	CHEMBL179691	8.850000	1.400000	30461	2006	Displacement of [125I]-His5, D-Tyr6]GnRH from mutant GnRHR, GnRHR S168I
152320	CHEMBL179691	8.850000	1.400000	30461	2006	Displacement of [125I]-His5, D-Tyr6]GnRH from mutant GnRHR, GnRHR S203E
16900	CHEMBL22055	8.850000	1.400000	30461	2006	Displacement of [125I]-His5, D-Tyr6]GnRH from mutant GnRHR, GnRHR S203P
152320	CHEMBL179691	8.850000	1.400000	30461	2006	Displacement of [125I]-His5, D-Tyr6]GnRH from mutant GnRHR, GnRHR S203Q
152320	CHEMBL179691	8.850000	1.400000	30461	2006	Displacement of [125I]-His5, D-Tyr6]GnRH from mutant GnRHR, GnRHR E295K
152320	CHEMBL179691	8.850000	1.400000	30461	2006	Displacement of [125I]-His5, D-Tyr6]GnRH from mutant GnRHR, GnRHR N305D
152320	CHEMBL179691	8.850000	1.400000	30461	2006	Displacement of [125I]-His5, D-Tyr6]GnRH from mutant GnRHR, GnRHR H306A
152320	CHEMBL179691	8.850000	1.400000	30461	2006	Displacement of [125I]-His5, D-Tyr6]GnRH from mutant GnRHR, GnRHR N315D
152320	CHEMBL179691	8.820000	1.500000	30461	2006	Displacement of [125I]-His5, D-Tyr6]GnRH from mutant GnRHR, GnRHR F272L
152320	CHEMBL179691	8.820000	1.500000	30461	2006	Displacement of [125I]-His5, D-Tyr6]GnRH from mutant GnRHR, GnRHR L112A
152320	CHEMBL179691	8.820000	1.500000	30461	2006	Displacement of [125I]-His5, D-Tyr6]GnRH from mutant GnRHR, GnRHR T190K
594913	CHEMBL413245	8.820000	1.500000	42049	2008	Binding affinity at human GnRH receptor
19828940	CHEMBL3085508	8.800000	1.600000	30461	2006	Displacement of [125I]-His5, D-Tyr6]GnRH from mutant GnRHR, GnRHR S118A
152320	CHEMBL179691	8.800000	1.600000	30461	2006	Displacement of [125I]-His5, D-Tyr6]GnRH from mutant GnRHR, GnRHR E295Q
19828940	CHEMBL3085508	8.800000	1.600000	30461	2006	Displacement of [125I]-His5, D-Tyr6]GnRH from mutant GnRHR, GnRHR E295Q
152320	CHEMBL179691	8.800000	1.600000	30461	2006	Displacement of [125I]-His5, D-Tyr6]GnRH from mutant GnRHR, GnRHR N305K
383026	CHEMBL460480	8.800000	1.600000	42049	2008	Binding affinity at human GnRH receptor by competition binding assay
16900	CHEMBL22055	8.800000	1.600000	58231	2011	Displacement of [125I]leuprorelin from recombinant human GnRH receptor expressed in CHO cells after 60 mins by X-ray counter in presence of 40% fetal bovine serum
152320	CHEMBL179691	8.770000	1.700000	30461	2006	Displacement of [125I]-His5, D-Tyr6]GnRH from mutant GnRHR, GnRHR S186K
19828940	CHEMBL3085508	8.770000	1.700000	30461	2006	Displacement of [125I]-His5, D-Tyr6]GnRH from mutant GnRHR, GnRHR Q189P
19828940	CHEMBL3085508	8.770000	1.700000	30461	2006	Displacement of [125I]-His5, D-Tyr6]GnRH from mutant GnRHR, GnRHR S203K
19828940	CHEMBL3085508	8.770000	1.700000	30461	2006	Displacement of [125I]-His5, D-Tyr6]GnRH from mutant GnRHR, GnRHR S203Q
19828940	CHEMBL3085508	8.770000	1.700000	30461	2006	Displacement of [125I]-His5, D-Tyr6]GnRH from mutant GnRHR, GnRHR E295A
152320	CHEMBL179691	8.770000	1.700000	30461	2006	Displacement of [125I]-His5, D-Tyr6]GnRH from mutant GnRHR, GnRHR D302Q
383026	CHEMBL460480	8.770000	1.700000	44386	2008	Displacement of [125I]-(D-Trp6)LHRH from human recombinant GnRH receptor
383026	CHEMBL460480	8.770000	1.700000	46170	2009	Displacement of [125I]-(D-Trp6)-GnRH from human GnRH receptor
595589	CHEMBL414514	8.750000	1.780000	20474	2005	In vitro inhibition of human gonadotropin-releasing hormone expressed in HEK293 cells
37980	CHEMBL47895	8.740000	1.800000	3806	2000	Inhibition of recombinant human Gonadotropin-releasing hormone receptor
117141	CHEMBL138866	8.740000	1.800000	4086	2000	In vitro inhibitory activity against rat CHO cells stably expressing human gonadotropin-releasing hormone receptor
19828940	CHEMBL3085508	8.740000	1.800000	30461	2006	Displacement of [125I]-His5, D-Tyr6]GnRH from mutant GnRHR, GnRHR L112A
152320	CHEMBL179691	8.740000	1.800000	30461	2006	Displacement of [125I]-His5, D-Tyr6]GnRH from mutant GnRHR, GnRHR L112F
19828940	CHEMBL3085508	8.740000	1.800000	30461	2006	Displacement of [125I]-His5, D-Tyr6]GnRH from mutant GnRHR, GnRHR L112F
19828940	CHEMBL3085508	8.740000	1.800000	30461	2006	Displacement of [125I]-His5, D-Tyr6]GnRH from mutant GnRHR, GnRHR Y290F
16900	CHEMBL22055	8.740000	1.800000	30461	2006	Displacement of [125I]-His5, D-Tyr6]GnRH from mutant GnRHR, GnRHR L300V
152320	CHEMBL179691	8.740000	1.800000	30461	2006	Displacement of [125I]-His5, D-Tyr6]GnRH from mutant GnRHR, GnRHR D302A
398533	CHEMBL473807	8.740000	1.800000	46195	2009	Displacement of [D-Trp6]-GnRH from human recombinant GnRH receptor
631182	CHEMBL402671	8.730000	1.850000	20474	2005	In vitro inhibition of human gonadotropin-releasing hormone expressed in HEK293 cells
16900	CHEMBL22055	8.720000	1.900000	30461	2006	Displacement of [125I]-His5, D-Tyr6]GnRH from mutant GnRHR, GnRHR L112K
19828940	CHEMBL3085508	8.720000	1.900000	30461	2006	Displacement of [125I]-His5, D-Tyr6]GnRH from mutant GnRHR, GnRHR Q189K
19828940	CHEMBL3085508	8.720000	1.900000	30461	2006	Displacement of [125I]-His5, D-Tyr6]GnRH from mutant GnRHR, GnRHR S203E
16900	CHEMBL22055	8.720000	1.900000	30461	2006	Displacement of [125I]-His5, D-Tyr6]GnRH from mutant GnRHR, GnRHR L300A
16900	CHEMBL22055	8.720000	1.900000	31850	2006	Displacement of [His5, D-Tyr6]GnRH from GnRHR L300A mutant expressed in COS7 cells
594149	CHEMBL409138	8.700000	1.995000	20474	2005	In vitro inhibition of human gonadotropin-releasing hormone expressed in HEK293 cells
631182	CHEMBL402671	8.700000	1.995000	20474	2005	In vitro inhibition of human gonadotropin-releasing hormone expressed in HEK293 cells
595589	CHEMBL414514	8.700000	1.995000	20474	2005	In vitro inhibition of human gonadotropin-releasing hormone expressed in HEK293 cells
36258	CHEMBL46312	8.700000	2.000000	3806	2000	Inhibition of recombinant human Gonadotropin-releasing hormone receptor
256188	CHEMBL298937	8.700000	2.000000	6762	2004	Inhibitory concentration against binding of [125I]buserelin to human Gonadotropin-releasing hormone receptor
292383	CHEMBL342822	8.700000	2.000000	4086	2000	In vitro inhibitory activity against rat CHO cells stably expressing human gonadotropin-releasing hormone receptor
306841	CHEMBL360429	8.700000	2.000000	20277	2004	Binding affinity towards human gonadotropin releasing hormone receptor expressed in CHO cells was determined by using [125I]-buserelin as radioligand
312472	CHEMBL365366	8.700000	2.000000	20277	2004	Binding affinity towards human gonadotropin releasing hormone receptor expressed in CHO cells was determined by using [125I]-buserelin as radioligand
19828940	CHEMBL3085508	8.700000	2.000000	30461	2006	Displacement of [125I]-His5, D-Tyr6]GnRH from mutant GnRHR, GnRHR A50T
16900	CHEMBL22055	8.700000	2.000000	30461	2006	Displacement of [125I]-His5, D-Tyr6]GnRH from mutant GnRHR, GnRHR D293K
227607	CHEMBL264574	8.700000	2.000000	31350	2006	Inhibition of [125I]leuprorelin binding to human recombinant LHRH receptor expressed in CHO cells
179384	CHEMBL211098	8.700000	2.000000	31350	2006	Inhibition of [125I]leuprorelin binding to human recombinant LHRH receptor expressed in CHO cells
215842	CHEMBL250569	8.700000	2.000000	37902	2007	Displacement of [125I]D-Trp from human GnRH receptor expressed in HEK cells
19828940	CHEMBL3085508	8.680000	2.100000	30461	2006	Displacement of [125I]-His5, D-Tyr6]GnRH from mutant GnRHR, GnRHR T51A
19828940	CHEMBL3085508	8.680000	2.100000	30461	2006	Displacement of [125I]-His5, D-Tyr6]GnRH from mutant GnRHR, GnRHR E111Q
19828940	CHEMBL3085508	8.680000	2.100000	30461	2006	Displacement of [125I]-His5, D-Tyr6]GnRH from mutant GnRHR, GnRHR S186D
19828940	CHEMBL3085508	8.680000	2.100000	30461	2006	Displacement of [125I]-His5, D-Tyr6]GnRH from mutant GnRHR, GnRHR E295K
364830	CHEMBL435167	8.680000	2.100000	31850	2006	Displacement of [His5, D-Tyr6]GnRH from GnRHR L300A mutant expressed in COS7 cells
19828940	CHEMBL3085508	8.660000	2.200000	30461	2006	Displacement of [125I]-His5, D-Tyr6]GnRH from mutant GnRHR, GnRHR K115Q
594149	CHEMBL409138	8.650000	2.220000	20474	2005	In vitro inhibition of human gonadotropin-releasing hormone expressed in HEK293 cells
255785	CHEMBL297269	8.640000	2.300000	3806	2000	Inhibition of recombinant human Gonadotropin-releasing hormone receptor
584007	CHEMBL139993	8.640000	2.300000	4086	2000	In vitro inhibitory activity against rat CHO cells stably expressing human gonadotropin-releasing hormone receptor
16900	CHEMBL22055	8.640000	2.300000	30461	2006	Displacement of [125I]-His5, D-Tyr6]GnRH from mutant GnRHR, GnRHR W280F
152320	CHEMBL179691	8.640000	2.300000	30461	2006	Displacement of [125I]-His5, D-Tyr6]GnRH from mutant GnRHR, GnRHR Y284F
569989	CHEMBL1091579	8.640000	2.300000	50731	2010	Displacement of [125I]D-Trp6-GnRH from human recombinant GNRH receptor by scintillation counting
327	CHEMBL439879	8.630000	2.370000	20474	2005	In vitro inhibition of human gonadotropin-releasing hormone expressed in HEK293 cells
19828940	CHEMBL3085508	8.620000	2.400000	30461	2006	Displacement of [125I]-His5, D-Tyr6]GnRH from mutant GnRHR, GnRHR F272L
19828940	CHEMBL3085508	8.620000	2.400000	30461	2006	Displacement of [125I]-His5, D-Tyr6]GnRH from mutant GnRHR, GnRHR S186K
152320	CHEMBL179691	8.620000	2.400000	30461	2006	Displacement of [125I]-His5, D-Tyr6]GnRH from mutant GnRHR, GnRHR N315A
607980	CHEMBL407619	8.610000	2.460000	20474	2005	In vitro inhibition of human gonadotropin-releasing hormone expressed in HEK293 cells
152320	CHEMBL179691	8.600000	2.500000	30461	2006	Displacement of [125I]-His5, D-Tyr6]GnRH from mutant GnRHR, GnRHR N27A
19828940	CHEMBL3085508	8.600000	2.500000	30461	2006	Displacement of [125I]-His5, D-Tyr6]GnRH from mutant GnRHR, GnRHR S168I
16900	CHEMBL22055	8.600000	2.500000	30461	2006	Displacement of [125I]-His5, D-Tyr6]GnRH from human wild type GnRHR
327	CHEMBL439879	8.600000	2.512000	20474	2005	In vitro inhibition of human gonadotropin-releasing hormone expressed in HEK293 cells
607980	CHEMBL407619	8.600000	2.512000	20474	2005	In vitro inhibition of human gonadotropin-releasing hormone expressed in HEK293 cells
152320	CHEMBL179691	8.590000	2.600000	30461	2006	Displacement of [125I]-His5, D-Tyr6]GnRH from mutant GnRHR, GnRHR D302N
19828940	CHEMBL3085508	8.570000	2.700000	30461	2006	Displacement of [125I]-His5, D-Tyr6]GnRH from mutant GnRHR, GnRHR E111A
152320	CHEMBL179691	8.570000	2.700000	30461	2006	Displacement of [125I]-His5, D-Tyr6]GnRH from mutant GnRHR, GnRHR K115Q
19828940	CHEMBL3085508	8.570000	2.700000	30461	2006	Displacement of [125I]-His5, D-Tyr6]GnRH from mutant GnRHR, GnRHR Q189A
19828940	CHEMBL3085508	8.570000	2.700000	30461	2006	Displacement of [125I]-His5, D-Tyr6]GnRH from mutant GnRHR, GnRHR S203P
152320	CHEMBL179691	8.570000	2.700000	30461	2006	Displacement of [125I]-His5, D-Tyr6]GnRH from mutant GnRHR, GnRHR H306E
286942	CHEMBL336884	8.550000	2.800000	4086	2000	In vitro inhibitory activity against rat CHO cells stably expressing human gonadotropin-releasing hormone receptor
63329	CHEMBL360143	8.550000	2.800000	21496	2005	Inhibition of Human gonadotropin-releasing hormone receptor stimulated calcium flux
19828940	CHEMBL3085508	8.550000	2.800000	30461	2006	Displacement of [125I]-His5, D-Tyr6]GnRH from mutant GnRHR, GnRHR N27E
152320	CHEMBL179691	8.550000	2.800000	30461	2006	Displacement of [125I]-His5, D-Tyr6]GnRH from mutant GnRHR, GnRHR F309L
618162	CHEMBL266420	8.550000	2.820000	20474	2005	In vitro inhibition of human gonadotropin-releasing hormone expressed in HEK293 cells
291308	CHEMBL341717	8.540000	2.900000	4086	2000	In vitro inhibitory activity against rat CHO cells stably expressing human gonadotropin-releasing hormone receptor
19828940	CHEMBL3085508	8.540000	2.900000	30461	2006	Displacement of [125I]-His5, D-Tyr6]GnRH from mutant GnRHR, GnRHR N27A
250546	CHEMBL292773	8.520000	3.000000	4945	2002	In vitro inhibition of specific [125I]leuprorelin binding to the cloned human LHRH receptor expressed in chinese hamster ovary cells
259961	CHEMBL304633	8.520000	3.000000	4945	2002	In vitro inhibition of specific [125I]leuprorelin binding to the cloned human LHRH receptor expressed in chinese hamster ovary cells
152320	CHEMBL179691	8.520000	3.000000	21496	2005	Inhibition of Human gonadotropin-releasing hormone receptor stimulated calcium flux
19828940	CHEMBL3085508	8.520000	3.000000	30461	2006	Displacement of [125I]-His5, D-Tyr6]GnRH from mutant GnRHR, GnRHR T190K
152320	CHEMBL179691	8.520000	3.000000	30461	2006	Displacement of [125I]-His5, D-Tyr6]GnRH from mutant GnRHR, GnRHR D293E
16900	CHEMBL22055	8.520000	3.000000	30461	2006	Displacement of [125I]-His5, D-Tyr6]GnRH from mutant GnRHR, GnRHR N305K
152320	CHEMBL179691	8.510000	3.100000	30461	2006	Displacement of [125I]-His5, D-Tyr6]GnRH from mutant GnRHR, GnRHR S124A
618162	CHEMBL266420	8.500000	3.162000	20474	2005	In vitro inhibition of human gonadotropin-releasing hormone expressed in HEK293 cells
3197	CHEMBL411987	8.500000	3.162000	20474	2005	In vitro inhibition of human gonadotropin-releasing hormone expressed in HEK293 cells
291888	CHEMBL341809	8.490000	3.200000	4086	2000	In vitro inhibitory activity against rat CHO cells stably expressing human gonadotropin-releasing hormone receptor
19828940	CHEMBL3085508	8.490000	3.200000	30461	2006	Displacement of [125I]-His5, D-Tyr6]GnRH from mutant GnRHR, GnRHR L112K
19828940	CHEMBL3085508	8.490000	3.200000	30461	2006	Displacement of [125I]-His5, D-Tyr6]GnRH from mutant GnRHR, GnRHR S168A
152320	CHEMBL179691	8.490000	3.200000	30461	2006	Displacement of [125I]-His5, D-Tyr6]GnRH from mutant GnRHR, GnRHR Y290F
152320	CHEMBL179691	8.490000	3.200000	30461	2006	Displacement of [125I]-His5, D-Tyr6]GnRH from mutant GnRHR, GnRHR W291F
19828940	CHEMBL3085508	8.480000	3.300000	30461	2006	Displacement of [125I]-His5, D-Tyr6]GnRH from mutant GnRHR, GnRHR M24T
19828940	CHEMBL3085508	8.480000	3.300000	30461	2006	Displacement of [125I]-His5, D-Tyr6]GnRH from mutant GnRHR, GnRHR E111K
19828940	CHEMBL3085508	8.480000	3.300000	30461	2006	Displacement of [125I]-His5, D-Tyr6]GnRH from mutant GnRHR, GnRHR L117A
19828940	CHEMBL3085508	8.480000	3.300000	30461	2006	Displacement of [125I]-His5, D-Tyr6]GnRH from mutant GnRHR, GnRHR K191E
20134226	CHEMBL3358413	8.480000	3.300000	90044	2014	Antagonist activity against human GnRH receptor expressed in CHO cells by IP-one HTRF assay
152320	CHEMBL179691	8.470000	3.400000	30461	2006	Displacement of [125I]-His5, D-Tyr6]GnRH from mutant GnRHR, GnRHR D293A
431394	CHEMBL513998	8.460000	3.500000	46195	2009	Displacement of [D-Trp6]-GnRH from human recombinant GnRH receptor
3197	CHEMBL411987	8.450000	3.530000	20474	2005	In vitro inhibition of human gonadotropin-releasing hormone expressed in HEK293 cells
116965	CHEMBL138999	8.440000	3.600000	4086	2000	In vitro inhibitory activity against rat CHO cells stably expressing human gonadotropin-releasing hormone receptor
314610	CHEMBL371722	8.430000	3.700000	30461	2006	Displacement of [125I]-His5, D-Tyr6]GnRH from mutant GnRHR, GnRHR H182A
152320	CHEMBL179691	8.430000	3.700000	30461	2006	Displacement of [125I]-His5, D-Tyr6]GnRH from mutant GnRHR, GnRHR D293N
19828940	CHEMBL3085508	8.430000	3.700000	30461	2006	Displacement of [125I]-His5, D-Tyr6]GnRH from mutant GnRHR, GnRHR L300A
314610	CHEMBL371722	8.430000	3.700000	30461	2006	Displacement of [125I]-His5, D-Tyr6]GnRH from mutant GnRHR, GnRHR N305A
314610	CHEMBL371722	8.430000	3.700000	30461	2006	Displacement of [125I]-His5, D-Tyr6]GnRH from mutant GnRHR, GnRHR N305K
293502	CHEMBL343396	8.420000	3.800000	4086	2000	In vitro inhibitory activity against rat CHO cells stably expressing human gonadotropin-releasing hormone receptor
19828940	CHEMBL3085508	8.420000	3.800000	30461	2006	Displacement of [125I]-His5, D-Tyr6]GnRH from mutant GnRHR, GnRHR Q208E
19828940	CHEMBL3085508	8.420000	3.800000	30461	2006	Displacement of [125I]-His5, D-Tyr6]GnRH from mutant GnRHR, GnRHR D293N
19828940	CHEMBL3085508	8.420000	3.800000	30461	2006	Displacement of [125I]-His5, D-Tyr6]GnRH from mutant GnRHR, GnRHR F313L
39117	CHEMBL48249	8.410000	3.900000	3806	2000	Inhibition of recombinant human Gonadotropin-releasing hormone receptor
19828940	CHEMBL3085508	8.390000	4.100000	30461	2006	Displacement of [125I]-His5, D-Tyr6]GnRH from mutant GnRHR, GnRHR D293E
19828940	CHEMBL3085508	8.390000	4.100000	30461	2006	Displacement of [125I]-His5, D-Tyr6]GnRH from human wild type GnRHR
156637	CHEMBL183779	8.380000	4.200000	20757	2005	Inhibitory concentration towards human leutinizing releasing hormone receptor
16900	CHEMBL22055	8.370000	4.300000	30461	2006	Displacement of [125I]-His5, D-Tyr6]GnRH from mutant GnRHR, GnRHR N305D
557910	CHEMBL1091209	8.370000	4.300000	50731	2010	Displacement of [125I]D-Trp6-GnRH from human recombinant GNRH receptor by scintillation counting
19828940	CHEMBL3085508	8.360000	4.400000	30461	2006	Displacement of [125I]-His5, D-Tyr6]GnRH from mutant GnRHR, GnRHR H182E
19828940	CHEMBL3085508	8.340000	4.600000	30461	2006	Displacement of [125I]-His5, D-Tyr6]GnRH from mutant GnRHR, GnRHR W291F
314610	CHEMBL371722	8.320000	4.800000	30461	2006	Displacement of [125I]-His5, D-Tyr6]GnRH from mutant GnRHR, GnRHR L117A
385125	CHEMBL459215	8.310000	4.900000	44386	2008	Displacement of [125I]-(D-Trp6)LHRH from human recombinant GnRH receptor
385125	CHEMBL459215	8.310000	4.900000	46195	2009	Displacement of [D-Trp6]-GnRH from human recombinant GnRH receptor
54298	CHEMBL65614	8.300000	5.000000	4945	2002	In vitro inhibition of specific [125I]leuprorelin binding to the cloned human LHRH receptor expressed in chinese hamster ovary cells
306298	CHEMBL359894	8.300000	5.000000	21496	2005	Inhibition of Human gonadotropin-releasing hormone receptor stimulated calcium flux
19828940	CHEMBL3085508	8.280000	5.200000	30461	2006	Displacement of [125I]-His5, D-Tyr6]GnRH from mutant GnRHR, GnRHR H182A
19828940	CHEMBL3085508	8.280000	5.200000	30461	2006	Displacement of [125I]-His5, D-Tyr6]GnRH from mutant GnRHR, GnRHR D293A
19828940	CHEMBL3085508	8.280000	5.200000	30461	2006	Displacement of [125I]-His5, D-Tyr6]GnRH from mutant GnRHR, GnRHR D293K
16900	CHEMBL22055	8.280000	5.200000	30461	2006	Displacement of [125I]-His5, D-Tyr6]GnRH from mutant GnRHR, GnRHR L300K
417804	CHEMBL494797	8.280000	5.200000	42049	2008	Binding affinity at human GnRH receptor by competition binding assay
19828940	CHEMBL3085508	8.280000	5.300000	30461	2006	Displacement of [125I]-His5, D-Tyr6]GnRH from mutant GnRHR, GnRHR Q208D
314610	CHEMBL371722	8.270000	5.400000	30461	2006	Displacement of [125I]-His5, D-Tyr6]GnRH from mutant GnRHR, GnRHR E111A
152320	CHEMBL179691	8.260000	5.500000	30461	2006	Displacement of [125I]-His5, D-Tyr6]GnRH from mutant GnRHR, GnRHR W280F
438377	CHEMBL516479	8.260000	5.500000	44386	2008	Displacement of [125I]-(D-Trp6)LHRH from human recombinant GnRH receptor
20134229	CHEMBL3358416	8.260000	5.500000	90044	2014	Antagonist activity against human GnRH receptor expressed in CHO cells by IP-one HTRF assay
378665	CHEMBL446978	8.250000	5.600000	46195	2009	Displacement of [D-Trp6]-GnRH from human recombinant GnRH receptor
43216	CHEMBL51841	8.240000	5.700000	6762	2004	Inhibitory concentration against binding of [125I]buserelin to human Gonadotropin-releasing hormone receptor
152320	CHEMBL179691	8.240000	5.700000	30461	2006	Displacement of [125I]-His5, D-Tyr6]GnRH from mutant GnRHR, GnRHR D293K
438238	CHEMBL517881	8.240000	5.700000	44386	2008	Displacement of [125I]-(D-Trp6)LHRH from human recombinant GnRH receptor
438719	CHEMBL521674	8.240000	5.800000	50731	2010	Displacement of [125I]D-Trp6-GnRH from human recombinant GNRH receptor by scintillation counting
314610	CHEMBL371722	8.220000	6.000000	30461	2006	Displacement of [125I]-His5, D-Tyr6]GnRH from mutant GnRHR, GnRHR Q208E
113143	CHEMBL135103	8.220000	6.000000	31350	2006	Inhibition of [125I]leuprorelin binding to human recombinant LHRH receptor expressed in CHO cells
16900	CHEMBL22055	8.220000	6.000000	31850	2006	Displacement of [His5, D-Tyr6]GnRH from GnRHR F309L mutant expressed in COS-7 cells
240313	CHEMBL280212	8.220000	6.000000	31850	2006	Displacement of [125I]-His5, D-Tyr6]GnRH from GnRHR F272L mutant expressed in COS7 cells
150274	CHEMBL178457	8.210000	6.200000	21496	2005	Inhibition of Human gonadotropin-releasing hormone receptor stimulated calcium flux
381601	CHEMBL459659	8.210000	6.200000	44386	2008	Displacement of [125I]-(D-Trp6)LHRH from human recombinant GnRH receptor
16900	CHEMBL22055	8.200000	6.300000	30461	2006	Displacement of [125I]-His5, D-Tyr6]GnRH from mutant GnRHR, GnRHR F309L
598953	CHEMBL413216	8.200000	6.310000	20474	2005	In vitro inhibition of human gonadotropin-releasing hormone expressed in HEK293 cells
603440	CHEMBL414899	8.200000	6.310000	20474	2005	In vitro inhibition of human gonadotropin-releasing hormone expressed in HEK293 cells
603440	CHEMBL414899	8.200000	6.370000	20474	2005	In vitro inhibition of human gonadotropin-releasing hormone expressed in HEK293 cells
19828940	CHEMBL3085508	8.190000	6.400000	30461	2006	Displacement of [125I]-His5, D-Tyr6]GnRH from mutant GnRHR, GnRHR N305K
280030	CHEMBL326504	8.190000	6.500000	21496	2005	Inhibition of Human gonadotropin-releasing hormone receptor stimulated calcium flux
152320	CHEMBL179691	8.180000	6.600000	30461	2006	Displacement of [125I]-His5, D-Tyr6]GnRH from mutant GnRHR, GnRHR F309Q
390436	CHEMBL468565	8.180000	6.600000	42049	2008	Binding affinity at human GnRH receptor by competition binding assay
553881	CHEMBL1088866	8.170000	6.700000	50731	2010	Displacement of [125I]D-Trp6-GnRH from human recombinant GNRH receptor by scintillation counting
314610	CHEMBL371722	8.170000	6.800000	30461	2006	Displacement of [125I]-His5, D-Tyr6]GnRH from mutant GnRHR, GnRHR W291F
598953	CHEMBL413216	8.160000	6.860000	20474	2005	In vitro inhibition of human gonadotropin-releasing hormone expressed in HEK293 cells
38418	CHEMBL138464	8.150000	7.000000	4086	2000	In vitro inhibitory activity against rat CHO cells stably expressing human gonadotropin-releasing hormone receptor
261382	CHEMBL305155	8.150000	7.000000	4945	2002	In vitro inhibition of specific [125I]leuprorelin binding to the cloned human LHRH receptor expressed in chinese hamster ovary cells
438719	CHEMBL521674	8.150000	7.000000	46170	2009	Displacement of [125I]-(D-Trp6)-GnRH from human GnRH receptor
19828940	CHEMBL3085508	8.140000	7.300000	30461	2006	Displacement of [125I]-His5, D-Tyr6]GnRH from mutant GnRHR, GnRHR Q189E
152320	CHEMBL179691	8.120000	7.500000	30461	2006	Displacement of [125I]-His5, D-Tyr6]GnRH from mutant GnRHR, GnRHR N27E
417851	CHEMBL494400	8.120000	7.500000	46170	2009	Displacement of [125I]-(D-Trp6)-GnRH from human GnRH receptor
314610	CHEMBL371722	8.120000	7.600000	30461	2006	Displacement of [125I]-His5, D-Tyr6]GnRH from mutant GnRHR, GnRHR H182E
19828940	CHEMBL3085508	8.120000	7.600000	30461	2006	Displacement of [125I]-His5, D-Tyr6]GnRH from mutant GnRHR, GnRHR D302N
19828940	CHEMBL3085508	8.110000	7.800000	30461	2006	Displacement of [125I]-His5, D-Tyr6]GnRH from mutant GnRHR, GnRHR F309L
19828940	CHEMBL3085508	8.100000	7.900000	30461	2006	Displacement of [125I]-His5, D-Tyr6]GnRH from mutant GnRHR, GnRHR Y290L
152320	CHEMBL179691	8.100000	8.000000	30461	2006	Displacement of [125I]-His5, D-Tyr6]GnRH from mutant GnRHR, GnRHR S203P
602696	CHEMBL211731	8.100000	8.000000	31350	2006	Inhibition of [125I]leuprorelin binding to human recombinant LHRH receptor expressed in CHO cells
420066	CHEMBL493731	8.100000	8.000000	46170	2009	Displacement of [125I]-(D-Trp6)-GnRH from human GnRH receptor
16900	CHEMBL22055	8.070000	8.500000	30461	2006	Displacement of [125I]-His5, D-Tyr6]GnRH from mutant GnRHR, GnRHR N27E
19828940	CHEMBL3085508	8.070000	8.500000	30461	2006	Displacement of [125I]-His5, D-Tyr6]GnRH from mutant GnRHR, GnRHR W280F
390472	CHEMBL460892	8.060000	8.700000	44386	2008	Displacement of [125I]-(D-Trp6)LHRH from human recombinant GnRH receptor
314610	CHEMBL371722	8.060000	8.800000	30461	2006	Displacement of [125I]-His5, D-Tyr6]GnRH from mutant GnRHR, GnRHR N27A
314610	CHEMBL371722	8.050000	8.900000	30461	2006	Displacement of [125I]-His5, D-Tyr6]GnRH from mutant GnRHR, GnRHR S168A
152320	CHEMBL179691	8.050000	8.900000	30461	2006	Displacement of [125I]-His5, D-Tyr6]GnRH from mutant GnRHR, GnRHR L300V
117420	CHEMBL139292	8.050000	9.000000	4086	2000	In vitro inhibitory activity against rat CHO cells stably expressing human gonadotropin-releasing hormone receptor
603510	CHEMBL378481	8.050000	9.000000	31350	2006	Inhibition of [125I]leuprorelin binding to human recombinant LHRH receptor expressed in CHO cells
364830	CHEMBL435167	8.050000	9.000000	31850	2006	Displacement of [His5, D-Tyr6]GnRH from GnRHR F309L mutant expressed in COS-7 cells
152320	CHEMBL179691	8.040000	9.200000	30461	2006	Displacement of [125I]-His5, D-Tyr6]GnRH from mutant GnRHR, GnRHR Q208E
19828940	CHEMBL3085508	8.020000	9.500000	30461	2006	Displacement of [125I]-His5, D-Tyr6]GnRH from mutant GnRHR, GnRHR N305D
314610	CHEMBL371722	8.020000	9.600000	30461	2006	Displacement of [125I]-His5, D-Tyr6]GnRH from mutant GnRHR, GnRHR E295K
19828940	CHEMBL3085508	8.020000	9.600000	30461	2006	Displacement of [125I]-His5, D-Tyr6]GnRH from mutant GnRHR, GnRHR F309Q
16900	CHEMBL22055	8.010000	9.700000	30461	2006	Displacement of [125I]-His5, D-Tyr6]GnRH from mutant GnRHR, GnRHR Q208D
19828940	CHEMBL3085508	8.010000	9.700000	30461	2006	Displacement of [125I]-His5, D-Tyr6]GnRH from mutant GnRHR, GnRHR Y290Q
558088	CHEMBL1092638	8.010000	9.800000	50731	2010	Displacement of [125I]D-Trp6-GnRH from human recombinant GNRH receptor by scintillation counting
658075	CHEMBL295917	8.000000	10.000000	3806	2000	Inhibition of recombinant human Gonadotropin-releasing hormone receptor
610354	CHEMBL64920	8.000000	10.000000	4945	2002	In vitro inhibition of specific [125I]leuprorelin binding to the cloned human LHRH receptor expressed in chinese hamster ovary cells
308246	CHEMBL359754	8.000000	10.000000	21496	2005	Inhibition of Human gonadotropin-releasing hormone receptor stimulated calcium flux
314610	CHEMBL371722	8.000000	10.000000	30461	2006	Displacement of [125I]-His5, D-Tyr6]GnRH from mutant GnRHR, GnRHR Q189A
16900	CHEMBL22055	8.000000	10.000000	30461	2006	Displacement of [125I]-His5, D-Tyr6]GnRH from mutant GnRHR, GnRHR F309Q
600542	CHEMBL438652	8.000000	10.000000	31350	2006	Inhibition of [125I]leuprorelin binding to human recombinant LHRH receptor expressed in CHO cells
16900	CHEMBL22055	8.000000	10.000000	31850	2006	Displacement of [His5, D-Tyr6]GnRH from GnRHR F309Q mutant expressed in COS7 cells
445442	CHEMBL523711	8.000000	10.000000	46170	2009	Displacement of [125I]-(D-Trp6)-GnRH from human GnRH receptor
414603	CHEMBL492327	8.000000	10.000000	46170	2009	Displacement of [125I]-(D-Trp6)-GnRH from human GnRH receptor
390436	CHEMBL468565	8.000000	10.000000	50731	2010	Displacement of [125I]D-Trp6-GnRH from human recombinant GNRH receptor by scintillation counting
314610	CHEMBL371722	7.970000	10.800000	30461	2006	Displacement of [125I]-His5, D-Tyr6]GnRH from mutant GnRHR, GnRHR N27E
314610	CHEMBL371722	7.970000	10.800000	30461	2006	Displacement of [125I]-His5, D-Tyr6]GnRH from mutant GnRHR, GnRHR Q189P
292369	CHEMBL342908	7.960000	10.900000	4086	2000	In vitro inhibitory activity against rat CHO cells stably expressing human gonadotropin-releasing hormone receptor
314610	CHEMBL371722	7.960000	11.000000	30461	2006	Displacement of [125I]-His5, D-Tyr6]GnRH from mutant GnRHR, GnRHR K191E
314610	CHEMBL371722	7.960000	11.000000	30461	2006	Displacement of [125I]-His5, D-Tyr6]GnRH from mutant GnRHR, GnRHR D302A
419759	CHEMBL493730	7.960000	11.000000	46170	2009	Displacement of [125I]-(D-Trp6)-GnRH from human GnRH receptor
314610	CHEMBL371722	7.950000	11.200000	30461	2006	Displacement of [125I]-His5, D-Tyr6]GnRH from mutant GnRHR, GnRHR E295A
19828940	CHEMBL3085508	7.950000	11.200000	30461	2006	Displacement of [125I]-His5, D-Tyr6]GnRH from mutant GnRHR, GnRHR H306E
314610	CHEMBL371722	7.950000	11.300000	30461	2006	Displacement of [125I]-His5, D-Tyr6]GnRH from mutant GnRHR, GnRHR S186D
152320	CHEMBL179691	7.940000	11.400000	30461	2006	Displacement of [125I]-His5, D-Tyr6]GnRH from mutant GnRHR, GnRHR H306K
314610	CHEMBL371722	7.940000	11.500000	30461	2006	Displacement of [125I]-His5, D-Tyr6]GnRH from mutant GnRHR, GnRHR E111Q
16900	CHEMBL22055	7.920000	12.000000	31850	2006	Displacement of [His5, D-Tyr6]GnRH from GnRHR Y284L mutant expressed in COS7 cells
395955	CHEMBL474991	7.920000	12.000000	46195	2009	Displacement of [D-Trp6]-GnRH from human recombinant GnRH receptor
417361	CHEMBL493167	7.920000	12.000000	46170	2009	Displacement of [125I]-(D-Trp6)-GnRH from human GnRH receptor
395955	CHEMBL474991	7.920000	12.000000	50731	2010	Displacement of [125I]D-Trp6-GnRH from human recombinant GNRH receptor by scintillation counting
16900	CHEMBL22055	7.920000	12.100000	30461	2006	Displacement of [125I]-His5, D-Tyr6]GnRH from mutant GnRHR, GnRHR Y284L
240313	CHEMBL280212	7.890000	13.000000	31850	2006	Displacement of [His5, D-Tyr6]GnRH from GnRHR D302N mutant expressed in COS7 cells
314610	CHEMBL371722	7.880000	13.100000	30461	2006	Displacement of [125I]-His5, D-Tyr6]GnRH from mutant GnRHR, GnRHR S186K
19828940	CHEMBL3085508	7.880000	13.200000	30461	2006	Displacement of [125I]-His5, D-Tyr6]GnRH from mutant GnRHR, GnRHR Y284L
19828940	CHEMBL3085508	7.880000	13.200000	30461	2006	Displacement of [125I]-His5, D-Tyr6]GnRH from mutant GnRHR, GnRHR L300K
314610	CHEMBL371722	7.870000	13.600000	30461	2006	Displacement of [125I]-His5, D-Tyr6]GnRH from mutant GnRHR, GnRHR E111K
152320	CHEMBL179691	7.860000	13.900000	30461	2006	Displacement of [125I]-His5, D-Tyr6]GnRH from mutant GnRHR, GnRHR Y283F
19828940	CHEMBL3085508	7.860000	13.900000	30461	2006	Displacement of [125I]-His5, D-Tyr6]GnRH from mutant GnRHR, GnRHR D302Q
314610	CHEMBL371722	7.840000	14.600000	30461	2006	Displacement of [125I]-His5, D-Tyr6]GnRH from mutant GnRHR, GnRHR S203K
116828	CHEMBL139291	7.820000	15.000000	4086	2000	In vitro inhibitory activity against rat CHO cells stably expressing human gonadotropin-releasing hormone receptor
240313	CHEMBL280212	7.820000	15.000000	31850	2006	Displacement of [His5, D-Tyr6]GnRH from GnRHR D302A mutant expressed in COS7 cells
314610	CHEMBL371722	7.820000	15.100000	30461	2006	Displacement of [125I]-His5, D-Tyr6]GnRH from mutant GnRHR, GnRHR S203E
314610	CHEMBL371722	7.820000	15.200000	30461	2006	Displacement of [125I]-His5, D-Tyr6]GnRH from mutant GnRHR, GnRHR S168I
314610	CHEMBL371722	7.820000	15.200000	30461	2006	Displacement of [125I]-His5, D-Tyr6]GnRH from mutant GnRHR, GnRHR E295Q
19828940	CHEMBL3085508	7.820000	15.200000	30461	2006	Displacement of [125I]-His5, D-Tyr6]GnRH from mutant GnRHR, GnRHR D302A
152320	CHEMBL179691	7.820000	15.200000	30461	2006	Displacement of [125I]-His5, D-Tyr6]GnRH from mutant GnRHR, GnRHR F313L
19828940	CHEMBL3085508	7.820000	15.300000	30461	2006	Displacement of [125I]-His5, D-Tyr6]GnRH from mutant GnRHR, GnRHR H306A
314610	CHEMBL371722	7.800000	15.700000	30461	2006	Displacement of [125I]-His5, D-Tyr6]GnRH from mutant GnRHR, GnRHR Q189E
314610	CHEMBL371722	7.800000	15.700000	30461	2006	Displacement of [125I]-His5, D-Tyr6]GnRH from mutant GnRHR, GnRHR S203Q
314610	CHEMBL371722	7.800000	15.800000	30461	2006	Displacement of [125I]-His5, D-Tyr6]GnRH from mutant GnRHR, GnRHR T51A
314610	CHEMBL371722	7.800000	15.800000	30461	2006	Displacement of [125I]-His5, D-Tyr6]GnRH from mutant GnRHR, GnRHR Q189K
401138	CHEMBL475650	7.800000	16.000000	46195	2009	Displacement of [D-Trp6]-GnRH from human recombinant GnRH receptor
314610	CHEMBL371722	7.790000	16.200000	30461	2006	Displacement of [125I]-His5, D-Tyr6]GnRH from mutant GnRHR, GnRHR Q208D
314610	CHEMBL371722	7.770000	16.900000	30461	2006	Displacement of [125I]-His5, D-Tyr6]GnRH from mutant GnRHR, GnRHR F272L
314610	CHEMBL371722	7.750000	17.700000	30461	2006	Displacement of [125I]-His5, D-Tyr6]GnRH from human wild type GnRHR
314610	CHEMBL371722	7.750000	17.800000	30461	2006	Displacement of [125I]-His5, D-Tyr6]GnRH from mutant GnRHR, GnRHR A50T
314610	CHEMBL371722	7.750000	17.900000	30461	2006	Displacement of [125I]-His5, D-Tyr6]GnRH from mutant GnRHR, GnRHR M24A
417418	CHEMBL493344	7.740000	18.000000	46170	2009	Displacement of [125I]-(D-Trp6)-GnRH from human GnRH receptor
421749	CHEMBL494738	7.740000	18.000000	46170	2009	Displacement of [125I]-(D-Trp6)-GnRH from human GnRH receptor
19828940	CHEMBL3085508	7.720000	18.900000	30461	2006	Displacement of [125I]-His5, D-Tyr6]GnRH from mutant GnRHR, GnRHR H306K
445820	CHEMBL523849	7.720000	19.000000	46170	2009	Displacement of [125I]-(D-Trp6)-GnRH from human GnRH receptor
314610	CHEMBL371722	7.700000	19.800000	30461	2006	Displacement of [125I]-His5, D-Tyr6]GnRH from mutant GnRHR, GnRHR T190K
249556	CHEMBL291893	7.700000	20.000000	4945	2002	In vitro inhibition of specific [125I]leuprorelin binding to the cloned human LHRH receptor expressed in chinese hamster ovary cells
349360	CHEMBL413062	7.700000	20.000000	20757	2005	Inhibitory concentration towards human leutinizing releasing hormone receptor
278500	CHEMBL324912	7.700000	20.000000	21496	2005	Inhibition of Human gonadotropin-releasing hormone receptor stimulated calcium flux
325103	CHEMBL385175	7.700000	20.000000	31850	2006	Displacement of [125I]-His5, D-Tyr6]GnRH from GnRHR F272L mutant expressed in COS7 cells
240313	CHEMBL280212	7.700000	20.000000	31850	2006	Displacement of [His5, D-Tyr6]GnRH from GnRHR Y290L mutant expressed in COS7 cells
443796	CHEMBL523527	7.700000	20.000000	46170	2009	Displacement of [125I]-(D-Trp6)-GnRH from human GnRH receptor
314610	CHEMBL371722	7.690000	20.600000	30461	2006	Displacement of [125I]-His5, D-Tyr6]GnRH from mutant GnRHR, GnRHR D302Q
395956	CHEMBL474992	7.680000	21.000000	46195	2009	Displacement of [D-Trp6]-GnRH from human recombinant GnRH receptor
428045	CHEMBL495174	7.680000	21.000000	46170	2009	Displacement of [125I]-(D-Trp6)-GnRH from human GnRH receptor
414668	CHEMBL494554	7.680000	21.000000	46170	2009	Displacement of [125I]-(D-Trp6)-GnRH from human GnRH receptor
314610	CHEMBL371722	7.670000	21.300000	30461	2006	Displacement of [125I]-His5, D-Tyr6]GnRH from mutant GnRHR, GnRHR S124A
156143	CHEMBL183274	7.660000	22.000000	20757	2005	Inhibitory concentration towards human leutinizing releasing hormone receptor
240313	CHEMBL280212	7.660000	22.000000	31850	2006	Displacement of [His5, D-Tyr6]GnRH from GnRHR L300A mutant expressed in COS7 cells
420399	CHEMBL495183	7.660000	22.000000	46170	2009	Displacement of [125I]-(D-Trp6)-GnRH from human GnRH receptor
314610	CHEMBL371722	7.650000	22.400000	30461	2006	Displacement of [125I]-His5, D-Tyr6]GnRH from mutant GnRHR, GnRHR L112A
292069	CHEMBL344688	7.640000	23.000000	4086	2000	In vitro inhibitory activity against rat CHO cells stably expressing human gonadotropin-releasing hormone receptor
364830	CHEMBL435167	7.640000	23.000000	31850	2006	Displacement of [His5, D-Tyr6]GnRH from GnRHR F313L mutant expressed in COS7 cells
440432	CHEMBL522202	7.640000	23.000000	46170	2009	Displacement of [125I]-(D-Trp6)-GnRH from human GnRH receptor
314610	CHEMBL371722	7.630000	23.200000	30461	2006	Displacement of [125I]-His5, D-Tyr6]GnRH from mutant GnRHR, GnRHR M24I
314610	CHEMBL371722	7.630000	23.300000	30461	2006	Displacement of [125I]-His5, D-Tyr6]GnRH from mutant GnRHR, GnRHR H306A
16900	CHEMBL22055	7.630000	23.400000	30461	2006	Displacement of [125I]-His5, D-Tyr6]GnRH from mutant GnRHR, GnRHR H306A
16900	CHEMBL22055	7.620000	24.000000	31850	2006	Displacement of [His5, D-Tyr6]GnRH from GnRHR H306A mutant expressed in COS7 cells
16900	CHEMBL22055	7.620000	24.000000	31850	2006	Displacement of [His5, D-Tyr6]GnRH from GnRHR F313L mutant expressed in COS7 cells
401774	CHEMBL475660	7.620000	24.000000	46195	2009	Displacement of [D-Trp6]-GnRH from human recombinant GnRH receptor
314610	CHEMBL371722	7.620000	24.200000	30461	2006	Displacement of [125I]-His5, D-Tyr6]GnRH from mutant GnRHR, GnRHR L112K
152320	CHEMBL179691	7.620000	24.200000	30461	2006	Displacement of [125I]-His5, D-Tyr6]GnRH from mutant GnRHR, GnRHR L300A
16900	CHEMBL22055	7.610000	24.400000	30461	2006	Displacement of [125I]-His5, D-Tyr6]GnRH from mutant GnRHR, GnRHR F313L
314610	CHEMBL371722	7.610000	24.500000	30461	2006	Displacement of [125I]-His5, D-Tyr6]GnRH from mutant GnRHR, GnRHR D293A
364830	CHEMBL435167	7.590000	26.000000	31850	2006	Displacement of [His5, D-Tyr6]GnRH from GnRHR M24I mutant expressed in COS7 cells
240313	CHEMBL280212	7.590000	26.000000	31850	2006	Displacement of [His5, D-Tyr6]GnRH from GnRHR N27A mutant expressed in COS7 cells
436275	CHEMBL515123	7.590000	26.000000	46195	2009	Displacement of [D-Trp6]-GnRH from human recombinant GnRH receptor
422050	CHEMBL494739	7.590000	26.000000	46170	2009	Displacement of [125I]-(D-Trp6)-GnRH from human GnRH receptor
314610	CHEMBL371722	7.570000	27.000000	30461	2006	Displacement of [125I]-His5, D-Tyr6]GnRH from mutant GnRHR, GnRHR K115Q
439488	CHEMBL522188	7.570000	27.000000	46170	2009	Displacement of [125I]-(D-Trp6)-GnRH from human GnRH receptor
415290	CHEMBL494416	7.570000	27.000000	46170	2009	Displacement of [125I]-(D-Trp6)-GnRH from human GnRH receptor
314610	CHEMBL371722	7.570000	27.200000	30461	2006	Displacement of [125I]-His5, D-Tyr6]GnRH from mutant GnRHR, GnRHR D293E
314610	CHEMBL371722	7.560000	27.300000	30461	2006	Displacement of [125I]-His5, D-Tyr6]GnRH from mutant GnRHR, GnRHR D302N
285938	CHEMBL334904	7.550000	28.000000	4086	2000	In vitro inhibitory activity against rat CHO cells stably expressing human gonadotropin-releasing hormone receptor
364830	CHEMBL435167	7.550000	28.000000	31850	2006	Displacement of [His5, D-Tyr6]GnRH from GnRHR F309Q mutant expressed in COS7 cells
314610	CHEMBL371722	7.540000	28.800000	30461	2006	Displacement of [125I]-His5, D-Tyr6]GnRH from mutant GnRHR, GnRHR Y284F
283571	CHEMBL332355	7.540000	29.000000	31850	2006	Displacement of [125I]-His5, D-Tyr6]GnRH from GnRHR F272L mutant expressed in COS7 cells
417844	CHEMBL493931	7.540000	29.000000	46170	2009	Displacement of [125I]-(D-Trp6)-GnRH from human GnRH receptor
314610	CHEMBL371722	7.530000	29.500000	30461	2006	Displacement of [125I]-His5, D-Tyr6]GnRH from mutant GnRHR, GnRHR L112F
54639	CHEMBL65569	7.520000	30.000000	4945	2002	In vitro inhibition of specific [125I]leuprorelin binding to the cloned human LHRH receptor expressed in chinese hamster ovary cells
179948	CHEMBL210295	7.520000	30.000000	31350	2006	Inhibition of [125I]leuprorelin binding to human recombinant LHRH receptor expressed in CHO cells
178649	CHEMBL210277	7.520000	30.000000	31350	2006	Inhibition of [125I]leuprorelin binding to human recombinant LHRH receptor expressed in CHO cells
178649	CHEMBL210277	7.520000	30.000000	31350	2006	Inhibition of [125I]leuprorelin binding to human recombinant LHRH receptor expressed in CHO cells
325103	CHEMBL385175	7.520000	30.000000	31850	2006	Displacement of [His5, D-Tyr6]GnRH from GnRHR N27A mutant expressed in COS7 cells
283571	CHEMBL332355	7.510000	31.000000	31850	2006	Displacement of [His5, D-Tyr6]GnRH from GnRHR N27A mutant expressed in COS7 cells
240313	CHEMBL280212	7.510000	31.000000	31850	2006	Displacement of [His5, D-Tyr6]GnRH from GnRHR Q208E mutant expressed in COS7 cells
419403	CHEMBL494232	7.510000	31.000000	46170	2009	Displacement of [125I]-(D-Trp6)-GnRH from human GnRH receptor
117172	CHEMBL141221	7.490000	32.000000	4086	2000	In vitro inhibitory activity against rat CHO cells stably expressing human gonadotropin-releasing hormone receptor
286519	CHEMBL336039	7.490000	32.000000	4086	2000	In vitro inhibitory activity against rat CHO cells stably expressing human gonadotropin-releasing hormone receptor
314610	CHEMBL371722	7.490000	32.600000	30461	2006	Displacement of [125I]-His5, D-Tyr6]GnRH from mutant GnRHR, GnRHR D293N
315712	CHEMBL368511	7.480000	33.000000	20604	2005	Inhibition of human GnRH receptor stimulated inositol phosphate accumulation in RBL cells
337051	CHEMBL401081	7.480000	33.000000	37902	2007	Displacement of [125I]D-Trp from human GnRH receptor expressed in HEK cells
413735	CHEMBL492780	7.480000	33.000000	46170	2009	Displacement of [125I]-(D-Trp6)-GnRH from human GnRH receptor
153155	CHEMBL179269	7.470000	34.000000	21496	2005	Inhibition of Human gonadotropin-releasing hormone receptor stimulated calcium flux
341759	CHEMBL400739	7.460000	35.000000	37902	2007	Displacement of [125I]D-Trp from human GnRH receptor expressed in HEK cells
413467	CHEMBL494415	7.430000	37.000000	46170	2009	Displacement of [125I]-(D-Trp6)-GnRH from human GnRH receptor
422209	CHEMBL495190	7.420000	38.000000	46170	2009	Displacement of [125I]-(D-Trp6)-GnRH from human GnRH receptor
314610	CHEMBL371722	7.400000	39.600000	30461	2006	Displacement of [125I]-His5, D-Tyr6]GnRH from mutant GnRHR, GnRHR Y290F
287497	CHEMBL335764	7.400000	40.000000	4086	2000	In vitro inhibitory activity against rat CHO cells stably expressing human gonadotropin-releasing hormone receptor
181042	CHEMBL211808	7.400000	40.000000	31350	2006	Inhibition of [125I]leuprorelin binding to human recombinant LHRH receptor expressed in CHO cells
364830	CHEMBL435167	7.400000	40.000000	31850	2006	Displacement of [His5, D-Tyr6]GnRH from GnRHR Y284L mutant expressed in COS7 cells
364830	CHEMBL435167	7.400000	40.000000	31850	2006	Displacement of [His5, D-Tyr6]GnRH from GnRHR H306A mutant expressed in COS7 cells
314610	CHEMBL371722	7.380000	41.400000	30461	2006	Displacement of [125I]-His5, D-Tyr6]GnRH from mutant GnRHR, GnRHR S203P
152320	CHEMBL179691	7.370000	42.700000	30461	2006	Displacement of [125I]-His5, D-Tyr6]GnRH from mutant GnRHR, GnRHR Q208D
421828	CHEMBL493185	7.370000	43.000000	46170	2009	Displacement of [125I]-(D-Trp6)-GnRH from human GnRH receptor
555032	CHEMBL1091580	7.360000	44.000000	50731	2010	Displacement of [125I]D-Trp6-GnRH from human recombinant GNRH receptor by scintillation counting
117377	CHEMBL138977	7.350000	45.000000	4086	2000	In vitro inhibitory activity against rat CHO cells stably expressing human gonadotropin-releasing hormone receptor
420856	CHEMBL493565	7.340000	46.000000	46170	2009	Displacement of [125I]-(D-Trp6)-GnRH from human GnRH receptor
314610	CHEMBL371722	7.330000	46.500000	30461	2006	Displacement of [125I]-His5, D-Tyr6]GnRH from mutant GnRHR, GnRHR N305D
314610	CHEMBL371722	7.330000	46.800000	30461	2006	Displacement of [125I]-His5, D-Tyr6]GnRH from mutant GnRHR, GnRHR S118A
553153	CHEMBL1092245	7.330000	47.000000	50731	2010	Displacement of [125I]D-Trp6-GnRH from human recombinant GNRH receptor by scintillation counting
314610	CHEMBL371722	7.330000	47.100000	30461	2006	Displacement of [125I]-His5, D-Tyr6]GnRH from mutant GnRHR, GnRHR N315A
314610	CHEMBL371722	7.310000	48.800000	30461	2006	Displacement of [125I]-His5, D-Tyr6]GnRH from mutant GnRHR, GnRHR H306E
641434	CHEMBL179429	7.310000	49.000000	21496	2005	Inhibition of Human gonadotropin-releasing hormone receptor stimulated calcium flux
314610	CHEMBL371722	7.310000	49.300000	30461	2006	Displacement of [125I]-His5, D-Tyr6]GnRH from mutant GnRHR, GnRHR N315D
364830	CHEMBL435167	7.300000	50.000000	31850	2006	Displacement of [His5, D-Tyr6]GnRH from GnRHR D302N mutant expressed in COS7 cells
369889	CHEMBL444509	7.300000	50.000000	44386	2008	Displacement of [125I]-(D-Trp6)LHRH from human recombinant GnRH receptor
19828940	CHEMBL3085508	7.300000	50.600000	30461	2006	Displacement of [125I]-His5, D-Tyr6]GnRH from mutant GnRHR, GnRHR Y283F
283571	CHEMBL332355	7.280000	52.000000	31850	2006	Displacement of [His5, D-Tyr6]GnRH from GnRHR Y290L mutant expressed in COS7 cells
343351	CHEMBL399856	7.260000	55.000000	37902	2007	Displacement of [125I]D-Trp from human GnRH receptor expressed in HEK cells
343394	CHEMBL399779	7.250000	56.000000	37902	2007	Displacement of [125I]D-Trp from human GnRH receptor expressed in HEK cells
314610	CHEMBL371722	7.250000	56.100000	30461	2006	Displacement of [125I]-His5, D-Tyr6]GnRH from mutant GnRHR, GnRHR D293K
354445	CHEMBL417189	7.240000	57.000000	3806	2000	Inhibition of recombinant human Gonadotropin-releasing hormone receptor
637136	CHEMBL180167	7.240000	57.000000	20757	2005	Inhibitory concentration towards human leutinizing releasing hormone receptor
419068	CHEMBL493932	7.240000	57.000000	46170	2009	Displacement of [125I]-(D-Trp6)-GnRH from human GnRH receptor
314610	CHEMBL371722	7.240000	57.100000	30461	2006	Displacement of [125I]-His5, D-Tyr6]GnRH from mutant GnRHR, GnRHR M24T
555639	CHEMBL1092626	7.240000	58.000000	50731	2010	Displacement of [125I]D-Trp6-GnRH from human recombinant GNRH receptor by scintillation counting
59456	CHEMBL71917	7.220000	60.000000	21496	2005	Inhibition of Human gonadotropin-releasing hormone receptor
364830	CHEMBL435167	7.220000	60.000000	31850	2006	Displacement of [His5, D-Tyr6]GnRH from GnRHR D302A mutant expressed in COS7 cells
364830	CHEMBL435167	7.220000	60.000000	31850	2006	Displacement of [His5, D-Tyr6]GnRH from GnRHR H306E mutant expressed in COS7 cells
314610	CHEMBL371722	7.220000	60.100000	30461	2006	Displacement of [125I]-His5, D-Tyr6]GnRH from mutant GnRHR, GnRHR F309L
314610	CHEMBL371722	7.200000	63.700000	30461	2006	Displacement of [125I]-His5, D-Tyr6]GnRH from mutant GnRHR, GnRHR S118N
368276	CHEMBL435334	7.180000	66.000000	20757	2005	Inhibitory concentration towards human leutinizing releasing hormone receptor
422208	CHEMBL495189	7.170000	68.000000	46170	2009	Displacement of [125I]-(D-Trp6)-GnRH from human GnRH receptor
20134228	CHEMBL3358415	7.170000	68.000000	90044	2014	Antagonist activity against human GnRH receptor expressed in CHO cells by IP-one HTRF assay
19828940	CHEMBL3085508	7.160000	69.200000	30461	2006	Displacement of [125I]-His5, D-Tyr6]GnRH from mutant GnRHR, GnRHR K121A
286590	CHEMBL336319	7.150000	70.000000	31350	2006	Inhibition of [125I]leuprorelin binding to human recombinant LHRH receptor expressed in CHO cells
325103	CHEMBL385175	7.150000	70.000000	31850	2006	Displacement of [His5, D-Tyr6]GnRH from GnRHR Q208E mutant expressed in COS7 cells
325103	CHEMBL385175	7.150000	70.000000	31850	2006	Displacement of [His5, D-Tyr6]GnRH from GnRHR Y290L mutant expressed in COS7 cells
340042	CHEMBL401418	7.130000	74.000000	37902	2007	Displacement of [125I]D-Trp from human GnRH receptor expressed in HEK cells
215841	CHEMBL250568	7.100000	79.000000	37902	2007	Displacement of [125I]D-Trp from human GnRH receptor expressed in HEK cells
152320	CHEMBL179691	7.100000	80.000000	30461	2006	Displacement of [125I]-His5, D-Tyr6]GnRH from mutant GnRHR, GnRHR L300K
314610	CHEMBL371722	7.080000	82.300000	30461	2006	Displacement of [125I]-His5, D-Tyr6]GnRH from mutant GnRHR, GnRHR K121A
304634	CHEMBL359914	7.080000	83.000000	20757	2005	Inhibitory concentration towards human leutinizing releasing hormone receptor
418753	CHEMBL494021	7.080000	83.000000	46170	2009	Displacement of [125I]-(D-Trp6)-GnRH from human GnRH receptor
314610	CHEMBL371722	7.060000	87.900000	30461	2006	Displacement of [125I]-His5, D-Tyr6]GnRH from mutant GnRHR, GnRHR L300A
344611	CHEMBL399857	7.060000	88.000000	37902	2007	Displacement of [125I]D-Trp from human GnRH receptor expressed in HEK cells
412837	CHEMBL492587	7.050000	90.000000	46170	2009	Displacement of [125I]-(D-Trp6)-GnRH from human GnRH receptor
16900	CHEMBL22055	7.020000	94.900000	30461	2006	Displacement of [125I]-His5, D-Tyr6]GnRH from mutant GnRHR, GnRHR H306E
340294	CHEMBL400390	7.020000	96.000000	37902	2007	Displacement of [125I]D-Trp from human GnRH receptor expressed in HEK cells
181638	CHEMBL211588	7.000000	100.000000	31350	2006	Inhibition of [125I]leuprorelin binding to human recombinant LHRH receptor expressed in CHO cells
16900	CHEMBL22055	7.000000	100.000000	31850	2006	Displacement of [His5, D-Tyr6]GnRH from GnRHR H306E mutant expressed in COS7 cells
240313	CHEMBL280212	7.000000	100.000000	31850	2006	Displacement of [His5, D-Tyr6]GnRH from GnRHR F309L mutant expressed in COS-7 cells
314610	CHEMBL371722	7.000000	101.000000	30461	2006	Displacement of [125I]-His5, D-Tyr6]GnRH from mutant GnRHR, GnRHR H306K
20134227	CHEMBL3358414	6.970000	107.000000	90044	2014	Antagonist activity against human GnRH receptor expressed in CHO cells by IP-one HTRF assay
16900	CHEMBL22055	6.970000	108.000000	30461	2006	Displacement of [125I]-His5, D-Tyr6]GnRH from mutant GnRHR, GnRHR M24I
314610	CHEMBL371722	6.970000	108.000000	30461	2006	Displacement of [125I]-His5, D-Tyr6]GnRH from mutant GnRHR, GnRHR Y283F
119363	CHEMBL141750	6.960000	110.000000	4086	2000	In vitro inhibitory activity against rat CHO cells stably expressing human gonadotropin-releasing hormone receptor
1158283	CHEMBL2096778	6.960000	110.000000	20757	2005	Inhibitory concentration towards human leutinizing releasing hormone receptor
16900	CHEMBL22055	6.960000	110.000000	31850	2006	Displacement of [His5, D-Tyr6]GnRH from GnRHR M24I mutant expressed in COS7 cells
16900	CHEMBL22055	6.940000	115.000000	30461	2006	Displacement of [125I]-His5, D-Tyr6]GnRH from mutant GnRHR, GnRHR D302N
155049	CHEMBL183066	6.920000	120.000000	20756	2005	Inhibitory concentration towards human leutinizing releasing hormone receptor
155049	CHEMBL183066	6.920000	120.000000	20757	2005	Inhibitory concentration towards human leutinizing releasing hormone receptor
16900	CHEMBL22055	6.920000	120.000000	31850	2006	Displacement of [His5, D-Tyr6]GnRH from GnRHR D302N mutant expressed in COS7 cells
436069	CHEMBL515200	6.920000	120.000000	44386	2008	Displacement of [125I]-(D-Trp6)LHRH from human recombinant GnRH receptor
428230	CHEMBL508898	6.920000	120.000000	44386	2008	Displacement of [125I]-(D-Trp6)LHRH from human recombinant GnRH receptor
152320	CHEMBL179691	6.910000	123.000000	30461	2006	Displacement of [125I]-His5, D-Tyr6]GnRH from mutant GnRHR, GnRHR Y284L
216191	CHEMBL249772	6.880000	132.000000	37902	2007	Displacement of [125I]D-Trp from human GnRH receptor expressed in HEK cells
314610	CHEMBL371722	6.860000	139.000000	30461	2006	Displacement of [125I]-His5, D-Tyr6]GnRH from mutant GnRHR, GnRHR W280F
16900	CHEMBL22055	6.830000	148.000000	30461	2006	Displacement of [125I]-His5, D-Tyr6]GnRH from mutant GnRHR, GnRHR D302Q
156600	CHEMBL183325	6.820000	150.000000	20757	2005	Inhibitory concentration towards human leutinizing releasing hormone receptor
625421	CHEMBL196088	6.800000	160.000000	20988	2005	Inhibitory concentration against human leutinizing releasing hormone receptor
154582	CHEMBL182513	6.800000	160.000000	20756	2005	Inhibitory concentration towards human leutinizing releasing hormone receptor
283571	CHEMBL332355	6.800000	160.000000	31850	2006	Displacement of [His5, D-Tyr6]GnRH from GnRHR D302N mutant expressed in COS7 cells
343081	CHEMBL399772	6.790000	162.000000	37902	2007	Displacement of [125I]D-Trp from human GnRH receptor expressed in HEK cells
314610	CHEMBL371722	6.790000	164.000000	30461	2006	Displacement of [125I]-His5, D-Tyr6]GnRH from mutant GnRHR, GnRHR L300V
217590	CHEMBL251388	6.770000	169.000000	37902	2007	Displacement of [125I]D-Trp from human GnRH receptor expressed in HEK cells
7565	CHEMBL11149	6.770000	170.000000	4752	2001	Inhibition of human Gonadotropin-releasing hormone receptor binding
152047	CHEMBL179885	6.770000	170.000000	20757	2005	Inhibitory concentration towards human leutinizing releasing hormone receptor
216158	CHEMBL250770	6.770000	170.000000	37902	2007	Displacement of [125I]D-Trp from human GnRH receptor expressed in HEK cells
620675	CHEMBL442283	6.760000	173.000000	37902	2007	Displacement of [125I]D-Trp from human GnRH receptor expressed in HEK cells
638457	CHEMBL401193	6.750000	177.000000	37902	2007	Displacement of [125I]D-Trp from human GnRH receptor expressed in HEK cells
217706	CHEMBL251578	6.750000	178.000000	37902	2007	Displacement of [125I]D-Trp from human GnRH receptor expressed in HEK cells
357620	CHEMBL425524	6.740000	180.000000	20757	2005	Inhibitory concentration towards human leutinizing releasing hormone receptor
152320	CHEMBL179691	6.740000	182.000000	30461	2006	Displacement of [125I]-His5, D-Tyr6]GnRH from mutant GnRHR, GnRHR Y290L
215505	CHEMBL250389	6.740000	184.000000	37902	2007	Displacement of [125I]D-Trp from human GnRH receptor expressed in HEK cells
291499	CHEMBL343040	6.720000	190.000000	4086	2000	In vitro inhibitory activity against rat CHO cells stably expressing human gonadotropin-releasing hormone receptor
148123	CHEMBL175443	6.720000	190.000000	20604	2005	Inhibition of human GnRH receptor stimulated inositol phosphate accumulation in RBL cells
325103	CHEMBL385175	6.720000	190.000000	31850	2006	Displacement of [His5, D-Tyr6]GnRH from GnRHR L300A mutant expressed in COS7 cells
16900	CHEMBL22055	6.720000	190.000000	31850	2006	Displacement of [His5, D-Tyr6]GnRH from GnRHR D302A mutant expressed in COS7 cells
20505495	CHEMBL3752999	6.720000	190.550000	97706	2015	Displacement of [125I]-DTyr6-His5-GnRH from human type 1 GnRH receptor expressed in HEK293 cell membranes after 16 to 19 hrs by gamma counting analysis
16900	CHEMBL22055	6.720000	192.000000	30461	2006	Displacement of [125I]-His5, D-Tyr6]GnRH from mutant GnRHR, GnRHR D302A
16900	CHEMBL22055	6.710000	193.000000	30461	2006	Displacement of [125I]-His5, D-Tyr6]GnRH from mutant GnRHR, GnRHR M24T
339799	CHEMBL401349	6.710000	195.000000	37902	2007	Displacement of [125I]D-Trp from human GnRH receptor expressed in HEK cells
181162	CHEMBL212207	6.700000	200.000000	31350	2006	Inhibition of [125I]leuprorelin binding to human recombinant LHRH receptor expressed in CHO cells
181097	CHEMBL212051	6.700000	200.000000	31350	2006	Inhibition of [125I]leuprorelin binding to human recombinant LHRH receptor expressed in CHO cells
314610	CHEMBL371722	6.690000	202.000000	30461	2006	Displacement of [125I]-His5, D-Tyr6]GnRH from mutant GnRHR, GnRHR Y290L
283571	CHEMBL332355	6.680000	210.000000	31850	2006	Displacement of [His5, D-Tyr6]GnRH from GnRHR D302A mutant expressed in COS7 cells
601519	CHEMBL332138	6.680000	210.000000	31850	2006	Displacement of [125I]-His5, D-Tyr6]GnRH from GnRHR F272L mutant expressed in COS7 cells
153358	CHEMBL181301	6.660000	220.000000	20756	2005	Inhibitory concentration towards human leutinizing releasing hormone receptor
240313	CHEMBL280212	6.660000	220.000000	31850	2006	Displacement of [His5, D-Tyr6]GnRH from GnRHR F309Q mutant expressed in COS7 cells
380402	CHEMBL452547	6.660000	220.000000	44386	2008	Displacement of [125I]-(D-Trp6)LHRH from human recombinant GnRH receptor
314610	CHEMBL371722	6.650000	222.000000	30461	2006	Displacement of [125I]-His5, D-Tyr6]GnRH from mutant GnRHR, GnRHR F309Q
314610	CHEMBL371722	6.640000	229.000000	30461	2006	Displacement of [125I]-His5, D-Tyr6]GnRH from mutant GnRHR, GnRHR Y290Q
155015	CHEMBL183430	6.640000	230.000000	20756	2005	Inhibitory concentration towards human leutinizing releasing hormone receptor
283571	CHEMBL332355	6.640000	230.000000	31850	2006	Displacement of [His5, D-Tyr6]GnRH from GnRHR Q208E mutant expressed in COS7 cells
215121	CHEMBL249982	6.630000	233.000000	37902	2007	Displacement of [125I]D-Trp from human GnRH receptor expressed in HEK cells
16900	CHEMBL22055	6.620000	240.000000	30461	2006	Displacement of [125I]-His5, D-Tyr6]GnRH from mutant GnRHR, GnRHR M24A
283571	CHEMBL332355	6.620000	240.000000	31850	2006	Displacement of [His5, D-Tyr6]GnRH from GnRHR L300A mutant expressed in COS7 cells
329866	CHEMBL387006	6.620000	240.000000	31850	2006	Displacement of [125I]-His5, D-Tyr6]GnRH from GnRHR F272L mutant expressed in COS7 cells
16900	CHEMBL22055	6.620000	242.000000	30461	2006	Displacement of [125I]-His5, D-Tyr6]GnRH from mutant GnRHR, GnRHR H306K
157709	CHEMBL185438	6.610000	243.000000	20277	2004	Binding affinity towards human gonadotropin releasing hormone receptor expressed in CHO cells was determined by using [125I]-buserelin as radioligand
215963	CHEMBL249372	6.610000	244.000000	37902	2007	Displacement of [125I]D-Trp from human GnRH receptor expressed in HEK cells
156370	CHEMBL183376	6.600000	250.000000	20756	2005	Inhibitory concentration towards human leutinizing releasing hormone receptor
324513	CHEMBL382747	6.590000	260.000000	20988	2005	Inhibitory concentration against human leutinizing releasing hormone receptor
152320	CHEMBL179691	6.580000	262.000000	30461	2006	Displacement of [125I]-His5, D-Tyr6]GnRH from mutant GnRHR, GnRHR Y290Q
152272	CHEMBL179977	6.570000	270.000000	20756	2005	Inhibitory concentration towards human leutinizing releasing hormone receptor
216190	CHEMBL249771	6.560000	275.000000	37902	2007	Displacement of [125I]D-Trp from human GnRH receptor expressed in HEK cells
314610	CHEMBL371722	6.560000	277.000000	30461	2006	Displacement of [125I]-His5, D-Tyr6]GnRH from mutant GnRHR, GnRHR Y284L
314610	CHEMBL371722	6.560000	277.000000	30461	2006	Displacement of [125I]-His5, D-Tyr6]GnRH from mutant GnRHR, GnRHR L300K
156635	CHEMBL183698	6.550000	280.000000	20756	2005	Inhibitory concentration towards human leutinizing releasing hormone receptor
20504735	CHEMBL3752352	6.550000	281.840000	97706	2015	Displacement of [125I]-DTyr6-His5-GnRH from human type 1 GnRH receptor expressed in HEK293 cell membranes after 16 to 19 hrs by gamma counting analysis
292504	CHEMBL342396	6.540000	290.000000	4086	2000	In vitro inhibitory activity against rat CHO cells stably expressing human gonadotropin-releasing hormone receptor
156421	CHEMBL183600	6.520000	300.000000	20756	2005	Inhibitory concentration towards human leutinizing releasing hormone receptor
318623	CHEMBL378845	6.520000	300.000000	31350	2006	Inhibition of [125I]leuprorelin binding to human recombinant LHRH receptor expressed in CHO cells
323395	CHEMBL378654	6.520000	300.000000	31350	2006	Inhibition of [125I]leuprorelin binding to human recombinant LHRH receptor expressed in CHO cells
614799	CHEMBL212472	6.520000	300.000000	31350	2006	Inhibition of [125I]leuprorelin binding to human recombinant LHRH receptor expressed in CHO cells
120566	CHEMBL141539	6.490000	320.000000	4086	2000	In vitro inhibitory activity against rat CHO cells stably expressing human gonadotropin-releasing hormone receptor
622658	CHEMBL359668	6.490000	320.000000	20756	2005	Inhibitory concentration towards human leutinizing releasing hormone receptor
1167608	CHEMBL401352	6.480000	331.000000	37902	2007	Displacement of [125I]D-Trp from human GnRH receptor expressed in HEK cells
337050	CHEMBL401080	6.470000	338.000000	37902	2007	Displacement of [125I]D-Trp from human GnRH receptor expressed in HEK cells
155387	CHEMBL182178	6.470000	340.000000	20757	2005	Inhibitory concentration towards human leutinizing releasing hormone receptor
338791	CHEMBL401351	6.460000	345.000000	37902	2007	Displacement of [125I]D-Trp from human GnRH receptor expressed in HEK cells
329866	CHEMBL387006	6.460000	350.000000	31850	2006	Displacement of [His5, D-Tyr6]GnRH from GnRHR Y290L mutant expressed in COS7 cells
7577	CHEMBL10931	6.450000	357.000000	4752	2001	Inhibition of human Gonadotropin-releasing hormone receptor binding
601519	CHEMBL332138	6.430000	370.000000	31850	2006	Displacement of [His5, D-Tyr6]GnRH from GnRHR N27A mutant expressed in COS7 cells
336083	CHEMBL398648	6.430000	371.000000	37902	2007	Displacement of [125I]D-Trp from human GnRH receptor expressed in HEK cells
240313	CHEMBL280212	6.420000	380.000000	31850	2006	Displacement of [His5, D-Tyr6]GnRH from GnRHR M24I mutant expressed in COS7 cells
153139	CHEMBL181057	6.410000	390.000000	20757	2005	Inhibitory concentration towards human leutinizing releasing hormone receptor
325103	CHEMBL385175	6.410000	390.000000	31850	2006	Displacement of [His5, D-Tyr6]GnRH from GnRHR M24I mutant expressed in COS7 cells
601519	CHEMBL332138	6.410000	390.000000	31850	2006	Displacement of [His5, D-Tyr6]GnRH from GnRHR D302A mutant expressed in COS7 cells
601519	CHEMBL332138	6.410000	390.000000	31850	2006	Displacement of [His5, D-Tyr6]GnRH from GnRHR Y290L mutant expressed in COS7 cells
306295	CHEMBL359860	6.400000	400.000000	20757	2005	Inhibitory concentration towards human leutinizing releasing hormone receptor
179088	CHEMBL208904	6.400000	400.000000	31350	2006	Inhibition of [125I]leuprorelin binding to human recombinant LHRH receptor expressed in CHO cells
176662	CHEMBL208714	6.400000	400.000000	31350	2006	Inhibition of [125I]leuprorelin binding to human recombinant LHRH receptor expressed in CHO cells
240313	CHEMBL280212	6.400000	400.000000	31850	2006	Displacement of [His5, D-Tyr6]GnRH from GnRHR H306A mutant expressed in COS7 cells
240313	CHEMBL280212	6.400000	400.000000	31850	2006	Displacement of [His5, D-Tyr6]GnRH from GnRHR F313L mutant expressed in COS7 cells
20505485	CHEMBL3754805	6.390000	407.380000	97706	2015	Displacement of [125I]-DTyr6-His5-GnRH from human type 1 GnRH receptor expressed in HEK293 cell membranes after 16 to 19 hrs by gamma counting analysis
16900	CHEMBL22055	6.330000	470.000000	30461	2006	Displacement of [125I]-His5, D-Tyr6]GnRH from mutant GnRHR, GnRHR K121A
660894	CHEMBL425523	6.320000	480.000000	20604	2005	Inhibition of human GnRH receptor stimulated inositol phosphate accumulation in RBL cells
329866	CHEMBL387006	6.320000	480.000000	31850	2006	Displacement of [His5, D-Tyr6]GnRH from GnRHR N27A mutant expressed in COS7 cells
155687	CHEMBL183572	6.310000	490.000000	20756	2005	Inhibitory concentration towards human leutinizing releasing hormone receptor
364777	CHEMBL436472	6.310000	490.000000	20757	2005	Inhibitory concentration towards human leutinizing releasing hormone receptor
344103	CHEMBL401212	6.310000	495.000000	37902	2007	Displacement of [125I]D-Trp from human GnRH receptor expressed in HEK cells
180627	CHEMBL211752	6.300000	500.000000	31350	2006	Inhibition of [125I]leuprorelin binding to human recombinant LHRH receptor expressed in CHO cells
179154	CHEMBL210845	6.300000	500.000000	31350	2006	Inhibition of [125I]leuprorelin binding to human recombinant LHRH receptor expressed in CHO cells
325103	CHEMBL385175	6.300000	500.000000	31850	2006	Displacement of [His5, D-Tyr6]GnRH from GnRHR D302N mutant expressed in COS7 cells
601519	CHEMBL332138	6.300000	500.000000	31850	2006	Displacement of [His5, D-Tyr6]GnRH from GnRHR H306E mutant expressed in COS7 cells
601519	CHEMBL332138	6.280000	530.000000	31850	2006	Displacement of [His5, D-Tyr6]GnRH from GnRHR D302N mutant expressed in COS7 cells
20506810	CHEMBL3753755	6.260000	549.540000	97706	2015	Displacement of [125I]-DTyr6-His5-GnRH from human type 1 GnRH receptor expressed in HEK293 cell membranes after 16 to 19 hrs by gamma counting analysis
166711	CHEMBL196351	6.240000	570.000000	20988	2005	Inhibitory concentration against human leutinizing releasing hormone receptor
442975	CHEMBL527422	6.240000	580.000000	44386	2008	Displacement of [125I]-(D-Trp6)LHRH from human recombinant GnRH receptor
20505111	CHEMBL3754384	6.230000	588.840000	97706	2015	Displacement of [125I]-DTyr6-His5-GnRH from human type 1 GnRH receptor expressed in HEK293 cell membranes after 16 to 19 hrs by gamma counting analysis
325103	CHEMBL385175	6.220000	600.000000	31850	2006	Displacement of [His5, D-Tyr6]GnRH from GnRHR H306A mutant expressed in COS7 cells
314610	CHEMBL371722	6.210000	623.000000	30461	2006	Displacement of [125I]-His5, D-Tyr6]GnRH from mutant GnRHR, GnRHR F313L
305832	CHEMBL360244	6.170000	670.000000	20756	2005	Inhibitory concentration towards human leutinizing releasing hormone receptor
308486	CHEMBL360297	6.160000	690.000000	20757	2005	Inhibitory concentration towards human leutinizing releasing hormone receptor
339800	CHEMBL401350	6.160000	696.000000	37902	2007	Displacement of [125I]D-Trp from human GnRH receptor expressed in HEK cells
178763	CHEMBL209419	6.150000	700.000000	31350	2006	Inhibition of [125I]leuprorelin binding to human recombinant LHRH receptor expressed in CHO cells
420391	CHEMBL494548	6.150000	705.000000	46170	2009	Displacement of [125I]-(D-Trp6)-GnRH from human GnRH receptor
601519	CHEMBL332138	6.150000	710.000000	31850	2006	Displacement of [His5, D-Tyr6]GnRH from GnRHR H306A mutant expressed in COS7 cells
20505480	CHEMBL3754120	6.140000	724.440000	97706	2015	Displacement of [125I]-DTyr6-His5-GnRH from human type 1 GnRH receptor expressed in HEK293 cell membranes after 16 to 19 hrs by gamma counting analysis
156078	CHEMBL183197	6.130000	740.000000	20757	2005	Inhibitory concentration towards human leutinizing releasing hormone receptor
152966	CHEMBL181257	6.120000	750.000000	20757	2005	Inhibitory concentration towards human leutinizing releasing hormone receptor
620010	CHEMBL512893	6.100000	790.000000	44386	2008	Displacement of [125I]-(D-Trp6)LHRH from human recombinant GnRH receptor
329866	CHEMBL387006	6.100000	800.000000	31850	2006	Displacement of [His5, D-Tyr6]GnRH from GnRHR H306E mutant expressed in COS7 cells
240313	CHEMBL280212	6.100000	800.000000	31850	2006	Displacement of [His5, D-Tyr6]GnRH from GnRHR H306E mutant expressed in COS7 cells
620010	CHEMBL512893	6.100000	800.000000	42049	2008	Binding affinity at human GnRH receptor by competition binding assay
154889	CHEMBL182639	6.090000	820.000000	20756	2005	Inhibitory concentration towards human leutinizing releasing hormone receptor
286542	CHEMBL337323	6.070000	860.000000	4086	2000	In vitro inhibitory activity against rat CHO cells stably expressing human gonadotropin-releasing hormone receptor
154529	CHEMBL181864	6.060000	880.000000	20756	2005	Inhibitory concentration towards human leutinizing releasing hormone receptor
325103	CHEMBL385175	6.050000	900.000000	31850	2006	Displacement of [His5, D-Tyr6]GnRH from GnRHR F309L mutant expressed in COS-7 cells
601519	CHEMBL332138	6.020000	950.000000	31850	2006	Displacement of [His5, D-Tyr6]GnRH from GnRHR F309L mutant expressed in COS-7 cells
167108	CHEMBL195726	6.010000	980.000000	20988	2005	Inhibitory concentration against human leutinizing releasing hormone receptor
152320	CHEMBL179691	6.010000	980.000000	30461	2006	Displacement of [125I]-His5, D-Tyr6]GnRH from mutant GnRHR, GnRHR K121A
329866	CHEMBL387006	5.990000	1020.000000	31850	2006	Displacement of [His5, D-Tyr6]GnRH from GnRHR L300A mutant expressed in COS7 cells
16900	CHEMBL22055	5.970000	1070.000000	30461	2006	Displacement of [125I]-His5, D-Tyr6]GnRH from mutant GnRHR, GnRHR S118N
363646	CHEMBL427500	5.960000	1100.000000	20756	2005	Inhibitory concentration towards human leutinizing releasing hormone receptor
325103	CHEMBL385175	5.960000	1100.000000	31850	2006	Displacement of [His5, D-Tyr6]GnRH from GnRHR D302A mutant expressed in COS7 cells
283571	CHEMBL332355	5.960000	1100.000000	31850	2006	Displacement of [His5, D-Tyr6]GnRH from GnRHR F309L mutant expressed in COS-7 cells
325103	CHEMBL385175	5.920000	1200.000000	31850	2006	Displacement of [His5, D-Tyr6]GnRH from GnRHR F309Q mutant expressed in COS7 cells
435734	CHEMBL516934	5.920000	1200.000000	44386	2008	Displacement of [125I]-(D-Trp6)LHRH from human recombinant GnRH receptor
427294	CHEMBL507973	5.890000	1300.000000	44386	2008	Displacement of [125I]-(D-Trp6)LHRH from human recombinant GnRH receptor
155427	CHEMBL183847	5.850000	1400.000000	20756	2005	Inhibitory concentration towards human leutinizing releasing hormone receptor
329866	CHEMBL387006	5.850000	1400.000000	31850	2006	Displacement of [His5, D-Tyr6]GnRH from GnRHR Q208E mutant expressed in COS7 cells
325103	CHEMBL385175	5.850000	1400.000000	31850	2006	Displacement of [His5, D-Tyr6]GnRH from GnRHR F313L mutant expressed in COS7 cells
601519	CHEMBL332138	5.820000	1500.000000	31850	2006	Displacement of [His5, D-Tyr6]GnRH from GnRHR Q208E mutant expressed in COS7 cells
240313	CHEMBL280212	5.820000	1500.000000	31850	2006	Displacement of [His5, D-Tyr6]GnRH from GnRHR Y284L mutant expressed in COS7 cells
395781	CHEMBL472117	5.820000	1500.000000	44386	2008	Displacement of [125I]-(D-Trp6)LHRH from human recombinant GnRH receptor
601519	CHEMBL332138	5.800000	1600.000000	31850	2006	Displacement of [His5, D-Tyr6]GnRH from GnRHR L300A mutant expressed in COS7 cells
283571	CHEMBL332355	5.800000	1600.000000	31850	2006	Displacement of [His5, D-Tyr6]GnRH from GnRHR H306E mutant expressed in COS7 cells
283571	CHEMBL332355	5.770000	1700.000000	31850	2006	Displacement of [His5, D-Tyr6]GnRH from GnRHR H306A mutant expressed in COS7 cells
329866	CHEMBL387006	5.740000	1800.000000	31850	2006	Displacement of [His5, D-Tyr6]GnRH from GnRHR F309L mutant expressed in COS-7 cells
621262	CHEMBL360743	5.720000	1900.000000	20757	2005	Inhibitory concentration towards human leutinizing releasing hormone receptor
178802	CHEMBL209880	5.700000	2000.000000	31350	2006	Inhibition of [125I]leuprorelin binding to human recombinant LHRH receptor expressed in CHO cells
111721	CHEMBL131751	5.700000	2000.000000	31350	2006	Inhibition of [125I]leuprorelin binding to human recombinant LHRH receptor expressed in CHO cells
283571	CHEMBL332355	5.700000	2000.000000	31850	2006	Displacement of [His5, D-Tyr6]GnRH from GnRHR F313L mutant expressed in COS7 cells
328712	CHEMBL383393	5.680000	2100.000000	20988	2005	Inhibitory concentration against human leutinizing releasing hormone receptor
368560	CHEMBL433954	5.680000	2100.000000	20756	2005	Inhibitory concentration towards human leutinizing releasing hormone receptor
329866	CHEMBL387006	5.680000	2100.000000	31850	2006	Displacement of [His5, D-Tyr6]GnRH from GnRHR D302N mutant expressed in COS7 cells
283571	CHEMBL332355	5.640000	2300.000000	31850	2006	Displacement of [His5, D-Tyr6]GnRH from GnRHR M24I mutant expressed in COS7 cells
20134227	CHEMBL3358414	5.640000	2310.000000	90044	2014	Antagonist activity against human GnRH receptor expressed in CHO cells by IP-one HTRF assay
283571	CHEMBL332355	5.620000	2400.000000	31850	2006	Displacement of [His5, D-Tyr6]GnRH from GnRHR F309Q mutant expressed in COS7 cells
654659	CHEMBL427146	5.590000	2600.000000	20757	2005	Inhibitory concentration towards human leutinizing releasing hormone receptor
308287	CHEMBL364297	5.490000	3200.000000	20988	2005	Inhibitory concentration against human leutinizing releasing hormone receptor
329866	CHEMBL387006	5.480000	3300.000000	31850	2006	Displacement of [His5, D-Tyr6]GnRH from GnRHR D302A mutant expressed in COS7 cells
412048	CHEMBL488812	5.480000	3300.000000	44386	2008	Displacement of [125I]-(D-Trp6)LHRH from human recombinant GnRH receptor
601519	CHEMBL332138	5.400000	4000.000000	31850	2006	Displacement of [His5, D-Tyr6]GnRH from GnRHR M24I mutant expressed in COS7 cells
325103	CHEMBL385175	5.400000	4000.000000	31850	2006	Displacement of [His5, D-Tyr6]GnRH from GnRHR H306E mutant expressed in COS7 cells
20134226	CHEMBL3358413	5.390000	4080.000000	90044	2014	Antagonist activity against human GnRH receptor expressed in CHO cells by IP-one HTRF assay
152320	CHEMBL179691	5.380000	4200.000000	30461	2006	Displacement of [125I]-His5, D-Tyr6]GnRH from mutant GnRHR, GnRHR M24I
20134228	CHEMBL3358415	5.380000	4210.000000	90044	2014	Antagonist activity against human GnRH receptor expressed in CHO cells by IP-one HTRF assay
283571	CHEMBL332355	5.360000	4400.000000	31850	2006	Displacement of [His5, D-Tyr6]GnRH from GnRHR Y284L mutant expressed in COS7 cells
329866	CHEMBL387006	5.360000	4400.000000	31850	2006	Displacement of [His5, D-Tyr6]GnRH from GnRHR H306A mutant expressed in COS7 cells
414518	CHEMBL488478	5.350000	4500.000000	44386	2008	Displacement of [125I]-(D-Trp6)LHRH from human recombinant GnRH receptor
306253	CHEMBL360693	5.320000	4800.000000	20756	2005	Inhibitory concentration towards human leutinizing releasing hormone receptor
152320	CHEMBL179691	5.300000	5000.000000	30461	2006	Displacement of [125I]-His5, D-Tyr6]GnRH from mutant GnRHR, GnRHR M24T
606710	CHEMBL379274	5.300000	5000.000000	31350	2006	Inhibition of [125I]leuprorelin binding to human recombinant LHRH receptor expressed in CHO cells
329866	CHEMBL387006	5.300000	5000.000000	31850	2006	Displacement of [His5, D-Tyr6]GnRH from GnRHR Y284L mutant expressed in COS7 cells
152320	CHEMBL179691	5.300000	5030.000000	30461	2006	Displacement of [125I]-His5, D-Tyr6]GnRH from mutant GnRHR, GnRHR M24A
152320	CHEMBL179691	5.280000	5200.000000	30461	2006	Displacement of [125I]-His5, D-Tyr6]GnRH from mutant GnRHR, GnRHR S118N
329866	CHEMBL387006	5.280000	5200.000000	31850	2006	Displacement of [His5, D-Tyr6]GnRH from GnRHR F309Q mutant expressed in COS7 cells
363069	CHEMBL426060	5.240000	5800.000000	20756	2005	Inhibitory concentration towards human leutinizing releasing hormone receptor
325103	CHEMBL385175	5.220000	6000.000000	31850	2006	Displacement of [His5, D-Tyr6]GnRH from GnRHR Y284L mutant expressed in COS7 cells
164654	CHEMBL193897	5.200000	6300.000000	20988	2005	Inhibitory concentration against human leutinizing releasing hormone receptor
619935	CHEMBL370603	5.190000	6500.000000	20988	2005	Inhibitory concentration against human leutinizing releasing hormone receptor
321877	CHEMBL380200	5.150000	7000.000000	31350	2006	Inhibition of [125I]leuprorelin binding to human recombinant LHRH receptor expressed in CHO cells
20134229	CHEMBL3358416	5.030000	9350.000000	90044	2014	Antagonist activity against human GnRH receptor expressed in CHO cells by IP-one HTRF assay
411677	CHEMBL487627	5.020000	9500.000000	44386	2008	Displacement of [125I]-(D-Trp6)LHRH from human recombinant GnRH receptor
179124	CHEMBL209836	5.000000	10000.000000	31350	2006	Inhibition of [125I]leuprorelin binding to human recombinant LHRH receptor expressed in CHO cells
374478	CHEMBL452293	4.960000	11000.000000	44386	2008	Displacement of [125I]-(D-Trp6)LHRH from human recombinant GnRH receptor
