lsi_index	chembl-id	pot.(log,IC50)	pot.(muMol,IC50)	doc_id	year	description
188719	CHEMBL220632	9.920000	0.120000	35189	2007	Inhibition of cytokine-induced iNOS expressed in human A172 cells assessed as inhibition of NO formation
188862	CHEMBL220880	9.890000	0.130000	35189	2007	Inhibition of cytokine-induced iNOS expressed in human A172 cells assessed as inhibition of NO formation
572387	CHEMBL1093059	9.700000	0.200000	20979	2005	Inhibition of inducible nitric oxide synthase in activated macrophages
327430	CHEMBL385324	9.620000	0.240000	35189	2007	Inhibition of cytokine-induced iNOS expressed in human A172 cells assessed as inhibition of NO formation
327739	CHEMBL385325	9.550000	0.280000	35189	2007	Inhibition of cytokine-induced iNOS expressed in human A172 cells assessed as inhibition of NO formation
320733	CHEMBL376733	9.550000	0.280000	35189	2007	Inhibition of cytokine-induced iNOS expressed in human A172 cells assessed as inhibition of NO formation
318246	CHEMBL376632	9.540000	0.290000	35189	2007	Inhibition of cytokine-induced iNOS expressed in human A172 cells assessed as inhibition of NO formation
247873	CHEMBL290548	9.420000	0.380000	35189	2007	Inhibition of cytokine-induced iNOS expressed in human A172 cells assessed as inhibition of NO formation
319837	CHEMBL373623	9.320000	0.480000	35189	2007	Inhibition of cytokine-induced iNOS expressed in human A172 cells assessed as inhibition of NO formation
363712	CHEMBL427062	9.320000	0.480000	35189	2007	Inhibition of cytokine-induced iNOS expressed in human A172 cells assessed as inhibition of NO formation
189582	CHEMBL223788	9.310000	0.490000	35189	2007	Inhibition of cytokine-induced iNOS expressed in human A172 cells assessed as inhibition of NO formation
318406	CHEMBL376713	9.300000	0.500000	35189	2007	Inhibition of cytokine-induced iNOS expressed in human A172 cells assessed as inhibition of NO formation
322610	CHEMBL385334	9.300000	0.500000	35189	2007	Inhibition of cytokine-induced iNOS expressed in human A172 cells assessed as inhibition of NO formation
188041	CHEMBL220932	9.300000	0.500000	35189	2007	Inhibition of cytokine-induced iNOS expressed in human A172 cells assessed as inhibition of NO formation
373334	CHEMBL442041	9.300000	0.500000	35189	2007	Inhibition of cytokine-induced iNOS expressed in human A172 cells assessed as inhibition of NO formation
189602	CHEMBL221208	9.280000	0.520000	35189	2007	Inhibition of cytokine-induced iNOS expressed in human A172 cells assessed as inhibition of NO formation
593922	CHEMBL411343	9.260000	0.550000	35189	2007	Inhibition of cytokine-induced iNOS expressed in human A172 cells assessed as inhibition of NO formation
356403	CHEMBL424928	9.240000	0.580000	35189	2007	Inhibition of cytokine-induced iNOS expressed in human A172 cells assessed as inhibition of NO formation
191214	CHEMBL223782	9.170000	0.670000	35189	2007	Inhibition of cytokine-induced iNOS expressed in human A172 cells assessed as inhibition of NO formation
323467	CHEMBL373881	9.150000	0.700000	35189	2007	Inhibition of cytokine-induced iNOS expressed in human A172 cells assessed as inhibition of NO formation
189559	CHEMBL222362	9.120000	0.750000	35189	2007	Inhibition of cytokine-induced iNOS expressed in human A172 cells assessed as inhibition of NO formation
189586	CHEMBL223792	9.100000	0.800000	35189	2007	Inhibition of cytokine-induced iNOS expressed in human A172 cells assessed as inhibition of NO formation
322086	CHEMBL374681	9.100000	0.800000	35189	2007	Inhibition of cytokine-induced iNOS expressed in human A172 cells assessed as inhibition of NO formation
320646	CHEMBL374319	9.060000	0.870000	35189	2007	Inhibition of cytokine-induced iNOS expressed in human A172 cells assessed as inhibition of NO formation
189561	CHEMBL222364	9.030000	0.930000	35189	2007	Inhibition of cytokine-induced iNOS expressed in human A172 cells assessed as inhibition of NO formation
189585	CHEMBL223791	9.020000	0.960000	35189	2007	Inhibition of cytokine-induced iNOS expressed in human A172 cells assessed as inhibition of NO formation
318416	CHEMBL374132	9.000000	1.000000	35189	2007	Inhibition of cytokine-induced iNOS expressed in human A172 cells assessed as inhibition of NO formation
187969	CHEMBL220834	9.000000	1.000000	35189	2007	Inhibition of cytokine-induced iNOS expressed in human A172 cells assessed as inhibition of NO formation
317683	CHEMBL375404	9.000000	1.000000	35189	2007	Inhibition of cytokine-induced iNOS expressed in human A172 cells assessed as inhibition of NO formation
190576	CHEMBL223384	9.000000	1.000000	35189	2007	Inhibition of cytokine-induced iNOS expressed in human A172 cells assessed as inhibition of NO formation
190803	CHEMBL223634	9.000000	1.000000	35189	2007	Inhibition of cytokine-induced iNOS expressed in human A172 cells assessed as inhibition of NO formation
191122	CHEMBL223838	8.960000	1.100000	35189	2007	Inhibition of cytokine-induced iNOS expressed in human A172 cells assessed as inhibition of NO formation
190577	CHEMBL223385	8.850000	1.400000	35189	2007	Inhibition of cytokine-induced iNOS expressed in human A172 cells assessed as inhibition of NO formation
188224	CHEMBL220121	8.820000	1.500000	35189	2007	Inhibition of cytokine-induced iNOS expressed in human A172 cells assessed as inhibition of NO formation
222262	CHEMBL256147	8.740000	1.800000	62400	2012	Inhibition of human recombinant iNOS assessed as conversion of [3H]L-arginine to [3H]L-citrulline preincubated for 15 mins measured after 45 mins by liquid scintillation counting
188622	CHEMBL220771	8.720000	1.900000	35189	2007	Inhibition of cytokine-induced iNOS expressed in human A172 cells assessed as inhibition of NO formation
189290	CHEMBL223442	8.700000	2.000000	35189	2007	Inhibition of cytokine-induced iNOS expressed in human A172 cells assessed as inhibition of NO formation
188534	CHEMBL220156	8.570000	2.700000	35189	2007	Inhibition of cytokine-induced iNOS expressed in human A172 cells assessed as inhibition of NO formation
364955	CHEMBL436535	8.520000	3.000000	35189	2007	Inhibition of cytokine-induced iNOS expressed in human A172 cells assessed as inhibition of NO formation
326881	CHEMBL387348	8.460000	3.500000	35189	2007	Inhibition of cytokine-induced iNOS expressed in human A172 cells assessed as inhibition of NO formation
326882	CHEMBL387349	8.430000	3.700000	35189	2007	Inhibition of cytokine-induced iNOS expressed in human A172 cells assessed as inhibition of NO formation
1021058	CHEMBL1762473	8.400000	4.000000	57087	2011	Inhibition of human recombinant iNOS
621218	CHEMBL1762474	8.400000	4.000000	57087	2011	Inhibition of human recombinant iNOS
1005159	CHEMBL1762480	8.400000	4.000000	57087	2011	Inhibition of human recombinant iNOS
189803	CHEMBL221264	8.390000	4.100000	35189	2007	Inhibition of cytokine-induced iNOS expressed in human A172 cells assessed as inhibition of NO formation
1061184	CHEMBL1944717	8.300000	5.000000	60946	2012	Inhibition of human iNOS expressed in HEK293 cells assessed as NO production by 2,3-diaminonapthalene-based fluorescence assay
191273	CHEMBL222619	8.270000	5.400000	35189	2007	Inhibition of cytokine-induced iNOS expressed in human A172 cells assessed as inhibition of NO formation
1005160	CHEMBL1762481	8.270000	5.400000	57087	2011	Inhibition of human recombinant iNOS
314977	CHEMBL376237	8.240000	5.700000	35189	2007	Inhibition of cytokine-induced iNOS expressed in human A172 cells assessed as inhibition of NO formation
1005158	CHEMBL1762479	8.220000	6.000000	57087	2011	Inhibition of human recombinant iNOS
1072964	CHEMBL1911882	8.150000	7.000000	59472	2011	Inhibition of human iNOS
187610	CHEMBL219792	8.070000	8.500000	35189	2007	Inhibition of cytokine-induced iNOS expressed in human A172 cells assessed as inhibition of NO formation
162388	CHEMBL191242	8.050000	9.000000	20947	2005	Inhibitory activity against human Inducible nitric oxide synthase (iNOS)
1017716	CHEMBL1762472	8.050000	9.000000	57087	2011	Inhibition of human recombinant iNOS
323896	CHEMBL374552	8.000000	10.000000	35189	2007	Inhibition of cytokine-induced iNOS expressed in human A172 cells assessed as inhibition of NO formation
590055	CHEMBL1221607	8.000000	10.000000	52342	2008	Inhibition of human iNOS
1072965	CHEMBL1911883	8.000000	10.000000	59472	2011	Inhibition of human iNOS
1061674	CHEMBL1944884	8.000000	10.000000	60946	2012	Inhibition of human iNOS expressed in HEK293 cells assessed as NO production by 2,3-diaminonapthalene-based fluorescence assay
188586	CHEMBL220559	7.960000	11.000000	35189	2007	Inhibition of cytokine-induced iNOS expressed in human A172 cells assessed as inhibition of NO formation
446018	CHEMBL522771	7.960000	11.000000	58298	2010	Inhibition of human iNOS
1094865	CHEMBL1945066	7.960000	11.000000	60946	2012	Inhibition of human iNOS expressed in HEK293 cells assessed as NO production by 2,3-diaminonapthalene-based fluorescence assay
189509	CHEMBL223615	7.920000	12.000000	35189	2007	Inhibition of cytokine-induced iNOS expressed in human A172 cells assessed as inhibition of NO formation
358556	CHEMBL424756	7.920000	12.000000	35189	2007	Inhibition of cytokine-induced iNOS expressed in human A172 cells assessed as inhibition of NO formation
188225	CHEMBL220122	7.920000	12.000000	35189	2007	Inhibition of cytokine-induced iNOS expressed in human A172 cells assessed as inhibition of NO formation
1094463	CHEMBL1944721	7.920000	12.000000	60946	2012	Inhibition of human iNOS expressed in HEK293 cells assessed as NO production by 2,3-diaminonapthalene-based fluorescence assay
1094464	CHEMBL1944724	7.920000	12.000000	60946	2012	Inhibition of human iNOS expressed in HEK293 cells assessed as NO production by 2,3-diaminonapthalene-based fluorescence assay
1062115	CHEMBL1944718	7.890000	13.000000	60946	2012	Inhibition of human iNOS expressed in HEK293 cells assessed as NO production by 2,3-diaminonapthalene-based fluorescence assay
1060014	CHEMBL1944720	7.890000	13.000000	60946	2012	Inhibition of human iNOS expressed in HEK293 cells assessed as NO production by 2,3-diaminonapthalene-based fluorescence assay
1058655	CHEMBL1944716	7.850000	14.000000	60946	2012	Inhibition of human iNOS expressed in HEK293 cells assessed as NO production by 2,3-diaminonapthalene-based fluorescence assay
162388	CHEMBL191242	7.820000	15.000000	20947	2005	Inhibitory activity against human Inducible nitric oxide synthase (iNOS)
258158	CHEMBL302657	7.820000	15.000000	52342	2008	Inhibition of human iNOS
317733	CHEMBL374300	7.770000	17.000000	35189	2007	Inhibition of cytokine-induced iNOS expressed in human A172 cells assessed as inhibition of NO formation
1095275	CHEMBL1945068	7.770000	17.000000	60946	2012	Inhibition of human iNOS expressed in HEK293 cells assessed as NO production by 2,3-diaminonapthalene-based fluorescence assay
188270	CHEMBL220270	7.720000	19.000000	35189	2007	Inhibition of cytokine-induced iNOS expressed in human A172 cells assessed as inhibition of NO formation
211312	CHEMBL244395	7.720000	19.000000	35999	2007	Inhibition of iNOS in human A172 cells after 18 to 24 hrs
157504	CHEMBL185024	7.700000	20.000000	20109	2004	Inhibitory activity against Inducible nitric oxide synthase
163398	CHEMBL191675	7.660000	22.000000	20947	2005	Inhibitory activity against human Inducible nitric oxide synthase (iNOS)
1017715	CHEMBL1762471	7.660000	22.000000	57087	2011	Inhibition of human recombinant iNOS
190370	CHEMBL223043	7.640000	23.000000	35189	2007	Inhibition of cytokine-induced iNOS expressed in human A172 cells assessed as inhibition of NO formation
188269	CHEMBL220269	7.600000	25.000000	35189	2007	Inhibition of cytokine-induced iNOS expressed in human A172 cells assessed as inhibition of NO formation
188226	CHEMBL220123	7.600000	25.000000	35189	2007	Inhibition of cytokine-induced iNOS expressed in human A172 cells assessed as inhibition of NO formation
252461	CHEMBL294609	7.550000	28.000000	46266	2009	Inhibition of human iNOS
1094176	CHEMBL1944890	7.550000	28.000000	60946	2012	Inhibition of human iNOS expressed in HEK293 cells assessed as NO production by 2,3-diaminonapthalene-based fluorescence assay
1019192	CHEMBL1783094	7.520000	30.000000	57951	2011	Inhibition of human recombinant iNOS by microtiter plate assay
591690	CHEMBL1221608	7.510000	31.000000	52342	2008	Inhibition of human iNOS
1063891	CHEMBL1944712	7.510000	31.000000	60946	2012	Inhibition of human iNOS expressed in HEK293 cells assessed as NO production by 2,3-diaminonapthalene-based fluorescence assay
363583	CHEMBL428248	7.490000	32.000000	38484	2008	Inhibition of human iNOS expressed in human DLD1 cells after 1 hr
320405	CHEMBL373546	7.480000	33.000000	35189	2007	Inhibition of cytokine-induced iNOS expressed in human A172 cells assessed as inhibition of NO formation
1061278	CHEMBL1944886	7.480000	33.000000	60946	2012	Inhibition of human iNOS expressed in HEK293 cells assessed as NO production by 2,3-diaminonapthalene-based fluorescence assay
187214	CHEMBL220511	7.470000	34.000000	35189	2007	Inhibition of cytokine-induced iNOS expressed in human A172 cells assessed as inhibition of NO formation
231337	CHEMBL266768	7.460000	35.000000	35189	2007	Inhibition of cytokine-induced iNOS expressed in human A172 cells assessed as inhibition of NO formation
379077	CHEMBL447183	7.460000	35.000000	52342	2008	Inhibition of human iNOS
3839	CHEMBL6808	7.430000	37.000000	20947	2005	Inhibitory activity against human Inducible nitric oxide synthase (iNOS)
379077	CHEMBL447183	7.430000	37.150000	58253	2011	Inhibition of human iNOS assessed as inhibition of [3H]L-arginine to [3H]L-citrulline conversion by scintillation counting
309268	CHEMBL365804	7.420000	38.000000	20947	2005	Inhibitory activity against human Inducible nitric oxide synthase (iNOS)
513318	CHEMBL1800534	7.410000	38.900000	58253	2011	Inhibition of human iNOS assessed as inhibition of [3H]L-arginine to [3H]L-citrulline conversion by scintillation counting
166434	CHEMBL196027	7.400000	40.000000	20979	2005	Inhibition of inducible nitric oxide synthase in activated macrophages
586543	CHEMBL1221703	7.400000	40.000000	52342	2008	Inhibition of human iNOS
591118	CHEMBL1221702	7.400000	40.000000	52342	2008	Inhibition of human iNOS
630776	CHEMBL1230023	7.400000	40.000000	65473	2012	Inhibition of wild type human iNOS expressed in Escherichia coli BL21(DE3) using L-Arg as substrate incubated for 1 hr prior to L-Arg addition
379077	CHEMBL447183	7.390000	41.000000	57087	2011	Inhibition of human recombinant iNOS
1060018	CHEMBL1944715	7.370000	43.000000	60946	2012	Inhibition of human iNOS expressed in HEK293 cells assessed as NO production by 2,3-diaminonapthalene-based fluorescence assay
608029	CHEMBL1762478	7.290000	51.000000	57087	2011	Inhibition of human recombinant iNOS
190922	CHEMBL223515	7.280000	52.000000	35189	2007	Inhibition of cytokine-induced iNOS expressed in human A172 cells assessed as inhibition of NO formation
1061279	CHEMBL1944887	7.280000	53.000000	60946	2012	Inhibition of human iNOS expressed in HEK293 cells assessed as NO production by 2,3-diaminonapthalene-based fluorescence assay
512918	CHEMBL1800533	7.260000	54.950000	58253	2011	Inhibition of human iNOS assessed as inhibition of [3H]L-arginine to [3H]L-citrulline conversion by scintillation counting
210550	CHEMBL243978	7.260000	55.000000	35999	2007	Inhibition of iNOS in human A172 cells after 18 to 24 hrs
372129	CHEMBL443862	7.240000	57.600000	46266	2009	Inhibition of human recombinant iNOS using 1 mM NADH and 2 uM L-arginine after 30 mins
1095654	CHEMBL1945065	7.210000	61.000000	60946	2012	Inhibition of human iNOS expressed in HEK293 cells assessed as NO production by 2,3-diaminonapthalene-based fluorescence assay
188642	CHEMBL220630	7.200000	63.000000	35189	2007	Inhibition of cytokine-induced iNOS expressed in human A172 cells assessed as inhibition of NO formation
189440	CHEMBL223614	7.180000	66.000000	35189	2007	Inhibition of cytokine-induced iNOS expressed in human A172 cells assessed as inhibition of NO formation
190373	CHEMBL223045	7.180000	66.000000	35189	2007	Inhibition of cytokine-induced iNOS expressed in human A172 cells assessed as inhibition of NO formation
188455	CHEMBL220064	7.170000	67.000000	35189	2007	Inhibition of cytokine-induced iNOS expressed in human A172 cells assessed as inhibition of NO formation
323982	CHEMBL373919	7.160000	69.000000	35189	2007	Inhibition of cytokine-induced iNOS expressed in human A172 cells assessed as inhibition of NO formation
515766	CHEMBL1800347	7.150000	70.790000	58253	2011	Inhibition of human iNOS assessed as inhibition of [3H]L-arginine to [3H]L-citrulline conversion by scintillation counting
1017448	CHEMBL1762475	7.150000	71.000000	57087	2011	Inhibition of human recombinant iNOS
199722	CHEMBL232827	7.140000	72.000000	36467	2007	Inhibition of tetracycline-induced iNOS expressed in SF9 cells
209245	CHEMBL244182	7.130000	74.000000	35999	2007	Inhibition of iNOS in human A172 cells after 18 to 24 hrs
95830	CHEMBL114500	7.130000	74.000000	52342	2008	Inhibition of human iNOS
188372	CHEMBL220213	7.110000	77.000000	35189	2007	Inhibition of cytokine-induced iNOS expressed in human A172 cells assessed as inhibition of NO formation
1093383	CHEMBL1944713	7.110000	77.000000	60946	2012	Inhibition of human iNOS expressed in HEK293 cells assessed as NO production by 2,3-diaminonapthalene-based fluorescence assay
1093750	CHEMBL1944723	7.110000	77.000000	60946	2012	Inhibition of human iNOS expressed in HEK293 cells assessed as NO production by 2,3-diaminonapthalene-based fluorescence assay
210480	CHEMBL243976	7.110000	78.000000	35999	2007	Inhibition of iNOS in human A172 cells after 18 to 24 hrs
1064816	CHEMBL1944885	7.110000	78.000000	60946	2012	Inhibition of human iNOS expressed in HEK293 cells assessed as NO production by 2,3-diaminonapthalene-based fluorescence assay
1008068	CHEMBL1738840	7.090000	81.280000	58253	2011	Inhibition of human iNOS assessed as inhibition of [3H]L-arginine to [3H]L-citrulline conversion by scintillation counting
329722	CHEMBL390674	7.050000	90.000000	35999	2007	Inhibition of iNOS in human A172 cells after 18 to 24 hrs
93900	CHEMBL112246	7.050000	90.000000	52342	2008	Inhibition of human iNOS
517916	CHEMBL1801504	7.040000	91.000000	60946	2012	Inhibition of human iNOS expressed in HEK293 cells assessed as NO production by 2,3-diaminonapthalene-based fluorescence assay
326937	CHEMBL388708	7.040000	92.000000	35999	2007	Inhibition of iNOS in human A172 cells after 18 to 24 hrs
189697	CHEMBL221320	7.000000	100.000000	35189	2007	Inhibition of cytokine-induced iNOS expressed in human A172 cells assessed as inhibition of NO formation
344780	CHEMBL403952	7.000000	100.000000	38484	2008	Inhibition of human iNOS expressed in human DLD1 cells after 1 hr
50142	CHEMBL59925	6.960000	109.650000	58253	2011	Inhibition of human iNOS assessed as inhibition of [3H]L-arginine to [3H]L-citrulline conversion by scintillation counting
1005157	CHEMBL1762476	6.960000	110.000000	57087	2011	Inhibition of human recombinant iNOS
516829	CHEMBL1800348	6.940000	114.820000	58253	2011	Inhibition of human iNOS assessed as inhibition of [3H]L-arginine to [3H]L-citrulline conversion by scintillation counting
199609	CHEMBL233031	6.920000	120.000000	36467	2007	Inhibition of tetracycline-induced iNOS expressed in SF9 cells
634923	CHEMBL1221659	6.920000	120.000000	52342	2008	Inhibition of human iNOS
32626	CHEMBL40833	6.920000	120.000000	52342	2008	Inhibition of human iNOS
1019714	CHEMBL1783097	6.920000	120.000000	57951	2011	Inhibition of human recombinant iNOS by microtiter plate assay
209250	CHEMBL244184	6.890000	130.000000	35999	2007	Inhibition of iNOS in human A172 cells after 18 to 24 hrs
222324	CHEMBL256378	6.890000	130.000000	38484	2008	Inhibition of human iNOS expressed in human DLD1 cells after 1 hr
587369	CHEMBL1221657	6.890000	130.000000	52342	2008	Inhibition of human iNOS
1098924	CHEMBL1944714	6.890000	130.000000	60946	2012	Inhibition of human iNOS expressed in HEK293 cells assessed as NO production by 2,3-diaminonapthalene-based fluorescence assay
361675	CHEMBL433589	6.880000	133.000000	20947	2005	Inhibitory activity against human Inducible nitric oxide synthase (iNOS)
515625	CHEMBL1800528	6.840000	144.540000	58253	2011	Inhibition of human iNOS assessed as inhibition of [3H]L-arginine to [3H]L-citrulline conversion by scintillation counting
322252	CHEMBL373868	6.820000	150.000000	35189	2007	Inhibition of cytokine-induced iNOS expressed in human A172 cells assessed as inhibition of NO formation
515965	CHEMBL1800523	6.810000	154.880000	58253	2011	Inhibition of human iNOS assessed as inhibition of [3H]L-arginine to [3H]L-citrulline conversion by scintillation counting
305864	CHEMBL363477	6.800000	160.000000	20109	2004	Inhibitory activity against Inducible nitric oxide synthase
617348	CHEMBL362772	6.800000	160.000000	20328	2004	Inhibitory concentration against Inducible nitric oxide synthase
222459	CHEMBL256618	6.800000	160.000000	38484	2008	Inhibition of human iNOS expressed in human DLD1 cells after 1 hr
379077	CHEMBL447183	6.770000	170.000000	38484	2008	Inhibition of human iNOS expressed in human DLD1 cells after 1 hr
433729	CHEMBL509542	6.770000	170.000000	46266	2009	Inhibition of human recombinant iNOS using 1 mM NADH and 2 uM L-arginine after 30 mins
191125	CHEMBL223840	6.740000	180.000000	35189	2007	Inhibition of cytokine-induced iNOS expressed in human A172 cells assessed as inhibition of NO formation
233517	CHEMBL271248	6.740000	180.000000	38484	2008	Inhibition of human iNOS expressed in human DLD1 cells after 1 hr
1018773	CHEMBL1783093	6.740000	180.000000	57951	2011	Inhibition of human recombinant iNOS by microtiter plate assay
310112	CHEMBL364230	6.730000	186.000000	20947	2005	Inhibitory activity against human Inducible nitric oxide synthase (iNOS)
515483	CHEMBL1800526	6.730000	186.210000	58253	2011	Inhibition of human iNOS assessed as inhibition of [3H]L-arginine to [3H]L-citrulline conversion by scintillation counting
158634	CHEMBL186431	6.720000	190.000000	20328	2004	Inhibitory concentration against Inducible nitric oxide synthase
252461	CHEMBL294609	6.710000	193.000000	46266	2009	Inhibition of human recombinant iNOS using 1 mM NADH and 2 uM L-arginine after 30 mins
154863	CHEMBL183012	6.700000	200.000000	20109	2004	Inhibitory activity against Inducible nitric oxide synthase
1021474	CHEMBL1765578	6.700000	200.000000	20979	2005	Inhibition of inducible nitric oxide synthase in activated macrophages
382671	CHEMBL462334	6.700000	200.000000	45411	2009	Inhibition of iNOS in LPS treated human THP1 cell homogenate assessed as conversion of L-[2,3-3H]arginine to L-[2,3-3H]citrulline pre-incubated 1 hr before LPS challenge by whole cell assay
621218	CHEMBL1762474	6.700000	200.000000	57087	2011	Inhibition of iNOS in intact human DLD1 cells assessed as nitric oxide production
1018373	CHEMBL1783095	6.700000	200.000000	57951	2011	Inhibition of human recombinant iNOS by microtiter plate assay
1093751	CHEMBL1945067	6.700000	200.000000	60946	2012	Inhibition of human iNOS expressed in HEK293 cells assessed as NO production by 2,3-diaminonapthalene-based fluorescence assay
365110	CHEMBL436643	6.680000	210.000000	38484	2008	Inhibition of human iNOS expressed in human DLD1 cells after 1 hr
379077	CHEMBL447183	6.680000	210.000000	38484	2008	Inhibition of cytokine-induced iNOS activity in human DLD1 cells after 24 hrs
1093411	CHEMBL1944719	6.680000	210.000000	60946	2012	Inhibition of human iNOS expressed in HEK293 cells assessed as NO production by 2,3-diaminonapthalene-based fluorescence assay
211241	CHEMBL244396	6.660000	220.000000	35999	2007	Inhibition of iNOS in human A172 cells after 18 to 24 hrs
211503	CHEMBL244599	6.660000	220.000000	35999	2007	Inhibition of iNOS in human A172 cells after 18 to 24 hrs
96229	CHEMBL114551	6.660000	220.000000	38484	2008	Inhibition of human iNOS expressed in human DLD1 cells after 1 hr
378980	CHEMBL450726	6.660000	220.000000	46266	2009	Inhibition of human recombinant iNOS using 1 mM NADH and 2 uM L-arginine after 30 mins
1093388	CHEMBL1944722	6.660000	220.000000	60946	2012	Inhibition of human iNOS expressed in HEK293 cells assessed as NO production by 2,3-diaminonapthalene-based fluorescence assay
199718	CHEMBL232825	6.600000	250.000000	36467	2007	Inhibition of tetracycline-induced iNOS expressed in SF9 cells
222462	CHEMBL256620	6.600000	250.000000	38484	2008	Inhibition of human iNOS expressed in human DLD1 cells after 1 hr
586409	CHEMBL450583	6.600000	250.000000	45411	2009	Inhibition of iNOS in LPS treated human THP1 cell homogenate assessed as conversion of L-[2,3-3H]arginine to L-[2,3-3H]citrulline pre-incubated 1 hr before LPS challenge by whole cell assay
397398	CHEMBL473674	6.600000	250.000000	45411	2009	Inhibition of iNOS in LPS treated human THP1 cell homogenate assessed as conversion of L-[2,3-3H]arginine to L-[2,3-3H]citrulline pre-incubated 1 hr before LPS challenge by whole cell assay
221038	CHEMBL255599	6.590000	260.000000	38484	2008	Inhibition of human iNOS expressed in human DLD1 cells after 1 hr
188323	CHEMBL219896	6.570000	270.000000	35189	2007	Inhibition of cytokine-induced iNOS expressed in human A172 cells assessed as inhibition of NO formation
221797	CHEMBL257007	6.570000	270.000000	38484	2008	Inhibition of human iNOS expressed in human DLD1 cells after 1 hr
4697	CHEMBL7889	6.550000	280.000000	38484	2008	Inhibition of human iNOS expressed in human DLD1 cells after 1 hr
222324	CHEMBL256378	6.550000	280.000000	38484	2008	Inhibition of cytokine-induced iNOS activity in human DLD1 cells after 24 hrs
423667	CHEMBL501620	6.550000	282.000000	46266	2009	Inhibition of human recombinant iNOS using 1 mM NADH and 2 uM L-arginine after 30 mins
191124	CHEMBL223839	6.550000	283.000000	35189	2007	Inhibition of cytokine-induced iNOS expressed in human A172 cells assessed as inhibition of NO formation
158588	CHEMBL186969	6.540000	290.000000	20328	2004	Inhibitory concentration against Inducible nitric oxide synthase
233515	CHEMBL271246	6.540000	290.000000	38484	2008	Inhibition of human iNOS expressed in human DLD1 cells after 1 hr
222441	CHEMBL256249	6.540000	290.000000	38484	2008	Inhibition of human iNOS expressed in human DLD1 cells after 1 hr
156420	CHEMBL185584	6.520000	300.000000	20109	2004	Inhibitory activity against Inducible nitric oxide synthase
231146	CHEMBL269058	6.520000	300.000000	20947	2005	Inhibitory activity against human Inducible nitric oxide synthase (iNOS)
89498	CHEMBL106516	6.520000	300.000000	20471	2005	Inhibitory concentration against human inducible nitric oxide synthase expressed in Sf-9 cells
189041	CHEMBL220824	6.520000	300.000000	35189	2007	Inhibition of cytokine-induced iNOS expressed in human A172 cells assessed as inhibition of NO formation
362908	CHEMBL428069	6.520000	300.000000	38484	2008	Inhibition of human iNOS expressed in human DLD1 cells after 1 hr
156682	CHEMBL185833	6.510000	310.000000	20328	2004	Inhibitory concentration against Inducible nitric oxide synthase
157692	CHEMBL185919	6.490000	320.000000	20328	2004	Inhibitory concentration against Inducible nitric oxide synthase
222506	CHEMBL256414	6.490000	320.000000	38484	2008	Inhibition of cytokine-induced iNOS activity in human DLD1 cells after 24 hrs
222589	CHEMBL256415	6.480000	330.000000	38484	2008	Inhibition of human iNOS expressed in human DLD1 cells after 1 hr
232692	CHEMBL272697	6.480000	330.000000	38484	2008	Inhibition of human iNOS expressed in human DLD1 cells after 1 hr
90524	CHEMBL107251	6.480000	330.000000	45411	2009	Inhibition of iNOS in LPS treated human THP1 cell homogenate assessed as conversion of L-[2,3-3H]arginine to L-[2,3-3H]citrulline pre-incubated 1 hr before LPS challenge by whole cell assay
221869	CHEMBL257008	6.470000	340.000000	38484	2008	Inhibition of human iNOS expressed in human DLD1 cells after 1 hr
413697	CHEMBL490870	6.460000	350.000000	45411	2009	Inhibition of iNOS in LPS treated human THP1 cell homogenate assessed as conversion of L-[2,3-3H]arginine to L-[2,3-3H]citrulline pre-incubated 1 hr before LPS challenge by whole cell assay
355104	CHEMBL420671	6.460000	350.000000	52342	2008	Inhibition of human iNOS
1061158	CHEMBL1944888	6.460000	350.000000	60946	2012	Inhibition of human iNOS expressed in HEK293 cells assessed as NO production by 2,3-diaminonapthalene-based fluorescence assay
355104	CHEMBL420671	6.460000	350.000000	65473	2012	Inhibition of wild type human iNOS expressed in Escherichia coli BL21(DE3) using L-Arg as substrate incubated for 1 hr prior to L-Arg addition
224077	CHEMBL258310	6.430000	370.000000	38484	2008	Inhibition of human iNOS expressed in human DLD1 cells after 1 hr
363583	CHEMBL428248	6.420000	380.000000	38484	2008	Inhibition of cytokine-induced iNOS activity in human DLD1 cells after 24 hrs
1018409	CHEMBL1783072	6.420000	380.000000	57951	2011	Inhibition of human recombinant iNOS by microtiter plate assay
513764	CHEMBL1800527	6.420000	380.190000	58253	2011	Inhibition of human iNOS assessed as inhibition of [3H]L-arginine to [3H]L-citrulline conversion by scintillation counting
344029	CHEMBL402217	6.410000	390.000000	38484	2008	Inhibition of human iNOS expressed in human DLD1 cells after 1 hr
341749	CHEMBL402425	6.400000	400.000000	38484	2008	Inhibition of human iNOS expressed in human DLD1 cells after 1 hr
589686	CHEMBL1221704	6.400000	400.000000	52342	2008	Inhibition of human iNOS
222187	CHEMBL256069	6.380000	420.000000	38484	2008	Inhibition of human iNOS expressed in human DLD1 cells after 1 hr
210481	CHEMBL243977	6.350000	450.000000	35999	2007	Inhibition of iNOS in human A172 cells after 18 to 24 hrs
376508	CHEMBL448703	6.350000	450.000000	45411	2009	Inhibition of iNOS in LPS treated human THP1 cell homogenate assessed as conversion of L-[2,3-3H]arginine to L-[2,3-3H]citrulline pre-incubated 1 hr before LPS challenge by whole cell assay
222494	CHEMBL256402	6.330000	470.000000	38484	2008	Inhibition of human iNOS expressed in human DLD1 cells after 1 hr
306334	CHEMBL360616	6.300000	500.000000	20109	2004	Inhibitory activity against Inducible nitric oxide synthase
157771	CHEMBL186091	6.300000	500.000000	20328	2004	Inhibitory concentration against Inducible nitric oxide synthase
414971	CHEMBL490886	6.300000	500.000000	45411	2009	Inhibition of iNOS in LPS treated human THP1 cell homogenate assessed as conversion of L-[2,3-3H]arginine to L-[2,3-3H]citrulline pre-incubated 1 hr before LPS challenge by whole cell assay
512916	CHEMBL1800531	6.290000	512.860000	58253	2011	Inhibition of human iNOS assessed as inhibition of [3H]L-arginine to [3H]L-citrulline conversion by scintillation counting
75709	CHEMBL89288	6.290000	517.000000	4459	2001	Inhibition of inducible nitric oxide synthase
163756	CHEMBL193007	6.280000	528.000000	20947	2005	Inhibitory activity against human Inducible nitric oxide synthase (iNOS)
460938	CHEMBL542132	6.280000	530.000000	5564	2003	Inhibitory concentration against human Inducible nitric oxide synthase
188585	CHEMBL220558	6.270000	539.000000	35189	2007	Inhibition of cytokine-induced iNOS expressed in human A172 cells assessed as inhibition of NO formation
222243	CHEMBL256376	6.240000	570.000000	38484	2008	Inhibition of human iNOS expressed in human DLD1 cells after 1 hr
222589	CHEMBL256415	6.240000	570.000000	38484	2008	Inhibition of cytokine-induced iNOS activity in human DLD1 cells after 24 hrs
344029	CHEMBL402217	6.240000	570.000000	38484	2008	Inhibition of cytokine-induced iNOS activity in human DLD1 cells after 24 hrs
460029	CHEMBL545441	6.240000	580.000000	5564	2003	Inhibitory concentration against human Inducible nitric oxide synthase
460029	CHEMBL162416	6.240000	580.000000	6598	2004	Inhibition of human inducible nitric oxide synthase
344780	CHEMBL403952	6.240000	580.000000	38484	2008	Inhibition of cytokine-induced iNOS activity in human DLD1 cells after 24 hrs
199610	CHEMBL233032	6.230000	590.000000	36467	2007	Inhibition of tetracycline-induced iNOS expressed in SF9 cells
165207	CHEMBL195352	6.220000	600.000000	20979	2005	Inhibition of inducible nitric oxide synthase in activated macrophages
1005159	CHEMBL1762480	6.220000	600.000000	57087	2011	Inhibition of iNOS in intact human DLD1 cells assessed as nitric oxide production
231935	CHEMBL271038	6.180000	660.000000	38484	2008	Inhibition of human iNOS expressed in human DLD1 cells after 1 hr
233516	CHEMBL271247	6.180000	660.000000	38484	2008	Inhibition of human iNOS expressed in human DLD1 cells after 1 hr
222494	CHEMBL256402	6.180000	660.000000	38484	2008	Inhibition of cytokine-induced iNOS activity in human DLD1 cells after 24 hrs
233527	CHEMBL272271	6.170000	670.000000	38484	2008	Inhibition of human iNOS expressed in human DLD1 cells after 1 hr
620467	CHEMBL464556	6.160000	685.000000	46266	2009	Inhibition of human recombinant iNOS using 1 mM NADH and 2 uM L-arginine after 30 mins
222984	CHEMBL258348	6.150000	700.000000	38484	2008	Inhibition of human iNOS expressed in human DLD1 cells after 1 hr
1017716	CHEMBL1762472	6.150000	700.000000	57087	2011	Inhibition of iNOS in intact human DLD1 cells assessed as nitric oxide production
1005158	CHEMBL1762479	6.150000	700.000000	57087	2011	Inhibition of iNOS in intact human DLD1 cells assessed as nitric oxide production
1018715	CHEMBL1783092	6.150000	700.000000	57951	2011	Inhibition of human recombinant iNOS by microtiter plate assay
77182	CHEMBL92475	6.150000	701.000000	4459	2001	Inhibition of inducible nitric oxide synthase
222506	CHEMBL256414	6.140000	720.000000	38484	2008	Inhibition of human iNOS expressed in human DLD1 cells after 1 hr
589347	CHEMBL1221660	6.140000	720.000000	52342	2008	Inhibition of human iNOS
1005160	CHEMBL1762481	6.140000	720.000000	57087	2011	Inhibition of iNOS in intact human DLD1 cells assessed as nitric oxide production
512917	CHEMBL1800532	6.140000	724.440000	58253	2011	Inhibition of human iNOS assessed as inhibition of [3H]L-arginine to [3H]L-citrulline conversion by scintillation counting
372452	CHEMBL447472	6.140000	731.000000	46266	2009	Inhibition of human recombinant iNOS using 1 mM NADH and 2 uM L-arginine after 30 mins
513398	CHEMBL1800530	6.110000	776.250000	58253	2011	Inhibition of human iNOS assessed as inhibition of [3H]L-arginine to [3H]L-citrulline conversion by scintillation counting
1009129	CHEMBL1762482	6.100000	790.000000	57087	2011	Inhibition of human recombinant iNOS
1018717	CHEMBL1783071	6.100000	790.000000	57951	2011	Inhibition of human recombinant iNOS by microtiter plate assay
309994	CHEMBL364999	6.090000	810.000000	20328	2004	Inhibitory concentration against Inducible nitric oxide synthase
211314	CHEMBL244397	6.080000	830.000000	35999	2007	Inhibition of iNOS in human A172 cells after 18 to 24 hrs
162021	CHEMBL190655	6.070000	860.000000	20947	2005	Inhibitory activity against human Inducible nitric oxide synthase (iNOS)
190186	CHEMBL223005	6.050000	885.000000	35189	2007	Inhibition of cytokine-induced iNOS expressed in human A172 cells assessed as inhibition of NO formation
75392	CHEMBL89459	6.050000	890.000000	4459	2001	Inhibition of inducible nitric oxide synthase
313201	CHEMBL362148	6.050000	900.000000	20109	2004	Inhibitory activity against Inducible nitric oxide synthase
379077	CHEMBL447183	6.050000	900.000000	52342	2008	Inhibition of human iNOS by whole cell assay
1021058	CHEMBL1762473	6.050000	900.000000	57087	2011	Inhibition of iNOS in intact human DLD1 cells assessed as nitric oxide production
157595	CHEMBL184798	6.030000	930.000000	20109	2004	Inhibitory activity against Inducible nitric oxide synthase
465665	CHEMBL544514	6.020000	950.000000	5564	2003	Inhibitory concentration against human Inducible nitric oxide synthase
1009187	CHEMBL1762477	6.020000	960.000000	57087	2011	Inhibition of human recombinant iNOS
163695	CHEMBL192033	6.010000	974.000000	20947	2005	Inhibitory activity against human Inducible nitric oxide synthase (iNOS)
231146	CHEMBL269058	6.000000	1000.000000	13772	1996	Inhibitory activity against human inducible nitric oxide synthase
222262	CHEMBL256147	6.000000	1000.000000	5564	2003	Inhibitory concentration against human Inducible nitric oxide synthase
379077	CHEMBL447183	6.000000	1000.000000	57087	2011	Inhibition of iNOS in intact human DLD1 cells assessed as nitric oxide production
309372	CHEMBL361722	5.960000	1100.000000	20328	2004	Inhibitory concentration against Inducible nitric oxide synthase
1113843	CHEMBL1955935	5.950000	1120.000000	61240	2012	Inhibition of human recombinant iNOS expressed in baculovirus infected insect Sf9 cells assessed as conversion of [3H]L-arginine to [3H]L-citrulline incubated for 15 mins prior to substrate addition measured after 45 mins by liquid scintillation counting
157638	CHEMBL185441	5.920000	1200.000000	20109	2004	Inhibitory activity against Inducible nitric oxide synthase
156900	CHEMBL185161	5.920000	1200.000000	20109	2004	Inhibitory activity against Inducible nitric oxide synthase
158814	CHEMBL186985	5.920000	1200.000000	20328	2004	Inhibitory concentration against Inducible nitric oxide synthase
157321	CHEMBL186856	5.920000	1200.000000	20328	2004	Inhibitory concentration against Inducible nitric oxide synthase
333434	CHEMBL388881	5.920000	1200.000000	36467	2007	Inhibition of tetracycline-induced iNOS expressed in SF9 cells
345053	CHEMBL402731	5.920000	1200.000000	38484	2008	Inhibition of human iNOS expressed in human DLD1 cells after 1 hr
233515	CHEMBL271246	5.920000	1200.000000	38484	2008	Inhibition of cytokine-induced iNOS activity in human DLD1 cells after 24 hrs
588130	CHEMBL1221658	5.920000	1200.000000	52342	2008	Inhibition of human iNOS
459772	CHEMBL3216281	5.920000	1200.000000	58881	2011	Inhibition of recombinant human iNOS expressed in baculovirus infected insect Sf9 cells assessed as conversion of [3H]-L-arginine into [3H]-L-citrulline by radiometric method
153636	CHEMBL182305	5.890000	1300.000000	20109	2004	Inhibitory activity against Inducible nitric oxide synthase
1093787	CHEMBL1944889	5.890000	1300.000000	60946	2012	Inhibition of human iNOS expressed in HEK293 cells assessed as NO production by 2,3-diaminonapthalene-based fluorescence assay
1127297	CHEMBL3216553	5.870000	1340.000000	61506	2012	Inhibition of human recombinant iNOS expressed in baculovirus infected insect sf9 cells assessed as conversion of [3H]-L-arginine into [3H]-L-citrulline by radiometric method
300022	CHEMBL354230	5.850000	1400.000000	6598	2004	Inhibition of human inducible nitric oxide synthase
72932	CHEMBL88308	5.850000	1400.000000	20328	2004	Inhibitory concentration against Inducible nitric oxide synthase
222459	CHEMBL256618	5.850000	1400.000000	38484	2008	Inhibition of cytokine-induced iNOS activity in human DLD1 cells after 24 hrs
96229	CHEMBL114551	5.850000	1400.000000	57951	2011	Inhibition of human recombinant iNOS by microtiter plate assay
96229	CHEMBL114551	5.850000	1412.540000	58253	2011	Inhibition of human iNOS assessed as inhibition of [3H]L-arginine to [3H]L-citrulline conversion by scintillation counting
306616	CHEMBL359703	5.820000	1500.000000	20109	2004	Inhibitory activity against Inducible nitric oxide synthase
220843	CHEMBL255124	5.820000	1500.000000	38484	2008	Inhibition of human iNOS expressed in human DLD1 cells after 1 hr
221038	CHEMBL255599	5.820000	1500.000000	38484	2008	Inhibition of cytokine-induced iNOS activity in human DLD1 cells after 24 hrs
1063890	CHEMBL1944711	5.820000	1500.000000	60946	2012	Inhibition of human iNOS expressed in HEK293 cells assessed as NO production by 2,3-diaminonapthalene-based fluorescence assay
1128361	CHEMBL3216322	5.820000	1500.000000	61506	2012	Inhibition of human recombinant iNOS expressed in baculovirus infected insect sf9 cells assessed as conversion of [3H]-L-arginine into [3H]-L-citrulline by radiometric method
584080	CHEMBL552822	5.800000	1600.000000	5564	2003	Inhibitory concentration against human Inducible nitric oxide synthase
272044	CHEMBL318427	5.770000	1700.000000	21354	2005	Inhibitory activity against human Nitric oxide synthase-II with 2 uM H4Bip for 30 min
428547	CHEMBL500364	5.750000	1776.000000	46266	2009	Inhibition of human recombinant iNOS using 1 mM NADH and 2 uM L-arginine after 30 mins
135053	CHEMBL161118	5.740000	1800.000000	13772	1996	Inhibitory activity against human inducible nitric oxide synthase
222262	CHEMBL3217190	5.740000	1800.000000	59209	2011	Inhibition of human recombinant iNOS expressed in Sf9 cells assessed as inhibition of conversion of [3H]-L-arginine to [3H]-L-citrulline after 45 mins by liquid scintillation counting
1118830	CHEMBL1956111	5.740000	1800.000000	61240	2012	Inhibition of human recombinant iNOS expressed in baculovirus infected insect Sf9 cells assessed as conversion of [3H]L-arginine to [3H]L-citrulline incubated for 15 mins prior to substrate addition measured after 45 mins by liquid scintillation counting
283622	CHEMBL332148	5.740000	1800.000000	62111	2012	Inhibition of human iNOS expressed in baculovirus-infected insect sf9 cells assessed as conversion of [3H]-L-arginine to [3H]-L-citrulline preincubated for 15 mins with compound measured after 45 mins by scintillation counting
222262	CHEMBL256147	5.740000	1800.000000	65767	2012	Inhibition of human recombinant iNOS expressed in Sf9 cells assessed as reduction in conversion of [3H]L-arginine to [3H]L-citrulline preincubated for 15 mins by radiometric method
318281	CHEMBL373942	5.740000	1805.000000	35189	2007	Inhibition of cytokine-induced iNOS expressed in human A172 cells assessed as inhibition of NO formation
136382	CHEMBL162365	5.720000	1900.000000	6598	2004	Inhibition of human inducible nitric oxide synthase
95830	CHEMBL114500	5.720000	1900.000000	52342	2008	Inhibition of human iNOS by whole cell assay
1018561	CHEMBL1762470	5.720000	1900.000000	57087	2011	Inhibition of human recombinant iNOS
270166	CHEMBL315857	5.700000	2000.000000	13772	1996	Inhibitory activity against human inducible nitric oxide synthase
158106	CHEMBL186142	5.700000	2000.000000	20109	2004	Inhibitory activity against Inducible nitric oxide synthase
270166	CHEMBL315857	5.690000	2060.000000	4459	2001	Inhibition of inducible nitric oxide synthase
294724	CHEMBL349071	5.680000	2100.000000	6598	2004	Inhibition of human inducible nitric oxide synthase
4697	CHEMBL7889	5.680000	2100.000000	20109	2004	Inhibitory activity against Inducible nitric oxide synthase
4697	CHEMBL7889	5.680000	2100.000000	20328	2004	Inhibitory concentration against Inducible nitric oxide synthase
137174	CHEMBL161925	5.660000	2200.000000	6598	2004	Inhibition of human inducible nitric oxide synthase
198916	CHEMBL233236	5.660000	2200.000000	36467	2007	Inhibition of tetracycline-induced iNOS expressed in SF9 cells
512893	CHEMBL1800529	5.640000	2290.870000	58253	2011	Inhibition of human iNOS assessed as inhibition of [3H]L-arginine to [3H]L-citrulline conversion by scintillation counting
267819	CHEMBL314943	5.640000	2300.000000	6598	2004	Inhibition of human inducible nitric oxide synthase
1101185	CHEMBL1955939	5.620000	2390.000000	61240	2012	Inhibition of human recombinant iNOS expressed in baculovirus infected insect Sf9 cells assessed as conversion of [3H]L-arginine to [3H]L-citrulline incubated for 15 mins prior to substrate addition measured after 45 mins by liquid scintillation counting
75620	CHEMBL89282	5.610000	2430.000000	4459	2001	Inhibition of inducible nitric oxide synthase
504982	CHEMBL3216105	5.590000	2600.000000	59209	2011	Inhibition of human recombinant iNOS expressed in Sf9 cells assessed as inhibition of conversion of [3H]-L-arginine to [3H]-L-citrulline after 45 mins by liquid scintillation counting
72932	CHEMBL88308	5.570000	2700.000000	4459	2001	Inhibition of inducible nitric oxide synthase
51465	CHEMBL61969	5.570000	2700.000000	5564	2003	Inhibitory concentration against human Inducible nitric oxide synthase
51465	CHEMBL61969	5.570000	2700.000000	6598	2004	Inhibition of human inducible nitric oxide synthase
1017448	CHEMBL1762475	5.570000	2700.000000	57087	2011	Inhibition of iNOS in intact human DLD1 cells assessed as nitric oxide production
263840	CHEMBL306541	5.540000	2900.000000	13772	1996	Inhibitory activity against human inducible nitric oxide synthase
305877	CHEMBL365202	5.520000	3000.000000	20328	2004	Inhibitory concentration against Inducible nitric oxide synthase
309071	CHEMBL365849	5.510000	3100.000000	20109	2004	Inhibitory activity against Inducible nitric oxide synthase
341749	CHEMBL402425	5.490000	3200.000000	38484	2008	Inhibition of cytokine-induced iNOS activity in human DLD1 cells after 24 hrs
165404	CHEMBL194396	5.480000	3300.000000	20979	2005	Inhibition of inducible nitric oxide synthase in activated macrophages
362908	CHEMBL428069	5.480000	3300.000000	38484	2008	Inhibition of cytokine-induced iNOS activity in human DLD1 cells after 24 hrs
1100333	CHEMBL1955937	5.470000	3410.000000	61240	2012	Inhibition of human recombinant iNOS expressed in baculovirus infected insect Sf9 cells assessed as conversion of [3H]L-arginine to [3H]L-citrulline incubated for 15 mins prior to substrate addition measured after 45 mins by liquid scintillation counting
312478	CHEMBL365637	5.460000	3500.000000	20109	2004	Inhibitory activity against Inducible nitric oxide synthase
158916	CHEMBL187008	5.460000	3500.000000	20328	2004	Inhibitory concentration against Inducible nitric oxide synthase
221797	CHEMBL257007	5.460000	3500.000000	38484	2008	Inhibition of cytokine-induced iNOS activity in human DLD1 cells after 24 hrs
222462	CHEMBL256620	5.460000	3500.000000	38484	2008	Inhibition of cytokine-induced iNOS activity in human DLD1 cells after 24 hrs
608029	CHEMBL1762478	5.440000	3600.000000	57087	2011	Inhibition of iNOS in intact human DLD1 cells assessed as nitric oxide production
365110	CHEMBL436643	5.430000	3700.000000	38484	2008	Inhibition of cytokine-induced iNOS activity in human DLD1 cells after 24 hrs
222441	CHEMBL256249	5.430000	3700.000000	38484	2008	Inhibition of cytokine-induced iNOS activity in human DLD1 cells after 24 hrs
221869	CHEMBL257008	5.420000	3800.000000	38484	2008	Inhibition of cytokine-induced iNOS activity in human DLD1 cells after 24 hrs
454191	CHEMBL538997	5.410000	3900.000000	5564	2003	Inhibitory concentration against human Inducible nitric oxide synthase
167167	CHEMBL196720	5.410000	3900.000000	20471	2005	Inhibitory concentration against human inducible nitric oxide synthase expressed in Sf-9 cells
7726	CHEMBL11471	5.400000	4000.000000	20471	2005	Inhibitory concentration against human inducible nitric oxide synthase expressed in Sf-9 cells
136662	CHEMBL161318	5.390000	4100.000000	20109	2004	Inhibitory activity against Inducible nitric oxide synthase
233517	CHEMBL271248	5.360000	4400.000000	38484	2008	Inhibition of cytokine-induced iNOS activity in human DLD1 cells after 24 hrs
233527	CHEMBL272271	5.360000	4400.000000	38484	2008	Inhibition of cytokine-induced iNOS activity in human DLD1 cells after 24 hrs
632544	CHEMBL1229853	5.360000	4400.000000	57951	2011	Inhibition of human recombinant iNOS by microtiter plate assay
164494	CHEMBL193967	5.350000	4500.000000	20471	2005	Inhibitory concentration against human inducible nitric oxide synthase expressed in Sf-9 cells
224077	CHEMBL258310	5.350000	4500.000000	38484	2008	Inhibition of cytokine-induced iNOS activity in human DLD1 cells after 24 hrs
4697	CHEMBL7889	5.340000	4600.000000	13772	1996	Inhibitory activity against human inducible nitric oxide synthase
471060	CHEMBL3215643	5.340000	4610.000000	58867	2011	Inhibition of human recombinant iNOS expressed in Sf9 cells assessed as conversion of [3H]-L-arginine to [3H]-L-citrulline by radiometric method
4697	CHEMBL7889	5.330000	4677.350000	58253	2011	Inhibition of human iNOS assessed as inhibition of [3H]L-arginine to [3H]L-citrulline conversion by scintillation counting
249573	CHEMBL293212	5.300000	5000.000000	5564	2003	Inhibitory concentration against human Inducible nitric oxide synthase
222243	CHEMBL256376	5.300000	5000.000000	38484	2008	Inhibition of cytokine-induced iNOS activity in human DLD1 cells after 24 hrs
1225074	CHEMBL2333953	5.300000	5000.000000	72688	2013	Inhibition of human iNOS
73188	CHEMBL86961	5.290000	5100.000000	6598	2004	Inhibition of human inducible nitric oxide synthase
222983	CHEMBL258347	5.290000	5100.000000	38484	2008	Inhibition of human iNOS expressed in human DLD1 cells after 1 hr
309374	CHEMBL363049	5.280000	5200.000000	20109	2004	Inhibitory activity against Inducible nitric oxide synthase
1019506	CHEMBL1783091	5.280000	5300.000000	57951	2011	Inhibition of human recombinant iNOS by microtiter plate assay
1184275	CHEMBL3216566	5.260000	5450.000000	66867	2012	Inhibition of recombinant human eNOS expressed in baculovirus-infected Sf9 cells assessed as conversion of [3H]-larginine to [3H]-L-citrulline preincubated for 15 mins measured after 45 mins by liquid scintillation counting
166312	CHEMBL196236	5.250000	5600.000000	20979	2005	Inhibition of inducible nitric oxide synthase in activated macrophages
596012	CHEMBL292099	5.240000	5700.000000	5564	2003	Inhibitory concentration against human Inducible nitric oxide synthase
596012	CHEMBL292099	5.240000	5700.000000	6598	2004	Inhibition of human inducible nitric oxide synthase
232692	CHEMBL272697	5.230000	5900.000000	38484	2008	Inhibition of cytokine-induced iNOS activity in human DLD1 cells after 24 hrs
200884	CHEMBL233653	5.220000	6000.000000	36390	2007	Inhibition of human inducible NOS activity
188057	CHEMBL220172	5.190000	6400.000000	35189	2007	Inhibition of cytokine-induced iNOS expressed in human A172 cells assessed as inhibition of NO formation
74771	CHEMBL89735	5.180000	6660.000000	4459	2001	Inhibition of inducible nitric oxide synthase
220843	CHEMBL255124	5.170000	6700.000000	38484	2008	Inhibition of cytokine-induced iNOS activity in human DLD1 cells after 24 hrs
1158597	CHEMBL2036273	5.170000	6760.000000	62111	2012	Inhibition of human iNOS expressed in baculovirus-infected insect sf9 cells assessed as conversion of [3H]-L-arginine to [3H]-L-citrulline preincubated for 15 mins with compound measured after 45 mins by scintillation counting
1113844	CHEMBL1955936	5.170000	6790.000000	61240	2012	Inhibition of human recombinant iNOS expressed in baculovirus infected insect Sf9 cells assessed as conversion of [3H]L-arginine to [3H]L-citrulline incubated for 15 mins prior to substrate addition measured after 45 mins by liquid scintillation counting
471833	CHEMBL3217174	5.120000	7600.000000	58867	2011	Inhibition of human recombinant iNOS expressed in Sf9 cells assessed as conversion of [3H]-L-arginine to [3H]-L-citrulline by radiometric method
233516	CHEMBL271247	5.100000	8000.000000	38484	2008	Inhibition of cytokine-induced iNOS activity in human DLD1 cells after 24 hrs
269906	CHEMBL314186	5.090000	8100.000000	6598	2004	Inhibition of human inducible nitric oxide synthase
136373	CHEMBL162455	5.090000	8100.000000	6598	2004	Inhibition of human inducible nitric oxide synthase
504942	CHEMBL3216985	5.080000	8400.000000	59209	2011	Inhibition of human recombinant iNOS expressed in Sf9 cells assessed as inhibition of conversion of [3H]-L-arginine to [3H]-L-citrulline after 45 mins by liquid scintillation counting
1017715	CHEMBL1762471	5.060000	8700.000000	57087	2011	Inhibition of iNOS in intact human DLD1 cells assessed as nitric oxide production
1019094	CHEMBL1783090	5.050000	8900.000000	57951	2011	Inhibition of human recombinant iNOS by microtiter plate assay
1101210	CHEMBL1955938	5.050000	8940.000000	61240	2012	Inhibition of human recombinant iNOS expressed in baculovirus infected insect Sf9 cells assessed as conversion of [3H]L-arginine to [3H]L-citrulline incubated for 15 mins prior to substrate addition measured after 45 mins by liquid scintillation counting
200487	CHEMBL234498	5.050000	9000.000000	36390	2007	Inhibition of human inducible NOS activity
74378	CHEMBL89431	5.030000	9260.000000	4459	2001	Inhibition of inducible nitric oxide synthase
506123	CHEMBL3215870	5.030000	9300.000000	59209	2011	Inhibition of human recombinant iNOS expressed in Sf9 cells assessed as inhibition of conversion of [3H]-L-arginine to [3H]-L-citrulline after 45 mins by liquid scintillation counting
1015995	CHEMBL1783098	5.030000	9400.000000	57951	2011	Inhibition of human recombinant iNOS by microtiter plate assay
1005157	CHEMBL1762476	5.020000	9500.000000	57087	2011	Inhibition of iNOS in intact human DLD1 cells assessed as nitric oxide production
134233	CHEMBL158641	5.010000	9800.000000	13772	1996	Inhibitory activity against human inducible nitric oxide synthase
471061	CHEMBL3216762	5.010000	9800.000000	58867	2011	Inhibition of human recombinant iNOS expressed in Sf9 cells assessed as conversion of [3H]-L-arginine to [3H]-L-citrulline by radiometric method
282756	CHEMBL329431	5.000000	9980.000000	4459	2001	Inhibition of inducible nitric oxide synthase
282756	CHEMBL329431	5.000000	10000.000000	13772	1996	Inhibitory activity against human inducible nitric oxide synthase
1065069	CHEMBL3216544	5.000000	10000.000000	60181	2011	Inhibition of human recombinant iNOS expressed in baculovirus infected Sf9 cells assessed as conversion of [3H]L-arginine to [3H]L-citrulline preincubated for 15 mins measured after 45 mins by liquid scintillation counting
19852958	CHEMBL3220998	5.000000	10000.000000	81758	2011	Inhibition of eNOS (unknown origin)
1181646	CHEMBL3215894	5.000000	10100.000000	66867	2012	Inhibition of recombinant human eNOS expressed in baculovirus-infected Sf9 cells assessed as conversion of [3H]-larginine to [3H]-L-citrulline preincubated for 15 mins measured after 45 mins by liquid scintillation counting
303820	CHEMBL360009	4.990000	10200.000000	20109	2004	Inhibitory activity against Inducible nitric oxide synthase
1184790	CHEMBL3215676	4.980000	10500.000000	66867	2012	Inhibition of recombinant human eNOS expressed in baculovirus-infected Sf9 cells assessed as conversion of [3H]-larginine to [3H]-L-citrulline preincubated for 15 mins measured after 45 mins by liquid scintillation counting
353903	CHEMBL420453	4.980000	10570.000000	21354	2005	Inhibitory activity against human Nitric oxide synthase-II with 2 uM H4Bip for 30 min
42846	CHEMBL51478	4.970000	10715.190000	58253	2011	Inhibition of human iNOS assessed as inhibition of [3H]L-arginine to [3H]L-citrulline conversion by scintillation counting
460511	CHEMBL3215639	4.960000	11000.000000	58867	2011	Inhibition of human recombinant iNOS expressed in Sf9 cells assessed as conversion of [3H]-L-arginine to [3H]-L-citrulline by radiometric method
1072409	CHEMBL3215655	4.960000	11000.000000	60181	2011	Inhibition of human recombinant iNOS expressed in baculovirus infected Sf9 cells assessed as conversion of [3H]L-arginine to [3H]L-citrulline preincubated for 15 mins measured after 45 mins by liquid scintillation counting
1178317	CHEMBL3216124	4.940000	11400.000000	66867	2012	Inhibition of recombinant human eNOS expressed in baculovirus-infected Sf9 cells assessed as conversion of [3H]-larginine to [3H]-L-citrulline preincubated for 15 mins measured after 45 mins by liquid scintillation counting
280630	CHEMBL330548	4.930000	11800.000000	20328	2004	Inhibitory concentration against Inducible nitric oxide synthase
1072407	CHEMBL3216542	4.920000	12000.000000	60181	2011	Inhibition of human recombinant iNOS expressed in baculovirus infected Sf9 cells assessed as conversion of [3H]L-arginine to [3H]L-citrulline preincubated for 15 mins measured after 45 mins by liquid scintillation counting
502164	CHEMBL3142316	4.910000	12300.000000	59209	2011	Inhibition of human recombinant iNOS expressed in Sf9 cells assessed as inhibition of conversion of [3H]-L-arginine to [3H]-L-citrulline after 45 mins by liquid scintillation counting
502164	CHEMBL3142316	4.910000	12300.000000	61260	2012	Inhibition of human iNOS expressed in baculovirus infected insect Sf9 cells assessed as conversion of [3H]-L-arginine to [3H]-L-citrulline
200883	CHEMBL233652	4.890000	13000.000000	36390	2007	Inhibition of human inducible NOS activity
77438	CHEMBL92422	4.880000	13100.000000	4459	2001	Inhibition of inducible nitric oxide synthase
308824	CHEMBL362366	4.880000	13100.000000	20109	2004	Inhibitory activity against Inducible nitric oxide synthase
971449	CHEMBL3215663	4.870000	13500.000000	61506	2012	Inhibition of human recombinant iNOS expressed in baculovirus infected insect sf9 cells assessed as conversion of [3H]-L-arginine into [3H]-L-citrulline by radiometric method
83452	CHEMBL99636	4.850000	14000.000000	13772	1996	Inhibitory activity against human inducible nitric oxide synthase
3883	CHEMBL6656	4.850000	14000.000000	20947	2005	Inhibitory activity against human Inducible nitric oxide synthase (iNOS)
200458	CHEMBL233444	4.850000	14000.000000	36390	2007	Inhibition of human inducible NOS activity
201249	CHEMBL233857	4.850000	14000.000000	36390	2007	Inhibition of human inducible NOS activity
1014340	CHEMBL1783096	4.850000	14000.000000	57951	2011	Inhibition of human recombinant iNOS by microtiter plate assay
471478	CHEMBL3216099	4.850000	14000.000000	58867	2011	Inhibition of human recombinant iNOS expressed in Sf9 cells assessed as conversion of [3H]-L-arginine to [3H]-L-citrulline by radiometric method
280630	CHEMBL330548	4.850000	14030.000000	4459	2001	Inhibition of inducible nitric oxide synthase
1162345	CHEMBL2036274	4.840000	14500.000000	62111	2012	Inhibition of human iNOS expressed in baculovirus-infected insect sf9 cells assessed as conversion of [3H]-L-arginine to [3H]-L-citrulline preincubated for 15 mins with compound measured after 45 mins by scintillation counting
338709	CHEMBL397446	4.820000	15000.000000	36390	2007	Inhibition of human inducible NOS activity
460513	CHEMBL3216977	4.820000	15000.000000	58867	2011	Inhibition of human recombinant iNOS expressed in Sf9 cells assessed as conversion of [3H]-L-arginine to [3H]-L-citrulline by radiometric method
1146933	CHEMBL3215667	4.820000	15000.000000	62400	2012	Inhibition of human recombinant iNOS assessed as conversion of [3H]L-arginine to [3H]L-citrulline preincubated for 15 mins measured after 45 mins by liquid scintillation counting
471059	CHEMBL3216306	4.800000	15700.000000	58867	2011	Inhibition of human recombinant iNOS expressed in Sf9 cells assessed as conversion of [3H]-L-arginine to [3H]-L-citrulline by radiometric method
1127295	CHEMBL3216115	4.770000	16900.000000	61506	2012	Inhibition of human recombinant iNOS expressed in baculovirus infected insect sf9 cells assessed as conversion of [3H]-L-arginine into [3H]-L-citrulline by radiometric method
458441	CHEMBL3216307	4.770000	17000.000000	58867	2011	Inhibition of human recombinant iNOS expressed in Sf9 cells assessed as conversion of [3H]-L-arginine to [3H]-L-citrulline by radiometric method
1113794	CHEMBL3215881	4.770000	17100.000000	61260	2012	Inhibition of human iNOS expressed in baculovirus infected insect Sf9 cells assessed as conversion of [3H]-L-arginine to [3H]-L-citrulline
1179695	CHEMBL3142587	4.750000	17900.000000	66867	2012	Inhibition of recombinant human eNOS expressed in baculovirus-infected Sf9 cells assessed as conversion of [3H]-larginine to [3H]-L-citrulline preincubated for 15 mins measured after 45 mins by liquid scintillation counting
470706	CHEMBL3215642	4.740000	18000.000000	58867	2011	Inhibition of human recombinant iNOS expressed in Sf9 cells assessed as conversion of [3H]-L-arginine to [3H]-L-citrulline by radiometric method
19852959	CHEMBL3220999	4.740000	18200.000000	81758	2011	Inhibition of eNOS (unknown origin)
504943	CHEMBL3142317	4.740000	18400.000000	59209	2011	Inhibition of human recombinant iNOS expressed in Sf9 cells assessed as inhibition of conversion of [3H]-L-arginine to [3H]-L-citrulline after 45 mins by liquid scintillation counting
1159582	CHEMBL2036275	4.720000	19200.000000	62111	2012	Inhibition of human iNOS expressed in baculovirus-infected insect sf9 cells assessed as conversion of [3H]-L-arginine to [3H]-L-citrulline preincubated for 15 mins with compound measured after 45 mins by scintillation counting
459500	CHEMBL3142301	4.700000	20000.000000	58867	2011	Inhibition of human recombinant iNOS expressed in Sf9 cells assessed as conversion of [3H]-L-arginine to [3H]-L-citrulline by radiometric method
1100779	CHEMBL3217207	4.700000	20000.000000	61260	2012	Inhibition of human iNOS expressed in baculovirus infected insect Sf9 cells assessed as conversion of [3H]-L-arginine to [3H]-L-citrulline
465483	CHEMBL3216978	4.680000	21000.000000	58881	2011	Inhibition of recombinant human iNOS expressed in baculovirus infected insect Sf9 cells assessed as conversion of [3H]-L-arginine into [3H]-L-citrulline by radiometric method
1179850	CHEMBL3215677	4.670000	21200.000000	66867	2012	Inhibition of recombinant human eNOS expressed in baculovirus-infected Sf9 cells assessed as conversion of [3H]-larginine to [3H]-L-citrulline preincubated for 15 mins measured after 45 mins by liquid scintillation counting
471479	CHEMBL3217186	4.660000	22000.000000	58867	2011	Inhibition of human recombinant iNOS expressed in Sf9 cells assessed as conversion of [3H]-L-arginine to [3H]-L-citrulline by radiometric method
156488	CHEMBL185585	4.640000	23000.000000	20109	2004	Inhibitory activity against Inducible nitric oxide synthase
19852960	CHEMBL3221000	4.640000	23000.000000	81758	2011	Inhibition of eNOS (unknown origin)
1164632	CHEMBL2036264	4.620000	24000.000000	62111	2012	Inhibition of human iNOS expressed in baculovirus-infected insect sf9 cells assessed as conversion of [3H]-L-arginine to [3H]-L-citrulline preincubated for 15 mins with compound measured after 45 mins by scintillation counting
133999	CHEMBL158626	4.600000	25000.000000	13772	1996	Inhibitory activity against human inducible nitric oxide synthase
297596	CHEMBL350281	4.600000	25000.000000	6598	2004	Inhibition of human inducible nitric oxide synthase
336559	CHEMBL397506	4.600000	25000.000000	36390	2007	Inhibition of human inducible NOS activity
1065072	CHEMBL3142403	4.590000	25700.000000	60181	2011	Inhibition of human recombinant iNOS expressed in baculovirus infected Sf9 cells assessed as conversion of [3H]L-arginine to [3H]L-citrulline preincubated for 15 mins measured after 45 mins by liquid scintillation counting
136662	CHEMBL161318	4.590000	26000.000000	13772	1996	Inhibitory activity against human inducible nitric oxide synthase
1151797	CHEMBL2036267	4.580000	26500.000000	62111	2012	Inhibition of human iNOS expressed in baculovirus-infected insect sf9 cells assessed as conversion of [3H]-L-arginine to [3H]-L-citrulline preincubated for 15 mins with compound measured after 45 mins by scintillation counting
19852962	CHEMBL3221002	4.550000	28300.000000	81758	2011	Inhibition of eNOS (unknown origin)
460512	CHEMBL3215865	4.540000	29000.000000	58867	2011	Inhibition of human recombinant iNOS expressed in Sf9 cells assessed as conversion of [3H]-L-arginine to [3H]-L-citrulline by radiometric method
4697	CHEMBL7889	4.510000	31000.000000	38484	2008	Inhibition of cytokine-induced iNOS activity in human DLD1 cells after 24 hrs
501141	CHEMBL3216292	4.490000	32700.000000	58867	2011	Inhibition of human recombinant iNOS expressed in Sf9 cells assessed as conversion of [3H]-L-arginine to [3H]-L-citrulline by radiometric method
1065073	CHEMBL3216112	4.480000	33200.000000	60181	2011	Inhibition of human recombinant iNOS expressed in baculovirus infected Sf9 cells assessed as conversion of [3H]L-arginine to [3H]L-citrulline preincubated for 15 mins measured after 45 mins by liquid scintillation counting
471303	CHEMBL3216305	4.470000	34000.000000	58867	2011	Inhibition of human recombinant iNOS expressed in Sf9 cells assessed as conversion of [3H]-L-arginine to [3H]-L-citrulline by radiometric method
1179695	CHEMBL3142587	4.470000	34100.000000	66867	2012	Inhibition of recombinant human eNOS expressed in baculovirus-infected Sf9 cells assessed as conversion of [3H]-larginine to [3H]-L-citrulline preincubated for 15 mins measured after 45 mins by liquid scintillation counting
1072030	CHEMBL3216770	4.460000	35000.000000	60181	2011	Inhibition of human recombinant iNOS expressed in baculovirus infected Sf9 cells assessed as conversion of [3H]L-arginine to [3H]L-citrulline preincubated for 15 mins measured after 45 mins by liquid scintillation counting
463277	CHEMBL3215617	4.440000	36000.000000	58881	2011	Inhibition of recombinant human iNOS expressed in baculovirus infected insect Sf9 cells assessed as conversion of [3H]-L-arginine into [3H]-L-citrulline by radiometric method
1151799	CHEMBL2036268	4.440000	36300.000000	62111	2012	Inhibition of human iNOS expressed in baculovirus-infected insect sf9 cells assessed as conversion of [3H]-L-arginine to [3H]-L-citrulline preincubated for 15 mins with compound measured after 45 mins by scintillation counting
1179454	CHEMBL3142586	4.440000	36700.000000	66867	2012	Inhibition of recombinant human eNOS expressed in baculovirus-infected Sf9 cells assessed as conversion of [3H]-larginine to [3H]-L-citrulline preincubated for 15 mins measured after 45 mins by liquid scintillation counting
394626	CHEMBL470029	4.430000	37000.000000	20979	2005	Inhibition of inducible nitric oxide synthase in activated macrophages
604873	CHEMBL412797	4.430000	37000.000000	36390	2007	Inhibition of human inducible NOS activity
1178988	CHEMBL3215893	4.430000	37300.000000	66867	2012	Inhibition of recombinant human eNOS expressed in baculovirus-infected Sf9 cells assessed as conversion of [3H]-larginine to [3H]-L-citrulline preincubated for 15 mins measured after 45 mins by liquid scintillation counting
85059	CHEMBL101885	4.430000	37440.000000	21354	2005	Inhibitory activity against human Nitric oxide synthase-II with 2 uM H4Bip for 30 min
311227	CHEMBL361909	4.410000	38700.000000	20109	2004	Inhibitory activity against Inducible nitric oxide synthase
1182207	CHEMBL3215678	4.410000	39300.000000	66867	2012	Inhibition of recombinant human eNOS expressed in baculovirus-infected Sf9 cells assessed as conversion of [3H]-larginine to [3H]-L-citrulline preincubated for 15 mins measured after 45 mins by liquid scintillation counting
1180365	CHEMBL3216328	4.390000	40500.000000	66867	2012	Inhibition of recombinant human eNOS expressed in baculovirus-infected Sf9 cells assessed as conversion of [3H]-larginine to [3H]-L-citrulline preincubated for 15 mins measured after 45 mins by liquid scintillation counting
469588	CHEMBL3216761	4.380000	41600.000000	58867	2011	Inhibition of human recombinant iNOS expressed in Sf9 cells assessed as conversion of [3H]-L-arginine to [3H]-L-citrulline by radiometric method
199528	CHEMBL233022	4.340000	46000.000000	36390	2007	Inhibition of human inducible NOS activity
198827	CHEMBL233229	4.320000	48000.000000	36390	2007	Inhibition of human inducible NOS activity
512603	CHEMBL1800349	4.310000	48977.880000	58253	2011	Inhibition of human iNOS assessed as inhibition of [3H]L-arginine to [3H]L-citrulline conversion by scintillation counting
459500	CHEMBL3142301	4.310000	49000.000000	58867	2011	Inhibition of human recombinant iNOS expressed in Sf9 cells assessed as conversion of [3H]-L-arginine to [3H]-L-citrulline by radiometric method
1018372	CHEMBL1783074	4.290000	51000.000000	57951	2011	Inhibition of human recombinant iNOS by microtiter plate assay
1179454	CHEMBL3142586	4.290000	51700.000000	66867	2012	Inhibition of recombinant human eNOS expressed in baculovirus-infected Sf9 cells assessed as conversion of [3H]-larginine to [3H]-L-citrulline preincubated for 15 mins measured after 45 mins by liquid scintillation counting
504943	CHEMBL3142317	4.280000	52100.000000	59209	2011	Inhibition of human recombinant iNOS expressed in Sf9 cells assessed as inhibition of conversion of [3H]-L-arginine to [3H]-L-citrulline after 45 mins by liquid scintillation counting
1179454	CHEMBL3142586	4.270000	53700.000000	66867	2012	Inhibition of recombinant human eNOS expressed in baculovirus-infected Sf9 cells assessed as conversion of [3H]-larginine to [3H]-L-citrulline preincubated for 15 mins measured after 45 mins by liquid scintillation counting
1162344	CHEMBL2036272	4.270000	54100.000000	62111	2012	Inhibition of human iNOS expressed in baculovirus-infected insect sf9 cells assessed as conversion of [3H]-L-arginine to [3H]-L-citrulline preincubated for 15 mins with compound measured after 45 mins by scintillation counting
1155278	CHEMBL2036276	4.270000	54200.000000	62111	2012	Inhibition of human iNOS expressed in baculovirus-infected insect sf9 cells assessed as conversion of [3H]-L-arginine to [3H]-L-citrulline preincubated for 15 mins with compound measured after 45 mins by scintillation counting
1171716	CHEMBL3216999	4.260000	55200.000000	62400	2012	Inhibition of human recombinant iNOS assessed as conversion of [3H]L-arginine to [3H]L-citrulline preincubated for 15 mins measured after 45 mins by liquid scintillation counting
19852957	CHEMBL3220997	4.240000	57500.000000	81758	2011	Inhibition of eNOS (unknown origin)
1012342	CHEMBL1783089	4.240000	58000.000000	57951	2011	Inhibition of human recombinant iNOS by microtiter plate assay
1113388	CHEMBL3216993	4.240000	58200.000000	61260	2012	Inhibition of human iNOS expressed in baculovirus infected insect Sf9 cells assessed as conversion of [3H]-L-arginine to [3H]-L-citrulline
1183859	CHEMBL3216789	4.240000	58200.000000	66867	2012	Inhibition of recombinant human eNOS expressed in baculovirus-infected Sf9 cells assessed as conversion of [3H]-larginine to [3H]-L-citrulline preincubated for 15 mins measured after 45 mins by liquid scintillation counting
1102120	CHEMBL3216551	4.230000	58500.000000	61260	2012	Inhibition of human iNOS expressed in baculovirus infected insect Sf9 cells assessed as conversion of [3H]-L-arginine to [3H]-L-citrulline
457526	CHEMBL3216301	4.220000	60000.000000	58881	2011	Inhibition of recombinant human iNOS expressed in baculovirus infected insect Sf9 cells assessed as conversion of [3H]-L-arginine into [3H]-L-citrulline by radiometric method
19852956	CHEMBL3220996	4.220000	60100.000000	81758	2011	Inhibition of eNOS (unknown origin)
643360	CHEMBL389312	4.190000	64000.000000	36390	2007	Inhibition of human inducible NOS activity
463278	CHEMBL3216739	4.180000	66000.000000	58881	2011	Inhibition of recombinant human iNOS expressed in baculovirus infected insect Sf9 cells assessed as conversion of [3H]-L-arginine into [3H]-L-citrulline by radiometric method
465484	CHEMBL3216522	4.170000	68000.000000	58881	2011	Inhibition of recombinant human iNOS expressed in baculovirus infected insect Sf9 cells assessed as conversion of [3H]-L-arginine into [3H]-L-citrulline by radiometric method
464527	CHEMBL3216500	4.150000	70000.000000	58881	2011	Inhibition of recombinant human iNOS expressed in baculovirus infected insect Sf9 cells assessed as conversion of [3H]-L-arginine into [3H]-L-citrulline by radiometric method
1158597	CHEMBL2036273	4.150000	70000.000000	62111	2012	Inhibition of human iNOS expressed in baculovirus-infected insect sf9 cells assessed as conversion of [3H]-L-arginine to [3H]-L-citrulline preincubated for 15 mins with compound measured after 45 mins by scintillation counting
465867	CHEMBL3142303	4.140000	72000.000000	58881	2011	Inhibition of recombinant human iNOS expressed in baculovirus infected insect Sf9 cells assessed as conversion of [3H]-L-arginine into [3H]-L-citrulline by radiometric method
459748	CHEMBL3216280	4.140000	72000.000000	58881	2011	Inhibition of recombinant human iNOS expressed in baculovirus infected insect Sf9 cells assessed as conversion of [3H]-L-arginine into [3H]-L-citrulline by radiometric method
465867	CHEMBL3142303	4.140000	72000.000000	59209	2011	Inhibition of human recombinant iNOS expressed in Sf9 cells assessed as inhibition of conversion of [3H]-L-arginine to [3H]-L-citrulline after 45 mins by liquid scintillation counting
459500	CHEMBL3142301	4.140000	73000.000000	58867	2011	Inhibition of human recombinant iNOS expressed in Sf9 cells assessed as conversion of [3H]-L-arginine to [3H]-L-citrulline by radiometric method
1171998	CHEMBL3217010	4.140000	73000.000000	65767	2012	Inhibition of human recombinant iNOS expressed in Sf9 cells assessed as reduction in conversion of [3H]L-arginine to [3H]L-citrulline preincubated for 15 mins by radiometric method
200961	CHEMBL233654	4.120000	75000.000000	36390	2007	Inhibition of human inducible NOS activity
198901	CHEMBL233228	4.100000	79000.000000	36390	2007	Inhibition of human inducible NOS activity
460201	CHEMBL3216283	4.090000	82000.000000	58881	2011	Inhibition of recombinant human iNOS expressed in baculovirus infected insect Sf9 cells assessed as conversion of [3H]-L-arginine into [3H]-L-citrulline by radiometric method
1115278	CHEMBL1956107	4.080000	83000.000000	61240	2012	Inhibition of human recombinant iNOS expressed in baculovirus infected insect Sf9 cells assessed as conversion of [3H]L-arginine to [3H]L-citrulline incubated for 15 mins prior to substrate addition measured after 45 mins by liquid scintillation counting
1102122	CHEMBL3216320	4.070000	85000.000000	61260	2012	Inhibition of human iNOS expressed in baculovirus infected insect Sf9 cells assessed as conversion of [3H]-L-arginine to [3H]-L-citrulline
1173986	CHEMBL3215675	4.050000	89400.000000	65767	2012	Inhibition of human recombinant iNOS expressed in Sf9 cells assessed as reduction in conversion of [3H]L-arginine to [3H]L-citrulline preincubated for 15 mins by radiometric method
200877	CHEMBL233648	4.040000	91000.000000	36390	2007	Inhibition of human inducible NOS activity
1184853	CHEMBL3217218	4.030000	94000.000000	66867	2012	Inhibition of recombinant human eNOS expressed in baculovirus-infected Sf9 cells assessed as conversion of [3H]-larginine to [3H]-L-citrulline preincubated for 15 mins measured after 45 mins by liquid scintillation counting
1072183	CHEMBL3217185	4.020000	95100.000000	58867	2011	Inhibition of human recombinant iNOS expressed in Sf9 cells assessed as conversion of [3H]-L-arginine to [3H]-L-citrulline by radiometric method
603496	CHEMBL397745	4.010000	97000.000000	36390	2007	Inhibition of human inducible NOS activity
19852961	CHEMBL3221001	4.000000	100000.000000	81758	2011	Inhibition of eNOS (unknown origin)
85052	CHEMBL101879	3.970000	106200.000000	21354	2005	Inhibitory activity against human Nitric oxide synthase-II with 2 uM H4Bip for 30 min
1111308	CHEMBL3216321	3.970000	107900.000000	61260	2012	Inhibition of human iNOS expressed in baculovirus infected insect Sf9 cells assessed as conversion of [3H]-L-arginine to [3H]-L-citrulline
168227	CHEMBL196721	3.960000	110000.000000	20471	2005	Inhibitory concentration against human inducible nitric oxide synthase expressed in Sf-9 cells
1146934	CHEMBL3217210	3.930000	118000.000000	62400	2012	Inhibition of human recombinant iNOS assessed as conversion of [3H]L-arginine to [3H]L-citrulline preincubated for 15 mins measured after 45 mins by liquid scintillation counting
275989	CHEMBL321741	3.910000	122700.000000	21354	2005	Inhibitory activity against human Nitric oxide synthase-II with 2 uM H4Bip for 30 min
1179454	CHEMBL3142586	3.910000	124000.000000	66867	2012	Inhibition of recombinant human eNOS expressed in baculovirus-infected Sf9 cells assessed as conversion of [3H]-larginine to [3H]-L-citrulline preincubated for 15 mins measured after 45 mins by liquid scintillation counting
20518044	CHEMBL3800212	3.890000	130000.000000	99237	2016	Inhibition of recombinant N-terminal His-tagged human iNOS expressed in Escherichia coli assessed as L-[3H]-citrulline formation using L-[3H]-arginine as substrate after 30 mins by liquid scintillation spectroscopy
334676	CHEMBL395580	3.860000	139000.000000	36390	2007	Inhibition of human inducible NOS activity
504943	CHEMBL3142317	3.860000	139000.000000	59209	2011	Inhibition of human recombinant iNOS expressed in Sf9 cells assessed as inhibition of conversion of [3H]-L-arginine to [3H]-L-citrulline after 45 mins by liquid scintillation counting
199530	CHEMBL233024	3.850000	141000.000000	36390	2007	Inhibition of human inducible NOS activity
1158204	CHEMBL2036269	3.850000	142000.000000	62111	2012	Inhibition of human iNOS expressed in baculovirus-infected insect sf9 cells assessed as conversion of [3H]-L-arginine to [3H]-L-citrulline preincubated for 15 mins with compound measured after 45 mins by scintillation counting
1151798	CHEMBL2034995	3.830000	149000.000000	62111	2012	Inhibition of human iNOS expressed in baculovirus-infected insect sf9 cells assessed as conversion of [3H]-L-arginine to [3H]-L-citrulline preincubated for 15 mins with compound measured after 45 mins by scintillation counting
1158596	CHEMBL2036271	3.810000	155000.000000	62111	2012	Inhibition of human iNOS expressed in baculovirus-infected insect sf9 cells assessed as conversion of [3H]-L-arginine to [3H]-L-citrulline preincubated for 15 mins with compound measured after 45 mins by scintillation counting
1115279	CHEMBL1956108	3.720000	189000.000000	61240	2012	Inhibition of human recombinant iNOS expressed in baculovirus infected insect Sf9 cells assessed as conversion of [3H]L-arginine to [3H]L-citrulline incubated for 15 mins prior to substrate addition measured after 45 mins by liquid scintillation counting
82540	CHEMBL98547	3.670000	214200.000000	21354	2005	Inhibitory activity against human Nitric oxide synthase-II with 2 uM H4Bip for 30 min
156769	CHEMBL185766	3.640000	229800.000000	21354	2005	Inhibitory activity against human Nitric oxide synthase-II with 2 uM H4Bip for 30 min
85184	CHEMBL100716	3.550000	280500.000000	21354	2005	Inhibitory activity against human Nitric oxide synthase-II with 2 uM H4Bip for 30 min
272249	CHEMBL319722	3.510000	307400.000000	21354	2005	Inhibitory activity against human Nitric oxide synthase-II with 2 uM H4Bip for 30 min
20519991	CHEMBL3798114	3.460000	350000.000000	99237	2016	Inhibition of recombinant N-terminal His-tagged human iNOS expressed in Escherichia coli assessed as L-[3H]-citrulline formation using L-[3H]-arginine as substrate after 30 mins by liquid scintillation spectroscopy
167685	CHEMBL197055	3.430000	370000.000000	20471	2005	Inhibitory concentration against human inducible nitric oxide synthase expressed in Sf-9 cells
313003	CHEMBL364546	3.430000	374200.000000	21354	2005	Inhibitory activity against human Nitric oxide synthase-II with 2 uM H4Bip for 30 min
83727	CHEMBL100659	3.400000	400000.000000	21354	2005	Inhibitory activity against human Nitric oxide synthase-II with 2 uM H4Bip for 30 min
86148	CHEMBL101399	3.350000	451800.000000	21354	2005	Inhibitory activity against human Nitric oxide synthase-II with 2 uM H4Bip for 30 min
1105385	CHEMBL1956106	3.320000	481000.000000	61240	2012	Inhibition of human recombinant iNOS expressed in baculovirus infected insect Sf9 cells assessed as conversion of [3H]L-arginine to [3H]L-citrulline incubated for 15 mins prior to substrate addition measured after 45 mins by liquid scintillation counting
1155682	CHEMBL2036270	3.310000	493000.000000	62111	2012	Inhibition of human iNOS expressed in baculovirus-infected insect sf9 cells assessed as conversion of [3H]-L-arginine to [3H]-L-citrulline preincubated for 15 mins with compound measured after 45 mins by scintillation counting
1115281	CHEMBL1956110	3.280000	522000.000000	61240	2012	Inhibition of human recombinant iNOS expressed in baculovirus infected insect Sf9 cells assessed as conversion of [3H]L-arginine to [3H]L-citrulline incubated for 15 mins prior to substrate addition measured after 45 mins by liquid scintillation counting
20519836	CHEMBL3798072	3.150000	710000.000000	99237	2016	Inhibition of recombinant N-terminal His-tagged human iNOS expressed in Escherichia coli assessed as L-[3H]-citrulline formation using L-[3H]-arginine as substrate after 30 mins by liquid scintillation spectroscopy
20520255	CHEMBL3798324	3.110000	770000.000000	99237	2016	Inhibition of recombinant N-terminal His-tagged human iNOS expressed in Escherichia coli assessed as L-[3H]-citrulline formation using L-[3H]-arginine as substrate after 30 mins by liquid scintillation spectroscopy
20520444	CHEMBL3799119	3.060000	880000.000000	99237	2016	Inhibition of recombinant N-terminal His-tagged human iNOS expressed in Escherichia coli assessed as L-[3H]-citrulline formation using L-[3H]-arginine as substrate after 30 mins by liquid scintillation spectroscopy
1115280	CHEMBL1956109	3.050000	897000.000000	61240	2012	Inhibition of human recombinant iNOS expressed in baculovirus infected insect Sf9 cells assessed as conversion of [3H]L-arginine to [3H]L-citrulline incubated for 15 mins prior to substrate addition measured after 45 mins by liquid scintillation counting
224483	CHEMBL260628	2.620000	2400000.000000	39183	2008	Inhibition of human recombinant iNOS by griess assay
627444	CHEMBL408088	2.300000	5000000.000000	39183	2008	Inhibition of human recombinant iNOS by griess assay
