lsi_index	chembl-id	pot.(log,IC50)	pot.(muMol,IC50)	doc_id	year	description
513229	CHEMBL1801384	9.000000	1.000000	58281	2010	Inhibition of human MK2 using hsp27 peptide biotinyl-AYSRALSRQLSSGVSEIRCOOH as substrate after 45 mins by FRET assay
1338616	CHEMBL2385548	8.720000	1.900000	73739	2013	Inhibition of MK2 (unknown origin) phosphorylation using TAMRA labeled peptide as substrate incubated 30 mins before substrate addition measured after 30 mins
1338617	CHEMBL2385549	8.520000	3.000000	73739	2013	Inhibition of MK2 (unknown origin) phosphorylation using TAMRA labeled peptide as substrate incubated 30 mins before substrate addition measured after 30 mins
514378	CHEMBL1801296	8.400000	4.000000	58280	2010	Inhibition of human MK2 using biotinyl-AYSRALSRQLSSGVSEIRCOOH as substrate after 45 mins by FRET analysis
572104	CHEMBL1089865	8.370000	4.300000	50681	2010	Inhibition of LPS-induced MK2 phosphorylation in human whole blood treated 30 mins before LPS challenge measured after 45 mins by FACS analysis
1338610	CHEMBL2385542	8.310000	4.900000	73739	2013	Inhibition of MK2 (unknown origin) phosphorylation using TAMRA labeled peptide as substrate incubated 30 mins before substrate addition measured after 30 mins
533853	CHEMBL1801381	8.300000	5.000000	58281	2010	Inhibition of human MK2 using hsp27 peptide biotinyl-AYSRALSRQLSSGVSEIRCOOH as substrate after 45 mins by FRET assay
533854	CHEMBL1801382	8.300000	5.000000	58281	2010	Inhibition of human MK2 using hsp27 peptide biotinyl-AYSRALSRQLSSGVSEIRCOOH as substrate after 45 mins by FRET assay
513253	CHEMBL1801385	8.300000	5.000000	58281	2010	Inhibition of human MK2 using hsp27 peptide biotinyl-AYSRALSRQLSSGVSEIRCOOH as substrate after 45 mins by FRET assay
569896	CHEMBL1091199	8.240000	5.700000	50681	2010	Inhibition of LPS-induced MK2 phosphorylation in human whole blood treated 30 mins before LPS challenge measured after 45 mins by FACS analysis
1338615	CHEMBL2385547	8.240000	5.700000	73739	2013	Inhibition of MK2 (unknown origin) phosphorylation using TAMRA labeled peptide as substrate incubated 30 mins before substrate addition measured after 30 mins
1338615	CHEMBL2385547	8.240000	5.700000	90246	2014	Inhibition of MK2 (unknown origin) incubated for 30 mins by MK2 IMAP assay
515006	CHEMBL1801304	8.220000	6.000000	58280	2010	Inhibition of human MK2 using biotinyl-AYSRALSRQLSSGVSEIRCOOH as substrate after 45 mins by FRET analysis
515007	CHEMBL1801305	8.220000	6.000000	58280	2010	Inhibition of human MK2 using biotinyl-AYSRALSRQLSSGVSEIRCOOH as substrate after 45 mins by FRET analysis
1338614	CHEMBL2385546	8.170000	6.800000	73739	2013	Inhibition of MK2 (unknown origin) phosphorylation using TAMRA labeled peptide as substrate incubated 30 mins before substrate addition measured after 30 mins
558368	CHEMBL1091928	8.150000	7.000000	50681	2010	Inhibition of LPS-induced MK2 phosphorylation in human whole blood treated 30 mins before LPS challenge measured after 45 mins by FACS analysis
513731	CHEMBL1801307	8.150000	7.000000	58280	2010	Inhibition of human MK2 using biotinyl-AYSRALSRQLSSGVSEIRCOOH as substrate after 45 mins by FRET analysis
20115248	CHEMBL3314153	8.110000	7.700000	90246	2014	Inhibition of MK2 (unknown origin) incubated for 30 mins by MK2 IMAP assay
329891	CHEMBL388530	8.100000	8.000000	35790	2007	Inhibition of MK2
325928	CHEMBL388853	8.100000	8.000000	35790	2007	Inhibition of MK2
516668	CHEMBL1801274	8.100000	8.000000	58280	2010	Inhibition of human MK2 using biotinyl-AYSRALSRQLSSGVSEIRCOOH as substrate after 45 mins by FRET analysis
525687	CHEMBL1801374	8.100000	8.000000	58281	2010	Inhibition of human MK2 using hsp27 peptide biotinyl-AYSRALSRQLSSGVSEIRCOOH as substrate after 45 mins by FRET assay
1092369	CHEMBL1940645	8.100000	8.000000	60812	2012	Inhibition of human MK2
1089325	CHEMBL1940652	8.100000	8.000000	60812	2012	Inhibition of human MK2
1338613	CHEMBL2385545	8.080000	8.400000	73739	2013	Inhibition of MK2 (unknown origin) phosphorylation using TAMRA labeled peptide as substrate incubated 30 mins before substrate addition measured after 30 mins
193011	CHEMBL226403	8.070000	8.500000	35790	2007	Inhibition of MK2
193011	CHEMBL226403	8.070000	8.500000	45206	2008	Inhibition of human recombinant MK2 expressed in Escherichia coli BL21(DE3) after 60 mins
1089279	CHEMBL1940518	8.050000	9.000000	60812	2012	Inhibition of human MK2
1092791	CHEMBL1940648	8.050000	9.000000	60812	2012	Inhibition of human MK2
1089738	CHEMBL1940658	8.050000	9.000000	60812	2012	Inhibition of human MK2
212031	CHEMBL246301	8.000000	10.000000	37671	2007	Inhibition of MK2 after 30 mins by DELFIA
972578	CHEMBL1614995	8.000000	10.000000	58280	2010	Inhibition of human MK2 using biotinyl-AYSRALSRQLSSGVSEIRCOOH as substrate after 45 mins by FRET analysis
522103	CHEMBL1801373	8.000000	10.000000	58281	2010	Inhibition of human MK2 using hsp27 peptide biotinyl-AYSRALSRQLSSGVSEIRCOOH as substrate after 45 mins by FRET assay
1068822	CHEMBL1801375	8.000000	10.000000	58281	2010	Inhibition of human MK2 using hsp27 peptide biotinyl-AYSRALSRQLSSGVSEIRCOOH as substrate after 45 mins by FRET assay
512183	CHEMBL1801388	8.000000	10.000000	58281	2010	Inhibition of human MK2 using hsp27 peptide biotinyl-AYSRALSRQLSSGVSEIRCOOH as substrate after 45 mins by FRET assay
515167	CHEMBL1801294	7.920000	12.000000	58280	2010	Inhibition of human MK2 using biotinyl-AYSRALSRQLSSGVSEIRCOOH as substrate after 45 mins by FRET analysis
972578	CHEMBL1614995	7.920000	12.000000	58281	2010	Inhibition of human MK2 using hsp27 peptide biotinyl-AYSRALSRQLSSGVSEIRCOOH as substrate after 45 mins by FRET assay
1092371	CHEMBL1940647	7.920000	12.000000	60812	2012	Inhibition of human MK2
1089282	CHEMBL1940521	7.920000	12.000000	60812	2012	Inhibition of human MK2
1091707	CHEMBL1940524	7.920000	12.000000	60812	2012	Inhibition of human MK2
1089737	CHEMBL1940657	7.920000	12.000000	60812	2012	Inhibition of human MK2
1338600	CHEMBL2385532	7.920000	12.000000	73739	2013	Inhibition of MK2 (unknown origin) phosphorylation using TAMRA labeled peptide as substrate incubated 30 mins before substrate addition measured after 30 mins
1067230	CHEMBL1801312	7.890000	13.000000	58280	2010	Inhibition of human MK2 using biotinyl-AYSRALSRQLSSGVSEIRCOOH as substrate after 45 mins by FRET analysis
20115243	CHEMBL3314148	7.890000	13.000000	90246	2014	Inhibition of MK2 (unknown origin) incubated for 30 mins by MK2 IMAP assay
522154	CHEMBL1801313	7.850000	14.000000	58281	2010	Inhibition of human MK2 using hsp27 peptide biotinyl-AYSRALSRQLSSGVSEIRCOOH as substrate after 45 mins by FRET assay
1088903	CHEMBL1940649	7.850000	14.000000	60812	2012	Inhibition of human MK2
1338608	CHEMBL2385540	7.850000	14.000000	73739	2013	Inhibition of MK2 (unknown origin) phosphorylation using TAMRA labeled peptide as substrate incubated 30 mins before substrate addition measured after 30 mins
1338605	CHEMBL2385537	7.850000	14.000000	73739	2013	Inhibition of MK2 (unknown origin) phosphorylation using TAMRA labeled peptide as substrate incubated 30 mins before substrate addition measured after 30 mins
20115221	CHEMBL3314142	7.840000	14.300000	90246	2014	Inhibition of MK2 (unknown origin) incubated for 30 mins by MK2 IMAP assay
192857	CHEMBL226206	7.820000	15.000000	35790	2007	Inhibition of MK2
513254	CHEMBL1801386	7.820000	15.000000	58281	2010	Inhibition of human MK2 using hsp27 peptide biotinyl-AYSRALSRQLSSGVSEIRCOOH as substrate after 45 mins by FRET assay
512182	CHEMBL1801387	7.800000	16.000000	58281	2010	Inhibition of human MK2 using hsp27 peptide biotinyl-AYSRALSRQLSSGVSEIRCOOH as substrate after 45 mins by FRET assay
20115242	CHEMBL3314147	7.790000	16.200000	90246	2014	Inhibition of MK2 (unknown origin) incubated for 30 mins by MK2 IMAP assay
193652	CHEMBL226261	7.770000	17.000000	35790	2007	Inhibition of MK2
337532	CHEMBL396160	7.770000	17.000000	37671	2007	Inhibition of MK2 after 30 mins by DELFIA
513556	CHEMBL1801284	7.770000	17.000000	58280	2010	Inhibition of human MK2 using biotinyl-AYSRALSRQLSSGVSEIRCOOH as substrate after 45 mins by FRET analysis
20115244	CHEMBL3314149	7.760000	17.400000	90246	2014	Inhibition of MK2 (unknown origin) incubated for 30 mins by MK2 IMAP assay
1092370	CHEMBL1940646	7.720000	19.000000	60812	2012	Inhibition of human MK2
522080	CHEMBL1801311	7.700000	20.000000	58280	2010	Inhibition of human MK2 using biotinyl-AYSRALSRQLSSGVSEIRCOOH as substrate after 45 mins by FRET analysis
1089324	CHEMBL1940651	7.700000	20.000000	60812	2012	Inhibition of human MK2
1089736	CHEMBL1940656	7.700000	20.000000	60812	2012	Inhibition of human MK2
323448	CHEMBL374177	7.680000	21.000000	35790	2007	Inhibition of MK2
213054	CHEMBL246090	7.680000	21.000000	37671	2007	Inhibition of MK2 after 30 mins by DELFIA
1094316	CHEMBL1940644	7.680000	21.000000	60812	2012	Inhibition of human MK2
1338612	CHEMBL2385544	7.680000	21.000000	73739	2013	Inhibition of MK2 (unknown origin) phosphorylation using TAMRA labeled peptide as substrate incubated 30 mins before substrate addition measured after 30 mins
1338609	CHEMBL2385541	7.680000	21.000000	73739	2013	Inhibition of MK2 (unknown origin) phosphorylation using TAMRA labeled peptide as substrate incubated 30 mins before substrate addition measured after 30 mins
333331	CHEMBL389658	7.660000	22.000000	35790	2007	Inhibition of MK2
1338611	CHEMBL2385543	7.660000	22.000000	73739	2013	Inhibition of MK2 (unknown origin) phosphorylation using TAMRA labeled peptide as substrate incubated 30 mins before substrate addition measured after 30 mins
20115245	CHEMBL3314150	7.650000	22.300000	90246	2014	Inhibition of MK2 (unknown origin) incubated for 30 mins by MK2 IMAP assay
520402	CHEMBL1801316	7.640000	23.000000	58281	2010	Inhibition of human MK2 using hsp27 peptide biotinyl-AYSRALSRQLSSGVSEIRCOOH as substrate after 45 mins by FRET assay
20115234	CHEMBL3314143	7.630000	23.300000	90246	2014	Inhibition of MK2 (unknown origin) incubated for 30 mins by MK2 IMAP assay
1091741	CHEMBL1940654	7.620000	24.000000	60812	2012	Inhibition of human MK2
20115532	CHEMBL3315291	7.600000	24.900000	90246	2014	Inhibition of MK2 (unknown origin) incubated for 30 mins by MK2 IMAP assay
334720	CHEMBL388619	7.600000	25.000000	35790	2007	Inhibition of MK2
522511	CHEMBL1801315	7.600000	25.000000	58281	2010	Inhibition of human MK2 using hsp27 peptide biotinyl-AYSRALSRQLSSGVSEIRCOOH as substrate after 45 mins by FRET assay
20115488	CHEMBL3314140	7.590000	25.500000	90246	2014	Inhibition of MK2 (unknown origin) incubated for 30 mins by MK2 IMAP assay
20116566	CHEMBL3315290	7.590000	25.800000	90246	2014	Inhibition of MK2 (unknown origin) incubated for 30 mins by MK2 IMAP assay
20115533	CHEMBL3315292	7.590000	26.000000	90246	2014	Inhibition of MK2 (unknown origin) incubated for 30 mins by MK2 IMAP assay
20115258	CHEMBL3314156	7.590000	26.000000	90246	2014	Inhibition of MK2 (unknown origin) incubated for 30 mins by MK2 IMAP assay
513873	CHEMBL1801283	7.570000	27.000000	58280	2010	Inhibition of human MK2 using biotinyl-AYSRALSRQLSSGVSEIRCOOH as substrate after 45 mins by FRET analysis
516281	CHEMBL1801377	7.570000	27.000000	58281	2010	Inhibition of human MK2 using hsp27 peptide biotinyl-AYSRALSRQLSSGVSEIRCOOH as substrate after 45 mins by FRET assay
1089323	CHEMBL1940650	7.570000	27.000000	60812	2012	Inhibition of human MK2
1338606	CHEMBL2385538	7.550000	28.000000	73739	2013	Inhibition of MK2 (unknown origin) phosphorylation using TAMRA labeled peptide as substrate incubated 30 mins before substrate addition measured after 30 mins
193077	CHEMBL226472	7.520000	30.000000	35790	2007	Inhibition of MK2
193710	CHEMBL226351	7.520000	30.000000	35790	2007	Inhibition of MK2
337906	CHEMBL395932	7.510000	31.000000	37671	2007	Inhibition of MK2 after 30 mins by DELFIA
20115246	CHEMBL3314151	7.500000	31.300000	90246	2014	Inhibition of MK2 (unknown origin) incubated for 30 mins by MK2 IMAP assay
193144	CHEMBL226470	7.490000	32.000000	35790	2007	Inhibition of MK2
1070397	CHEMBL1801380	7.490000	32.000000	58281	2010	Inhibition of human MK2 using hsp27 peptide biotinyl-AYSRALSRQLSSGVSEIRCOOH as substrate after 45 mins by FRET assay
211710	CHEMBL245884	7.470000	34.000000	37671	2007	Inhibition of MK2 after 30 mins by DELFIA
515431	CHEMBL1801303	7.470000	34.000000	58280	2010	Inhibition of human MK2 using biotinyl-AYSRALSRQLSSGVSEIRCOOH as substrate after 45 mins by FRET analysis
213125	CHEMBL246088	7.460000	35.000000	37671	2007	Inhibition of MK2 after 30 mins by DELFIA
20115249	CHEMBL3314154	7.450000	35.700000	90246	2014	Inhibition of MK2 (unknown origin) incubated for 30 mins by MK2 IMAP assay
20115257	CHEMBL3314155	7.440000	36.700000	90246	2014	Inhibition of MK2 (unknown origin) incubated for 30 mins by MK2 IMAP assay
192877	CHEMBL226420	7.430000	37.000000	35790	2007	Inhibition of MK2
516166	CHEMBL1801194	7.430000	37.000000	58280	2010	Inhibition of human MK2 using biotinyl-AYSRALSRQLSSGVSEIRCOOH as substrate after 45 mins by FRET analysis
1310225	CHEMBL2385085	7.410000	39.000000	73739	2013	Inhibition of MK2 (unknown origin) phosphorylation using TAMRA labeled peptide as substrate incubated 30 mins before substrate addition measured after 30 mins
514442	CHEMBL1801195	7.400000	40.000000	58280	2010	Inhibition of human MK2 using biotinyl-AYSRALSRQLSSGVSEIRCOOH as substrate after 45 mins by FRET analysis
193147	CHEMBL226475	7.390000	41.000000	35790	2007	Inhibition of MK2
1088855	CHEMBL1940516	7.390000	41.000000	60812	2012	Inhibition of human MK2
436940	CHEMBL516802	7.380000	42.000000	44886	2008	Inhibition of human MK2
1089326	CHEMBL1940653	7.370000	43.000000	60812	2012	Inhibition of human MK2
20115247	CHEMBL3314152	7.360000	43.500000	90246	2014	Inhibition of MK2 (unknown origin) incubated for 30 mins by MK2 IMAP assay
212030	CHEMBL246300	7.360000	44.000000	37671	2007	Inhibition of MK2 after 30 mins by DELFIA
212106	CHEMBL246299	7.350000	45.000000	37671	2007	Inhibition of MK2 after 30 mins by DELFIA
513470	CHEMBL1801295	7.350000	45.000000	58280	2010	Inhibition of human MK2 using biotinyl-AYSRALSRQLSSGVSEIRCOOH as substrate after 45 mins by FRET analysis
192941	CHEMBL226321	7.340000	46.000000	35790	2007	Inhibition of MK2
192654	CHEMBL225975	7.320000	48.000000	35790	2007	Inhibition of MK2
430832	CHEMBL510545	7.310000	49.000000	45206	2008	Inhibition of human recombinant MK2 expressed in Escherichia coli BL21(DE3) after 60 mins
333415	CHEMBL388307	7.300000	50.000000	35790	2007	Inhibition of MK2
1308085	CHEMBL561334	7.300000	50.000000	48079	2009	Inhibition of MK2 in human U937 cells assessed as blockade of LPS-stimulated TNFalpha production
527077	CHEMBL1801279	7.300000	50.000000	58280	2010	Inhibition of human MK2 using biotinyl-AYSRALSRQLSSGVSEIRCOOH as substrate after 45 mins by FRET analysis
192808	CHEMBL226424	7.290000	51.000000	35790	2007	Inhibition of MK2
386718	CHEMBL461139	7.290000	51.000000	44886	2008	Inhibition of human MK2
193709	CHEMBL226350	7.280000	52.000000	35790	2007	Inhibition of MK2
1089327	CHEMBL1940655	7.280000	52.000000	60812	2012	Inhibition of human MK2
1338604	CHEMBL2385536	7.280000	52.000000	73739	2013	Inhibition of MK2 (unknown origin) phosphorylation using TAMRA labeled peptide as substrate incubated 30 mins before substrate addition measured after 30 mins
193079	CHEMBL226474	7.260000	55.000000	35790	2007	Inhibition of MK2
20116563	CHEMBL3315287	7.260000	55.300000	90246	2014	Inhibition of MK2 (unknown origin) incubated for 30 mins by MK2 IMAP assay
317981	CHEMBL376384	7.250000	56.000000	35790	2007	Inhibition of MK2
193750	CHEMBL225973	7.250000	56.000000	35790	2007	Inhibition of MK2
522485	CHEMBL1801314	7.220000	60.000000	58281	2010	Inhibition of human MK2 using hsp27 peptide biotinyl-AYSRALSRQLSSGVSEIRCOOH as substrate after 45 mins by FRET assay
1322116	CHEMBL2381601	7.220000	60.000000	73619	2013	Inhibition of human recombinant MK2
526977	CHEMBL597839	7.210000	61.000000	49962	2010	Inhibition of human MK2 by FRET assay
605135	CHEMBL389657	7.210000	62.000000	35790	2007	Inhibition of MK2
1338603	CHEMBL2385535	7.190000	64.000000	73739	2013	Inhibition of MK2 (unknown origin) phosphorylation using TAMRA labeled peptide as substrate incubated 30 mins before substrate addition measured after 30 mins
20116562	CHEMBL3315286	7.190000	65.000000	90246	2014	Inhibition of MK2 (unknown origin) incubated for 30 mins by MK2 IMAP assay
658838	CHEMBL388566	7.180000	66.000000	35790	2007	Inhibition of MK2
20116565	CHEMBL3315289	7.180000	66.500000	90246	2014	Inhibition of MK2 (unknown origin) incubated for 30 mins by MK2 IMAP assay
1088856	CHEMBL1940517	7.150000	70.000000	60812	2012	Inhibition of human MK2
643557	CHEMBL396159	7.140000	72.000000	37671	2007	Inhibition of MK2 after 30 mins by DELFIA
518296	CHEMBL1801091	7.140000	72.000000	58281	2010	Inhibition of human MK2 using hsp27 peptide biotinyl-AYSRALSRQLSSGVSEIRCOOH as substrate after 45 mins by FRET assay
524373	CHEMBL1801376	7.140000	73.000000	58281	2010	Inhibition of human MK2 using hsp27 peptide biotinyl-AYSRALSRQLSSGVSEIRCOOH as substrate after 45 mins by FRET assay
1338607	CHEMBL2385539	7.130000	74.000000	73739	2013	Inhibition of MK2 (unknown origin) phosphorylation using TAMRA labeled peptide as substrate incubated 30 mins before substrate addition measured after 30 mins
20116564	CHEMBL3315288	7.130000	74.900000	90246	2014	Inhibition of MK2 (unknown origin) incubated for 30 mins by MK2 IMAP assay
333102	CHEMBL388391	7.120000	76.000000	35790	2007	Inhibition of MK2
1090902	CHEMBL1940513	7.100000	79.000000	60812	2012	Inhibition of human MK2
1338599	CHEMBL2385531	7.100000	79.000000	73739	2013	Inhibition of MK2 (unknown origin) phosphorylation using TAMRA labeled peptide as substrate incubated 30 mins before substrate addition measured after 30 mins
523718	CHEMBL1801275	7.100000	80.000000	58280	2010	Inhibition of human MK2 using biotinyl-AYSRALSRQLSSGVSEIRCOOH as substrate after 45 mins by FRET analysis
522158	CHEMBL1801089	7.100000	80.000000	58281	2010	Inhibition of human MK2 using hsp27 peptide biotinyl-AYSRALSRQLSSGVSEIRCOOH as substrate after 45 mins by FRET assay
386719	CHEMBL461140	7.090000	82.000000	44886	2008	Inhibition of human MK2
526429	CHEMBL597640	7.090000	82.000000	49962	2010	Inhibition of human MK2 by FRET assay
332976	CHEMBL390601	7.080000	83.000000	35790	2007	Inhibition of MK2
335659	CHEMBL397332	7.080000	83.000000	37671	2007	Inhibition of MK2 after 30 mins by DELFIA
544646	CHEMBL610780	7.080000	84.000000	49962	2010	Inhibition of human MK2 by FRET assay
20115220	CHEMBL3314141	7.070000	84.700000	90246	2014	Inhibition of MK2 (unknown origin) incubated for 30 mins by MK2 IMAP assay
533142	CHEMBL1801378	7.070000	85.000000	58281	2010	Inhibition of human MK2 using hsp27 peptide biotinyl-AYSRALSRQLSSGVSEIRCOOH as substrate after 45 mins by FRET assay
1308083	CHEMBL557318	7.050000	90.000000	48079	2009	Inhibition of MK2 in human U937 cells assessed as blockade of LPS-stimulated TNFalpha production
20115241	CHEMBL3314146	7.020000	95.400000	90246	2014	Inhibition of MK2 (unknown origin) incubated for 30 mins by MK2 IMAP assay
519292	CHEMBL1801090	7.020000	96.000000	58281	2010	Inhibition of human MK2 using hsp27 peptide biotinyl-AYSRALSRQLSSGVSEIRCOOH as substrate after 45 mins by FRET assay
1094985	CHEMBL1938682	7.020000	96.000000	73739	2013	Inhibition of MK2 (unknown origin) phosphorylation using TAMRA labeled peptide as substrate incubated 30 mins before substrate addition measured after 30 mins
527078	CHEMBL1801280	7.000000	100.000000	58280	2010	Inhibition of human MK2 using biotinyl-AYSRALSRQLSSGVSEIRCOOH as substrate after 45 mins by FRET analysis
525768	CHEMBL1801281	7.000000	100.000000	58280	2010	Inhibition of human MK2 using biotinyl-AYSRALSRQLSSGVSEIRCOOH as substrate after 45 mins by FRET analysis
513556	CHEMBL1801284	7.000000	100.000000	58280	2010	Inhibition of MK2 mediated anisomycin-stimulated hsp27 phosphorylation in human THP-1 cells by fluorometric analysis
1089676	CHEMBL1940659	7.000000	100.000000	60812	2012	Inhibition of human MK2
331503	CHEMBL388978	6.960000	110.000000	30942	2006	Inhibition of MAPKAP2 at 10 uM ATP
1085797	CHEMBL1938681	6.960000	110.000000	60812	2012	Inhibition of human MK2
1091706	CHEMBL1940523	6.960000	110.000000	60812	2012	Inhibition of human MK2
1094986	CHEMBL1938683	6.960000	110.000000	73739	2013	Inhibition of MK2 (unknown origin) phosphorylation using TAMRA labeled peptide as substrate incubated 30 mins before substrate addition measured after 30 mins
1338601	CHEMBL2385533	6.960000	110.000000	73739	2013	Inhibition of MK2 (unknown origin) phosphorylation using TAMRA labeled peptide as substrate incubated 30 mins before substrate addition measured after 30 mins
1085798	CHEMBL1940509	6.940000	115.000000	60812	2012	Inhibition of human MK2
515168	CHEMBL1801390	6.940000	116.000000	58281	2010	Inhibition of human MK2 using hsp27 peptide biotinyl-AYSRALSRQLSSGVSEIRCOOH as substrate after 45 mins by FRET assay
615239	CHEMBL245682	6.920000	120.000000	37671	2007	Inhibition of MK2 after 30 mins by DELFIA
515166	CHEMBL1801293	6.920000	120.000000	58280	2010	Inhibition of human MK2 using biotinyl-AYSRALSRQLSSGVSEIRCOOH as substrate after 45 mins by FRET analysis
512356	CHEMBL1801300	6.920000	120.000000	58280	2010	Inhibition of human MK2 using biotinyl-AYSRALSRQLSSGVSEIRCOOH as substrate after 45 mins by FRET analysis
213126	CHEMBL246089	6.910000	124.000000	37671	2007	Inhibition of MK2 after 30 mins by DELFIA
193076	CHEMBL226471	6.900000	126.000000	35790	2007	Inhibition of MK2
1089283	CHEMBL1940522	6.890000	128.000000	60812	2012	Inhibition of human MK2
1308087	CHEMBL556392	6.890000	130.000000	48079	2009	Inhibition of MK2 in human U937 cells assessed as blockade of LPS-stimulated TNFalpha production
513872	CHEMBL1801282	6.890000	130.000000	58280	2010	Inhibition of human MK2 using biotinyl-AYSRALSRQLSSGVSEIRCOOH as substrate after 45 mins by FRET analysis
1125499	CHEMBL2017459	6.890000	130.000000	73739	2013	Inhibition of MK2 (unknown origin) phosphorylation using TAMRA labeled peptide as substrate incubated 30 mins before substrate addition measured after 30 mins
527741	CHEMBL1801276	6.850000	140.000000	58280	2010	Inhibition of human MK2 using biotinyl-AYSRALSRQLSSGVSEIRCOOH as substrate after 45 mins by FRET analysis
387619	CHEMBL461316	6.820000	150.000000	44886	2008	Inhibition of human MK2
1308082	CHEMBL549915	6.820000	150.000000	48079	2009	Inhibition of MK2 in human U937 cells assessed as blockade of LPS-stimulated TNFalpha production
515430	CHEMBL1801302	6.820000	150.000000	58280	2010	Inhibition of human MK2 using biotinyl-AYSRALSRQLSSGVSEIRCOOH as substrate after 45 mins by FRET analysis
20115235	CHEMBL3314144	6.800000	157.000000	90246	2014	Inhibition of MK2 (unknown origin) incubated for 30 mins by MK2 IMAP assay
516630	CHEMBL1801389	6.800000	160.000000	58281	2010	Inhibition of human MK2 using hsp27 peptide biotinyl-AYSRALSRQLSSGVSEIRCOOH as substrate after 45 mins by FRET assay
20115259	CHEMBL3314157	6.800000	160.000000	90246	2014	Inhibition of MK2 (unknown origin) incubated for 30 mins by MK2 IMAP assay
521823	CHEMBL1801088	6.780000	167.000000	58281	2010	Inhibition of human MK2 using hsp27 peptide biotinyl-AYSRALSRQLSSGVSEIRCOOH as substrate after 45 mins by FRET assay
426122	CHEMBL507348	6.770000	170.000000	44886	2008	Inhibition of human MK2
193451	CHEMBL225519	6.770000	171.000000	35790	2007	Inhibition of MK2
193134	CHEMBL226369	6.770000	171.000000	35790	2007	Inhibition of MK2
516174	CHEMBL1801392	6.760000	172.000000	58281	2010	Inhibition of human MK2 using hsp27 peptide biotinyl-AYSRALSRQLSSGVSEIRCOOH as substrate after 45 mins by FRET assay
527743	CHEMBL1801278	6.760000	175.000000	58280	2010	Inhibition of human MK2 using biotinyl-AYSRALSRQLSSGVSEIRCOOH as substrate after 45 mins by FRET analysis
1087556	CHEMBL1940661	6.750000	177.000000	60812	2012	Inhibition of human MK2
20477921	CHEMBL3706766	6.740000	180.000000	20881	2005	Concentration of 50% inhibition by compound towards mitogen activated protein kinase -activated protein kinase 2
1308088	CHEMBL564076	6.740000	180.000000	48079	2009	Inhibition of MK2 in human U937 cells assessed as blockade of LPS-stimulated TNFalpha production
534228	CHEMBL603694	6.740000	180.000000	49962	2010	Inhibition of human MK2 by FRET assay
530451	CHEMBL599682	6.740000	180.000000	49962	2010	Inhibition of human MK2 by FRET assay
538608	CHEMBL605125	6.740000	180.000000	49962	2010	Inhibition of human MK2 by FRET assay
514443	CHEMBL1801196	6.740000	180.000000	58280	2010	Inhibition of human MK2 using biotinyl-AYSRALSRQLSSGVSEIRCOOH as substrate after 45 mins by FRET analysis
517348	CHEMBL1801301	6.740000	180.000000	58280	2010	Inhibition of human MK2 using biotinyl-AYSRALSRQLSSGVSEIRCOOH as substrate after 45 mins by FRET analysis
381963	CHEMBL455156	6.720000	190.000000	44886	2008	Inhibition of human MK2
437996	CHEMBL516504	6.700000	200.000000	44886	2008	Inhibition of human MK2
522078	CHEMBL1801309	6.700000	200.000000	58280	2010	Inhibition of human MK2 using biotinyl-AYSRALSRQLSSGVSEIRCOOH as substrate after 45 mins by FRET analysis
513557	CHEMBL1801285	6.700000	200.000000	58280	2010	Inhibition of MK2 mediated anisomycin-stimulated hsp27 phosphorylation in human THP-1 cells by fluorometric analysis
513228	CHEMBL1801287	6.700000	200.000000	58280	2010	Inhibition of MK2 mediated anisomycin-stimulated hsp27 phosphorylation in human THP-1 cells by fluorometric analysis
637854	CHEMBL1231206	6.700000	201.000000	99320	2016	Inhibition of MK2 in human U937 cells assessed as reduction in LPS-stimulated HSP27 phosphorylation at Ser82 preincubated for 1 hr followed by LPS addition measured after 30 mins by Western blot analysis
1308076	CHEMBL560075	6.660000	220.000000	48079	2009	Inhibition of MK2 in human U937 cells assessed as blockade of LPS-stimulated TNFalpha production
524028	CHEMBL598324	6.660000	220.000000	49962	2010	Inhibition of human MK2 by FRET assay
525462	CHEMBL1801273	6.640000	230.000000	58280	2010	Inhibition of human MK2 using biotinyl-AYSRALSRQLSSGVSEIRCOOH as substrate after 45 mins by FRET analysis
527742	CHEMBL1801277	6.640000	230.000000	58280	2010	Inhibition of human MK2 using biotinyl-AYSRALSRQLSSGVSEIRCOOH as substrate after 45 mins by FRET analysis
514856	CHEMBL1801292	6.640000	230.000000	58280	2010	Inhibition of human MK2 using biotinyl-AYSRALSRQLSSGVSEIRCOOH as substrate after 45 mins by FRET analysis
337240	CHEMBL397642	6.600000	250.000000	37671	2007	Inhibition of MK2 after 30 mins by DELFIA
516173	CHEMBL1801391	6.600000	253.000000	58281	2010	Inhibition of human MK2 using hsp27 peptide biotinyl-AYSRALSRQLSSGVSEIRCOOH as substrate after 45 mins by FRET assay
1092807	CHEMBL1938419	6.590000	258.000000	60812	2012	Inhibition of human MK2
1089677	CHEMBL1940660	6.590000	258.000000	60812	2012	Inhibition of human MK2
1308084	CHEMBL562754	6.590000	260.000000	48079	2009	Inhibition of MK2 in human U937 cells assessed as blockade of LPS-stimulated TNFalpha production
514379	CHEMBL1801297	6.570000	270.000000	58280	2010	Inhibition of human MK2 using biotinyl-AYSRALSRQLSSGVSEIRCOOH as substrate after 45 mins by FRET analysis
1092806	CHEMBL1940643	6.550000	285.000000	60812	2012	Inhibition of human MK2
332613	CHEMBL392876	6.540000	290.000000	37664	2007	Inhibition of MK2
439902	CHEMBL518824	6.540000	290.000000	44886	2008	Inhibition of human MK2
530578	CHEMBL604510	6.540000	290.000000	49962	2010	Inhibition of human MK2 by FRET assay
636156	CHEMBL1233942	6.520000	300.000000	58280	2010	Inhibition of MK2 mediated anisomycin-stimulated hsp27 phosphorylation in human THP-1 cells by fluorometric analysis
20477925	CHEMBL3706770	6.480000	330.000000	20881	2005	Concentration of 50% inhibition by compound towards mitogen activated protein kinase -activated protein kinase 2
211631	CHEMBL245883	6.480000	333.000000	37671	2007	Inhibition of MK2 after 30 mins by DELFIA
383805	CHEMBL460091	6.470000	340.000000	44886	2008	Inhibition of human MK2
425524	CHEMBL504267	6.460000	350.000000	44886	2008	Inhibition of human MK2
531999	CHEMBL599479	6.460000	350.000000	49962	2010	Inhibition of human MK2 by FRET assay
390144	CHEMBL467532	6.420000	380.000000	46676	2009	Inhibition of human recombinant MK2
433368	CHEMBL511410	6.410000	390.000000	46676	2009	Inhibition of human recombinant MK2
605539	CHEMBL553397	6.400000	400.000000	48081	2009	Inhibition of MK2 in human U937 cells assessed as blockade of LPS-stimulated TNFalpha production
1322115	CHEMBL2381600	6.400000	400.000000	73619	2013	Inhibition of human recombinant MK2
193016	CHEMBL226405	6.390000	410.000000	35790	2007	Inhibition of MK2
331321	CHEMBL392596	6.360000	440.000000	37671	2007	Inhibition of MK2 after 30 mins by DELFIA
20115236	CHEMBL3314145	6.350000	450.100000	90246	2014	Inhibition of MK2 (unknown origin) incubated for 30 mins by MK2 IMAP assay
20477487	CHEMBL3706771	6.340000	460.000000	20881	2005	Concentration of 50% inhibition by compound towards mitogen activated protein kinase -activated protein kinase 2
20477922	CHEMBL3706767	6.330000	470.000000	20881	2005	Concentration of 50% inhibition by compound towards mitogen activated protein kinase -activated protein kinase 2
212157	CHEMBL246508	6.320000	480.000000	37671	2007	Inhibition of MK2 after 30 mins by DELFIA
20477489	CHEMBL3706773	6.310000	490.000000	20881	2005	Concentration of 50% inhibition by compound towards mitogen activated protein kinase -activated protein kinase 2
527742	CHEMBL1801277	6.300000	500.000000	58280	2010	Inhibition of MK2 mediated anisomycin-stimulated hsp27 phosphorylation in human THP-1 cells by fluorometric analysis
513254	CHEMBL1801386	6.300000	500.000000	58281	2010	Inhibition of MK2 in human THP-1 cells assessed as inhibition of anisomycin stimulated ser78-hsp27 phosphorylation after 10 mins by FACS analysis
369077	CHEMBL437943	6.280000	520.000000	37671	2007	Inhibition of MK2 after 30 mins by DELFIA
20477490	CHEMBL3706774	6.280000	530.000000	20881	2005	Concentration of 50% inhibition by compound towards mitogen activated protein kinase -activated protein kinase 2
382541	CHEMBL455396	6.270000	540.000000	49962	2010	Inhibition of human MK2 by FRET assay
382541	CHEMBL455396	6.260000	550.000000	44886	2008	Inhibition of human MK2
20477491	CHEMBL3706775	6.250000	560.000000	20881	2005	Concentration of 50% inhibition by compound towards mitogen activated protein kinase -activated protein kinase 2
193076	CHEMBL226471	6.250000	560.000000	58280	2010	Inhibition of human MK2 using biotinyl-AYSRALSRQLSSGVSEIRCOOH as substrate after 45 mins by FRET analysis
1138955	CHEMBL2017458	6.220000	600.000000	73739	2013	Inhibition of MK2 (unknown origin) phosphorylation using TAMRA labeled peptide as substrate incubated 30 mins before substrate addition measured after 30 mins
359689	CHEMBL426001	6.220000	606.000000	35790	2007	Inhibition of MK2
192801	CHEMBL226232	6.220000	608.000000	35790	2007	Inhibition of MK2
20477492	CHEMBL3706776	6.210000	620.000000	20881	2005	Concentration of 50% inhibition by compound towards mitogen activated protein kinase -activated protein kinase 2
213425	CHEMBL247333	6.210000	620.000000	37671	2007	Inhibition of MK2 after 30 mins by DELFIA
371009	CHEMBL442419	6.210000	620.000000	37671	2007	Inhibition of MK2 after 30 mins by DELFIA
1308077	CHEMBL549585	6.190000	640.000000	48079	2009	Inhibition of MK2 in human U937 cells assessed as blockade of LPS-stimulated TNFalpha production
1322111	CHEMBL2381596	6.190000	650.000000	73619	2013	Inhibition of human recombinant MK2
331503	CHEMBL388978	6.180000	660.000000	49416	2010	Inhibition of human recombinant phospho-MK2 (36-400) by HTRF assay
393184	CHEMBL469124	6.170000	670.000000	46676	2009	Inhibition of human recombinant MK2
20477493	CHEMBL3706777	6.160000	690.000000	20881	2005	Concentration of 50% inhibition by compound towards mitogen activated protein kinase -activated protein kinase 2
1308079	CHEMBL563307	6.160000	690.000000	48079	2009	Inhibition of MK2 in human U937 cells assessed as blockade of LPS-stimulated TNFalpha production
82298	CHEMBL99780	6.150000	700.000000	48079	2009	Inhibition of MK2 in human U937 cells assessed as blockade of LPS-stimulated TNFalpha production
82298	CHEMBL99780	6.150000	700.000000	48081	2009	Inhibition of MK2 in human U937 cells assessed as blockade of LPS-stimulated TNFalpha production
331503	CHEMBL388978	6.150000	700.000000	49416	2010	Displacement of [8-3H]ATP from human recombinant phospho-MK2 (36-400) by scintillation proximity assay
523718	CHEMBL1801275	6.150000	700.000000	58280	2010	Inhibition of MK2 mediated anisomycin-stimulated hsp27 phosphorylation in human THP-1 cells by fluorometric analysis
527741	CHEMBL1801276	6.150000	700.000000	58280	2010	Inhibition of MK2 mediated anisomycin-stimulated hsp27 phosphorylation in human THP-1 cells by fluorometric analysis
527743	CHEMBL1801278	6.150000	700.000000	58280	2010	Inhibition of MK2 mediated anisomycin-stimulated hsp27 phosphorylation in human THP-1 cells by fluorometric analysis
515132	CHEMBL1801288	6.150000	700.000000	58280	2010	Inhibition of MK2 mediated anisomycin-stimulated hsp27 phosphorylation in human THP-1 cells by fluorometric analysis
514378	CHEMBL1801296	6.150000	700.000000	58280	2010	Inhibition of MK2 mediated anisomycin-stimulated hsp27 phosphorylation in human THP-1 cells by fluorometric analysis
972578	CHEMBL1614995	6.150000	700.000000	58281	2010	Inhibition of MK2 in human THP-1 cells assessed as inhibition of anisomycin stimulated ser78-hsp27 phosphorylation after 10 mins by FACS analysis
1308089	CHEMBL552339	6.130000	740.000000	48079	2009	Inhibition of MK2 in human U937 cells assessed as blockade of LPS-stimulated TNFalpha production
20514555	CHEMBL3808687	6.130000	740.000000	99320	2016	Inhibition of recombinant human N-terminal GST-tagged MK2 (46 to 400 residues) expressed in Escherichia coli in presence of radiolabelled ATP by radiometric assay
614905	CHEMBL245485	6.120000	750.000000	37671	2007	Inhibition of MK2 after 30 mins by DELFIA
20413256	CHEMBL3629325	6.120000	750.000000	93749	2015	Inhibition of MK2 (unknown origin) by scintillation proximity assay
336340	CHEMBL394926	6.120000	760.000000	37671	2007	Inhibition of MK2 after 30 mins by DELFIA
212249	CHEMBL247509	6.120000	760.000000	37671	2007	Inhibition of MK2 after 30 mins by DELFIA
20477494	CHEMBL3706778	6.110000	770.000000	20881	2005	Concentration of 50% inhibition by compound towards mitogen activated protein kinase -activated protein kinase 2
212670	CHEMBL245680	6.110000	770.000000	37671	2007	Inhibition of MK2 after 30 mins by DELFIA
212856	CHEMBL246910	6.110000	770.000000	37671	2007	Inhibition of MK2 after 30 mins by DELFIA
212250	CHEMBL247510	6.090000	820.000000	37671	2007	Inhibition of MK2 after 30 mins by DELFIA
1322118	CHEMBL2381603	6.090000	820.000000	73619	2013	Inhibition of human recombinant MK2
1322126	CHEMBL2381611	6.080000	840.000000	73619	2013	Inhibition of human recombinant MK2
517347	CHEMBL1801298	6.070000	860.000000	58280	2010	Inhibition of human MK2 using biotinyl-AYSRALSRQLSSGVSEIRCOOH as substrate after 45 mins by FRET analysis
520402	CHEMBL1801316	6.060000	875.000000	58281	2010	Inhibition of MK2 in human THP-1 cells assessed as inhibition of anisomycin stimulated ser78-hsp27 phosphorylation after 10 mins by FACS analysis
518671	CHEMBL1801299	6.050000	900.000000	58280	2010	Inhibition of human MK2 using biotinyl-AYSRALSRQLSSGVSEIRCOOH as substrate after 45 mins by FRET analysis
525768	CHEMBL1801281	6.050000	900.000000	58280	2010	Inhibition of MK2 mediated anisomycin-stimulated hsp27 phosphorylation in human THP-1 cells by fluorometric analysis
533143	CHEMBL1801379	6.050000	900.000000	58281	2010	Inhibition of human MK2 using hsp27 peptide biotinyl-AYSRALSRQLSSGVSEIRCOOH as substrate after 45 mins by FRET assay
1322120	CHEMBL2381605	6.040000	910.000000	73619	2013	Inhibition of human recombinant MK2
1322119	CHEMBL2381604	6.040000	910.000000	73619	2013	Inhibition of human recombinant MK2
213121	CHEMBL246082	6.030000	930.000000	37671	2007	Inhibition of MK2 after 30 mins by DELFIA
1308080	CHEMBL554286	6.030000	930.000000	48079	2009	Inhibition of MK2 in human U937 cells assessed as blockade of LPS-stimulated TNFalpha production
641047	CHEMBL397649	6.000000	1000.000000	37664	2007	Inhibition of MK2
1308078	CHEMBL562137	5.980000	1040.000000	48079	2009	Inhibition of MK2 in human U937 cells assessed as blockade of LPS-stimulated TNFalpha production
212133	CHEMBL245296	5.960000	1100.000000	37664	2007	Inhibition of MK2
214290	CHEMBL248366	5.960000	1100.000000	37671	2007	Inhibition of MK2 after 30 mins by DELFIA
531998	CHEMBL599478	5.960000	1100.000000	49962	2010	Inhibition of human MK2 by FRET assay
527077	CHEMBL1801279	5.960000	1100.000000	58280	2010	Inhibition of MK2 mediated anisomycin-stimulated hsp27 phosphorylation in human THP-1 cells by fluorometric analysis
1070396	CHEMBL1801383	5.920000	1189.000000	58281	2010	Inhibition of human MK2 using hsp27 peptide biotinyl-AYSRALSRQLSSGVSEIRCOOH as substrate after 45 mins by FRET assay
513872	CHEMBL1801282	5.920000	1200.000000	58280	2010	Inhibition of MK2 mediated anisomycin-stimulated hsp27 phosphorylation in human THP-1 cells by fluorometric analysis
515457	CHEMBL1801289	5.920000	1200.000000	58280	2010	Inhibition of MK2 mediated anisomycin-stimulated hsp27 phosphorylation in human THP-1 cells by fluorometric analysis
515458	CHEMBL1801290	5.920000	1200.000000	58280	2010	Inhibition of MK2 mediated anisomycin-stimulated hsp27 phosphorylation in human THP-1 cells by fluorometric analysis
388549	CHEMBL462579	5.910000	1230.000000	44886	2008	Inhibition of human MK2
386419	CHEMBL462372	5.900000	1260.000000	44886	2008	Inhibition of human MK2
1070397	CHEMBL1801380	5.890000	1280.000000	58281	2010	Inhibition of MK2 in human THP-1 cells assessed as inhibition of anisomycin stimulated ser78-hsp27 phosphorylation after 10 mins by FACS analysis
336451	CHEMBL395592	5.890000	1300.000000	37671	2007	Inhibition of MK2 after 30 mins by DELFIA
212156	CHEMBL246507	5.890000	1300.000000	37671	2007	Inhibition of MK2 after 30 mins by DELFIA
392756	CHEMBL468322	5.890000	1300.000000	46676	2009	Inhibition of human recombinant MK2
388262	CHEMBL462578	5.890000	1300.000000	44886	2008	Inhibition of human MK2
516668	CHEMBL1801274	5.890000	1300.000000	58280	2010	Inhibition of MK2 mediated anisomycin-stimulated hsp27 phosphorylation in human THP-1 cells by fluorometric analysis
522080	CHEMBL1801311	5.890000	1300.000000	58280	2010	Inhibition of MK2 mediated anisomycin-stimulated hsp27 phosphorylation in human THP-1 cells by fluorometric analysis
512182	CHEMBL1801387	5.890000	1300.000000	58281	2010	Inhibition of MK2 in human THP-1 cells assessed as inhibition of anisomycin stimulated ser78-hsp27 phosphorylation after 10 mins by FACS analysis
273203	CHEMBL319171	5.850000	1400.000000	48081	2009	Inhibition of MK2 in human U937 cells assessed as blockade of LPS-stimulated TNFalpha production
527078	CHEMBL1801280	5.850000	1400.000000	58280	2010	Inhibition of MK2 mediated anisomycin-stimulated hsp27 phosphorylation in human THP-1 cells by fluorometric analysis
513873	CHEMBL1801283	5.850000	1400.000000	58280	2010	Inhibition of MK2 mediated anisomycin-stimulated hsp27 phosphorylation in human THP-1 cells by fluorometric analysis
513895	CHEMBL1801286	5.850000	1400.000000	58280	2010	Inhibition of MK2 mediated anisomycin-stimulated hsp27 phosphorylation in human THP-1 cells by fluorometric analysis
381142	CHEMBL452086	5.840000	1450.000000	44886	2008	Inhibition of human MK2
1089281	CHEMBL1940520	5.840000	1450.000000	60812	2012	Inhibition of human MK2
331634	CHEMBL392597	5.820000	1500.000000	37671	2007	Inhibition of MK2 after 30 mins by DELFIA
212214	CHEMBL246480	5.820000	1500.000000	37671	2007	Inhibition of MK2 after 30 mins by DELFIA
339724	CHEMBL394735	5.820000	1500.000000	37671	2007	Inhibition of MK2 after 30 mins by DELFIA
972578	CHEMBL1614995	5.820000	1500.000000	58280	2010	Inhibition of MK2 mediated anisomycin-stimulated hsp27 phosphorylation in human THP-1 cells by fluorometric analysis
515459	CHEMBL1801291	5.820000	1500.000000	58280	2010	Inhibition of MK2 mediated anisomycin-stimulated hsp27 phosphorylation in human THP-1 cells by fluorometric analysis
442898	CHEMBL525927	5.800000	1600.000000	46676	2009	Inhibition of human recombinant MK2
20477749	CHEMBL3706782	5.770000	1680.000000	20881	2005	Concentration of 50% inhibition by compound towards mitogen activated protein kinase -activated protein kinase 2
533854	CHEMBL1801382	5.770000	1680.000000	58281	2010	Inhibition of MK2 in human THP-1 cells assessed as inhibition of anisomycin stimulated ser78-hsp27 phosphorylation after 10 mins by FACS analysis
211016	CHEMBL245475	5.770000	1700.000000	37671	2007	Inhibition of MK2 after 30 mins by DELFIA
211084	CHEMBL245473	5.770000	1700.000000	37671	2007	Inhibition of MK2 after 30 mins by DELFIA
211133	CHEMBL246697	5.770000	1700.000000	37671	2007	Inhibition of MK2 after 30 mins by DELFIA
386418	CHEMBL462371	5.770000	1700.000000	44886	2008	Inhibition of human MK2
331503	CHEMBL388978	5.770000	1700.000000	49416	2010	Displacement of [8-3H]ATP from human recombinant MK2 (36-400) by scintillation proximity assay
514442	CHEMBL1801195	5.770000	1700.000000	58280	2010	Inhibition of MK2 mediated anisomycin-stimulated hsp27 phosphorylation in human THP-1 cells by fluorometric analysis
1067230	CHEMBL1801312	5.770000	1700.000000	58280	2010	Inhibition of MK2 mediated anisomycin-stimulated hsp27 phosphorylation in human THP-1 cells by fluorometric analysis
20412572	CHEMBL3629147	5.770000	1700.000000	93749	2015	Inhibition of MK2 (unknown origin) by scintillation proximity assay
335993	CHEMBL397388	5.740000	1800.000000	37671	2007	Inhibition of MK2 after 30 mins by DELFIA
488620	CHEMBL563308	5.740000	1800.000000	48081	2009	Inhibition of MK2 in human U937 cells assessed as blockade of LPS-stimulated TNFalpha production
513731	CHEMBL1801307	5.740000	1800.000000	58280	2010	Inhibition of MK2 mediated anisomycin-stimulated hsp27 phosphorylation in human THP-1 cells by fluorometric analysis
1322117	CHEMBL2381602	5.720000	1900.000000	73619	2013	Inhibition of human recombinant MK2
20412578	CHEMBL3629153	5.720000	1900.000000	93749	2015	Inhibition of MK2 (unknown origin) by scintillation proximity assay
1089280	CHEMBL1940519	5.720000	1920.000000	60812	2012	Inhibition of human MK2
20477755	CHEMBL3706788	5.710000	1940.000000	20881	2005	Concentration of 50% inhibition by compound towards mitogen activated protein kinase -activated protein kinase 2
1322127	CHEMBL2381612	5.700000	1980.000000	73619	2013	Inhibition of human recombinant MK2
531351	CHEMBL598237	5.700000	2000.000000	49962	2010	Inhibition of human MK2 by FRET assay
20115488	CHEMBL3314140	5.670000	2139.000000	90246	2014	Inhibition of MK2 in human THP1 cells assessed as reduction in LPS-induced HSP27 Ser78 phosphorylation after 60 mins
215686	CHEMBL248316	5.660000	2200.000000	37664	2007	Inhibition of MK2
213751	CHEMBL248110	5.660000	2200.000000	37664	2007	Inhibition of MK2
20413255	CHEMBL3629324	5.660000	2200.000000	93749	2015	Inhibition of MK2 (unknown origin) by scintillation proximity assay
424360	CHEMBL504830	5.640000	2300.000000	46676	2009	Inhibition of human recombinant MK2
395101	CHEMBL466009	5.640000	2300.000000	46676	2009	Inhibition of human recombinant MK2
433113	CHEMBL513870	5.620000	2400.000000	46676	2009	Inhibition of human recombinant MK2
20412577	CHEMBL3629152	5.620000	2400.000000	93749	2015	Inhibition of MK2 (unknown origin) by scintillation proximity assay
339180	CHEMBL395157	5.600000	2500.000000	37664	2007	Inhibition of MK2
518671	CHEMBL1801299	5.600000	2500.000000	58280	2010	Inhibition of MK2 mediated anisomycin-stimulated hsp27 phosphorylation in human THP-1 cells by fluorometric analysis
512183	CHEMBL1801388	5.600000	2500.000000	58281	2010	Inhibition of MK2 in human THP-1 cells assessed as inhibition of anisomycin stimulated ser78-hsp27 phosphorylation after 10 mins by FACS analysis
432834	CHEMBL511419	5.590000	2600.000000	46676	2009	Inhibition of human recombinant MK2
477988	CHEMBL555205	5.590000	2600.000000	48081	2009	Inhibition of MK2 in human U937 cells assessed as blockade of LPS-stimulated TNFalpha production
214214	CHEMBL248364	5.570000	2700.000000	37671	2007	Inhibition of MK2 after 30 mins by DELFIA
214526	CHEMBL248532	5.570000	2700.000000	37671	2007	Inhibition of MK2 after 30 mins by DELFIA
211208	CHEMBL246699	5.570000	2700.000000	37671	2007	Inhibition of MK2 after 30 mins by DELFIA
516166	CHEMBL1801194	5.570000	2700.000000	58280	2010	Inhibition of MK2 mediated anisomycin-stimulated hsp27 phosphorylation in human THP-1 cells by fluorometric analysis
10214	CHEMBL14249	5.550000	2800.000000	49416	2010	Inhibition of human recombinant phospho-MK2 (36-400) by HTRF assay
513732	CHEMBL1801308	5.550000	2800.000000	58280	2010	Inhibition of MK2 mediated anisomycin-stimulated hsp27 phosphorylation in human THP-1 cells by fluorometric analysis
334294	CHEMBL393057	5.540000	2900.000000	37671	2007	Inhibition of MK2 after 30 mins by DELFIA
334438	CHEMBL392665	5.520000	3000.000000	37664	2007	Inhibition of MK2
214527	CHEMBL248533	5.520000	3000.000000	37671	2007	Inhibition of MK2 after 30 mins by DELFIA
334175	CHEMBL391983	5.520000	3000.000000	37671	2007	Inhibition of MK2 after 30 mins by DELFIA
336466	CHEMBL395593	5.520000	3000.000000	37671	2007	Inhibition of MK2 after 30 mins by DELFIA
514489	CHEMBL1801306	5.520000	3000.000000	58280	2010	Inhibition of MK2 mediated anisomycin-stimulated hsp27 phosphorylation in human THP-1 cells by fluorometric analysis
479546	CHEMBL559411	5.510000	3100.000000	48081	2009	Inhibition of MK2 in human U937 cells assessed as blockade of LPS-stimulated TNFalpha production
515167	CHEMBL1801294	5.510000	3100.000000	58280	2010	Inhibition of MK2 mediated anisomycin-stimulated hsp27 phosphorylation in human THP-1 cells by fluorometric analysis
517348	CHEMBL1801301	5.490000	3200.000000	58280	2010	Inhibition of MK2 mediated anisomycin-stimulated hsp27 phosphorylation in human THP-1 cells by fluorometric analysis
212917	CHEMBL245862	5.490000	3270.000000	37664	2007	Inhibition of MK2
522079	CHEMBL1801310	5.480000	3300.000000	58280	2010	Inhibition of human MK2 using biotinyl-AYSRALSRQLSSGVSEIRCOOH as substrate after 45 mins by FRET analysis
20412571	CHEMBL3629146	5.480000	3300.000000	93749	2015	Inhibition of MK2 (unknown origin) by scintillation proximity assay
1308081	CHEMBL562606	5.470000	3360.000000	48079	2009	Inhibition of MK2 in human U937 cells assessed as blockade of LPS-stimulated TNFalpha production
20116561	CHEMBL3315285	5.470000	3390.000000	90246	2014	Inhibition of MK2 (unknown origin) incubated for 30 mins by MK2 IMAP assay
212852	CHEMBL246906	5.470000	3400.000000	37671	2007	Inhibition of MK2 after 30 mins by DELFIA
331503	CHEMBL388978	5.470000	3400.000000	49416	2010	Displacement of [8-3H]ATP from human recombinant MK2 (41-364) by scintillation proximity assay
479913	CHEMBL559487	5.460000	3500.000000	48081	2009	Inhibition of MK2 in human U937 cells assessed as blockade of LPS-stimulated TNFalpha production
392216	CHEMBL469490	5.440000	3600.000000	46676	2009	Inhibition of human recombinant MK2
20411816	CHEMBL3628991	5.440000	3600.000000	93749	2015	Inhibition of MK2 (unknown origin) by scintillation proximity assay
402396	CHEMBL479290	5.430000	3700.000000	46676	2009	Inhibition of human recombinant MK2
20115260	CHEMBL3314158	5.430000	3730.000000	90246	2014	Inhibition of MK2 (unknown origin) incubated for 30 mins by MK2 IMAP assay
20477753	CHEMBL3706786	5.420000	3800.000000	20881	2005	Concentration of 50% inhibition by compound towards mitogen activated protein kinase -activated protein kinase 2
392291	CHEMBL468292	5.420000	3800.000000	46676	2009	Inhibition of human recombinant MK2
84156	CHEMBL100818	5.420000	3800.000000	48081	2009	Inhibition of MK2 in human U937 cells assessed as blockade of LPS-stimulated TNFalpha production
1322122	CHEMBL2381607	5.400000	4000.000000	73619	2013	Inhibition of human recombinant MK2
1322114	CHEMBL2381599	5.390000	4090.000000	73619	2013	Inhibition of human recombinant MK2
1322113	CHEMBL2381598	5.380000	4150.000000	73619	2013	Inhibition of human recombinant MK2
20411815	CHEMBL3628990	5.380000	4200.000000	93749	2015	Inhibition of MK2 (unknown origin) by scintillation proximity assay
20477752	CHEMBL3706785	5.370000	4220.000000	20881	2005	Concentration of 50% inhibition by compound towards mitogen activated protein kinase -activated protein kinase 2
514443	CHEMBL1801196	5.370000	4300.000000	58280	2010	Inhibition of MK2 mediated anisomycin-stimulated hsp27 phosphorylation in human THP-1 cells by fluorometric analysis
514379	CHEMBL1801297	5.370000	4300.000000	58280	2010	Inhibition of MK2 mediated anisomycin-stimulated hsp27 phosphorylation in human THP-1 cells by fluorometric analysis
213892	CHEMBL248333	5.360000	4400.000000	37671	2007	Inhibition of MK2 after 30 mins by DELFIA
213139	CHEMBL246099	5.350000	4500.000000	37664	2007	Inhibition of MK2
211040	CHEMBL246526	5.350000	4500.000000	37671	2007	Inhibition of MK2 after 30 mins by DELFIA
395122	CHEMBL467079	5.350000	4500.000000	46676	2009	Inhibition of human recombinant MK2
515007	CHEMBL1801305	5.350000	4500.000000	58280	2010	Inhibition of MK2 mediated anisomycin-stimulated hsp27 phosphorylation in human THP-1 cells by fluorometric analysis
20413254	CHEMBL3629323	5.350000	4500.000000	93749	2015	Inhibition of MK2 (unknown origin) by scintillation proximity assay
655137	CHEMBL541448	5.340000	4600.000000	48081	2009	Inhibition of MK2 in human U937 cells assessed as blockade of LPS-stimulated TNFalpha production
494813	CHEMBL571897	5.330000	4700.000000	48081	2009	Inhibition of MK2 in human U937 cells assessed as blockade of LPS-stimulated TNFalpha production
1085799	CHEMBL1940510	5.320000	4743.000000	60812	2012	Inhibition of human MK2
430490	CHEMBL512791	5.300000	5000.000000	46676	2009	Inhibition of human recombinant MK2
1097924	CHEMBL1938680	5.300000	5000.000000	73739	2013	Inhibition of MK2 (unknown origin) phosphorylation using TAMRA labeled peptide as substrate incubated 30 mins before substrate addition measured after 30 mins
533142	CHEMBL1801378	5.290000	5078.000000	58281	2010	Inhibition of MK2 in human THP-1 cells assessed as inhibition of anisomycin stimulated ser78-hsp27 phosphorylation after 10 mins by FACS analysis
334332	CHEMBL394124	5.290000	5100.000000	37664	2007	Inhibition of MK2
381141	CHEMBL452085	5.280000	5200.000000	44886	2008	Inhibition of human MK2
393951	CHEMBL467911	5.280000	5300.000000	46676	2009	Inhibition of human recombinant MK2
442823	CHEMBL519113	5.280000	5300.000000	46676	2009	Inhibition of human recombinant MK2
214172	CHEMBL246892	5.270000	5400.000000	37671	2007	Inhibition of MK2 after 30 mins by DELFIA
405385	CHEMBL481248	5.270000	5400.000000	46676	2009	Inhibition of human recombinant MK2
27533	CHEMBL34241	5.270000	5400.000000	52567	2000	Inhibition of His-tagged human MAPKAPK2 expressed in Escherichia coli at 10 uM
465339	CHEMBL539450	5.260000	5450.000000	48081	2009	Inhibition of MK2 in human U937 cells assessed as blockade of LPS-stimulated TNFalpha production
376322	CHEMBL452699	5.260000	5500.000000	46676	2009	Inhibition of human recombinant MK2
273275	CHEMBL319170	5.260000	5500.000000	48081	2009	Inhibition of MK2 in human U937 cells assessed as blockade of LPS-stimulated TNFalpha production
515430	CHEMBL1801302	5.250000	5600.000000	58280	2010	Inhibition of MK2 mediated anisomycin-stimulated hsp27 phosphorylation in human THP-1 cells by fluorometric analysis
515431	CHEMBL1801303	5.250000	5600.000000	58280	2010	Inhibition of MK2 mediated anisomycin-stimulated hsp27 phosphorylation in human THP-1 cells by fluorometric analysis
210968	CHEMBL245505	5.240000	5800.000000	37664	2007	Inhibition of MK2
391676	CHEMBL468125	5.240000	5800.000000	46676	2009	Inhibition of human recombinant MK2
516630	CHEMBL1801389	5.240000	5800.000000	58281	2010	Inhibition of MK2 in human THP-1 cells assessed as inhibition of anisomycin stimulated ser78-hsp27 phosphorylation after 10 mins by FACS analysis
20515258	CHEMBL3809381	5.240000	5800.000000	99320	2016	Inhibition of recombinant human N-terminal GST-tagged MK2 (46 to 400 residues) expressed in Escherichia coli in presence of radiolabelled ATP by radiometric assay
214445	CHEMBL248525	5.230000	5900.000000	37664	2007	Inhibition of MK2
519728	CHEMBL590491	5.220000	6000.000000	49962	2010	Inhibition of human MK2 by FRET assay
20477751	CHEMBL3706784	5.210000	6180.000000	20881	2005	Concentration of 50% inhibition by compound towards mitogen activated protein kinase -activated protein kinase 2
10214	CHEMBL14249	5.200000	6300.000000	49416	2010	Displacement of [8-3H]ATP from human recombinant MK2 (36-400) by scintillation proximity assay
514856	CHEMBL1801292	5.190000	6500.000000	58280	2010	Inhibition of MK2 mediated anisomycin-stimulated hsp27 phosphorylation in human THP-1 cells by fluorometric analysis
213140	CHEMBL246100	5.180000	6600.000000	37664	2007	Inhibition of MK2
377417	CHEMBL449692	5.180000	6600.000000	46676	2009	Inhibition of human recombinant MK2
515006	CHEMBL1801304	5.170000	6700.000000	58280	2010	Inhibition of MK2 mediated anisomycin-stimulated hsp27 phosphorylation in human THP-1 cells by fluorometric analysis
20413257	CHEMBL3629326	5.170000	6700.000000	93749	2015	Inhibition of MK2 (unknown origin) by scintillation proximity assay
1308086	CHEMBL562194	5.170000	6800.000000	48079	2009	Inhibition of MK2 in human U937 cells assessed as blockade of LPS-stimulated TNFalpha production
20412573	CHEMBL3629148	5.160000	6900.000000	93749	2015	Inhibition of MK2 (unknown origin) by scintillation proximity assay
211015	CHEMBL245474	5.150000	7000.000000	37671	2007	Inhibition of MK2 after 30 mins by DELFIA
618714	CHEMBL245661	5.150000	7090.000000	37664	2007	Inhibition of MK2
213805	CHEMBL247707	5.150000	7100.000000	37664	2007	Inhibition of MK2
630883	CHEMBL1235213	5.140000	7200.000000	65824	2012	Inhibition of human MAPKAP-K2 in THP1 cells assessed as inhibition of LPS-induced TNFalpha production incubated 1 hr prior to LPS challenge measured 18 hrs post LPS challenge by HTRF assay
214644	CHEMBL248331	5.130000	7400.000000	37671	2007	Inhibition of MK2 after 30 mins by DELFIA
1173479	CHEMBL2163616	5.120000	7600.000000	65824	2012	Inhibition of human MAPKAP-K2 in THP1 cells assessed as inhibition of LPS-induced TNFalpha production incubated 1 hr prior to LPS challenge measured 18 hrs post LPS challenge by HTRF assay
213962	CHEMBL248335	5.110000	7700.000000	37671	2007	Inhibition of MK2 after 30 mins by DELFIA
20412576	CHEMBL3629151	5.110000	7800.000000	93749	2015	Inhibition of MK2 (unknown origin) by scintillation proximity assay
20413261	CHEMBL3629330	5.100000	8000.000000	93749	2015	Inhibition of MK2 (unknown origin) by scintillation proximity assay
20412580	CHEMBL3629155	5.100000	8000.000000	93749	2015	Inhibition of MK2 (unknown origin) by scintillation proximity assay
395121	CHEMBL467078	5.090000	8200.000000	46676	2009	Inhibition of human recombinant MK2
519292	CHEMBL1801090	5.080000	8300.000000	58281	2010	Inhibition of MK2 in human THP-1 cells assessed as inhibition of anisomycin stimulated ser78-hsp27 phosphorylation after 10 mins by FACS analysis
1173994	CHEMBL2163608	5.080000	8400.000000	65824	2012	Inhibition of human MAPKAP-K2 in THP1 cells assessed as inhibition of LPS-induced TNFalpha production incubated 1 hr prior to LPS challenge measured 18 hrs post LPS challenge by HTRF assay
391188	CHEMBL466496	5.050000	8900.000000	46676	2009	Inhibition of human recombinant MK2
193076	CHEMBL226471	5.050000	8900.000000	58280	2010	Inhibition of MK2 mediated anisomycin-stimulated hsp27 phosphorylation in human THP-1 cells by fluorometric analysis
405386	CHEMBL481249	5.040000	9100.000000	46676	2009	Inhibition of human recombinant MK2
534933	CHEMBL467730	5.030000	9300.000000	46676	2009	Inhibition of human recombinant MK2
533853	CHEMBL1801381	5.030000	9330.000000	58281	2010	Inhibition of MK2 in human THP-1 cells assessed as inhibition of anisomycin stimulated ser78-hsp27 phosphorylation after 10 mins by FACS analysis
338720	CHEMBL394262	5.010000	9700.000000	37671	2007	Inhibition of MK2 after 30 mins by DELFIA
525462	CHEMBL1801273	5.000000	10000.000000	58280	2010	Inhibition of MK2 mediated anisomycin-stimulated hsp27 phosphorylation in human THP-1 cells by fluorometric analysis
1085800	CHEMBL1940511	5.000000	10000.000000	60812	2012	Inhibition of human MK2
1085801	CHEMBL1940512	5.000000	10000.000000	60812	2012	Inhibition of human MK2
1322112	CHEMBL2381597	5.000000	10000.000000	73619	2013	Inhibition of human recombinant MK2
20412579	CHEMBL3629154	5.000000	10000.000000	93749	2015	Inhibition of MK2 (unknown origin) by scintillation proximity assay
20528481	CHEMBL3884319	5.000000	10000.000000	102068	2017	Inhibition of human recombinant full length His-tagged MAPKAPK2 expressed in Escherichia coli
211426	CHEMBL245662	5.000000	10100.000000	37664	2007	Inhibition of MK2
630883	CHEMBL1235213	4.960000	11000.000000	65824	2012	Inhibition of MAPKAP-K2 in human whole blood assessed as inhibition of LPS-induced TNFalpha production by ELISA
20413258	CHEMBL3629327	4.960000	11000.000000	93749	2015	Inhibition of MK2 (unknown origin) by scintillation proximity assay
20413260	CHEMBL3629329	4.930000	11800.000000	93749	2015	Inhibition of MK2 (unknown origin) by scintillation proximity assay
338572	CHEMBL396314	4.920000	12000.000000	37664	2007	Inhibition of MK2
334293	CHEMBL393056	4.920000	12000.000000	37671	2007	Inhibition of MK2 after 30 mins by DELFIA
10214	CHEMBL14249	4.920000	12000.000000	49416	2010	Displacement of [8-3H]ATP from human recombinant MK2 (41-364) by scintillation proximity assay
512356	CHEMBL1801300	4.920000	12000.000000	58280	2010	Inhibition of MK2 mediated anisomycin-stimulated hsp27 phosphorylation in human THP-1 cells by fluorometric analysis
20477756	CHEMBL3706789	4.890000	12800.000000	20881	2005	Concentration of 50% inhibition by compound towards mitogen activated protein kinase -activated protein kinase 2
335573	CHEMBL395352	4.890000	13000.000000	37664	2007	Inhibition of MK2
19881191	CHEMBL3263640	4.880000	13330.000000	83073	2014	Inhibition of MK2 (unknown origin)
393049	CHEMBL467732	4.850000	14000.000000	46676	2009	Inhibition of human recombinant MK2
20413265	CHEMBL3629334	4.840000	14500.000000	93749	2015	Inhibition of MK2 (unknown origin) by scintillation proximity assay
479638	CHEMBL560737	4.830000	14900.000000	48081	2009	Inhibition of MK2 in human U937 cells assessed as blockade of LPS-stimulated TNFalpha production
334993	CHEMBL394494	4.820000	15000.000000	37671	2007	Inhibition of MK2 after 30 mins by DELFIA
517347	CHEMBL1801298	4.820000	15300.000000	58280	2010	Inhibition of MK2 mediated anisomycin-stimulated hsp27 phosphorylation in human THP-1 cells by fluorometric analysis
523073	CHEMBL597629	4.810000	15400.000000	49962	2010	Inhibition of human MK2 by FRET assay
169017	CHEMBL199383	4.800000	16000.000000	30503	2006	Inhibitory activity against MK2
215687	CHEMBL248317	4.800000	16000.000000	37664	2007	Inhibition of MK2
20413264	CHEMBL3629333	4.790000	16200.000000	93749	2015	Inhibition of MK2 (unknown origin) by scintillation proximity assay
169813	CHEMBL200499	4.770000	17000.000000	30503	2006	Inhibitory activity against MK2
513470	CHEMBL1801295	4.770000	17000.000000	58280	2010	Inhibition of MK2 mediated anisomycin-stimulated hsp27 phosphorylation in human THP-1 cells by fluorometric analysis
522078	CHEMBL1801309	4.770000	17000.000000	58280	2010	Inhibition of MK2 mediated anisomycin-stimulated hsp27 phosphorylation in human THP-1 cells by fluorometric analysis
1234658	CHEMBL2312654	4.730000	18570.000000	71957	2013	Inhibition of MAPKAP-K2 (unknown origin) in presence of ATP
213142	CHEMBL246102	4.720000	19000.000000	37664	2007	Inhibition of MK2
20413263	CHEMBL3629332	4.720000	19000.000000	93749	2015	Inhibition of MK2 (unknown origin) by scintillation proximity assay
20413259	CHEMBL3629328	4.720000	19000.000000	93749	2015	Inhibition of MK2 (unknown origin) by scintillation proximity assay
20413262	CHEMBL3629331	4.700000	20000.000000	93749	2015	Inhibition of MK2 (unknown origin) by scintillation proximity assay
474458	CHEMBL551534	4.680000	21000.000000	48081	2009	Inhibition of MK2 in human U937 cells assessed as blockade of LPS-stimulated TNFalpha production
468769	CHEMBL550060	4.670000	21600.000000	48081	2009	Inhibition of MK2 in human U937 cells assessed as blockade of LPS-stimulated TNFalpha production
20514323	CHEMBL3809901	4.660000	22000.000000	99320	2016	Inhibition of recombinant human N-terminal GST-tagged MK2 (46 to 400 residues) expressed in Escherichia coli in presence of radiolabelled ATP by radiometric assay
524676	CHEMBL598449	4.650000	22500.000000	49962	2010	Inhibition of human MK2 by FRET assay
523256	CHEMBL598506	4.650000	22600.000000	49962	2010	Inhibition of human MK2 by FRET assay
431989	CHEMBL511219	4.620000	24000.000000	46676	2009	Inhibition of human recombinant MK2
490257	CHEMBL562002	4.620000	24000.000000	48081	2009	Inhibition of MK2 in human U937 cells assessed as blockade of LPS-stimulated TNFalpha production
515166	CHEMBL1801293	4.600000	25000.000000	58280	2010	Inhibition of MK2 mediated anisomycin-stimulated hsp27 phosphorylation in human THP-1 cells by fluorometric analysis
333552	CHEMBL391830	4.590000	26000.000000	37664	2007	Inhibition of MK2
20411817	CHEMBL3628992	4.590000	26000.000000	93749	2015	Inhibition of MK2 (unknown origin) by scintillation proximity assay
490161	CHEMBL563672	4.570000	27000.000000	48081	2009	Inhibition of MK2 in human U937 cells assessed as blockade of LPS-stimulated TNFalpha production
20411818	CHEMBL3628993	4.570000	27000.000000	93749	2015	Inhibition of MK2 (unknown origin) by scintillation proximity assay
211973	CHEMBL246309	4.550000	28000.000000	37664	2007	Inhibition of MK2
334333	CHEMBL394125	4.530000	29300.000000	37664	2007	Inhibition of MK2
1234942	CHEMBL2312652	4.520000	30000.000000	71957	2013	Inhibition of MAPKAP-K2 (unknown origin) in presence of ATP
1230214	CHEMBL2312649	4.520000	30000.000000	71957	2013	Inhibition of MAPKAP-K2 (unknown origin) in presence of ATP
1230149	CHEMBL2312646	4.520000	30000.000000	71957	2013	Inhibition of MAPKAP-K2 (unknown origin) in presence of ATP
1230871	CHEMBL2312645	4.520000	30000.000000	71957	2013	Inhibition of MAPKAP-K2 (unknown origin) in presence of ATP
20412570	CHEMBL3629145	4.510000	31000.000000	93749	2015	Inhibition of MK2 (unknown origin) by scintillation proximity assay
523072	CHEMBL597628	4.510000	31200.000000	49962	2010	Inhibition of human MK2 by FRET assay
20413253	CHEMBL3629322	4.490000	32000.000000	93749	2015	Inhibition of MK2 (unknown origin) by scintillation proximity assay
196796	CHEMBL230232	4.450000	35800.000000	36673	2007	Inhibition of MK2
20412575	CHEMBL3629150	4.440000	36000.000000	93749	2015	Inhibition of MK2 (unknown origin) by scintillation proximity assay
416307	CHEMBL487190	4.410000	39000.000000	43280	2005	Inhibition of human recombinant MK2 by ELISA
336314	CHEMBL395573	4.400000	40100.000000	36673	2007	Inhibition of MK2
598818	CHEMBL436817	4.400000	40200.000000	36673	2007	Inhibition of MK2
213158	CHEMBL247138	4.380000	42000.000000	37664	2007	Inhibition of MK2
330460	CHEMBL395132	4.330000	47000.000000	37664	2007	Inhibition of MK2
598818	CHEMBL436817	4.320000	48000.000000	42553	2007	Inhibition of human MK2 by scintiplate assay
392755	CHEMBL467731	4.310000	49000.000000	46676	2009	Inhibition of human recombinant MK2
213511	CHEMBL247343	4.280000	53000.000000	37664	2007	Inhibition of MK2
197252	CHEMBL230654	4.200000	62700.000000	36673	2007	Inhibition of MK2
214103	CHEMBL247911	4.190000	64000.000000	37664	2007	Inhibition of MK2
394880	CHEMBL466701	4.190000	65000.000000	46676	2009	Inhibition of human recombinant MK2
305221	CHEMBL360278	4.150000	70000.000000	20881	2005	Concentration of 50% inhibition by compound towards mitogen activated protein kinase -activated protein kinase 2
480289	CHEMBL559881	4.110000	78000.000000	48081	2009	Inhibition of MK2 in human U937 cells assessed as blockade of LPS-stimulated TNFalpha production
392754	CHEMBL467729	4.090000	81000.000000	46676	2009	Inhibition of human recombinant MK2
47081	CHEMBL57481	4.070000	85000.000000	45206	2008	Inhibition of human recombinant MK2 expressed in Escherichia coli BL21(DE3) after 60 mins
213141	CHEMBL246101	4.060000	87000.000000	37664	2007	Inhibition of MK2
196339	CHEMBL230761	4.060000	87100.000000	36673	2007	Inhibition of MK2
215605	CHEMBL248312	4.060000	88000.000000	37664	2007	Inhibition of MK2
394879	CHEMBL466700	4.060000	88000.000000	46676	2009	Inhibition of human recombinant MK2
171192	CHEMBL200381	3.960000	110000.000000	30404	2005	Inhibitory activity against MK2
215681	CHEMBL248313	3.890000	130000.000000	37664	2007	Inhibition of MK2
215529	CHEMBL248164	3.890000	130000.000000	37664	2007	Inhibition of MK2
409966	CHEMBL487191	3.890000	130000.000000	43280	2005	Inhibition of human recombinant MK2 by ELISA
605582	CHEMBL437766	3.770000	170000.000000	37664	2007	Inhibition of MK2
366568	CHEMBL437554	3.770000	170000.000000	37664	2007	Inhibition of MK2
