lsi_index	chembl-id	pot.(log,IC50)	pot.(muMol,IC50)	doc_id	year	description
1221247	CHEMBL2325429	9.850000	0.140000	74613	2013	Inhibition of microtubule-stimulated ATPase activity of N-terminal His-6-tagged human wild type Eg5 (1 to 368) expressed in Escherichia coli BL21 by pyruvate kinase/lactate dehydrogenase-linked assay
1221247	CHEMBL2325429	9.850000	0.140000	74636	2013	Inhibition of MT-stimulated ATPase activity of wild type Eg5 (unknown origin)
176487	CHEMBL206115	9.300000	0.500000	30964	2006	Inhibition of KSP by ATPase assay
541382	CHEMBL1829430	9.000000	1.000000	59040	2011	Inhibition of human recombinant C-terminal His6-tagged KSP ATPase activity after 1 hr by malachite green assay
634244	CHEMBL1277017	8.960000	1.100000	53885	2010	Inhibition of human full-length Eg5 ATPase activity expressed in Escherichia coli assessed as release of inorganic phosphate after 30 mins
328926	CHEMBL381526	8.920000	1.200000	30964	2006	Inhibition of KSP by ATPase assay
195303	CHEMBL2347651	8.920000	1.200000	72794	2013	Inhibition of Eg5 (unknown origin)
599744	CHEMBL262736	8.890000	1.300000	30964	2006	Inhibition of KSP by ATPase assay
321371	CHEMBL377566	8.720000	1.900000	31217	2006	Inhibition of KSP by ATPase assay
175107	CHEMBL204459	8.700000	2.000000	30963	2006	Inhibition of KSP
550705	CHEMBL1084143	8.700000	2.000000	50502	2010	Inhibition of ATPase activity of human recombinant EG5 assessed as ATP hydrolysis by pyruvate kinase-lactate dehydrogenase coupled assay
575744	CHEMBL1096003	8.700000	2.000000	50502	2010	Inhibition of ATPase activity of human recombinant EG5 assessed as ATP hydrolysis by pyruvate kinase-lactate dehydrogenase coupled assay
548434	CHEMBL1829433	8.700000	2.000000	59040	2011	Inhibition of human recombinant C-terminal His6-tagged KSP ATPase activity after 1 hr by malachite green assay
640955	CHEMBL1276930	8.600000	2.500000	53885	2010	Inhibition of human full-length Eg5 ATPase activity expressed in Escherichia coli assessed as release of inorganic phosphate after 30 mins
174782	CHEMBL205437	8.590000	2.600000	30963	2006	Inhibition of KSP
173070	CHEMBL204408	8.570000	2.700000	30963	2006	Inhibition of KSP
322052	CHEMBL377596	8.540000	2.900000	30964	2006	Inhibition of KSP by ATPase assay
570559	CHEMBL1082248	8.520000	3.000000	50502	2010	Inhibition of ATPase activity of human recombinant EG5 assessed as ATP hydrolysis by pyruvate kinase-lactate dehydrogenase coupled assay
541382	CHEMBL1829430	8.520000	3.000000	59040	2011	Inhibition of human recombinant C-terminal His6-tagged KSP ATPase activity after 1 hr by malachite green assay
555399	CHEMBL1829424	8.520000	3.000000	59040	2011	Inhibition of human recombinant C-terminal His6-tagged KSP ATPase activity after 1 hr by malachite green assay
326000	CHEMBL379690	8.440000	3.600000	30963	2006	Inhibition of KSP
177069	CHEMBL206798	8.400000	4.000000	30964	2006	Inhibition of KSP by ATPase assay
571124	CHEMBL1084677	8.400000	4.000000	50502	2010	Inhibition of ATPase activity of human recombinant EG5 assessed as ATP hydrolysis by pyruvate kinase-lactate dehydrogenase coupled assay
551326	CHEMBL1083517	8.400000	4.000000	50502	2010	Inhibition of ATPase activity of human recombinant EG5 assessed as ATP hydrolysis by pyruvate kinase-lactate dehydrogenase coupled assay
629777	CHEMBL1086410	8.400000	4.000000	50502	2010	Inhibition of ATPase activity of human recombinant EG5 assessed as ATP hydrolysis by pyruvate kinase-lactate dehydrogenase coupled assay
208612	CHEMBL243669	8.300000	5.000000	36683	2007	Inhibition of human KSP motor domain by ATPase assay
548416	CHEMBL1077227	8.300000	5.000000	50502	2010	Inhibition of ATPase activity of human recombinant EG5 assessed as ATP hydrolysis by pyruvate kinase-lactate dehydrogenase coupled assay
567347	CHEMBL1085692	8.300000	5.000000	50502	2010	Inhibition of ATPase activity of human recombinant EG5 assessed as ATP hydrolysis by pyruvate kinase-lactate dehydrogenase coupled assay
547885	CHEMBL1829432	8.300000	5.000000	59040	2011	Inhibition of human recombinant C-terminal His6-tagged KSP ATPase activity after 1 hr by malachite green assay
195303	CHEMBL228814	8.300000	5.000000	76064	2013	Inhibition of C-terminal His-tagged microtubule-stimulated KSP motor domain (1 to 369) ATPase activity (unknown origin) preincubated for 30 mins followed by ATP addition measured after 15 mins by luciferase-derived luminescence assay
535680	CHEMBL203045	8.280000	5.200000	30963	2006	Inhibition of KSP
175229	CHEMBL206249	8.260000	5.500000	30964	2006	Inhibition of KSP by ATPase assay
571844	CHEMBL1093088	8.220000	6.000000	50502	2010	Inhibition of ATPase activity of human recombinant EG5 assessed as ATP hydrolysis by pyruvate kinase-lactate dehydrogenase coupled assay
551786	CHEMBL1082249	8.220000	6.000000	50502	2010	Inhibition of ATPase activity of human recombinant EG5 assessed as ATP hydrolysis by pyruvate kinase-lactate dehydrogenase coupled assay
1242477	CHEMBL2347655	8.220000	6.000000	72794	2013	Inhibition of Eg5 (unknown origin)
329588	CHEMBL381533	8.150000	7.000000	30964	2006	Inhibition of KSP by ATPase assay
550185	CHEMBL1084678	8.150000	7.000000	50502	2010	Inhibition of ATPase activity of human recombinant EG5 assessed as ATP hydrolysis by pyruvate kinase-lactate dehydrogenase coupled assay
559272	CHEMBL1096002	8.150000	7.000000	50502	2010	Inhibition of ATPase activity of human recombinant EG5 assessed as ATP hydrolysis by pyruvate kinase-lactate dehydrogenase coupled assay
66212	CHEMBL1163678	8.150000	7.000000	51606	2010	Inhibition of human Eg5 expressed in Escherichia coli assessed as microtubule-activated ATPase activity by spectrophotometry
173548	CHEMBL202788	8.130000	7.400000	30963	2006	Inhibition of KSP
178619	CHEMBL208865	8.100000	8.000000	31217	2006	Inhibition of KSP by ATPase assay
550406	CHEMBL1077204	8.100000	8.000000	50502	2010	Inhibition of ATPase activity of human recombinant EG5 assessed as ATP hydrolysis by pyruvate kinase-lactate dehydrogenase coupled assay
555399	CHEMBL1829424	8.100000	8.000000	59040	2011	Inhibition of human recombinant C-terminal His6-tagged KSP ATPase activity after 1 hr by malachite green assay
20411894	CHEMBL3633535	8.070000	8.600000	93872	2015	Inhibition of His-tagged KSP motor domain (1 to 369) (unknown origin) assessed as inhibition of microtubule-stimulated KSP ATPase activity preincuabted for 30 mins followed by ATP addition measured after 15 mins by Kinase-Glo assay
20411885	CHEMBL3633526	8.030000	9.300000	93872	2015	Inhibition of His-tagged KSP motor domain (1 to 369) (unknown origin) assessed as inhibition of microtubule-stimulated KSP ATPase activity preincuabted for 30 mins followed by ATP addition measured after 15 mins by Kinase-Glo assay
550567	CHEMBL1829246	8.000000	10.000000	59040	2011	Inhibition of human recombinant C-terminal His6-tagged KSP ATPase activity after 1 hr by malachite green assay
322581	CHEMBL382165	7.960000	11.000000	30963	2006	Inhibition of KSP
613437	CHEMBL243885	7.960000	11.000000	36683	2007	Inhibition of human KSP motor domain by ATPase assay
557800	CHEMBL1085895	7.960000	11.000000	50502	2010	Inhibition of ATPase activity of human recombinant EG5 assessed as ATP hydrolysis by pyruvate kinase-lactate dehydrogenase coupled assay
627688	CHEMBL1083836	7.960000	11.000000	50502	2010	Inhibition of ATPase activity of human recombinant EG5 assessed as ATP hydrolysis by pyruvate kinase-lactate dehydrogenase coupled assay
536049	CHEMBL1818768	7.960000	11.000000	58725	2011	Inhibition of human ATPase activity KSP expressed in Escherichia coli after 30 mins by spectrophotometric analysis
20411886	CHEMBL3633527	7.960000	11.000000	93872	2015	Inhibition of His-tagged KSP motor domain (1 to 369) (unknown origin) assessed as inhibition of microtubule-stimulated KSP ATPase activity preincuabted for 30 mins followed by ATP addition measured after 15 mins by Kinase-Glo assay
20411896	CHEMBL3633537	7.920000	12.000000	93872	2015	Inhibition of His-tagged KSP motor domain (1 to 369) (unknown origin) assessed as inhibition of microtubule-stimulated KSP ATPase activity preincuabted for 30 mins followed by ATP addition measured after 15 mins by Kinase-Glo assay
324455	CHEMBL378547	7.890000	13.000000	30964	2006	Inhibition of KSP by ATPase assay
548077	CHEMBL1829422	7.890000	13.000000	59040	2011	Inhibition of human recombinant C-terminal His6-tagged KSP ATPase activity after 1 hr by malachite green assay
550184	CHEMBL1084676	7.850000	14.000000	50502	2010	Inhibition of ATPase activity of human recombinant EG5 assessed as ATP hydrolysis by pyruvate kinase-lactate dehydrogenase coupled assay
20411306	CHEMBL3633366	7.850000	14.000000	93872	2015	Inhibition of His-tagged KSP motor domain (1 to 369) (unknown origin) assessed as inhibition of microtubule-stimulated KSP ATPase activity preincuabted for 30 mins followed by ATP addition measured after 15 mins by Kinase-Glo assay
20411895	CHEMBL3633536	7.850000	14.000000	93872	2015	Inhibition of His-tagged KSP motor domain (1 to 369) (unknown origin) assessed as inhibition of microtubule-stimulated KSP ATPase activity preincuabted for 30 mins followed by ATP addition measured after 15 mins by Kinase-Glo assay
334101	CHEMBL389589	7.820000	15.000000	36683	2007	Inhibition of human KSP motor domain by ATPase assay
208611	CHEMBL243668	7.820000	15.000000	36683	2007	Inhibition of human KSP motor domain by ATPase assay
322652	CHEMBL382587	7.800000	16.000000	30963	2006	Inhibition of KSP
549021	CHEMBL1829431	7.800000	16.000000	59040	2011	Inhibition of human recombinant C-terminal His6-tagged KSP ATPase activity after 1 hr by malachite green assay
226706	CHEMBL261613	7.790000	16.300000	56093	2011	Inhibition of C-terminal His6-tagged human Eg5 microtubule-stimulated ATPase activity
536478	CHEMBL1078774	7.770000	17.000000	50502	2010	Inhibition of ATPase activity of human recombinant EG5 assessed as ATP hydrolysis by pyruvate kinase-lactate dehydrogenase coupled assay
332175	CHEMBL390629	7.740000	18.000000	36683	2007	Inhibition of human KSP motor domain by ATPase assay
1242477	CHEMBL2347655	7.740000	18.000000	93872	2015	Inhibition of His-tagged KSP motor domain (1 to 369) (unknown origin) assessed as inhibition of microtubule-stimulated KSP ATPase activity preincuabted for 30 mins followed by ATP addition measured after 15 mins by Kinase-Glo assay
558146	CHEMBL1093087	7.720000	19.000000	50502	2010	Inhibition of ATPase activity of human recombinant EG5 assessed as ATP hydrolysis by pyruvate kinase-lactate dehydrogenase coupled assay
562885	CHEMBL1084935	7.720000	19.000000	50502	2010	Inhibition of ATPase activity of human recombinant EG5 assessed as ATP hydrolysis by pyruvate kinase-lactate dehydrogenase coupled assay
991826	CHEMBL1688928	7.710000	19.300000	56093	2011	Inhibition of C-terminal His6-tagged human Eg5 microtubule-stimulated ATPase activity
546813	CHEMBL1085666	7.700000	20.000000	50502	2010	Inhibition of ATPase activity of human recombinant EG5 assessed as ATP hydrolysis by pyruvate kinase-lactate dehydrogenase coupled assay
538024	CHEMBL1818755	7.700000	20.000000	58725	2011	Inhibition of human ATPase activity KSP expressed in Escherichia coli after 30 mins by spectrophotometric analysis
550591	CHEMBL1829248	7.700000	20.000000	59040	2011	Inhibition of human recombinant C-terminal His6-tagged KSP ATPase activity after 1 hr by malachite green assay
545118	CHEMBL1829406	7.700000	20.000000	59040	2011	Inhibition of human recombinant C-terminal His6-tagged KSP ATPase activity after 1 hr by malachite green assay
1242951	CHEMBL2347656	7.700000	20.000000	72794	2013	Inhibition of human recombinant Eg5 ATPase activity expressed in Escherichia coli after 30 mins by malachite green-based spectrophotometric analysis
555398	CHEMBL1829423	7.680000	21.000000	59040	2011	Inhibition of human recombinant C-terminal His6-tagged KSP ATPase activity after 1 hr by malachite green assay
20411305	CHEMBL3633365	7.680000	21.000000	93872	2015	Inhibition of His-tagged KSP motor domain (1 to 369) (unknown origin) assessed as inhibition of microtubule-stimulated KSP ATPase activity preincuabted for 30 mins followed by ATP addition measured after 15 mins by Kinase-Glo assay
991895	CHEMBL1688920	7.660000	21.800000	56093	2011	Inhibition of C-terminal His6-tagged human Eg5 microtubule-stimulated ATPase activity
538672	CHEMBL1818758	7.640000	23.000000	58725	2011	Inhibition of human ATPase activity KSP expressed in Escherichia coli after 30 mins by spectrophotometric analysis
208645	CHEMBL243431	7.620000	24.000000	36683	2007	Inhibition of human KSP motor domain by ATPase assay
164914	CHEMBL195232	7.610000	24.700000	31217	2006	Inhibition of KSP by ATPase assay
543777	CHEMBL1078998	7.600000	25.000000	50502	2010	Inhibition of ATPase activity of human recombinant EG5 assessed as ATP hydrolysis by pyruvate kinase-lactate dehydrogenase coupled assay
539035	CHEMBL1818774	7.600000	25.000000	58725	2011	Inhibition of human ATPase activity KSP expressed in Escherichia coli after 30 mins by spectrophotometric analysis
164914	CHEMBL195232	7.590000	26.000000	20955	2005	In vitro inhibitory concentration towards kinesin spindle protein activity of ATP hydrolysis in the presence of microtubules measured by ATPase assay (n=3)
327898	CHEMBL382790	7.590000	26.000000	31217	2006	Inhibition of KSP by ATPase assay
348546	CHEMBL412132	7.570000	26.800000	56093	2011	Inhibition of C-terminal His6-tagged human Eg5 microtubule-stimulated ATPase activity
581617	CHEMBL392369	7.550000	28.500000	56093	2011	Inhibition of C-terminal His6-tagged human Eg5 microtubule-stimulated ATPase activity
579734	CHEMBL1164552	7.540000	29.000000	53885	2010	Inhibition of human full-length Eg5 ATPase activity expressed in Escherichia coli assessed as release of inorganic phosphate after 30 mins
540369	CHEMBL1829401	7.520000	30.000000	59040	2011	Inhibition of human recombinant C-terminal His6-tagged KSP ATPase activity after 1 hr by malachite green assay
551700	CHEMBL1829420	7.520000	30.000000	59040	2011	Inhibition of human recombinant C-terminal His6-tagged KSP ATPase activity after 1 hr by malachite green assay
536131	CHEMBL1818767	7.480000	33.000000	58725	2011	Inhibition of human ATPase activity KSP expressed in Escherichia coli after 30 mins by spectrophotometric analysis
535886	CHEMBL1078691	7.470000	34.000000	50502	2010	Inhibition of ATPase activity of human recombinant EG5 assessed as ATP hydrolysis by pyruvate kinase-lactate dehydrogenase coupled assay
19890713	CHEMBL3289009	7.460000	35.000000	83778	2014	Inhibition of C-terminal His-tagged KSP ATPase motor domain (unknown origin) expressed in bacteria incubated for 30 mins prior to ATP addition measured after 15 mins by luminescence assay
20411893	CHEMBL3633534	7.440000	36.000000	93872	2015	Inhibition of His-tagged KSP motor domain (1 to 369) (unknown origin) assessed as inhibition of microtubule-stimulated KSP ATPase activity preincuabted for 30 mins followed by ATP addition measured after 15 mins by Kinase-Glo assay
324278	CHEMBL380955	7.420000	38.000000	30963	2006	Inhibition of KSP
210391	CHEMBL243883	7.410000	39.000000	36683	2007	Inhibition of human KSP motor domain by ATPase assay
535885	CHEMBL1078690	7.400000	40.000000	50502	2010	Inhibition of ATPase activity of human recombinant EG5 assessed as ATP hydrolysis by pyruvate kinase-lactate dehydrogenase coupled assay
21241	CHEMBL1163527	7.400000	40.000000	51606	2010	Inhibition of human Eg5 expressed in Escherichia coli assessed as microtubule-activated ATPase activity by spectrophotometry
546897	CHEMBL1829418	7.400000	40.000000	59040	2011	Inhibition of human recombinant C-terminal His6-tagged KSP ATPase activity after 1 hr by malachite green assay
1242544	CHEMBL2347653	7.400000	40.000000	72794	2013	Inhibition of human recombinant Eg5 ATPase activity expressed in Escherichia coli after 30 mins by malachite green-based spectrophotometric analysis
1243463	CHEMBL2347652	7.400000	40.000000	72794	2013	Inhibition of Eg5 (unknown origin)
538025	CHEMBL1818756	7.380000	42.000000	58725	2011	Inhibition of human ATPase activity KSP expressed in Escherichia coli after 30 mins by spectrophotometric analysis
581056	CHEMBL1164477	7.370000	43.000000	51606	2010	Inhibition of human Eg5 expressed in Escherichia coli assessed as microtubule-activated ATPase activity by spectrophotometry
175728	CHEMBL207006	7.360000	44.000000	31217	2006	Inhibition of KSP by ATPase assay
20118629	CHEMBL3319301	7.360000	44.000000	90431	2014	Inhibition of Eg5 (unknown origin)
19890677	CHEMBL3288973	7.350000	45.000000	83778	2014	Inhibition of C-terminal His-tagged KSP ATPase motor domain (unknown origin) expressed in bacteria incubated for 30 mins prior to ATP addition measured after 15 mins by luminescence assay
195303	CHEMBL228814	7.330000	47.000000	93872	2015	Inhibition of His-tagged KSP motor domain (1 to 369) (unknown origin) assessed as inhibition of microtubule-stimulated KSP ATPase activity preincuabted for 30 mins followed by ATP addition measured after 15 mins by Kinase-Glo assay
20118632	CHEMBL3319304	7.320000	48.000000	90431	2014	Inhibition of Eg5 (unknown origin)
579734	CHEMBL1164552	7.310000	49.000000	51606	2010	Inhibition of human Eg5 expressed in Escherichia coli assessed as microtubule-activated ATPase activity by spectrophotometry
539034	CHEMBL1818773	7.310000	49.000000	58725	2011	Inhibition of human ATPase activity KSP expressed in Escherichia coli after 30 mins by spectrophotometric analysis
177869	CHEMBL208422	7.300000	50.000000	30963	2006	Inhibition of KSP
40373	CHEMBL1163584	7.300000	50.000000	51606	2010	Inhibition of human Eg5 expressed in Escherichia coli assessed as microtubule-activated ATPase activity by spectrophotometry
544144	CHEMBL1829399	7.300000	50.000000	59040	2011	Inhibition of human recombinant C-terminal His6-tagged KSP ATPase activity after 1 hr by malachite green assay
19890710	CHEMBL3289006	7.300000	50.000000	83778	2014	Inhibition of C-terminal His-tagged KSP ATPase motor domain (unknown origin) expressed in bacteria incubated for 30 mins prior to ATP addition measured after 15 mins by luminescence assay
19890714	CHEMBL3289010	7.300000	50.000000	83778	2014	Inhibition of C-terminal His-tagged KSP ATPase motor domain (unknown origin) expressed in bacteria incubated for 30 mins prior to ATP addition measured after 15 mins by luminescence assay
166550	CHEMBL196329	7.290000	51.000000	20955	2005	In vitro inhibitory concentration towards kinesin spindle protein activity of ATP hydrolysis in the presence of microtubules measured by ATPase assay (n=3)
574808	CHEMBL1164373	7.290000	51.000000	51606	2010	Inhibition of human Eg5 expressed in Escherichia coli assessed as microtubule-activated ATPase activity by spectrophotometry
540764	CHEMBL1818674	7.290000	51.000000	58725	2011	Inhibition of human ATPase activity KSP expressed in Escherichia coli after 30 mins by spectrophotometric analysis
541382	CHEMBL1829430	7.290000	51.000000	59040	2011	Inhibition of human recombinant C-terminal His6-tagged KSP ATPase activity after 1 hr by malachite green assay
19890707	CHEMBL3289003	7.290000	51.000000	83778	2014	Inhibition of C-terminal His-tagged KSP ATPase motor domain (unknown origin) expressed in bacteria incubated for 30 mins prior to ATP addition measured after 15 mins by luminescence assay
513426	CHEMBL1802986	7.280000	52.000000	83778	2014	Inhibition of C-terminal His-tagged KSP ATPase motor domain (unknown origin) expressed in bacteria incubated for 30 mins prior to ATP addition measured after 15 mins by luminescence assay
579734	CHEMBL1164552	7.280000	53.000000	58725	2011	Inhibition of human ATPase activity KSP expressed in Escherichia coli after 30 mins by spectrophotometric analysis
348600	CHEMBL409102	7.270000	53.300000	56093	2011	Inhibition of C-terminal His6-tagged human Eg5 microtubule-stimulated ATPase activity
613438	CHEMBL244126	7.270000	54.000000	36683	2007	Inhibition of human KSP motor domain by ATPase assay
179721	CHEMBL210264	7.260000	55.000000	31217	2006	Inhibition of KSP by ATPase assay
991896	CHEMBL1688921	7.260000	55.400000	56093	2011	Inhibition of C-terminal His6-tagged human Eg5 microtubule-stimulated ATPase activity
335906	CHEMBL397249	7.240000	57.000000	36683	2007	Inhibition of human KSP motor domain by ATPase assay
334100	CHEMBL389588	7.240000	58.000000	36683	2007	Inhibition of human KSP motor domain by ATPase assay
551803	CHEMBL1086409	7.240000	58.000000	50502	2010	Inhibition of ATPase activity of human recombinant EG5 assessed as ATP hydrolysis by pyruvate kinase-lactate dehydrogenase coupled assay
182652	CHEMBL213184	7.220000	60.000000	31581	2006	Inhibition of human Eg5 ATPase activity
182991	CHEMBL213686	7.220000	60.000000	31581	2006	Inhibition of human Eg5 ATPase activity
179032	CHEMBL209815	7.220000	60.000000	31581	2006	Inhibition of human Eg5 ATPase activity
1246649	CHEMBL2347654	7.220000	60.000000	72794	2013	Inhibition of human recombinant Eg5 ATPase activity expressed in Escherichia coli after 30 mins by malachite green-based spectrophotometric analysis
20411900	CHEMBL3633541	7.210000	61.000000	93872	2015	Inhibition of His-tagged KSP motor domain (1 to 369) (unknown origin) assessed as inhibition of microtubule-stimulated KSP ATPase activity preincuabted for 30 mins followed by ATP addition measured after 15 mins by Kinase-Glo assay
362027	CHEMBL429597	7.210000	61.700000	56093	2011	Inhibition of C-terminal His6-tagged human Eg5 microtubule-stimulated ATPase activity
339348	CHEMBL396794	7.190000	64.000000	36683	2007	Inhibition of human KSP motor domain by ATPase assay
20118631	CHEMBL3319303	7.190000	64.000000	90431	2014	Inhibition of Eg5 (unknown origin)
548237	CHEMBL1084431	7.190000	65.000000	50502	2010	Inhibition of ATPase activity of human recombinant EG5 assessed as ATP hydrolysis by pyruvate kinase-lactate dehydrogenase coupled assay
21251	CHEMBL1163528	7.190000	65.000000	51606	2010	Inhibition of human Eg5 expressed in Escherichia coli assessed as microtubule-activated ATPase activity by spectrophotometry
208820	CHEMBL242780	7.180000	66.000000	36683	2007	Inhibition of human KSP motor domain by ATPase assay
621772	CHEMBL207992	7.170000	67.000000	31217	2006	Inhibition of KSP by ATPase assay
210187	CHEMBL243649	7.170000	67.000000	36683	2007	Inhibition of human KSP motor domain by ATPase assay
19890698	CHEMBL3288994	7.170000	68.000000	83778	2014	Inhibition of C-terminal His-tagged KSP ATPase motor domain (unknown origin) expressed in bacteria incubated for 30 mins prior to ATP addition measured after 15 mins by luminescence assay
454898	CHEMBL535161	7.150000	70.000000	31581	2006	Inhibition of human Eg5 ATPase activity
530187	CHEMBL1818772	7.140000	73.000000	58725	2011	Inhibition of human ATPase activity KSP expressed in Escherichia coli after 30 mins by spectrophotometric analysis
576204	CHEMBL1164258	7.120000	75.000000	51606	2010	Inhibition of human Eg5 expressed in Escherichia coli assessed as microtubule-activated ATPase activity by spectrophotometry
20411899	CHEMBL3633540	7.120000	75.000000	93872	2015	Inhibition of His-tagged KSP motor domain (1 to 369) (unknown origin) assessed as inhibition of microtubule-stimulated KSP ATPase activity preincuabted for 30 mins followed by ATP addition measured after 15 mins by Kinase-Glo assay
576093	CHEMBL1164476	7.120000	76.000000	51606	2010	Inhibition of human Eg5 expressed in Escherichia coli assessed as microtubule-activated ATPase activity by spectrophotometry
184185	CHEMBL214404	7.100000	80.000000	31581	2006	Inhibition of human Eg5 ATPase activity
55697	CHEMBL1163628	7.080000	83.000000	51606	2010	Inhibition of human Eg5 expressed in Escherichia coli assessed as microtubule-activated ATPase activity by spectrophotometry
167698	CHEMBL196985	7.080000	84.000000	20955	2005	In vitro inhibitory concentration towards kinesin spindle protein activity of ATP hydrolysis in the presence of microtubules measured by ATPase assay (n=3)
167698	CHEMBL196985	7.080000	84.000000	30963	2006	Inhibition of KSP
347769	CHEMBL414860	7.070000	85.000000	30963	2006	Inhibition of KSP
321413	CHEMBL381985	7.070000	85.000000	31217	2006	Inhibition of KSP by ATPase assay
548138	CHEMBL1829426	7.070000	85.000000	59040	2011	Inhibition of human recombinant C-terminal His6-tagged KSP ATPase activity after 1 hr by malachite green assay
19890668	CHEMBL3288964	7.070000	85.000000	83778	2014	Inhibition of C-terminal His-tagged KSP ATPase motor domain (unknown origin) expressed in bacteria incubated for 30 mins prior to ATP addition measured after 15 mins by luminescence assay
992386	CHEMBL1688922	7.070000	85.900000	56093	2011	Inhibition of C-terminal His6-tagged human Eg5 microtubule-stimulated ATPase activity
539272	CHEMBL1078572	7.050000	90.000000	50502	2010	Inhibition of ATPase activity of human recombinant EG5 assessed as ATP hydrolysis by pyruvate kinase-lactate dehydrogenase coupled assay
548478	CHEMBL1828638	7.050000	90.000000	59040	2011	Inhibition of human recombinant C-terminal His6-tagged KSP ATPase activity after 1 hr by malachite green assay
543608	CHEMBL1829407	7.050000	90.000000	59040	2011	Inhibition of human recombinant C-terminal His6-tagged KSP ATPase activity after 1 hr by malachite green assay
536130	CHEMBL1818766	7.040000	92.000000	58725	2011	Inhibition of human ATPase activity KSP expressed in Escherichia coli after 30 mins by spectrophotometric analysis
982433	CHEMBL1688927	7.030000	93.300000	56093	2011	Inhibition of C-terminal His6-tagged human Eg5 microtubule-stimulated ATPase activity
304983	CHEMBL365108	7.030000	94.000000	20955	2005	In vitro inhibitory concentration towards kinesin spindle protein activity of ATP hydrolysis in the presence of microtubules measured by ATPase assay (n=3)
304983	CHEMBL365108	7.030000	94.000000	30963	2006	Inhibition of KSP
525165	CHEMBL1802987	7.020000	95.000000	83778	2014	Inhibition of C-terminal His-tagged KSP ATPase motor domain (unknown origin) expressed in bacteria incubated for 30 mins prior to ATP addition measured after 15 mins by luminescence assay
178504	CHEMBL207993	7.000000	100.000000	31217	2006	Inhibition of KSP by ATPase assay
322592	CHEMBL380294	7.000000	100.000000	31581	2006	Inhibition of human Eg5 ATPase activity
635571	CHEMBL1277474	7.000000	100.000000	72794	2013	Inhibition of human recombinant Eg5 ATPase activity expressed in Escherichia coli after 30 mins by malachite green-based spectrophotometric analysis
179002	CHEMBL210672	6.990000	103.000000	31217	2006	Inhibition of KSP by ATPase assay
445509	CHEMBL522806	6.960000	110.000000	42480	2007	Inhibition of basal ATPase activity of human Eg5
569487	CHEMBL1089057	6.960000	110.000000	50502	2010	Inhibition of ATPase activity of human recombinant EG5 assessed as ATP hydrolysis by pyruvate kinase-lactate dehydrogenase coupled assay
445509	CHEMBL522806	6.960000	110.000000	72794	2013	Inhibition of Eg5 basal ATPase activity (unknown origin)
20118632	CHEMBL3319304	6.960000	110.000000	90431	2014	Inhibition of Eg5 (unknown origin)
20118631	CHEMBL3319303	6.950000	111.000000	90431	2014	Inhibition of Eg5 (unknown origin)
176641	CHEMBL206289	6.950000	113.000000	30963	2006	Inhibition of KSP
200299	CHEMBL232133	6.930000	116.400000	56093	2011	Inhibition of C-terminal His6-tagged human Eg5 microtubule-stimulated ATPase activity
208788	CHEMBL243701	6.930000	118.000000	36683	2007	Inhibition of human KSP motor domain by ATPase assay
575648	CHEMBL1164860	6.930000	118.000000	51606	2010	Inhibition of human Eg5 expressed in Escherichia coli assessed as microtubule-activated ATPase activity by spectrophotometry
318428	CHEMBL378497	6.920000	119.000000	31217	2006	Inhibition of KSP by ATPase assay
555653	CHEMBL1089056	6.920000	120.000000	50502	2010	Inhibition of ATPase activity of human recombinant EG5 assessed as ATP hydrolysis by pyruvate kinase-lactate dehydrogenase coupled assay
564591	CHEMBL1084115	6.920000	120.000000	50502	2010	Inhibition of ATPase activity of human recombinant EG5 assessed as ATP hydrolysis by pyruvate kinase-lactate dehydrogenase coupled assay
526812	CHEMBL1803018	6.920000	120.000000	83778	2014	Inhibition of C-terminal His-tagged KSP ATPase motor domain (unknown origin) expressed in bacteria incubated for 30 mins prior to ATP addition measured after 15 mins by luminescence assay
20118630	CHEMBL3319302	6.920000	120.000000	90431	2014	Inhibition of Eg5 (unknown origin)
178915	CHEMBL210741	6.910000	122.000000	31217	2006	Inhibition of KSP by ATPase assay
540307	CHEMBL1818527	6.900000	127.000000	58720	2011	Inhibition of human recombinant microtubule-activated KSP motor domain ATPase activity after 10 mins by end-point assay
555225	CHEMBL1089050	6.890000	130.000000	50502	2010	Inhibition of ATPase activity of human recombinant EG5 assessed as ATP hydrolysis by pyruvate kinase-lactate dehydrogenase coupled assay
561335	CHEMBL1092159	6.890000	130.000000	50502	2010	Inhibition of ATPase activity of human recombinant EG5 assessed as ATP hydrolysis by pyruvate kinase-lactate dehydrogenase coupled assay
534961	CHEMBL1818528	6.890000	130.000000	58720	2011	Inhibition of human recombinant microtubule-activated KSP motor domain ATPase activity after 10 mins by end-point assay
551742	CHEMBL1829250	6.890000	130.000000	59040	2011	Inhibition of human recombinant C-terminal His6-tagged KSP ATPase activity after 1 hr by malachite green assay
534962	CHEMBL1818529	6.870000	136.000000	58720	2011	Inhibition of human recombinant microtubule-activated KSP motor domain ATPase activity after 10 mins by end-point assay
641288	CHEMBL1276845	6.850000	140.000000	53885	2010	Inhibition of human full-length Eg5 ATPase activity expressed in Escherichia coli assessed as release of inorganic phosphate after 30 mins
550590	CHEMBL1829247	6.850000	140.000000	59040	2011	Inhibition of human recombinant C-terminal His6-tagged KSP ATPase activity after 1 hr by malachite green assay
544793	CHEMBL1829410	6.850000	140.000000	59040	2011	Inhibition of human recombinant C-terminal His6-tagged KSP ATPase activity after 1 hr by malachite green assay
331610	CHEMBL392695	6.850000	140.000000	72794	2013	Inhibition of human Eg5 catalytic domain assessed as inhibition of microtubulin-induced ATPase activity after 25 mins by spectrophotometric analysis
209496	CHEMBL242357	6.850000	141.000000	36683	2007	Inhibition of human KSP motor domain by ATPase assay
1086299	CHEMBL1829425	6.850000	141.000000	59040	2011	Inhibition of human recombinant C-terminal His6-tagged KSP ATPase activity after 1 hr by malachite green assay
992387	CHEMBL1688923	6.840000	144.000000	56093	2011	Inhibition of C-terminal His6-tagged human Eg5 microtubule-stimulated ATPase activity
538665	CHEMBL1818754	6.840000	146.000000	58725	2011	Inhibition of human ATPase activity KSP expressed in Escherichia coli after 30 mins by spectrophotometric analysis
539169	CHEMBL1818765	6.830000	149.000000	58725	2011	Inhibition of human ATPase activity KSP expressed in Escherichia coli after 30 mins by spectrophotometric analysis
445509	CHEMBL522806	6.820000	150.000000	42480	2007	Inhibition of microtubule-stimulated human Eg5 ATPase activity
540368	CHEMBL1829400	6.820000	150.000000	59040	2011	Inhibition of human recombinant C-terminal His6-tagged KSP ATPase activity after 1 hr by malachite green assay
548076	CHEMBL1829421	6.820000	150.000000	59040	2011	Inhibition of human recombinant C-terminal His6-tagged KSP ATPase activity after 1 hr by malachite green assay
445509	CHEMBL522806	6.820000	150.000000	72794	2013	Inhibition of Eg5 assessed as inhibition of microtubule-induced ATPase activity (unknown origin)
421579	CHEMBL491384	6.820000	150.000000	72794	2013	Inhibition of Eg5 basal ATPase activity (unknown origin)
551767	CHEMBL1829251	6.800000	160.000000	59040	2011	Inhibition of human recombinant C-terminal His6-tagged KSP ATPase activity after 1 hr by malachite green assay
19890687	CHEMBL3288983	6.800000	160.000000	83778	2014	Inhibition of C-terminal His-tagged KSP ATPase motor domain (unknown origin) expressed in bacteria incubated for 30 mins prior to ATP addition measured after 15 mins by luminescence assay
20411891	CHEMBL3633532	6.800000	160.000000	93872	2015	Inhibition of His-tagged KSP motor domain (1 to 369) (unknown origin) assessed as inhibition of microtubule-stimulated KSP ATPase activity preincuabted for 30 mins followed by ATP addition measured after 15 mins by Kinase-Glo assay
211740	CHEMBL244933	6.790000	161.000000	36683	2007	Inhibition of human KSP motor domain by ATPase assay
548585	CHEMBL1829427	6.790000	161.000000	59040	2011	Inhibition of human recombinant C-terminal His6-tagged KSP ATPase activity after 1 hr by malachite green assay
538765	CHEMBL1818761	6.790000	162.000000	58725	2011	Inhibition of human ATPase activity KSP expressed in Escherichia coli after 30 mins by spectrophotometric analysis
567609	CHEMBL1163729	6.790000	163.000000	51606	2010	Inhibition of human Eg5 expressed in Escherichia coli assessed as microtubule-activated ATPase activity by spectrophotometry
581617	CHEMBL392369	6.780000	166.000000	93872	2015	Inhibition of His-tagged KSP motor domain (1 to 369) (unknown origin) assessed as inhibition of microtubule-stimulated KSP ATPase activity preincuabted for 30 mins followed by ATP addition measured after 15 mins by Kinase-Glo assay
336263	CHEMBL395487	6.780000	167.000000	36683	2007	Inhibition of human KSP motor domain by ATPase assay
579779	CHEMBL1163891	6.770000	169.000000	51606	2010	Inhibition of human Eg5 expressed in Escherichia coli assessed as microtubule-activated ATPase activity by spectrophotometry
539168	CHEMBL1818763	6.770000	169.000000	58725	2011	Inhibition of human ATPase activity KSP expressed in Escherichia coli after 30 mins by spectrophotometric analysis
541527	CHEMBL1078893	6.770000	170.000000	50502	2010	Inhibition of ATPase activity of human recombinant EG5 assessed as ATP hydrolysis by pyruvate kinase-lactate dehydrogenase coupled assay
641287	CHEMBL1276844	6.770000	170.000000	53885	2010	Inhibition of human full-length Eg5 ATPase activity expressed in Escherichia coli assessed as release of inorganic phosphate after 30 mins
538607	CHEMBL1818764	6.770000	170.000000	58725	2011	Inhibition of human ATPase activity KSP expressed in Escherichia coli after 30 mins by spectrophotometric analysis
210490	CHEMBL243906	6.750000	176.000000	36683	2007	Inhibition of human KSP motor domain by ATPase assay
635571	CHEMBL1277474	6.740000	180.000000	53885	2010	Inhibition of human full-length Eg5 ATPase activity expressed in Escherichia coli assessed as release of inorganic phosphate after 30 mins
179506	CHEMBL210168	6.720000	190.000000	31581	2006	Inhibition of human Eg5 ATPase activity
19890709	CHEMBL3289005	6.720000	190.000000	83778	2014	Inhibition of C-terminal His-tagged KSP ATPase motor domain (unknown origin) expressed in bacteria incubated for 30 mins prior to ATP addition measured after 15 mins by luminescence assay
208624	CHEMBL243681	6.710000	196.000000	36683	2007	Inhibition of human KSP motor domain by ATPase assay
571291	CHEMBL1213955	6.700000	200.000000	52166	2010	Inhibition of human kinesin Eg5
547901	CHEMBL1829270	6.700000	200.000000	59040	2011	Inhibition of human recombinant C-terminal His6-tagged KSP ATPase activity after 1 hr by malachite green assay
571291	CHEMBL1213955	6.700000	200.000000	72794	2013	Inhibition of Eg5 (unknown origin)
67736	CHEMBL1163677	6.690000	204.000000	51606	2010	Inhibition of human Eg5 expressed in Escherichia coli assessed as microtubule-activated ATPase activity by spectrophotometry
20411304	CHEMBL3633364	6.680000	209.000000	93872	2015	Inhibition of His-tagged KSP motor domain (1 to 369) (unknown origin) assessed as inhibition of microtubule-stimulated KSP ATPase activity preincuabted for 30 mins followed by ATP addition measured after 15 mins by Kinase-Glo assay
541646	CHEMBL1829249	6.680000	210.000000	59040	2011	Inhibition of human recombinant C-terminal His6-tagged KSP ATPase activity after 1 hr by malachite green assay
1096330	CHEMBL1829402	6.680000	210.000000	59040	2011	Inhibition of human recombinant C-terminal His6-tagged KSP ATPase activity after 1 hr by malachite green assay
544792	CHEMBL1829409	6.680000	210.000000	59040	2011	Inhibition of human recombinant C-terminal His6-tagged KSP ATPase activity after 1 hr by malachite green assay
587404	CHEMBL1173704	6.680000	210.000000	83778	2014	Inhibition of C-terminal His-tagged KSP ATPase motor domain (unknown origin) expressed in bacteria incubated for 30 mins prior to ATP addition measured after 15 mins by luminescence assay
581375	CHEMBL1164553	6.670000	216.000000	51606	2010	Inhibition of human Eg5 expressed in Escherichia coli assessed as microtubule-activated ATPase activity by spectrophotometry
575441	CHEMBL1164859	6.650000	224.000000	51606	2010	Inhibition of human Eg5 expressed in Escherichia coli assessed as microtubule-activated ATPase activity by spectrophotometry
542496	CHEMBL1818525	6.640000	230.000000	58720	2011	Inhibition of human recombinant microtubule-activated KSP motor domain ATPase activity after 10 mins by end-point assay
535312	CHEMBL1818747	6.630000	232.000000	58725	2011	Inhibition of human ATPase activity KSP expressed in Escherichia coli after 30 mins by spectrophotometric analysis
4105	CHEMBL1163163	6.630000	237.000000	51606	2010	Inhibition of human Eg5 expressed in Escherichia coli assessed as microtubule-activated ATPase activity by spectrophotometry
20411890	CHEMBL3633531	6.620000	238.000000	93872	2015	Inhibition of His-tagged KSP motor domain (1 to 369) (unknown origin) assessed as inhibition of microtubule-stimulated KSP ATPase activity preincuabted for 30 mins followed by ATP addition measured after 15 mins by Kinase-Glo assay
210240	CHEMBL244511	6.620000	240.000000	36683	2007	Inhibition of human KSP motor domain by ATPase assay
668269	CHEMBL1170621	6.620000	240.000000	51846	2010	Inhibition of human C-terminally His6-tagged microtubule-activated KSP motor domain ATPase activity after 30 mins by luciferase-derived luminescence assay
627121	CHEMBL194980	6.600000	250.000000	20955	2005	In vitro inhibitory concentration towards kinesin spindle protein activity of ATP hydrolysis in the presence of microtubules measured by ATPase assay (n=3)
587404	CHEMBL1173704	6.590000	260.000000	51846	2010	Inhibition of human C-terminally His6-tagged microtubule-activated KSP motor domain ATPase activity after 30 mins by luciferase-derived luminescence assay
210239	CHEMBL244510	6.580000	262.000000	36683	2007	Inhibition of human KSP motor domain by ATPase assay
200299	CHEMBL232133	6.580000	262.000000	93872	2015	Inhibition of His-tagged KSP motor domain (1 to 369) (unknown origin) assessed as inhibition of microtubule-stimulated KSP ATPase activity preincuabted for 30 mins followed by ATP addition measured after 15 mins by Kinase-Glo assay
565456	CHEMBL1078894	6.570000	270.000000	50502	2010	Inhibition of ATPase activity of human recombinant EG5 assessed as ATP hydrolysis by pyruvate kinase-lactate dehydrogenase coupled assay
581617	CHEMBL392369	6.570000	270.000000	58720	2011	Inhibition of human recombinant microtubule-activated KSP motor domain ATPase activity after 10 mins by end-point assay
19890667	CHEMBL3288963	6.570000	270.000000	83778	2014	Inhibition of C-terminal His-tagged KSP ATPase motor domain (unknown origin) expressed in bacteria incubated for 30 mins prior to ATP addition measured after 15 mins by luminescence assay
177144	CHEMBL206883	6.550000	284.000000	31217	2006	Inhibition of KSP by ATPase assay
331610	CHEMBL392695	6.550000	284.900000	56093	2011	Inhibition of C-terminal His6-tagged human Eg5 microtubule-stimulated ATPase activity
181829	CHEMBL213736	6.540000	290.000000	31581	2006	Inhibition of human Eg5 ATPase activity
577100	CHEMBL1165017	6.540000	290.000000	51606	2010	Inhibition of human Eg5 expressed in Escherichia coli assessed as microtubule-activated ATPase activity by spectrophotometry
19890706	CHEMBL3289002	6.540000	290.000000	83778	2014	Inhibition of C-terminal His-tagged KSP ATPase motor domain (unknown origin) expressed in bacteria incubated for 30 mins prior to ATP addition measured after 15 mins by luminescence assay
546630	CHEMBL1084116	6.520000	300.000000	50502	2010	Inhibition of ATPase activity of human recombinant EG5 assessed as ATP hydrolysis by pyruvate kinase-lactate dehydrogenase coupled assay
565442	CHEMBL1096347	6.520000	300.000000	50502	2010	Inhibition of ATPase activity of human recombinant EG5 assessed as ATP hydrolysis by pyruvate kinase-lactate dehydrogenase coupled assay
580575	CHEMBL1173703	6.520000	300.000000	51846	2010	Inhibition of human C-terminally His6-tagged microtubule-activated KSP motor domain ATPase activity after 30 mins by luciferase-derived luminescence assay
20411889	CHEMBL3633530	6.520000	301.000000	93872	2015	Inhibition of His-tagged KSP motor domain (1 to 369) (unknown origin) assessed as inhibition of microtubule-stimulated KSP ATPase activity preincuabted for 30 mins followed by ATP addition measured after 15 mins by Kinase-Glo assay
20411888	CHEMBL3633529	6.510000	306.000000	93872	2015	Inhibition of His-tagged KSP motor domain (1 to 369) (unknown origin) assessed as inhibition of microtubule-stimulated KSP ATPase activity preincuabted for 30 mins followed by ATP addition measured after 15 mins by Kinase-Glo assay
335028	CHEMBL399251	6.510000	306.200000	56093	2011	Inhibition of C-terminal His6-tagged human Eg5 microtubule-stimulated ATPase activity
542497	CHEMBL1818526	6.510000	310.000000	58720	2011	Inhibition of human recombinant microtubule-activated KSP motor domain ATPase activity after 10 mins by end-point assay
546663	CHEMBL1829259	6.510000	310.000000	59040	2011	Inhibition of human recombinant C-terminal His6-tagged KSP ATPase activity after 1 hr by malachite green assay
551690	CHEMBL1829403	6.510000	310.000000	59040	2011	Inhibition of human recombinant C-terminal His6-tagged KSP ATPase activity after 1 hr by malachite green assay
223795	CHEMBL259256	6.500000	318.800000	56093	2011	Inhibition of C-terminal His6-tagged human Eg5 microtubule-stimulated ATPase activity
634243	CHEMBL1277016	6.490000	320.000000	53885	2010	Inhibition of human full-length Eg5 ATPase activity expressed in Escherichia coli assessed as release of inorganic phosphate after 30 mins
548586	CHEMBL1829428	6.490000	323.000000	59040	2011	Inhibition of human recombinant C-terminal His6-tagged KSP ATPase activity after 1 hr by malachite green assay
179819	CHEMBL210067	6.480000	330.000000	31581	2006	Inhibition of human Eg5 ATPase activity
19890680	CHEMBL3288976	6.480000	330.000000	83778	2014	Inhibition of C-terminal His-tagged KSP ATPase motor domain (unknown origin) expressed in bacteria incubated for 30 mins prior to ATP addition measured after 15 mins by luminescence assay
540126	CHEMBL1818675	6.480000	334.000000	58725	2011	Inhibition of human ATPase activity KSP expressed in Escherichia coli after 30 mins by spectrophotometric analysis
573624	CHEMBL1165578	6.470000	337.000000	51606	2010	Inhibition of human Eg5 expressed in Escherichia coli assessed as microtubule-activated ATPase activity by spectrophotometry
208887	CHEMBL242783	6.460000	345.000000	36683	2007	Inhibition of human KSP motor domain by ATPase assay
580855	CHEMBL1165475	6.460000	347.000000	51606	2010	Inhibition of human Eg5 expressed in Escherichia coli assessed as microtubule-activated ATPase activity by spectrophotometry
209906	CHEMBL243215	6.460000	349.000000	36683	2007	Inhibition of human KSP motor domain by ATPase assay
551156	CHEMBL1077357	6.460000	350.000000	50502	2010	Inhibition of ATPase activity of human recombinant EG5 assessed as ATP hydrolysis by pyruvate kinase-lactate dehydrogenase coupled assay
1241968	CHEMBL2347798	6.460000	350.000000	72794	2013	Inhibition of human His-tagged Eg5 (1 to 368 amino acid residues) basal ATPase activity
331610	CHEMBL392695	6.450000	352.000000	74613	2013	Inhibition of microtubule-stimulated ATPase activity of N-terminal His-6-tagged human wild type Eg5 (1 to 368) expressed in Escherichia coli BL21 by pyruvate kinase/lactate dehydrogenase-linked assay
568607	CHEMBL1089051	6.440000	360.000000	50502	2010	Inhibition of ATPase activity of human recombinant EG5 assessed as ATP hydrolysis by pyruvate kinase-lactate dehydrogenase coupled assay
540154	CHEMBL1818677	6.440000	360.000000	58725	2011	Inhibition of human ATPase activity KSP expressed in Escherichia coli after 30 mins by spectrophotometric analysis
574449	CHEMBL1165484	6.420000	380.000000	51606	2010	Inhibition of human Eg5 expressed in Escherichia coli assessed as microtubule-activated ATPase activity by spectrophotometry
176094	CHEMBL207261	6.410000	390.000000	31217	2006	Inhibition of KSP by ATPase assay
582115	CHEMBL1173167	6.410000	390.000000	51846	2010	Inhibition of human C-terminally His6-tagged microtubule-activated KSP motor domain ATPase activity after 30 mins by luciferase-derived luminescence assay
546662	CHEMBL1829258	6.410000	390.000000	59040	2011	Inhibition of human recombinant C-terminal His6-tagged KSP ATPase activity after 1 hr by malachite green assay
19890676	CHEMBL3288972	6.410000	390.000000	83778	2014	Inhibition of C-terminal His-tagged KSP ATPase motor domain (unknown origin) expressed in bacteria incubated for 30 mins prior to ATP addition measured after 15 mins by luminescence assay
356533	CHEMBL425420	6.410000	391.000000	31217	2006	Inhibition of KSP by ATPase assay
598833	CHEMBL408072	6.400000	395.610000	56093	2011	Inhibition of C-terminal His6-tagged human Eg5 microtubule-stimulated ATPase activity
638505	CHEMBL1278187	6.400000	400.000000	53885	2010	Inhibition of human full-length Eg5 ATPase activity expressed in Escherichia coli assessed as release of inorganic phosphate after 30 mins
637248	CHEMBL1277198	6.400000	400.000000	53885	2010	Inhibition of human full-length Eg5 ATPase activity expressed in Escherichia coli assessed as release of inorganic phosphate after 30 mins
542969	CHEMBL1829415	6.390000	410.000000	59040	2011	Inhibition of human recombinant C-terminal His6-tagged KSP ATPase activity after 1 hr by malachite green assay
553776	CHEMBL1088740	6.380000	420.000000	50502	2010	Inhibition of ATPase activity of human recombinant EG5 assessed as ATP hydrolysis by pyruvate kinase-lactate dehydrogenase coupled assay
548434	CHEMBL1829433	6.370000	429.000000	59040	2011	Inhibition of human recombinant C-terminal His6-tagged KSP ATPase activity after 1 hr by malachite green assay
19890686	CHEMBL3288982	6.370000	430.000000	83778	2014	Inhibition of C-terminal His-tagged KSP ATPase motor domain (unknown origin) expressed in bacteria incubated for 30 mins prior to ATP addition measured after 15 mins by luminescence assay
19890711	CHEMBL3289007	6.370000	430.000000	83778	2014	Inhibition of C-terminal His-tagged KSP ATPase motor domain (unknown origin) expressed in bacteria incubated for 30 mins prior to ATP addition measured after 15 mins by luminescence assay
633961	CHEMBL1278004	6.360000	440.000000	53885	2010	Inhibition of human full-length Eg5 ATPase activity expressed in Escherichia coli assessed as release of inorganic phosphate after 30 mins
307036	CHEMBL364452	6.350000	450.000000	20955	2005	In vitro inhibitory concentration towards kinesin spindle protein activity of ATP hydrolysis in the presence of microtubules measured by ATPase assay (n=3)
307036	CHEMBL364452	6.350000	450.000000	31217	2006	Inhibition of KSP by ATPase assay
55322	CHEMBL1163629	6.340000	454.000000	51606	2010	Inhibition of human Eg5 expressed in Escherichia coli assessed as microtubule-activated ATPase activity by spectrophotometry
311342	CHEMBL370956	6.340000	460.000000	20955	2005	In vitro inhibitory concentration towards kinesin spindle protein activity of ATP hydrolysis in the presence of microtubules measured by ATPase assay (n=3)
570864	CHEMBL1163742	6.340000	462.000000	51606	2010	Inhibition of human Eg5 expressed in Escherichia coli assessed as microtubule-activated ATPase activity by spectrophotometry
326220	CHEMBL388313	6.320000	480.000000	36042	2007	Inhibition of human KSP expressed in Escherichia coli assessed by ATPase assay
209431	CHEMBL242182	6.320000	482.000000	36683	2007	Inhibition of human KSP motor domain by ATPase assay
22564	CHEMBL1163525	6.320000	483.000000	51606	2010	Inhibition of human Eg5 expressed in Escherichia coli assessed as microtubule-activated ATPase activity by spectrophotometry
550943	CHEMBL1083521	6.300000	500.000000	50502	2010	Inhibition of ATPase activity of human recombinant EG5 assessed as ATP hydrolysis by pyruvate kinase-lactate dehydrogenase coupled assay
544819	CHEMBL1829413	6.300000	500.000000	59040	2011	Inhibition of human recombinant C-terminal His6-tagged KSP ATPase activity after 1 hr by malachite green assay
209274	CHEMBL241936	6.300000	502.000000	36683	2007	Inhibition of human KSP motor domain by ATPase assay
574712	CHEMBL1171980	6.290000	510.000000	51846	2010	Inhibition of human C-terminally His6-tagged microtubule-activated KSP motor domain ATPase activity after 30 mins by luciferase-derived luminescence assay
421579	CHEMBL491384	6.280000	520.000000	42480	2007	Inhibition of basal ATPase activity of human Eg5
484124	CHEMBL561696	6.280000	520.000000	47358	2009	Inhibition of human kinesin spindle protein by endpoint assay
421579	CHEMBL491384	6.280000	520.000000	72794	2013	Inhibition of Eg5 assessed as inhibition of microtubule-induced ATPase activity (unknown origin)
20135931	CHEMBL3356912	6.280000	520.000000	90431	2014	Inhibition of Eg5 (unknown origin)
547070	CHEMBL1084391	6.280000	530.000000	50502	2010	Inhibition of ATPase activity of human recombinant EG5 assessed as ATP hydrolysis by pyruvate kinase-lactate dehydrogenase coupled assay
555412	CHEMBL1077337	6.270000	540.000000	50502	2010	Inhibition of ATPase activity of human recombinant EG5 assessed as ATP hydrolysis by pyruvate kinase-lactate dehydrogenase coupled assay
993386	CHEMBL1688930	6.260000	548.900000	56093	2011	Inhibition of C-terminal His6-tagged human Eg5 microtubule-stimulated ATPase activity
19890670	CHEMBL3288966	6.260000	550.000000	83778	2014	Inhibition of C-terminal His-tagged KSP ATPase motor domain (unknown origin) expressed in bacteria incubated for 30 mins prior to ATP addition measured after 15 mins by luminescence assay
179613	CHEMBL209310	6.260000	552.000000	31217	2006	Inhibition of KSP by ATPase assay
318584	CHEMBL378184	6.230000	585.000000	31217	2006	Inhibition of KSP by ATPase assay
327677	CHEMBL382406	6.220000	606.000000	31217	2006	Inhibition of KSP by ATPase assay
548878	CHEMBL1829398	6.210000	610.000000	59040	2011	Inhibition of human recombinant C-terminal His6-tagged KSP ATPase activity after 1 hr by malachite green assay
331610	CHEMBL392695	6.210000	620.000000	58720	2011	Inhibition of human recombinant microtubule-activated KSP motor domain ATPase activity after 10 mins by end-point assay
547045	CHEMBL1829256	6.200000	630.000000	59040	2011	Inhibition of human recombinant C-terminal His6-tagged KSP ATPase activity after 1 hr by malachite green assay
320798	CHEMBL377009	6.190000	650.000000	31581	2006	Inhibition of human Eg5 ATPase activity
421579	CHEMBL491384	6.190000	650.000000	42480	2007	Inhibition of microtubule-stimulated human Eg5 ATPase activity
1242137	CHEMBL2347649	6.190000	650.000000	72794	2013	Inhibition of Eg5 (unknown origin)
579778	CHEMBL1163890	6.180000	664.000000	51606	2010	Inhibition of human Eg5 expressed in Escherichia coli assessed as microtubule-activated ATPase activity by spectrophotometry
340075	CHEMBL398232	6.160000	685.000000	36683	2007	Inhibition of human KSP motor domain by ATPase assay
178618	CHEMBL208864	6.160000	686.000000	31217	2006	Inhibition of KSP by ATPase assay
325215	CHEMBL383402	6.160000	697.000000	31217	2006	Inhibition of KSP by ATPase assay
209936	CHEMBL244264	6.150000	700.000000	36683	2007	Inhibition of human KSP motor domain by ATPase assay
576118	CHEMBL1163892	6.150000	710.000000	51606	2010	Inhibition of human Eg5 expressed in Escherichia coli assessed as microtubule-activated ATPase activity by spectrophotometry
337692	CHEMBL394512	6.150000	716.000000	36683	2007	Inhibition of human KSP motor domain by ATPase assay
556227	CHEMBL1089393	6.140000	720.000000	50502	2010	Inhibition of ATPase activity of human recombinant EG5 assessed as ATP hydrolysis by pyruvate kinase-lactate dehydrogenase coupled assay
576600	CHEMBL1164257	6.140000	724.000000	51606	2010	Inhibition of human Eg5 expressed in Escherichia coli assessed as microtubule-activated ATPase activity by spectrophotometry
662066	CHEMBL383759	6.130000	745.000000	31217	2006	Inhibition of KSP by ATPase assay
551768	CHEMBL1829252	6.120000	760.000000	59040	2011	Inhibition of human recombinant C-terminal His6-tagged KSP ATPase activity after 1 hr by malachite green assay
361586	CHEMBL430383	6.100000	792.000000	36683	2007	Inhibition of human KSP motor domain by ATPase assay
218658	CHEMBL252340	6.100000	800.000000	72794	2013	Inhibition of Eg5 (unknown origin)
218658	CHEMBL252340	6.100000	800.000000	89825	2014	Inhibition of Eg5 (unknown origin)
36147052	CHEMBL4089675	6.100000	800.000000	104223	2017	Inhibition of EG5 (unknown origin)
19890685	CHEMBL3288981	6.090000	810.000000	83778	2014	Inhibition of C-terminal His-tagged KSP ATPase motor domain (unknown origin) expressed in bacteria incubated for 30 mins prior to ATP addition measured after 15 mins by luminescence assay
19890705	CHEMBL3289001	6.090000	810.000000	83778	2014	Inhibition of C-terminal His-tagged KSP ATPase motor domain (unknown origin) expressed in bacteria incubated for 30 mins prior to ATP addition measured after 15 mins by luminescence assay
537708	CHEMBL1818757	6.080000	828.000000	58725	2011	Inhibition of human ATPase activity KSP expressed in Escherichia coli after 30 mins by spectrophotometric analysis
208975	CHEMBL244075	6.080000	840.000000	36683	2007	Inhibition of human KSP motor domain by ATPase assay
564223	CHEMBL1098378	6.060000	870.000000	50502	2010	Inhibition of ATPase activity of human recombinant EG5 assessed as ATP hydrolysis by pyruvate kinase-lactate dehydrogenase coupled assay
644932	CHEMBL208346	6.050000	892.000000	31217	2006	Inhibition of KSP by ATPase assay
177220	CHEMBL206967	6.040000	903.000000	31217	2006	Inhibition of KSP by ATPase assay
19890712	CHEMBL3289008	6.040000	920.000000	83778	2014	Inhibition of C-terminal His-tagged KSP ATPase motor domain (unknown origin) expressed in bacteria incubated for 30 mins prior to ATP addition measured after 15 mins by luminescence assay
1085860	CHEMBL1829408	6.030000	940.000000	59040	2011	Inhibition of human recombinant C-terminal His6-tagged KSP ATPase activity after 1 hr by malachite green assay
587520	CHEMBL1170444	6.020000	950.000000	51846	2010	Inhibition of human C-terminally His6-tagged microtubule-activated KSP motor domain ATPase activity after 30 mins by luciferase-derived luminescence assay
637620	CHEMBL1277383	6.020000	960.000000	53885	2010	Inhibition of human full-length Eg5 ATPase activity expressed in Escherichia coli assessed as release of inorganic phosphate after 30 mins
327748	CHEMBL380186	6.010000	980.000000	31581	2006	Inhibition of human Eg5 ATPase activity
545217	CHEMBL1829416	6.010000	980.000000	59040	2011	Inhibition of human recombinant C-terminal His6-tagged KSP ATPase activity after 1 hr by malachite green assay
331610	CHEMBL392695	6.000000	1000.000000	72794	2013	Inhibition of human Eg5 catalytic domain basal ATPase activity after 25 mins by spectrophotometric analysis
534064	CHEMBL1818762	5.980000	1047.000000	58725	2011	Inhibition of human ATPase activity KSP expressed in Escherichia coli after 30 mins by spectrophotometric analysis
638528	CHEMBL1277111	5.970000	1060.000000	53885	2010	Inhibition of human full-length Eg5 ATPase activity expressed in Escherichia coli assessed as release of inorganic phosphate after 30 mins
548479	CHEMBL1829405	5.970000	1060.000000	59040	2011	Inhibition of human recombinant C-terminal His6-tagged KSP ATPase activity after 1 hr by malachite green assay
20411887	CHEMBL3633528	5.970000	1060.000000	93872	2015	Inhibition of His-tagged KSP motor domain (1 to 369) (unknown origin) assessed as inhibition of microtubule-stimulated KSP ATPase activity preincuabted for 30 mins followed by ATP addition measured after 15 mins by Kinase-Glo assay
545914	CHEMBL1829260	5.970000	1070.000000	59040	2011	Inhibition of human recombinant C-terminal His6-tagged KSP ATPase activity after 1 hr by malachite green assay
165349	CHEMBL194147	5.960000	1100.000000	20955	2005	In vitro inhibitory concentration towards kinesin spindle protein activity of ATP hydrolysis in the presence of microtubules measured by ATPase assay (n=3)
551456	CHEMBL1084392	5.960000	1100.000000	50502	2010	Inhibition of ATPase activity of human recombinant EG5 assessed as ATP hydrolysis by pyruvate kinase-lactate dehydrogenase coupled assay
223796	CHEMBL259257	5.940000	1152.600000	56093	2011	Inhibition of C-terminal His6-tagged human Eg5 microtubule-stimulated ATPase activity
540153	CHEMBL1818676	5.930000	1178.000000	58725	2011	Inhibition of human ATPase activity KSP expressed in Escherichia coli after 30 mins by spectrophotometric analysis
313707	CHEMBL370051	5.920000	1200.000000	20955	2005	In vitro inhibitory concentration towards kinesin spindle protein activity of ATP hydrolysis in the presence of microtubules measured by ATPase assay (n=3)
19890692	CHEMBL3288988	5.920000	1200.000000	83778	2014	Inhibition of C-terminal His-tagged KSP ATPase motor domain (unknown origin) expressed in bacteria incubated for 30 mins prior to ATP addition measured after 15 mins by luminescence assay
982432	CHEMBL1688926	5.910000	1244.000000	56093	2011	Inhibition of C-terminal His6-tagged human Eg5 microtubule-stimulated ATPase activity
539273	CHEMBL1078573	5.900000	1250.000000	50502	2010	Inhibition of ATPase activity of human recombinant EG5 assessed as ATP hydrolysis by pyruvate kinase-lactate dehydrogenase coupled assay
478323	CHEMBL552152	5.890000	1300.000000	47358	2009	Inhibition of human kinesin spindle protein by endpoint assay
762602	CHEMBL1413473	5.890000	1300.000000	72794	2013	Inhibition of Eg5 in human HCT116 cells assessed as inhibition of microtubule-induced ATPase activity after 18 hrs
762602	CHEMBL1413473	5.890000	1300.000000	90431	2014	Inhibition of Eg5 (unknown origin)
535334	CHEMBL1818752	5.880000	1307.000000	58725	2011	Inhibition of human ATPase activity KSP expressed in Escherichia coli after 30 mins by spectrophotometric analysis
210616	CHEMBL244125	5.860000	1382.000000	36683	2007	Inhibition of human KSP motor domain by ATPase assay
544820	CHEMBL1829414	5.860000	1390.000000	59040	2011	Inhibition of human recombinant C-terminal His6-tagged KSP ATPase activity after 1 hr by malachite green assay
489772	CHEMBL564468	5.850000	1400.000000	47358	2009	Inhibition of human kinesin spindle protein by endpoint assay
651893	CHEMBL1171079	5.850000	1400.000000	51846	2010	Inhibition of human C-terminally His6-tagged microtubule-activated KSP motor domain ATPase activity after 30 mins by luciferase-derived luminescence assay
20411897	CHEMBL3633538	5.850000	1400.000000	93872	2015	Inhibition of His-tagged KSP motor domain (1 to 369) (unknown origin) assessed as inhibition of microtubule-stimulated KSP ATPase activity preincuabted for 30 mins followed by ATP addition measured after 15 mins by Kinase-Glo assay
208978	CHEMBL244078	5.850000	1422.000000	36683	2007	Inhibition of human KSP motor domain by ATPase assay
545915	CHEMBL1829261	5.840000	1440.000000	59040	2011	Inhibition of human recombinant C-terminal His6-tagged KSP ATPase activity after 1 hr by malachite green assay
535333	CHEMBL1818750	5.840000	1443.000000	58725	2011	Inhibition of human ATPase activity KSP expressed in Escherichia coli after 30 mins by spectrophotometric analysis
340247	CHEMBL396772	5.840000	1448.000000	36683	2007	Inhibition of human KSP motor domain by ATPase assay
538335	CHEMBL1818753	5.830000	1485.000000	58725	2011	Inhibition of human ATPase activity KSP expressed in Escherichia coli after 30 mins by spectrophotometric analysis
575818	CHEMBL1170460	5.820000	1500.000000	51846	2010	Inhibition of human C-terminally His6-tagged microtubule-activated KSP motor domain ATPase activity after 30 mins by luciferase-derived luminescence assay
1093954	CHEMBL1938593	5.820000	1520.000000	60738	2011	Inhibition of mitotic kinesin Eg5 in human transformed WI38VA13 cells assessed as inhibition of microtubule-activated ATPase activity
981942	CHEMBL1688924	5.800000	1578.000000	56093	2011	Inhibition of C-terminal His6-tagged human Eg5 microtubule-stimulated ATPase activity
582312	CHEMBL1173069	5.800000	1600.000000	51846	2010	Inhibition of human C-terminally His6-tagged microtubule-activated KSP motor domain ATPase activity after 30 mins by luciferase-derived luminescence assay
582386	CHEMBL1173621	5.800000	1600.000000	51846	2010	Inhibition of human C-terminally His6-tagged microtubule-activated KSP motor domain ATPase activity after 30 mins by luciferase-derived luminescence assay
993387	CHEMBL1688931	5.790000	1634.300000	56093	2011	Inhibition of C-terminal His6-tagged human Eg5 microtubule-stimulated ATPase activity
207879	CHEMBL242142	5.780000	1649.000000	36683	2007	Inhibition of human KSP motor domain by ATPase assay
196163	CHEMBL228369	5.770000	1700.000000	36042	2007	Inhibition of human KSP expressed in Escherichia coli assessed by ATPase assay
581852	CHEMBL1165639	5.770000	1703.000000	51606	2010	Inhibition of human Eg5 expressed in Escherichia coli assessed as microtubule-activated ATPase activity by spectrophotometry
208977	CHEMBL244077	5.750000	1795.000000	36683	2007	Inhibition of human KSP motor domain by ATPase assay
311885	CHEMBL365553	5.740000	1800.000000	20955	2005	In vitro inhibitory concentration towards kinesin spindle protein activity of ATP hydrolysis in the presence of microtubules measured by ATPase assay (n=3)
165285	CHEMBL195274	5.740000	1800.000000	20955	2005	In vitro inhibitory concentration towards kinesin spindle protein activity of ATP hydrolysis in the presence of microtubules measured by ATPase assay (n=3)
555399	CHEMBL1829424	5.720000	1900.000000	59040	2011	Inhibition of human recombinant C-terminal His6-tagged KSP ATPase activity after 1 hr by malachite green assay
331610	CHEMBL392695	5.720000	1900.000000	93872	2015	Inhibition of His-tagged KSP motor domain (1 to 369) (unknown origin) assessed as inhibition of microtubule-stimulated KSP ATPase activity preincuabted for 30 mins followed by ATP addition measured after 15 mins by Kinase-Glo assay
327417	CHEMBL380181	5.720000	1920.000000	31581	2006	Inhibition of human Eg5 ATPase activity
535626	CHEMBL1818748	5.710000	1943.000000	58725	2011	Inhibition of human ATPase activity KSP expressed in Escherichia coli after 30 mins by spectrophotometric analysis
981943	CHEMBL1688925	5.710000	1970.000000	56093	2011	Inhibition of C-terminal His6-tagged human Eg5 microtubule-stimulated ATPase activity
589000	CHEMBL1213954	5.700000	2000.000000	52166	2010	Inhibition of human kinesin Eg5
589000	CHEMBL1213954	5.700000	2000.000000	72794	2013	Inhibition of Eg5 (unknown origin)
19890678	CHEMBL3288974	5.700000	2000.000000	83778	2014	Inhibition of C-terminal His-tagged KSP ATPase motor domain (unknown origin) expressed in bacteria incubated for 30 mins prior to ATP addition measured after 15 mins by luminescence assay
207952	CHEMBL242150	5.700000	2002.000000	36683	2007	Inhibition of human KSP motor domain by ATPase assay
482599	CHEMBL557683	5.680000	2100.000000	47358	2009	Inhibition of human kinesin spindle protein by endpoint assay
486068	CHEMBL558477	5.660000	2200.000000	47358	2009	Inhibition of human kinesin spindle protein by endpoint assay
486067	CHEMBL558476	5.640000	2300.000000	47358	2009	Inhibition of human kinesin spindle protein by endpoint assay
534802	CHEMBL1078873	5.640000	2300.000000	50502	2010	Inhibition of ATPase activity of human recombinant EG5 assessed as ATP hydrolysis by pyruvate kinase-lactate dehydrogenase coupled assay
545218	CHEMBL1829417	5.640000	2310.000000	59040	2011	Inhibition of human recombinant C-terminal His6-tagged KSP ATPase activity after 1 hr by malachite green assay
530139	CHEMBL1818749	5.630000	2345.000000	58725	2011	Inhibition of human ATPase activity KSP expressed in Escherichia coli after 30 mins by spectrophotometric analysis
454203	CHEMBL538431	5.620000	2400.000000	47358	2009	Inhibition of human kinesin spindle protein by endpoint assay
634987	CHEMBL1277293	5.610000	2460.000000	53885	2010	Inhibition of human full-length Eg5 ATPase activity expressed in Escherichia coli assessed as release of inorganic phosphate after 30 mins
540375	CHEMBL1829404	5.610000	2460.000000	59040	2011	Inhibition of human recombinant C-terminal His6-tagged KSP ATPase activity after 1 hr by malachite green assay
479341	CHEMBL557885	5.600000	2500.000000	47358	2009	Inhibition of human kinesin spindle protein by endpoint assay
207942	CHEMBL242141	5.600000	2518.000000	36683	2007	Inhibition of human KSP motor domain by ATPase assay
539543	CHEMBL1829411	5.570000	2700.000000	59040	2011	Inhibition of human recombinant C-terminal His6-tagged KSP ATPase activity after 1 hr by malachite green assay
534602	CHEMBL1818771	5.560000	2767.000000	58725	2011	Inhibition of human ATPase activity KSP expressed in Escherichia coli after 30 mins by spectrophotometric analysis
596410	CHEMBL390303	5.550000	2800.000000	36042	2007	Inhibition of human KSP expressed in Escherichia coli assessed by ATPase assay
577636	CHEMBL1171435	5.550000	2800.000000	51846	2010	Inhibition of human C-terminally His6-tagged microtubule-activated KSP motor domain ATPase activity after 30 mins by luciferase-derived luminescence assay
635237	CHEMBL1278096	5.550000	2820.000000	53885	2010	Inhibition of human full-length Eg5 ATPase activity expressed in Escherichia coli assessed as release of inorganic phosphate after 30 mins
549142	CHEMBL1829262	5.530000	2920.000000	59040	2011	Inhibition of human recombinant C-terminal His6-tagged KSP ATPase activity after 1 hr by malachite green assay
534258	CHEMBL1818770	5.530000	2942.000000	58725	2011	Inhibition of human ATPase activity KSP expressed in Escherichia coli after 30 mins by spectrophotometric analysis
164186	CHEMBL193686	5.510000	3100.000000	20955	2005	In vitro inhibitory concentration towards kinesin spindle protein activity of ATP hydrolysis in the presence of microtubules measured by ATPase assay (n=3)
174964	CHEMBL204369	5.510000	3100.000000	30963	2006	Inhibition of KSP
605061	CHEMBL390721	5.510000	3100.000000	36042	2007	Inhibition of human KSP expressed in Escherichia coli assessed by ATPase assay
164186	CHEMBL193686	5.500000	3140.000000	31217	2006	Inhibition of KSP by ATPase assay
581205	CHEMBL1170845	5.490000	3200.000000	51846	2010	Inhibition of human C-terminally His6-tagged microtubule-activated KSP motor domain ATPase activity after 30 mins by luciferase-derived luminescence assay
551699	CHEMBL1829419	5.490000	3210.000000	59040	2011	Inhibition of human recombinant C-terminal His6-tagged KSP ATPase activity after 1 hr by malachite green assay
317696	CHEMBL375929	5.480000	3300.000000	36042	2007	Inhibition of human KSP expressed in Escherichia coli assessed by ATPase assay
585904	CHEMBL1169609	5.480000	3300.000000	51846	2010	Inhibition of human C-terminally His6-tagged microtubule-activated KSP motor domain ATPase activity after 30 mins by luciferase-derived luminescence assay
637619	CHEMBL1277382	5.480000	3320.000000	53885	2010	Inhibition of human full-length Eg5 ATPase activity expressed in Escherichia coli assessed as release of inorganic phosphate after 30 mins
528756	CHEMBL1818760	5.470000	3409.000000	58725	2011	Inhibition of human ATPase activity KSP expressed in Escherichia coli after 30 mins by spectrophotometric analysis
576483	CHEMBL1164547	5.460000	3453.000000	51606	2010	Inhibition of human Eg5 expressed in Escherichia coli assessed as microtubule-activated ATPase activity by spectrophotometry
230255	CHEMBL267361	5.460000	3500.000000	36042	2007	Inhibition of human KSP expressed in Escherichia coli assessed by ATPase assay
1087133	CHEMBL1829253	5.460000	3500.000000	59040	2011	Inhibition of human recombinant C-terminal His6-tagged KSP ATPase activity after 1 hr by malachite green assay
361974	CHEMBL426141	5.460000	3500.000000	72794	2013	Inhibition of Eg5 basal ATPase activity (unknown origin)
166216	CHEMBL195760	5.440000	3600.000000	20955	2005	In vitro inhibitory concentration towards kinesin spindle protein activity of ATP hydrolysis in the presence of microtubules measured by ATPase assay (n=3)
165422	CHEMBL195436	5.440000	3600.000000	20955	2005	In vitro inhibitory concentration towards kinesin spindle protein activity of ATP hydrolysis in the presence of microtubules measured by ATPase assay (n=3)
19890703	CHEMBL3288999	5.440000	3600.000000	83778	2014	Inhibition of C-terminal His-tagged KSP ATPase motor domain (unknown origin) expressed in bacteria incubated for 30 mins prior to ATP addition measured after 15 mins by luminescence assay
549891	CHEMBL1083829	5.430000	3700.000000	50502	2010	Inhibition of ATPase activity of human recombinant EG5 assessed as ATP hydrolysis by pyruvate kinase-lactate dehydrogenase coupled assay
319465	CHEMBL377666	5.430000	3720.000000	31581	2006	Inhibition of human Eg5 ATPase activity
210175	CHEMBL243640	5.430000	3726.000000	36683	2007	Inhibition of human KSP motor domain by ATPase assay
551794	CHEMBL1829254	5.420000	3800.000000	59040	2011	Inhibition of human recombinant C-terminal His6-tagged KSP ATPase activity after 1 hr by malachite green assay
366335	CHEMBL435929	5.410000	3900.000000	36042	2007	Inhibition of human KSP expressed in Escherichia coli assessed by ATPase assay
532407	CHEMBL1818751	5.400000	3959.000000	58725	2011	Inhibition of human ATPase activity KSP expressed in Escherichia coli after 30 mins by spectrophotometric analysis
172485	CHEMBL203181	5.400000	4000.000000	30963	2006	Inhibition of KSP
652574	CHEMBL388097	5.390000	4100.000000	36042	2007	Inhibition of human KSP expressed in Escherichia coli assessed by ATPase assay
549033	CHEMBL1829268	5.370000	4220.000000	59040	2011	Inhibition of human recombinant C-terminal His6-tagged KSP ATPase activity after 1 hr by malachite green assay
196035	CHEMBL228748	5.370000	4300.000000	36042	2007	Inhibition of human KSP expressed in Escherichia coli assessed by ATPase assay
551159	CHEMBL1829266	5.340000	4540.000000	59040	2011	Inhibition of human recombinant C-terminal His6-tagged KSP ATPase activity after 1 hr by malachite green assay
582387	CHEMBL1173622	5.340000	4600.000000	51846	2010	Inhibition of human C-terminally His6-tagged microtubule-activated KSP motor domain ATPase activity after 30 mins by luciferase-derived luminescence assay
19890701	CHEMBL3288997	5.340000	4600.000000	83778	2014	Inhibition of C-terminal His-tagged KSP ATPase motor domain (unknown origin) expressed in bacteria incubated for 30 mins prior to ATP addition measured after 15 mins by luminescence assay
487629	CHEMBL565195	5.320000	4800.000000	47358	2009	Inhibition of human kinesin spindle protein by endpoint assay
491417	CHEMBL564451	5.300000	5000.000000	47358	2009	Inhibition of human kinesin spindle protein by endpoint assay
634484	CHEMBL564181	5.280000	5200.000000	47358	2009	Inhibition of human kinesin spindle protein by endpoint assay
1551	CHEMBL1077303	5.280000	5300.000000	50502	2010	Inhibition of ATPase activity of human recombinant EG5 assessed as ATP hydrolysis by pyruvate kinase-lactate dehydrogenase coupled assay
361974	CHEMBL426141	5.280000	5300.000000	72794	2013	Inhibition of Eg5 assessed as inhibition of microtubule-induced ATPase activity (unknown origin)
551795	CHEMBL1829255	5.270000	5310.000000	59040	2011	Inhibition of human recombinant C-terminal His6-tagged KSP ATPase activity after 1 hr by malachite green assay
209399	CHEMBL242993	5.270000	5320.000000	36683	2007	Inhibition of human KSP motor domain by ATPase assay
548611	CHEMBL1829429	5.260000	5460.000000	59040	2011	Inhibition of human recombinant C-terminal His6-tagged KSP ATPase activity after 1 hr by malachite green assay
611727	CHEMBL236789	5.260000	5470.000000	53885	2010	Inhibition of human full-length Eg5 ATPase activity expressed in Escherichia coli assessed as release of inorganic phosphate after 30 mins
551138	CHEMBL1829265	5.260000	5520.000000	59040	2011	Inhibition of human recombinant C-terminal His6-tagged KSP ATPase activity after 1 hr by malachite green assay
578635	CHEMBL1173162	5.250000	5600.000000	51846	2010	Inhibition of human C-terminally His6-tagged microtubule-activated KSP motor domain ATPase activity after 30 mins by luciferase-derived luminescence assay
635570	CHEMBL1277473	5.250000	5650.000000	53885	2010	Inhibition of human full-length Eg5 ATPase activity expressed in Escherichia coli assessed as release of inorganic phosphate after 30 mins
195262	CHEMBL229022	5.230000	5900.000000	36042	2007	Inhibition of human KSP expressed in Escherichia coli assessed by ATPase assay
542179	CHEMBL1829412	5.220000	5960.000000	59040	2011	Inhibition of human recombinant C-terminal His6-tagged KSP ATPase activity after 1 hr by malachite green assay
549143	CHEMBL1829263	5.220000	5990.000000	59040	2011	Inhibition of human recombinant C-terminal His6-tagged KSP ATPase activity after 1 hr by malachite green assay
311065	CHEMBL370246	5.220000	6000.000000	20955	2005	In vitro inhibitory concentration towards kinesin spindle protein activity of ATP hydrolysis in the presence of microtubules measured by ATPase assay (n=3)
195182	CHEMBL229014	5.220000	6000.000000	36042	2007	Inhibition of human KSP expressed in Escherichia coli assessed by ATPase assay
362231	CHEMBL429816	5.220000	6000.000000	36683	2007	Inhibition of human KSP motor domain by ATPase assay
493207	CHEMBL563993	5.220000	6000.000000	47358	2009	Inhibition of human kinesin spindle protein by endpoint assay
371885	CHEMBL438436	5.220000	6060.000000	31581	2006	Inhibition of human Eg5 ATPase activity
551160	CHEMBL1829267	5.170000	6700.000000	59040	2011	Inhibition of human recombinant C-terminal His6-tagged KSP ATPase activity after 1 hr by malachite green assay
543776	CHEMBL1078997	5.170000	6800.000000	50502	2010	Inhibition of ATPase activity of human recombinant EG5 assessed as ATP hydrolysis by pyruvate kinase-lactate dehydrogenase coupled assay
20536684	CHEMBL3895911	5.170000	6800.000000	101726	2016	Inhibition of microtubule-stimulated kinesin spindle protein motor domain (unknown origin) ATPase activity preincubated for 20 mins followed by ATP addition measured after 15 mins by kinase-glo based luciferase reporter gene assay
181248	CHEMBL212145	5.160000	6880.000000	31581	2006	Inhibition of human Eg5 ATPase activity
321674	CHEMBL381219	5.160000	6900.000000	20955	2005	In vitro inhibitory concentration towards kinesin spindle protein activity of ATP hydrolysis in the presence of microtubules measured by ATPase assay (n=3)
487314	CHEMBL562019	5.160000	6900.000000	47358	2009	Inhibition of human kinesin spindle protein by endpoint assay
19890666	CHEMBL3288961	5.150000	7000.000000	83778	2014	Inhibition of C-terminal His-tagged KSP ATPase motor domain (unknown origin) expressed in bacteria incubated for 30 mins prior to ATP addition measured after 15 mins by luminescence assay
218658	CHEMBL252340	5.150000	7100.000000	51846	2010	Inhibition of human C-terminally His6-tagged microtubule-activated KSP motor domain ATPase activity after 30 mins by luciferase-derived luminescence assay
211669	CHEMBL244690	5.140000	7200.000000	36683	2007	Inhibition of human KSP motor domain by ATPase assay
361974	CHEMBL426141	5.140000	7300.000000	31534	2006	Inhibition of kinesin ATPase activity by enzyme-linked inorganic phosphate detection assay with 5 mins pre-incubation
315869	CHEMBL375928	5.130000	7400.000000	36042	2007	Inhibition of human KSP expressed in Escherichia coli assessed by ATPase assay
489211	CHEMBL563643	5.130000	7400.000000	47358	2009	Inhibition of human kinesin spindle protein by endpoint assay
611727	CHEMBL236789	5.130000	7452.000000	58725	2011	Inhibition of human ATPase activity KSP expressed in Escherichia coli after 30 mins by spectrophotometric analysis
195217	CHEMBL228801	5.120000	7500.000000	36042	2007	Inhibition of human KSP expressed in Escherichia coli assessed by ATPase assay
580326	CHEMBL1172721	5.120000	7500.000000	51846	2010	Inhibition of human C-terminally His6-tagged microtubule-activated KSP motor domain ATPase activity after 30 mins by luciferase-derived luminescence assay
209427	CHEMBL242180	5.110000	7682.000000	36683	2007	Inhibition of human KSP motor domain by ATPase assay
20411892	CHEMBL3633533	5.110000	7800.000000	93872	2015	Inhibition of His-tagged KSP motor domain (1 to 369) (unknown origin) assessed as inhibition of microtubule-stimulated KSP ATPase activity preincuabted for 30 mins followed by ATP addition measured after 15 mins by Kinase-Glo assay
466204	CHEMBL549737	5.100000	7900.000000	47358	2009	Inhibition of human kinesin spindle protein by endpoint assay
318381	CHEMBL374609	5.090000	8100.000000	36042	2007	Inhibition of human KSP expressed in Escherichia coli assessed by ATPase assay
325891	CHEMBL388099	5.070000	8600.000000	36042	2007	Inhibition of human KSP expressed in Escherichia coli assessed by ATPase assay
581803	CHEMBL1172905	5.060000	8800.000000	51846	2010	Inhibition of human C-terminally His6-tagged microtubule-activated KSP motor domain ATPase activity after 30 mins by luciferase-derived luminescence assay
550566	CHEMBL1829245	5.050000	9000.000000	59040	2011	Inhibition of human recombinant C-terminal His6-tagged KSP ATPase activity after 1 hr by malachite green assay
547900	CHEMBL1829269	5.050000	9000.000000	59040	2011	Inhibition of human recombinant C-terminal His6-tagged KSP ATPase activity after 1 hr by malachite green assay
550317	CHEMBL1829442	5.050000	9000.000000	59040	2011	Inhibition of human recombinant C-terminal His6-tagged KSP ATPase activity after 1 hr by malachite green assay
547046	CHEMBL1829257	5.040000	9090.000000	59040	2011	Inhibition of human recombinant C-terminal His6-tagged KSP ATPase activity after 1 hr by malachite green assay
488349	CHEMBL562353	5.040000	9200.000000	47358	2009	Inhibition of human kinesin spindle protein by endpoint assay
329002	CHEMBL380814	5.010000	9800.000000	20955	2005	In vitro inhibitory concentration towards kinesin spindle protein activity of ATP hydrolysis in the presence of microtubules measured by ATPase assay (n=3)
196217	CHEMBL228689	5.000000	9900.000000	36042	2007	Inhibition of human KSP expressed in Escherichia coli assessed by ATPase assay
539007	CHEMBL1818759	5.000000	9925.000000	58725	2011	Inhibition of human ATPase activity KSP expressed in Escherichia coli after 30 mins by spectrophotometric analysis
218480	CHEMBL254432	5.000000	10000.000000	20955	2005	In vitro inhibitory concentration towards kinesin spindle protein activity of ATP hydrolysis in the presence of microtubules measured by ATPase assay (n=3)
536008	CHEMBL1078393	5.000000	10000.000000	50502	2010	Inhibition of ATPase activity of human recombinant EG5 assessed as ATP hydrolysis by pyruvate kinase-lactate dehydrogenase coupled assay
560466	CHEMBL1098693	5.000000	10000.000000	50502	2010	Inhibition of ATPase activity of human recombinant EG5 assessed as ATP hydrolysis by pyruvate kinase-lactate dehydrogenase coupled assay
551137	CHEMBL1829264	5.000000	10000.000000	59040	2011	Inhibition of human recombinant C-terminal His6-tagged KSP ATPase activity after 1 hr by malachite green assay
637249	CHEMBL1277199	4.980000	10360.000000	53885	2010	Inhibition of human full-length Eg5 ATPase activity expressed in Escherichia coli assessed as release of inorganic phosphate after 30 mins
163182	CHEMBL191406	4.960000	10900.000000	20955	2005	In vitro inhibitory concentration towards kinesin spindle protein activity of ATP hydrolysis in the presence of microtubules measured by ATPase assay (n=3)
210095	CHEMBL244512	4.960000	10904.000000	36683	2007	Inhibition of human KSP motor domain by ATPase assay
2626	CHEMBL1170659	4.960000	11000.000000	51846	2010	Inhibition of human C-terminally His6-tagged microtubule-activated KSP motor domain ATPase activity after 30 mins by luciferase-derived luminescence assay
602193	CHEMBL1172394	4.960000	11000.000000	51846	2010	Inhibition of human C-terminally His6-tagged microtubule-activated KSP motor domain ATPase activity after 30 mins by luciferase-derived luminescence assay
576671	CHEMBL1171078	4.960000	11000.000000	51846	2010	Inhibition of human C-terminally His6-tagged microtubule-activated KSP motor domain ATPase activity after 30 mins by luciferase-derived luminescence assay
195916	CHEMBL228270	4.920000	12000.000000	36042	2007	Inhibition of human KSP expressed in Escherichia coli assessed by ATPase assay
570865	CHEMBL1163743	4.910000	12378.000000	51606	2010	Inhibition of human Eg5 expressed in Escherichia coli assessed as microtubule-activated ATPase activity by spectrophotometry
321675	CHEMBL381220	4.900000	12700.000000	20955	2005	In vitro inhibitory concentration towards kinesin spindle protein activity of ATP hydrolysis in the presence of microtubules measured by ATPase assay (n=3)
196167	CHEMBL228370	4.890000	13000.000000	36042	2007	Inhibition of human KSP expressed in Escherichia coli assessed by ATPase assay
575938	CHEMBL1172395	4.890000	13000.000000	51846	2010	Inhibition of human C-terminally His6-tagged microtubule-activated KSP motor domain ATPase activity after 30 mins by luciferase-derived luminescence assay
473172	CHEMBL551230	4.870000	13400.000000	47358	2009	Inhibition of human kinesin spindle protein by endpoint assay
166062	CHEMBL195659	4.870000	13500.000000	20955	2005	In vitro inhibitory concentration towards kinesin spindle protein activity of ATP hydrolysis in the presence of microtubules measured by ATPase assay (n=3)
361974	CHEMBL426141	4.860000	13900.000000	31534	2006	Inhibition of kinesin ATPase activity by enzyme-linked inorganic phosphate detection assay without preincubation
575937	CHEMBL1172393	4.850000	14000.000000	51846	2010	Inhibition of human C-terminally His6-tagged microtubule-activated KSP motor domain ATPase activity after 30 mins by luciferase-derived luminescence assay
611727	CHEMBL236789	4.850000	14000.000000	71912	2013	Inhibition of Eg5 (unknown origin)
481926	CHEMBL559627	4.790000	16300.000000	47358	2009	Inhibition of human kinesin spindle protein by endpoint assay
20528688	CHEMBL3883765	4.780000	16500.000000	102069	2016	Inhibition of wild type eXact-tagged human Eg5 motor domain (1 to 368 residues) expressed in Escherichia coli BL21(DE3) assessed as reduction in microtubule-stimulated ATPase activity preincubated for 15 mins followed by microtubule addition in the presence of ATP after 6 mins by malachite green method
195977	CHEMBL228424	4.770000	17000.000000	36042	2007	Inhibition of human KSP expressed in Escherichia coli assessed by ATPase assay
577483	CHEMBL1172392	4.770000	17000.000000	51846	2010	Inhibition of human C-terminally His6-tagged microtubule-activated KSP motor domain ATPase activity after 30 mins by luciferase-derived luminescence assay
483961	CHEMBL561294	4.720000	19000.000000	47358	2009	Inhibition of human kinesin spindle protein by endpoint assay
195355	CHEMBL228962	4.700000	20000.000000	36042	2007	Inhibition of human KSP expressed in Escherichia coli assessed by ATPase assay
481173	CHEMBL560558	4.700000	20000.000000	47358	2009	Inhibition of human kinesin spindle protein by endpoint assay
573677	CHEMBL1173640	4.660000	22000.000000	51846	2010	Inhibition of human C-terminally His6-tagged microtubule-activated KSP motor domain ATPase activity after 30 mins by luciferase-derived luminescence assay
595367	CHEMBL389444	4.640000	23000.000000	36042	2007	Inhibition of human KSP expressed in Escherichia coli assessed by ATPase assay
538850	CHEMBL374825	4.640000	23000.000000	36042	2007	Inhibition of human KSP expressed in Escherichia coli assessed by ATPase assay
373546	CHEMBL444714	4.640000	23000.000000	51846	2010	Inhibition of human C-terminally His6-tagged microtubule-activated KSP motor domain ATPase activity after 30 mins by luciferase-derived luminescence assay
1243393	CHEMBL2347650	4.640000	23000.000000	72794	2013	Inhibition of human Eg5 assessed as inhibition of microtubule-induced ATPase activity
1243393	CHEMBL2347650	4.640000	23000.000000	72794	2013	Inhibition of human Eg5 basal ATPase activity
314752	CHEMBL370875	4.630000	23300.000000	20955	2005	In vitro inhibitory concentration towards kinesin spindle protein activity of ATP hydrolysis in the presence of microtubules measured by ATPase assay (n=3)
196172	CHEMBL228382	4.620000	24000.000000	36042	2007	Inhibition of human KSP expressed in Escherichia coli assessed by ATPase assay
581653	CHEMBL1172899	4.600000	25000.000000	51846	2010	Inhibition of human C-terminally His6-tagged microtubule-activated KSP motor domain ATPase activity after 30 mins by luciferase-derived luminescence assay
195216	CHEMBL228800	4.570000	27000.000000	36042	2007	Inhibition of human KSP expressed in Escherichia coli assessed by ATPase assay
565071	CHEMBL1213887	4.520000	30000.000000	52166	2010	Inhibition of human kinesin Eg5
611727	CHEMBL236789	4.520000	30000.000000	72794	2013	Inhibition of Eg5 (unknown origin)
325603	CHEMBL388182	4.480000	33000.000000	36042	2007	Inhibition of human KSP expressed in Escherichia coli assessed by ATPase assay
467033	CHEMBL549531	4.480000	33400.000000	47358	2009	Inhibition of human kinesin spindle protein by endpoint assay
1243393	CHEMBL2347650	4.460000	34700.000000	102069	2016	Inhibition of wild type eXact-tagged human Eg5 motor domain (1 to 368 residues) expressed in Escherichia coli BL21(DE3) assessed as reduction in microtubule-stimulated ATPase activity preincubated for 15 mins followed by microtubule addition in the presence of ATP after 6 mins by malachite green method
534257	CHEMBL1818769	4.430000	37130.000000	58725	2011	Inhibition of human ATPase activity KSP expressed in Escherichia coli after 30 mins by spectrophotometric analysis
313526	CHEMBL370498	4.420000	37600.000000	20955	2005	In vitro inhibitory concentration towards kinesin spindle protein activity of ATP hydrolysis in the presence of microtubules measured by ATPase assay (n=3)
203929	CHEMBL236694	4.400000	40180.000000	53885	2010	Inhibition of human full-length Eg5 ATPase activity expressed in Escherichia coli assessed as release of inorganic phosphate after 30 mins
993388	CHEMBL1688932	4.380000	41700.000000	56093	2011	Inhibition of C-terminal His6-tagged human Eg5 microtubule-stimulated ATPase activity
164807	CHEMBL194076	4.340000	46200.000000	20955	2005	In vitro inhibitory concentration towards kinesin spindle protein activity of ATP hydrolysis in the presence of microtubules measured by ATPase assay (n=3)
321893	CHEMBL382835	4.300000	50000.000000	30963	2006	Inhibition of KSP
195894	CHEMBL228328	4.160000	69000.000000	36042	2007	Inhibition of human KSP expressed in Escherichia coli assessed by ATPase assay
325890	CHEMBL388098	4.120000	76000.000000	36042	2007	Inhibition of human KSP expressed in Escherichia coli assessed by ATPase assay
