lsi_index	chembl-id	pot.(log,IC50)	pot.(muMol,IC50)	doc_id	year	description
17365459	CHEMBL3348846	9.700000	0.200000	103835	2017	Inhibition of recombinant human FGFR1 in presence of ATP
20514465	CHEMBL3827818	9.700000	0.200000	99858	2016	Inhibition of recombinant human FGFR1 using poly (Glu, Tyr) 4:1 as substrate after 60 mins by ELISA
36172577	CHEMBL4102642	9.700000	0.200000	104496	2017	Inhibition of human FGFR1 using 5-FAM-KKKKEEIYFFF-NH2 as substrate preincubated for 15 mins followed by peptide substrate addition measured after 3 hrs by caliper capillary electrophoresis method
36175485	CHEMBL4100258	9.550000	0.280000	105578	2017	Inhibition of human recombinant His-tagged FGFR1 cytoplasmic domain (308 to 731 residues) expressed in baculovirus using Tyr-4 peptide after 1 hr by FRET-based Z'-Lyte assay
20514468	CHEMBL3827492	9.520000	0.300000	99858	2016	Inhibition of recombinant human FGFR1 using poly (Glu, Tyr) 4:1 as substrate after 60 mins by ELISA
16021245	CHEMBL3828009	9.520000	0.300000	99858	2016	Inhibition of recombinant human FGFR1 using poly (Glu, Tyr) 4:1 as substrate after 60 mins by ELISA
20514467	CHEMBL3828439	9.400000	0.400000	99858	2016	Inhibition of recombinant human FGFR1 using poly (Glu, Tyr) 4:1 as substrate after 60 mins by ELISA
36175471	CHEMBL4099992	9.400000	0.400000	104496	2017	Inhibition of human FGFR1 using 5-FAM-KKKKEEIYFFF-NH2 as substrate preincubated for 15 mins followed by peptide substrate addition measured after 3 hrs by caliper capillary electrophoresis method
36162003	CHEMBL4091628	9.300000	0.500000	104053	2017	Inhibition of recombinant FGFR1 (unknown origin) using poly (Glu, Tyr) 4:1 after 60 mins by ELISA method
17365459	CHEMBL3348846	9.220000	0.600000	99858	2016	Inhibition of recombinant human FGFR1 using poly (Glu, Tyr) 4:1 as substrate after 60 mins by ELISA
20514469	CHEMBL3827725	9.220000	0.600000	99858	2016	Inhibition of recombinant human FGFR1 using poly (Glu, Tyr) 4:1 as substrate after 60 mins by ELISA
36134143	CHEMBL4068509	9.220000	0.600000	104496	2017	Inhibition of human FGFR1 using 5-FAM-KKKKEEIYFFF-NH2 as substrate preincubated for 15 mins followed by peptide substrate addition measured after 3 hrs by caliper capillary electrophoresis method
17365459	CHEMBL3348846	9.150000	0.700000	104675	2017	Inhibition of recombinant human FGFR1 using poly (Glu,Tyr) 4:1 as substrate after 60 mins by ELISA
576729	CHEMBL1171837	9.150000	0.700000	89959	2014	Inhibition of FGFR1 (unknown origin)
36140836	CHEMBL4061766	9.150000	0.700000	104496	2017	Inhibition of human FGFR1 using 5-FAM-KKKKEEIYFFF-NH2 as substrate preincubated for 15 mins followed by peptide substrate addition measured after 3 hrs by caliper capillary electrophoresis method
36152673	CHEMBL4083740	9.150000	0.700000	104496	2017	Inhibition of human FGFR1 using 5-FAM-KKKKEEIYFFF-NH2 as substrate preincubated for 15 mins followed by peptide substrate addition measured after 3 hrs by caliper capillary electrophoresis method
36164277	CHEMBL4092354	9.140000	0.730000	105578	2017	Inhibition of human recombinant His-tagged FGFR1 cytoplasmic domain (308 to 731 residues) expressed in baculovirus using Tyr-4 peptide after 1 hr by FRET-based Z'-Lyte assay
17365459	CHEMBL3348846	9.100000	0.800000	99169	2016	Inhibition of recombinant FGFR1 (unknown origin) using (Glu,Tyr)4:1 as substrate incubated for 60 mins by ELISA
20514931	CHEMBL3828465	9.100000	0.800000	99858	2016	Inhibition of recombinant human FGFR1 using poly (Glu, Tyr) 4:1 as substrate after 60 mins by ELISA
36145220	CHEMBL4073347	9.100000	0.800000	104496	2017	Inhibition of human FGFR1 using 5-FAM-KKKKEEIYFFF-NH2 as substrate preincubated for 15 mins followed by peptide substrate addition measured after 3 hrs by caliper capillary electrophoresis method
36149380	CHEMBL4086567	9.100000	0.800000	104496	2017	Inhibition of human FGFR1 using 5-FAM-KKKKEEIYFFF-NH2 as substrate preincubated for 15 mins followed by peptide substrate addition measured after 3 hrs by caliper capillary electrophoresis method
20517198	CHEMBL3827178	9.050000	0.900000	99858	2016	Inhibition of recombinant human FGFR1 using poly (Glu, Tyr) 4:1 as substrate after 60 mins by ELISA
36158952	CHEMBL4077029	9.040000	0.910000	105578	2017	Inhibition of human recombinant His-tagged FGFR1 cytoplasmic domain (308 to 731 residues) expressed in baculovirus using Tyr-4 peptide after 1 hr by FRET-based Z'-Lyte assay
36162359	CHEMBL4092508	9.000000	0.990000	105578	2017	Inhibition of human recombinant His-tagged FGFR1 cytoplasmic domain (308 to 731 residues) expressed in baculovirus using Tyr-4 peptide after 1 hr by FRET-based Z'-Lyte assay
322683	CHEMBL378024	9.000000	1.000000	31425	2006	Inhibition of FGFR1
418340	CHEMBL495749	9.000000	1.000000	45093	2009	Inhibition of human recombinant FGFR1
423872	CHEMBL498551	9.000000	1.000000	45093	2009	Inhibition of human recombinant FGFR1
502503	CHEMBL1852688	9.000000	1.000000	103835	2017	Inhibition of recombinant FGFR1 (unknown origin) using peptidic substrates in presence of ATP by Kinase-Glo luminescent kinase assay
20514930	CHEMBL3827268	9.000000	1.000000	99858	2016	Inhibition of recombinant human FGFR1 using poly (Glu, Tyr) 4:1 as substrate after 60 mins by ELISA
20515158	CHEMBL3828740	9.000000	1.000000	99858	2016	Inhibition of recombinant human FGFR1 using poly (Glu, Tyr) 4:1 as substrate after 60 mins by ELISA
20520257	CHEMBL3800526	9.000000	1.000000	99169	2016	Inhibition of recombinant FGFR1 (unknown origin) using (Glu,Tyr)4:1 as substrate incubated for 60 mins by ELISA
36135763	CHEMBL4065323	9.000000	1.000000	103835	2017	Inhibition of FGFR1 (unknown origin)
36148905	CHEMBL4089842	9.000000	1.000000	104496	2017	Inhibition of human FGFR1 using 5-FAM-KKKKEEIYFFF-NH2 as substrate preincubated for 15 mins followed by peptide substrate addition measured after 3 hrs by caliper capillary electrophoresis method
36164286	CHEMBL4092456	9.000000	1.000000	104496	2017	Inhibition of human FGFR1 using 5-FAM-KKKKEEIYFFF-NH2 as substrate preincubated for 15 mins followed by peptide substrate addition measured after 3 hrs by caliper capillary electrophoresis method
36164316	CHEMBL4092990	9.000000	1.000000	103835	2017	Inhibition of FGFR1 (unknown origin)
36150443	CHEMBL4088313	8.970000	1.060000	105578	2017	Inhibition of human recombinant His-tagged FGFR1 cytoplasmic domain (308 to 731 residues) expressed in baculovirus using Tyr-4 peptide after 1 hr by FRET-based Z'-Lyte assay
36164150	CHEMBL4096041	8.970000	1.060000	105578	2017	Inhibition of human recombinant His-tagged FGFR1 cytoplasmic domain (308 to 731 residues) expressed in baculovirus using Tyr-4 peptide after 1 hr by FRET-based Z'-Lyte assay
36133387	CHEMBL4069509	8.970000	1.070000	105578	2017	Inhibition of human recombinant His-tagged FGFR1 cytoplasmic domain (308 to 731 residues) expressed in baculovirus using Tyr-4 peptide after 1 hr by FRET-based Z'-Lyte assay
17365459	CHEMBL3348846	8.960000	1.100000	105957	2017	Inhibition of FGFR1 (unknown origin) using poly (Glu, Tyr) 4:1 as substrate after 1 hr by ELISA
36132084	CHEMBL4067760	8.960000	1.100000	104053	2017	Inhibition of recombinant FGFR1 (unknown origin) using poly (Glu, Tyr) 4:1 after 60 mins by ELISA method
36134143	CHEMBL4068509	8.960000	1.100000	104496	2017	Inhibition of FGFR1 in HUVEC assessed as reduction in FGF2-induced ERK phosphorylation preincubated for 60 mins followed by FGF2 stimulation for 10 mins by AlphaScreen assay
36153818	CHEMBL4081243	8.960000	1.100000	104053	2017	Inhibition of recombinant FGFR1 (unknown origin) using poly (Glu, Tyr) 4:1 after 60 mins by ELISA method
36155236	CHEMBL4084708	8.960000	1.100000	104496	2017	Inhibition of human FGFR1 using 5-FAM-KKKKEEIYFFF-NH2 as substrate preincubated for 15 mins followed by peptide substrate addition measured after 3 hrs by caliper capillary electrophoresis method
36170242	CHEMBL4103795	8.940000	1.160000	105578	2017	Inhibition of human recombinant His-tagged FGFR1 cytoplasmic domain (308 to 731 residues) expressed in baculovirus using Tyr-4 peptide after 1 hr by FRET-based Z'-Lyte assay
36134690	CHEMBL4068733	8.930000	1.180000	105578	2017	Inhibition of human recombinant His-tagged FGFR1 cytoplasmic domain (308 to 731 residues) expressed in baculovirus using Tyr-4 peptide after 1 hr by FRET-based Z'-Lyte assay
17365459	CHEMBL3348846	8.920000	1.200000	106067	2017	Inhibition of recombinant FGFR1 (unknown origin) using poly (Glu,Tyr)4:1 as substrate after 60 mins by ELISA based spectrophotometric analysis
576729	CHEMBL1171837	8.920000	1.200000	104053	2017	Inhibition of recombinant FGFR1 (unknown origin) using poly (Glu, Tyr) 4:1 after 60 mins by ELISA method
20513793	CHEMBL3827330	8.920000	1.200000	99858	2016	Inhibition of recombinant human FGFR1 using poly (Glu, Tyr) 4:1 as substrate after 60 mins by ELISA
20618285	CHEMBL3984621	8.920000	1.200000	101332	2016	Inhibition of human FGFR1 by time-resolved fluorescence or time-resolved fluorescence assay
36171254	CHEMBL4105491	8.920000	1.200000	104053	2017	Inhibition of recombinant FGFR1 (unknown origin) using poly (Glu, Tyr) 4:1 after 60 mins by ELISA method
36175471	CHEMBL4099992	8.920000	1.200000	104496	2017	Inhibition of FGFR1 in HUVEC assessed as reduction in FGF2-induced ERK phosphorylation preincubated for 60 mins followed by FGF2 stimulation for 10 mins by AlphaScreen assay
36159724	CHEMBL4079538	8.920000	1.210000	105578	2017	Inhibition of human recombinant His-tagged FGFR1 cytoplasmic domain (308 to 731 residues) expressed in baculovirus using Tyr-4 peptide after 1 hr by FRET-based Z'-Lyte assay
36162875	CHEMBL4096738	8.910000	1.230000	105578	2017	Inhibition of human recombinant His-tagged FGFR1 cytoplasmic domain (308 to 731 residues) expressed in baculovirus using Tyr-4 peptide after 1 hr by FRET-based Z'-Lyte assay
17365459	CHEMBL3348846	8.890000	1.300000	91122	2015	Inhibition of FGFR1 (unknown origin) after 90 mins by TR-FRET assay
36139229	CHEMBL4061286	8.890000	1.300000	104496	2017	Inhibition of human FGFR1 using 5-FAM-KKKKEEIYFFF-NH2 as substrate preincubated for 15 mins followed by peptide substrate addition measured after 3 hrs by caliper capillary electrophoresis method
36148905	CHEMBL4089842	8.890000	1.300000	104496	2017	Inhibition of FGFR1 in HUVEC assessed as reduction in FGF2-induced ERK phosphorylation preincubated for 60 mins followed by FGF2 stimulation for 10 mins by AlphaScreen assay
36149068	CHEMBL4086643	8.890000	1.300000	104053	2017	Inhibition of recombinant FGFR1 (unknown origin) using poly (Glu, Tyr) 4:1 after 60 mins by ELISA method
36151714	CHEMBL4083151	8.890000	1.300000	104496	2017	Inhibition of human FGFR1 using 5-FAM-KKKKEEIYFFF-NH2 as substrate preincubated for 15 mins followed by peptide substrate addition measured after 3 hrs by caliper capillary electrophoresis method
36177004	CHEMBL4099578	8.890000	1.300000	104496	2017	Inhibition of human FGFR1 using 5-FAM-KKKKEEIYFFF-NH2 as substrate preincubated for 15 mins followed by peptide substrate addition measured after 3 hrs by caliper capillary electrophoresis method
36140403	CHEMBL4060079	8.880000	1.320000	105578	2017	Inhibition of human recombinant His-tagged FGFR1 cytoplasmic domain (308 to 731 residues) expressed in baculovirus using Tyr-4 peptide after 1 hr by FRET-based Z'-Lyte assay
20515157	CHEMBL3828122	8.850000	1.400000	99858	2016	Inhibition of recombinant human FGFR1 using poly (Glu, Tyr) 4:1 as substrate after 60 mins by ELISA
36140607	CHEMBL4064081	8.850000	1.400000	104496	2017	Inhibition of human FGFR1 using 5-FAM-KKKKEEIYFFF-NH2 as substrate preincubated for 15 mins followed by peptide substrate addition measured after 3 hrs by caliper capillary electrophoresis method
20425733	CHEMBL3681278	8.820000	1.500000	101332	2016	Inhibition of human FGFR1 by time-resolved fluorescence or time-resolved fluorescence assay
20514470	CHEMBL3827180	8.820000	1.500000	99858	2016	Inhibition of recombinant human FGFR1 using poly (Glu, Tyr) 4:1 as substrate after 60 mins by ELISA
36140358	CHEMBL4064756	8.820000	1.500000	104496	2017	Inhibition of human FGFR1 using 5-FAM-KKKKEEIYFFF-NH2 as substrate preincubated for 15 mins followed by peptide substrate addition measured after 3 hrs by caliper capillary electrophoresis method
36161948	CHEMBL4095844	8.820000	1.500000	104496	2017	Inhibition of human FGFR1 using 5-FAM-KKKKEEIYFFF-NH2 as substrate preincubated for 15 mins followed by peptide substrate addition measured after 3 hrs by caliper capillary electrophoresis method
36132514	CHEMBL4066763	8.800000	1.600000	104496	2017	Inhibition of FGFR1 in HUVEC assessed as reduction in FGF2-induced ERK phosphorylation preincubated for 60 mins followed by FGF2 stimulation for 10 mins by AlphaScreen assay
36139229	CHEMBL4061286	8.800000	1.600000	104496	2017	Inhibition of FGFR1 in HUVEC assessed as reduction in FGF2-induced ERK phosphorylation preincubated for 60 mins followed by FGF2 stimulation for 10 mins by AlphaScreen assay
36140230	CHEMBL4062884	8.800000	1.600000	104053	2017	Inhibition of recombinant FGFR1 (unknown origin) using poly (Glu, Tyr) 4:1 after 60 mins by ELISA method
20515392	CHEMBL3827145	8.770000	1.700000	99858	2016	Inhibition of recombinant human FGFR1 using poly (Glu, Tyr) 4:1 as substrate after 60 mins by ELISA
36132514	CHEMBL4066763	8.770000	1.700000	104496	2017	Inhibition of human FGFR1 using 5-FAM-KKKKEEIYFFF-NH2 as substrate preincubated for 15 mins followed by peptide substrate addition measured after 3 hrs by caliper capillary electrophoresis method
36172573	CHEMBL4102560	8.750000	1.770000	105578	2017	Inhibition of human recombinant His-tagged FGFR1 cytoplasmic domain (308 to 731 residues) expressed in baculovirus using Tyr-4 peptide after 1 hr by FRET-based Z'-Lyte assay
1018741	CHEMBL1784637	8.740000	1.800000	57824	2011	Inhibition of human FGFR1 using KKKSPGEYVNIEFG peptide substrate by Hotspot assay
20515398	CHEMBL3827659	8.740000	1.800000	99858	2016	Inhibition of recombinant human FGFR1 using poly (Glu, Tyr) 4:1 as substrate after 60 mins by ELISA
36154796	CHEMBL4081984	8.740000	1.800000	104496	2017	Inhibition of human FGFR1 using 5-FAM-KKKKEEIYFFF-NH2 as substrate preincubated for 15 mins followed by peptide substrate addition measured after 3 hrs by caliper capillary electrophoresis method
36135812	CHEMBL4066038	8.740000	1.810000	105578	2017	Inhibition of human recombinant His-tagged FGFR1 cytoplasmic domain (308 to 731 residues) expressed in baculovirus using Tyr-4 peptide after 1 hr by FRET-based Z'-Lyte assay
36149792	CHEMBL4088057	8.720000	1.900000	104496	2017	Inhibition of human FGFR1 using 5-FAM-KKKKEEIYFFF-NH2 as substrate preincubated for 15 mins followed by peptide substrate addition measured after 3 hrs by caliper capillary electrophoresis method
36143722	CHEMBL4072483	8.710000	1.970000	105578	2017	Inhibition of human recombinant His-tagged FGFR1 cytoplasmic domain (308 to 731 residues) expressed in baculovirus using Tyr-4 peptide after 1 hr by FRET-based Z'-Lyte assay
1156108	CHEMBL2088260	8.700000	1.995000	64943	2012	Inhibition of recombinant N terminal GST-tagged human FGFR1 (456 to 765) expressed in baculovirus infected Sf21 cells after 40 mins by caliper mobility shift assay
1166805	CHEMBL2088096	8.700000	1.995000	64943	2012	Inhibition of recombinant N terminal GST-tagged human FGFR1 (456 to 765) expressed in baculovirus infected Sf21 cells after 40 mins by caliper mobility shift assay
318938	CHEMBL377230	8.700000	2.000000	31425	2006	Inhibition of FGFR1
421658	CHEMBL495762	8.700000	2.000000	45093	2009	Inhibition of human recombinant FGFR1
20515629	CHEMBL3827387	8.700000	2.000000	99858	2016	Inhibition of recombinant human FGFR1 using poly (Glu, Tyr) 4:1 as substrate after 60 mins by ELISA
20515628	CHEMBL3827601	8.680000	2.100000	99858	2016	Inhibition of recombinant human FGFR1 using poly (Glu, Tyr) 4:1 as substrate after 60 mins by ELISA
20515631	CHEMBL3828649	8.680000	2.100000	99858	2016	Inhibition of recombinant human FGFR1 using poly (Glu, Tyr) 4:1 as substrate after 60 mins by ELISA
36151116	CHEMBL4084079	8.680000	2.100000	104496	2017	Inhibition of human FGFR1 using 5-FAM-KKKKEEIYFFF-NH2 as substrate preincubated for 15 mins followed by peptide substrate addition measured after 3 hrs by caliper capillary electrophoresis method
576729	CHEMBL1171837	8.660000	2.200000	103835	2017	Inhibition of recombinant human FGFR1 using substrate KKKSPGEYVNIEFG in presence of [33-P]ATP by kinase hotspot assay
36149792	CHEMBL4088057	8.660000	2.200000	104496	2017	Inhibition of FGFR1 in HUVEC assessed as reduction in FGF2-induced ERK phosphorylation preincubated for 60 mins followed by FGF2 stimulation for 10 mins by AlphaScreen assay
36161073	CHEMBL4092294	8.660000	2.200000	104053	2017	Inhibition of recombinant FGFR1 (unknown origin) using poly (Glu, Tyr) 4:1 after 60 mins by ELISA method
36177620	CHEMBL4099403	8.640000	2.280000	105578	2017	Inhibition of human recombinant His-tagged FGFR1 cytoplasmic domain (308 to 731 residues) expressed in baculovirus using Tyr-4 peptide after 1 hr by FRET-based Z'-Lyte assay
36139266	CHEMBL4062003	8.640000	2.300000	104496	2017	Inhibition of human FGFR1 using 5-FAM-KKKKEEIYFFF-NH2 as substrate preincubated for 15 mins followed by peptide substrate addition measured after 3 hrs by caliper capillary electrophoresis method
36138639	CHEMBL4061908	8.630000	2.330000	105578	2017	Inhibition of human recombinant His-tagged FGFR1 cytoplasmic domain (308 to 731 residues) expressed in baculovirus using Tyr-4 peptide after 1 hr by FRET-based Z'-Lyte assay
20515621	CHEMBL3828173	8.620000	2.400000	99858	2016	Inhibition of recombinant human FGFR1 using poly (Glu, Tyr) 4:1 as substrate after 60 mins by ELISA
36164286	CHEMBL4092456	8.620000	2.400000	104496	2017	Inhibition of FGFR1 in HUVEC assessed as reduction in FGF2-induced ERK phosphorylation preincubated for 60 mins followed by FGF2 stimulation for 10 mins by AlphaScreen assay
1166804	CHEMBL2088095	8.600000	2.512000	64943	2012	Inhibition of recombinant N terminal GST-tagged human FGFR1 (456 to 765) expressed in baculovirus infected Sf21 cells after 40 mins by caliper mobility shift assay
20515618	CHEMBL3828561	8.570000	2.700000	99858	2016	Inhibition of recombinant human FGFR1 using poly (Glu, Tyr) 4:1 as substrate after 60 mins by ELISA
20515630	CHEMBL3828142	8.550000	2.800000	99858	2016	Inhibition of recombinant human FGFR1 using poly (Glu, Tyr) 4:1 as substrate after 60 mins by ELISA
36162860	CHEMBL4095783	8.550000	2.800000	104496	2017	Inhibition of human FGFR1 using 5-FAM-KKKKEEIYFFF-NH2 as substrate preincubated for 15 mins followed by peptide substrate addition measured after 3 hrs by caliper capillary electrophoresis method
20425742	CHEMBL3681287	8.540000	2.900000	101332	2016	Inhibition of human FGFR1 by time-resolved fluorescence or time-resolved fluorescence assay
20549397	CHEMBL3891894	8.540000	2.900000	101332	2016	Inhibition of human FGFR1 by time-resolved fluorescence or time-resolved fluorescence assay
36160493	CHEMBL4076610	8.540000	2.900000	103835	2017	Inhibition of recombinant FGFR1 (unknown origin) using poly (Glu,Tyr) 4:1 as substrate incubated for 60 mins by ELISA
326496	CHEMBL379740	8.520000	3.000000	31425	2006	Inhibition of FGFR1
420416	CHEMBL495962	8.520000	3.000000	45093	2009	Inhibition of human recombinant FGFR1
421659	CHEMBL495763	8.520000	3.000000	45093	2009	Inhibition of human recombinant FGFR1
422943	CHEMBL498013	8.520000	3.000000	45093	2009	Inhibition of human recombinant FGFR1
36162762	CHEMBL4094115	8.520000	3.000000	104053	2017	Inhibition of recombinant FGFR1 (unknown origin) using poly (Glu, Tyr) 4:1 after 60 mins by ELISA method
36177032	CHEMBL4100110	8.510000	3.080000	105578	2017	Inhibition of human recombinant His-tagged FGFR1 cytoplasmic domain (308 to 731 residues) expressed in baculovirus using Tyr-4 peptide after 1 hr by FRET-based Z'-Lyte assay
36177004	CHEMBL4099578	8.470000	3.400000	104496	2017	Inhibition of FGFR1 in HUVEC assessed as reduction in FGF2-induced ERK phosphorylation preincubated for 60 mins followed by FGF2 stimulation for 10 mins by AlphaScreen assay
36138136	CHEMBL4064676	8.450000	3.540000	105578	2017	Inhibition of human recombinant His-tagged FGFR1 cytoplasmic domain (308 to 731 residues) expressed in baculovirus using Tyr-4 peptide after 1 hr by FRET-based Z'-Lyte assay
1190896	CHEMBL2216830	8.440000	3.600000	103918	2017	Inhibition of His-tagged cytoplasmic recombinant human FGFR1 (308 to 731 residues) expressed in baculovirus expression system using Tyr 4 peptide as substrate incubated for 1 hr by FRET-based Z'-Lyte assay
20515159	CHEMBL3827706	8.440000	3.600000	99858	2016	Inhibition of recombinant human FGFR1 using poly (Glu, Tyr) 4:1 as substrate after 60 mins by ELISA
36136914	CHEMBL4064874	8.440000	3.600000	104053	2017	Inhibition of recombinant FGFR1 (unknown origin) using poly (Glu, Tyr) 4:1 after 60 mins by ELISA method
1190896	CHEMBL2216830	8.440000	3.650000	105578	2017	Inhibition of human recombinant His-tagged FGFR1 cytoplasmic domain (308 to 731 residues) expressed in baculovirus using Tyr-4 peptide after 1 hr by FRET-based Z'-Lyte assay
36149373	CHEMBL4086560	8.430000	3.700000	106067	2017	Inhibition of recombinant FGFR1 (unknown origin) using poly (Glu,Tyr)4:1 as substrate after 60 mins by ELISA based spectrophotometric analysis
36177341	CHEMBL4100201	8.410000	3.900000	104496	2017	Inhibition of human FGFR1 using 5-FAM-KKKKEEIYFFF-NH2 as substrate preincubated for 15 mins followed by peptide substrate addition measured after 3 hrs by caliper capillary electrophoresis method
174983	CHEMBL205893	8.400000	4.000000	31022	2006	Inhibitory activity against FGFR1
238433	CHEMBL278472	8.400000	4.000000	21341	2005	Inhibition of glutamate/tyrosine (4:1) copolymer phosphorylation by human FGFR1 in DELFIA assay
20515393	CHEMBL3828317	8.390000	4.100000	99858	2016	Inhibition of recombinant human FGFR1 using poly (Glu, Tyr) 4:1 as substrate after 60 mins by ELISA
36161948	CHEMBL4095844	8.390000	4.100000	104496	2017	Inhibition of FGFR1 in HUVEC assessed as reduction in FGF2-induced ERK phosphorylation preincubated for 60 mins followed by FGF2 stimulation for 10 mins by AlphaScreen assay
36148774	CHEMBL4087420	8.340000	4.590000	105578	2017	Inhibition of human recombinant His-tagged FGFR1 cytoplasmic domain (308 to 731 residues) expressed in baculovirus using Tyr-4 peptide after 1 hr by FRET-based Z'-Lyte assay
578592	CHEMBL1336	8.330000	4.630000	97824	2016	Inhibition of FGFR1 (unknown origin) incubated for 1 hr assessed as luminescence changes using ATP by ADP-Glo Kinase assay
36142701	CHEMBL4072676	8.330000	4.700000	104496	2017	Inhibition of human FGFR1 using 5-FAM-KKKKEEIYFFF-NH2 as substrate preincubated for 15 mins followed by peptide substrate addition measured after 3 hrs by caliper capillary electrophoresis method
36174628	CHEMBL4102058	8.330000	4.700000	104496	2017	Inhibition of human FGFR1 using 5-FAM-KKKKEEIYFFF-NH2 as substrate preincubated for 15 mins followed by peptide substrate addition measured after 3 hrs by caliper capillary electrophoresis method
162789	CHEMBL189995	8.300000	5.000000	21341	2005	Inhibition of glutamate/tyrosine (4:1) copolymer phosphorylation by human FGFR1 in DELFIA assay
1156107	CHEMBL2088259	8.300000	5.012000	64943	2012	Inhibition of recombinant N terminal GST-tagged human FGFR1 (456 to 765) expressed in baculovirus infected Sf21 cells after 40 mins by caliper mobility shift assay
20513761	CHEMBL3827803	8.290000	5.100000	99858	2016	Inhibition of recombinant human FGFR1 using poly (Glu, Tyr) 4:1 as substrate after 60 mins by ELISA
36172381	CHEMBL4104537	8.280000	5.200000	104053	2017	Inhibition of recombinant FGFR1 (unknown origin) using poly (Glu, Tyr) 4:1 after 60 mins by ELISA method
36151839	CHEMBL4085605	8.280000	5.300000	104496	2017	Inhibition of human FGFR1 using 5-FAM-KKKKEEIYFFF-NH2 as substrate preincubated for 15 mins followed by peptide substrate addition measured after 3 hrs by caliper capillary electrophoresis method
36140836	CHEMBL4061766	8.250000	5.600000	104496	2017	Inhibition of FGFR1 in HUVEC assessed as reduction in FGF2-induced ERK phosphorylation preincubated for 60 mins followed by FGF2 stimulation for 10 mins by AlphaScreen assay
36162877	CHEMBL4096740	8.250000	5.600000	106067	2017	Inhibition of recombinant FGFR1 (unknown origin) using poly (Glu,Tyr)4:1 as substrate after 60 mins by ELISA based spectrophotometric analysis
20515619	CHEMBL3827608	8.240000	5.700000	99858	2016	Inhibition of recombinant human FGFR1 using poly (Glu, Tyr) 4:1 as substrate after 60 mins by ELISA
36153969	CHEMBL4083853	8.240000	5.700000	104053	2017	Inhibition of recombinant FGFR1 (unknown origin) using poly (Glu, Tyr) 4:1 after 60 mins by ELISA method
162340	CHEMBL191023	8.220000	6.000000	21341	2005	Inhibition of glutamate/tyrosine (4:1) copolymer phosphorylation by human FGFR1 in DELFIA assay
162931	CHEMBL190161	8.220000	6.000000	21341	2005	Inhibition of glutamate/tyrosine (4:1) copolymer phosphorylation by human FGFR1 in DELFIA assay
164799	CHEMBL192856	8.220000	6.000000	21341	2005	Inhibition of glutamate/tyrosine (4:1) copolymer phosphorylation by human FGFR1 in DELFIA assay
36162860	CHEMBL4095783	8.220000	6.000000	104496	2017	Inhibition of FGFR1 in HUVEC assessed as reduction in FGF2-induced ERK phosphorylation preincubated for 60 mins followed by FGF2 stimulation for 10 mins by AlphaScreen assay
36160493	CHEMBL4076610	8.210000	6.200000	106067	2017	Inhibition of recombinant FGFR1 (unknown origin) using poly (Glu,Tyr)4:1 as substrate after 60 mins by ELISA based spectrophotometric analysis
331503	CHEMBL388978	8.200000	6.300000	99644	2016	Inhibition of FGFR1 (unknown origin) incubated for 1 hr by spectrophotometric analysis
20513794	CHEMBL3827752	8.190000	6.500000	99858	2016	Inhibition of recombinant human FGFR1 using poly (Glu, Tyr) 4:1 as substrate after 60 mins by ELISA
36147157	CHEMBL4086340	8.190000	6.500000	104053	2017	Inhibition of recombinant FGFR1 (unknown origin) using poly (Glu, Tyr) 4:1 after 60 mins by ELISA method
20515428	CHEMBL3827042	8.180000	6.600000	99858	2016	Inhibition of recombinant human FGFR1 using poly (Glu, Tyr) 4:1 as substrate after 60 mins by ELISA
36149849	CHEMBL4088977	8.170000	6.700000	104053	2017	Inhibition of recombinant FGFR1 (unknown origin) using poly (Glu, Tyr) 4:1 after 60 mins by ELISA method
159759	CHEMBL187396	8.150000	7.000000	21341	2005	Inhibition of glutamate/tyrosine (4:1) copolymer phosphorylation by human FGFR1 in DELFIA assay
162948	CHEMBL191389	8.150000	7.000000	21341	2005	Inhibition of glutamate/tyrosine (4:1) copolymer phosphorylation by human FGFR1 in DELFIA assay
305886	CHEMBL365377	8.150000	7.000000	21341	2005	Inhibition of glutamate/tyrosine (4:1) copolymer phosphorylation by human FGFR1 in DELFIA assay
421369	CHEMBL496764	8.150000	7.000000	45093	2009	Inhibition of human recombinant FGFR1
20514466	CHEMBL3827594	8.120000	7.600000	99858	2016	Inhibition of recombinant human FGFR1 using poly (Glu, Tyr) 4:1 as substrate after 60 mins by ELISA
36145659	CHEMBL4073474	8.120000	7.600000	104053	2017	Inhibition of recombinant FGFR1 (unknown origin) using poly (Glu, Tyr) 4:1 after 60 mins by ELISA method
36154796	CHEMBL4081984	8.110000	7.800000	104496	2017	Inhibition of FGFR1 in HUVEC assessed as reduction in FGF2-induced ERK phosphorylation preincubated for 60 mins followed by FGF2 stimulation for 10 mins by AlphaScreen assay
1166720	CHEMBL2088100	8.100000	7.943000	64943	2012	Inhibition of recombinant N terminal GST-tagged human FGFR1 (456 to 765) expressed in baculovirus infected Sf21 cells after 40 mins by caliper mobility shift assay
173013	CHEMBL204427	8.100000	8.000000	31022	2006	Inhibitory activity against FGFR1
305566	CHEMBL363551	8.100000	8.000000	21341	2005	Inhibition of glutamate/tyrosine (4:1) copolymer phosphorylation by human FGFR1 in DELFIA assay
323868	CHEMBL377346	8.100000	8.000000	31425	2006	Inhibition of FGFR1
357730	CHEMBL425363	8.100000	8.000000	21341	2005	Inhibition of glutamate/tyrosine (4:1) copolymer phosphorylation by human FGFR1 in DELFIA assay
417685	CHEMBL495735	8.100000	8.000000	45093	2009	Inhibition of human recombinant FGFR1
444266	CHEMBL522892	8.100000	8.000000	103835	2017	Inhibition of recombinant FGFR1 (unknown origin) expressed in baculovirus infected insect cells using biotinylated peptide substrate GGGGQDGKDYIVLPI in presence of ATP incubated for 1 to 4 hrs by time resolved fluorescence assay
36147672	CHEMBL4089898	8.090000	8.100000	104053	2017	Inhibition of recombinant FGFR1 (unknown origin) using poly (Glu, Tyr) 4:1 after 60 mins by ELISA method
36140607	CHEMBL4064081	8.070000	8.600000	104496	2017	Inhibition of FGFR1 in HUVEC assessed as reduction in FGF2-induced ERK phosphorylation preincubated for 60 mins followed by FGF2 stimulation for 10 mins by AlphaScreen assay
173013	CHEMBL204427	8.050000	9.000000	45093	2009	Inhibition of human recombinant FGFR1
420415	CHEMBL495961	8.050000	9.000000	45093	2009	Inhibition of human recombinant FGFR1
647096	CHEMBL191070	8.050000	9.000000	21341	2005	Inhibition of glutamate/tyrosine (4:1) copolymer phosphorylation by human FGFR1 in DELFIA assay
20534041	CHEMBL3907479	8.030000	9.300000	103835	2017	Inhibition of FGFR1 (unknown origin)
20534041	CHEMBL3907479	8.030000	9.300000	101332	2016	Inhibition of human FGFR1 by time-resolved fluorescence or time-resolved fluorescence assay
20513792	CHEMBL3828022	8.030000	9.400000	99858	2016	Inhibition of recombinant human FGFR1 using poly (Glu, Tyr) 4:1 as substrate after 60 mins by ELISA
36134683	CHEMBL4068712	8.030000	9.400000	104496	2017	Inhibition of human FGFR1 using 5-FAM-KKKKEEIYFFF-NH2 as substrate preincubated for 15 mins followed by peptide substrate addition measured after 3 hrs by caliper capillary electrophoresis method
36172577	CHEMBL4102642	8.030000	9.400000	104496	2017	Inhibition of FGFR1 in HUVEC assessed as reduction in FGF2-induced ERK phosphorylation preincubated for 60 mins followed by FGF2 stimulation for 10 mins by AlphaScreen assay
36151714	CHEMBL4083151	8.020000	9.500000	104496	2017	Inhibition of FGFR1 in HUVEC assessed as reduction in FGF2-induced ERK phosphorylation preincubated for 60 mins followed by FGF2 stimulation for 10 mins by AlphaScreen assay
161324	CHEMBL189691	8.000000	10.000000	21341	2005	Inhibition of glutamate/tyrosine (4:1) copolymer phosphorylation by human FGFR1 in DELFIA assay
173988	CHEMBL204524	8.000000	10.000000	31022	2006	Inhibitory activity against FGFR1
175605	CHEMBL205108	8.000000	10.000000	31022	2006	Inhibitory activity against FGFR1
308676	CHEMBL365727	8.000000	10.000000	21341	2005	Inhibition of glutamate/tyrosine (4:1) copolymer phosphorylation by human FGFR1 in DELFIA assay
325139	CHEMBL383618	8.000000	10.000000	31022	2006	Inhibitory activity against FGFR1
426818	CHEMBL498214	8.000000	10.000000	45093	2009	Inhibition of human recombinant FGFR1
443918	CHEMBL526507	8.000000	10.000000	45093	2009	Inhibition of human recombinant FGFR1
1166803	CHEMBL2088094	8.000000	10.000000	64943	2012	Inhibition of recombinant N terminal GST-tagged human FGFR1 (456 to 765) expressed in baculovirus infected Sf21 cells after 40 mins by caliper mobility shift assay
36135823	CHEMBL4066141	8.000000	10.000000	105340	2018	Inhibition of cytoplasmic recombinant human His-tagged FGFR1 (308 to 731 residues) expressed in baculovirus using tyr4 peptide as substrate after 1 hr by FRET-based Z'-Lyte assay
36156818	CHEMBL4078715	7.980000	10.400000	106067	2017	Inhibition of recombinant FGFR1 (unknown origin) using poly (Glu,Tyr)4:1 as substrate after 60 mins by ELISA based spectrophotometric analysis
36145130	CHEMBL4074407	7.970000	10.600000	104675	2017	Inhibition of recombinant human FGFR1 using poly (Glu,Tyr) 4:1 as substrate after 60 mins by ELISA
36145302	CHEMBL4073261	7.970000	10.700000	105578	2017	Inhibition of human recombinant His-tagged FGFR1 cytoplasmic domain (308 to 731 residues) expressed in baculovirus using Tyr-4 peptide after 1 hr by FRET-based Z'-Lyte assay
161292	CHEMBL189059	7.960000	11.000000	21341	2005	Inhibition of glutamate/tyrosine (4:1) copolymer phosphorylation by human FGFR1 in DELFIA assay
444266	CHEMBL522892	7.960000	11.000000	45093	2009	Inhibition of human recombinant FGFR1
36139266	CHEMBL4062003	7.960000	11.000000	104496	2017	Inhibition of FGFR1 in HUVEC assessed as reduction in FGF2-induced ERK phosphorylation preincubated for 60 mins followed by FGF2 stimulation for 10 mins by AlphaScreen assay
36155236	CHEMBL4084708	7.960000	11.000000	104496	2017	Inhibition of FGFR1 in HUVEC assessed as reduction in FGF2-induced ERK phosphorylation preincubated for 60 mins followed by FGF2 stimulation for 10 mins by AlphaScreen assay
36142247	CHEMBL4071501	7.950000	11.200000	104053	2017	Inhibition of recombinant FGFR1 (unknown origin) using poly (Glu, Tyr) 4:1 after 60 mins by ELISA method
1189526	CHEMBL2105717	7.950000	11.300000	101164	2016	Inhibition of FLT2 (unknown origin)
654538	CHEMBL339856	7.920000	12.000000	21341	2005	Inhibition of glutamate/tyrosine (4:1) copolymer phosphorylation by human FGFR1 in DELFIA assay
36140358	CHEMBL4064756	7.920000	12.000000	104496	2017	Inhibition of FGFR1 in HUVEC assessed as reduction in FGF2-induced ERK phosphorylation preincubated for 60 mins followed by FGF2 stimulation for 10 mins by AlphaScreen assay
36178082	CHEMBL4101852	7.890000	12.800000	104053	2017	Inhibition of recombinant FGFR1 (unknown origin) using poly (Glu, Tyr) 4:1 after 60 mins by ELISA method
161734	CHEMBL190389	7.890000	13.000000	21341	2005	Inhibition of glutamate/tyrosine (4:1) copolymer phosphorylation by human FGFR1 in DELFIA assay
1133308	CHEMBL2010872	7.890000	13.000000	61436	2012	Inhibition of human FGFR1 using ATP as substrate
36134984	CHEMBL4065128	7.890000	13.000000	104496	2017	Inhibition of human FGFR1 using 5-FAM-KKKKEEIYFFF-NH2 as substrate preincubated for 15 mins followed by peptide substrate addition measured after 3 hrs by caliper capillary electrophoresis method
36172967	CHEMBL4104460	7.890000	13.000000	106067	2017	Inhibition of recombinant FGFR1 (unknown origin) using poly (Glu,Tyr)4:1 as substrate after 60 mins by ELISA based spectrophotometric analysis
20515427	CHEMBL3827165	7.870000	13.600000	99858	2016	Inhibition of recombinant human FGFR1 using poly (Glu, Tyr) 4:1 as substrate after 60 mins by ELISA
162085	CHEMBL190980	7.850000	14.000000	21286	2005	Inhibition of human fibroblast growth factor receptor 1
619241	CHEMBL1254755	7.850000	14.000000	52937	2010	Inhibition of His-tagged human FGFR1 expressed in Sf9 cells
36154124	CHEMBL4081153	7.850000	14.000000	106067	2017	Inhibition of recombinant FGFR1 (unknown origin) using poly (Glu,Tyr)4:1 as substrate after 60 mins by ELISA based spectrophotometric analysis
36139904	CHEMBL4062877	7.840000	14.500000	104675	2017	Inhibition of FGFR1OP2 fused FGFR1 in human KG1 cells assessed as inhibition of cell proliferation after 72 hrs by cell counting kit-8 assay
36145406	CHEMBL4073545	7.830000	14.900000	104675	2017	Inhibition of recombinant human FGFR1 using poly (Glu,Tyr) 4:1 as substrate after 60 mins by ELISA
180499	CHEMBL211662	7.820000	15.000000	31425	2006	Inhibition of FGFR1
418666	CHEMBL496762	7.820000	15.000000	45093	2009	Inhibition of human recombinant FGFR1
36137169	CHEMBL4063676	7.820000	15.000000	103835	2017	Inhibition of recombinant FGFR1 (unknown origin) using poly (Glu,Tyr) 4:1 as substrate incubated for 60 mins by ELISA
161408	CHEMBL190188	7.800000	16.000000	21341	2005	Inhibition of glutamate/tyrosine (4:1) copolymer phosphorylation by human FGFR1 in DELFIA assay
162932	CHEMBL190162	7.800000	16.000000	21341	2005	Inhibition of glutamate/tyrosine (4:1) copolymer phosphorylation by human FGFR1 in DELFIA assay
164982	CHEMBL195398	7.800000	16.000000	21286	2005	Inhibition of human fibroblast growth factor receptor 1
655536	CHEMBL379108	7.800000	16.000000	31425	2006	Inhibition of FGFR1
36145220	CHEMBL4073347	7.800000	16.000000	104496	2017	Inhibition of FGFR1 in HUVEC assessed as reduction in FGF2-induced ERK phosphorylation preincubated for 60 mins followed by FGF2 stimulation for 10 mins by AlphaScreen assay
17365459	CHEMBL3348846	7.790000	16.100000	104675	2017	Inhibition of FGFR1OP2 fused FGFR1 in human KG1 cells assessed as inhibition of cell proliferation after 72 hrs by cell counting kit-8 assay
36132833	CHEMBL4067871	7.790000	16.100000	104675	2017	Inhibition of recombinant human FGFR1 using poly (Glu,Tyr) 4:1 as substrate after 60 mins by ELISA
20515626	CHEMBL3827322	7.790000	16.200000	99858	2016	Inhibition of recombinant human FGFR1 using poly (Glu, Tyr) 4:1 as substrate after 60 mins by ELISA
1190849	CHEMBL2220486	7.760000	17.500000	103835	2017	Inhibition of FGFR1 (unknown origin)
160261	CHEMBL189851	7.740000	18.000000	21341	2005	Inhibition of glutamate/tyrosine (4:1) copolymer phosphorylation by human FGFR1 in DELFIA assay
166354	CHEMBL195847	7.740000	18.000000	21286	2005	Inhibition of human fibroblast growth factor receptor 1
180142	CHEMBL212429	7.740000	18.000000	31425	2006	Inhibition of FGFR1
20549275	CHEMBL3895337	7.740000	18.000000	101332	2016	Inhibition of human FGFR1 by time-resolved fluorescence or time-resolved fluorescence assay
36139904	CHEMBL4062877	7.740000	18.000000	104675	2017	Inhibition of recombinant human FGFR1 using poly (Glu,Tyr) 4:1 as substrate after 60 mins by ELISA
160524	CHEMBL189584	7.720000	19.000000	21341	2005	Inhibition of glutamate/tyrosine (4:1) copolymer phosphorylation by human FGFR1 in DELFIA assay
161292	CHEMBL189059	7.720000	19.000000	21341	2005	Inhibition of glutamate/tyrosine (4:1) copolymer phosphorylation by human fibroblast growth factor receptor 1
310336	CHEMBL365318	7.720000	19.000000	21286	2005	Inhibition of human fibroblast growth factor receptor 1
165364	CHEMBL193306	7.700000	20.000000	21286	2005	Inhibition of human fibroblast growth factor receptor 1
420539	CHEMBL496150	7.700000	20.000000	45093	2009	Inhibition of human recombinant FGFR1
446161	CHEMBL526658	7.700000	20.000000	45093	2009	Inhibition of human recombinant FGFR1
663009	CHEMBL523071	7.700000	20.000000	45093	2009	Inhibition of human recombinant FGFR1
20157978	CHEMBL3401358	7.700000	20.000000	91122	2015	Inhibition of FGFR1 (unknown origin)
181173	CHEMBL212054	7.690000	20.300000	99858	2016	Inhibition of recombinant human FGFR1 using poly (Glu, Tyr) 4:1 as substrate after 60 mins by ELISA
20515426	CHEMBL3828723	7.680000	20.800000	99858	2016	Inhibition of recombinant human FGFR1 using poly (Glu, Tyr) 4:1 as substrate after 60 mins by ELISA
159184	CHEMBL188087	7.680000	21.000000	21341	2005	Inhibition of glutamate/tyrosine (4:1) copolymer phosphorylation by human fibroblast growth factor receptor 1
159184	CHEMBL188087	7.680000	21.000000	21341	2005	Inhibition of glutamate/tyrosine (4:1) copolymer phosphorylation by human FGFR1 in DELFIA assay
172941	CHEMBL204426	7.680000	21.000000	31022	2006	Inhibitory activity against FGFR1
36150505	CHEMBL4090974	7.680000	21.100000	106067	2017	Inhibition of recombinant FGFR1 (unknown origin) using poly (Glu,Tyr)4:1 as substrate after 60 mins by ELISA based spectrophotometric analysis
160524	CHEMBL189584	7.670000	21.500000	103835	2017	Inhibition of recombinant full length human FGFR1 expressed in baculovirus infected insect cells in presence of [gamma-32P]ATP after 10 mins by scintillation counting based radioactive filter binding assay
363384	CHEMBL427202	7.660000	22.000000	92010	2012	Inhibition of recombinant FGFR-1 (unknown origin)
20515620	CHEMBL3827325	7.650000	22.400000	99858	2016	Inhibition of recombinant human FGFR1 using poly (Glu, Tyr) 4:1 as substrate after 60 mins by ELISA
178652	CHEMBL209704	7.640000	23.000000	31425	2006	Inhibition of FGFR1
161734	CHEMBL190389	7.620000	24.000000	21341	2005	Inhibition of glutamate/tyrosine (4:1) copolymer phosphorylation by human fibroblast growth factor receptor 1
162789	CHEMBL189995	7.620000	24.000000	21341	2005	Inhibition of glutamate/tyrosine (4:1) copolymer phosphorylation by human fibroblast growth factor receptor 1
162931	CHEMBL190161	7.620000	24.000000	21341	2005	Inhibition of glutamate/tyrosine (4:1) copolymer phosphorylation by human fibroblast growth factor receptor 1
443239	CHEMBL523745	7.620000	24.000000	45093	2009	Inhibition of human recombinant FGFR1
36164881	CHEMBL4091839	7.620000	24.000000	104496	2017	Inhibition of human FGFR1 using 5-FAM-KKKKEEIYFFF-NH2 as substrate preincubated for 15 mins followed by peptide substrate addition measured after 3 hrs by caliper capillary electrophoresis method
36152619	CHEMBL4082721	7.600000	24.900000	104675	2017	Inhibition of recombinant human FGFR1 using poly (Glu,Tyr) 4:1 as substrate after 60 mins by ELISA
162340	CHEMBL191023	7.600000	25.000000	21341	2005	Inhibition of glutamate/tyrosine (4:1) copolymer phosphorylation by human fibroblast growth factor receptor 1
305886	CHEMBL365377	7.600000	25.000000	21341	2005	Inhibition of glutamate/tyrosine (4:1) copolymer phosphorylation by human fibroblast growth factor receptor 1
1166122	CHEMBL2088113	7.600000	25.120000	64943	2012	Inhibition of recombinant N terminal GST-tagged human FGFR1 (456 to 765) expressed in baculovirus infected Sf21 cells after 40 mins by caliper mobility shift assay
1168023	CHEMBL2088257	7.600000	25.120000	64943	2012	Inhibition of recombinant N terminal GST-tagged human FGFR1 (456 to 765) expressed in baculovirus infected Sf21 cells after 40 mins by caliper mobility shift assay
1169363	CHEMBL2088108	7.600000	25.120000	64943	2012	Inhibition of recombinant N terminal GST-tagged human FGFR1 (456 to 765) expressed in baculovirus infected Sf21 cells after 40 mins by caliper mobility shift assay
36159202	CHEMBL4075917	7.600000	25.200000	104675	2017	Inhibition of recombinant human FGFR1 using poly (Glu,Tyr) 4:1 as substrate after 60 mins by ELISA
162948	CHEMBL191389	7.590000	26.000000	21341	2005	Inhibition of glutamate/tyrosine (4:1) copolymer phosphorylation by human fibroblast growth factor receptor 1
19836618	CHEMBL3115681	7.590000	26.000000	76856	2014	Inhibition of FGFR1 (unknown origin)
20178559	CHEMBL3527569	7.590000	26.000000	92004	2011	Inhibition of human recombinant FGFR-1
36178299	CHEMBL4100047	7.580000	26.500000	104053	2017	Inhibition of recombinant FGFR1 (unknown origin) using poly (Glu, Tyr) 4:1 after 60 mins by ELISA method
163450	CHEMBL191913	7.570000	27.000000	21286	2005	Inhibition of human fibroblast growth factor receptor 1
36160143	CHEMBL4076118	7.550000	27.900000	104675	2017	Inhibition of recombinant human FGFR1 using poly (Glu,Tyr) 4:1 as substrate after 60 mins by ELISA
160524	CHEMBL189584	7.550000	28.000000	21341	2005	Inhibition of glutamate/tyrosine (4:1) copolymer phosphorylation by human fibroblast growth factor receptor 1
164799	CHEMBL192856	7.550000	28.000000	21341	2005	Inhibition of glutamate/tyrosine (4:1) copolymer phosphorylation by human fibroblast growth factor receptor 1
181173	CHEMBL212054	7.550000	28.000000	31425	2006	Inhibition of FGFR1
315725	CHEMBL371373	7.550000	28.000000	21286	2005	Inhibition of human fibroblast growth factor receptor 1
318014	CHEMBL377300	7.550000	28.000000	92010	2012	Inhibition of recombinant FGFR-1 (unknown origin)
318014	CHEMBL377300	7.550000	28.000000	92004	2011	Inhibition of human recombinant FGFR-1
1111539	CHEMBL1980391	7.550000	28.000000	72028	2013	Inhibition of FGFR1 (unknown origin)
36174628	CHEMBL4102058	7.550000	28.000000	104496	2017	Inhibition of FGFR1 in HUVEC assessed as reduction in FGF2-induced ERK phosphorylation preincubated for 60 mins followed by FGF2 stimulation for 10 mins by AlphaScreen assay
20488018	CHEMBL3752008	7.550000	28.230000	97824	2016	Inhibition of FGFR1 (unknown origin) incubated for 1 hr assessed as luminescence changes using ATP by ADP-Glo Kinase assay
162932	CHEMBL190162	7.540000	29.000000	21341	2005	Inhibition of glutamate/tyrosine (4:1) copolymer phosphorylation by human fibroblast growth factor receptor 1
94763	CHEMBL112914	7.520000	30.000000	14555	1998	Inhibition of fibroblast growth factor receptor (FGFr)
159759	CHEMBL187396	7.520000	30.000000	21341	2005	Inhibition of glutamate/tyrosine (4:1) copolymer phosphorylation by human fibroblast growth factor receptor 1
172941	CHEMBL204426	7.520000	30.000000	45093	2009	Inhibition of human recombinant FGFR1
174161	CHEMBL204985	7.520000	30.000000	31022	2006	Inhibitory activity against FGFR1
254613	CHEMBL297523	7.520000	30.000000	14555	1998	Inhibition of fibroblast growth factor receptor (FGFr) tyrosine kinase
258252	CHEMBL301612	7.520000	30.000000	14555	1998	Inhibition of fibroblast growth factor receptor (FGFr)
324609	CHEMBL383417	7.520000	30.000000	45093	2009	Inhibition of human recombinant FGFR1
428084	CHEMBL498347	7.520000	30.000000	45093	2009	Inhibition of human recombinant FGFR1
654538	CHEMBL339856	7.510000	31.000000	21341	2005	Inhibition of glutamate/tyrosine (4:1) copolymer phosphorylation by human fibroblast growth factor receptor 1
1166806	CHEMBL2088097	7.500000	31.620000	64943	2012	Inhibition of recombinant N terminal GST-tagged human FGFR1 (456 to 765) expressed in baculovirus infected Sf21 cells after 40 mins by caliper mobility shift assay
1168016	CHEMBL2088092	7.500000	31.620000	64943	2012	Inhibition of recombinant N terminal GST-tagged human FGFR1 (456 to 765) expressed in baculovirus infected Sf21 cells after 40 mins by caliper mobility shift assay
161408	CHEMBL190188	7.490000	32.000000	21341	2005	Inhibition of glutamate/tyrosine (4:1) copolymer phosphorylation by human fibroblast growth factor receptor 1
36152412	CHEMBL4084388	7.490000	32.300000	104675	2017	Inhibition of recombinant human FGFR1 using poly (Glu,Tyr) 4:1 as substrate after 60 mins by ELISA
20501601	CHEMBL3752370	7.490000	32.570000	97824	2016	Inhibition of FGFR1 (unknown origin) incubated for 1 hr assessed as luminescence changes using ATP by ADP-Glo Kinase assay
17365459	CHEMBL3348846	7.480000	32.900000	99169	2016	Inhibition of FGFR1 in human H1581 cells assessed as suppression of cell proliferation after 72 hrs by SRB/CCK-8 assay
160261	CHEMBL189851	7.480000	33.000000	21341	2005	Inhibition of glutamate/tyrosine (4:1) copolymer phosphorylation by human fibroblast growth factor receptor 1
163534	CHEMBL192101	7.480000	33.000000	21286	2005	Inhibition of human fibroblast growth factor receptor 1
647096	CHEMBL191070	7.480000	33.000000	21341	2005	Inhibition of glutamate/tyrosine (4:1) copolymer phosphorylation by human fibroblast growth factor receptor 1
20554906	CHEMBL3934547	7.480000	33.000000	101332	2016	Inhibition of human FGFR1 by time-resolved fluorescence or time-resolved fluorescence assay
161761	CHEMBL190783	7.460000	35.000000	21341	2005	Inhibition of glutamate/tyrosine (4:1) copolymer phosphorylation by human fibroblast growth factor receptor 1
36158793	CHEMBL4079317	7.450000	35.200000	106067	2017	Inhibition of recombinant FGFR1 (unknown origin) using poly (Glu,Tyr)4:1 as substrate after 60 mins by ELISA based spectrophotometric analysis
36177341	CHEMBL4100201	7.430000	37.000000	104496	2017	Inhibition of FGFR1 in HUVEC assessed as reduction in FGF2-induced ERK phosphorylation preincubated for 60 mins followed by FGF2 stimulation for 10 mins by AlphaScreen assay
311411	CHEMBL365140	7.420000	38.000000	21341	2005	Inhibition of glutamate/tyrosine (4:1) copolymer phosphorylation by human fibroblast growth factor receptor 1
36170533	CHEMBL4103536	7.420000	38.000000	104496	2017	Inhibition of human FGFR1 using 5-FAM-KKKKEEIYFFF-NH2 as substrate preincubated for 15 mins followed by peptide substrate addition measured after 3 hrs by caliper capillary electrophoresis method
324346	CHEMBL373365	7.410000	39.000000	21286	2005	Inhibition of human fibroblast growth factor receptor 1
1166120	CHEMBL2088111	7.400000	39.810000	64943	2012	Inhibition of recombinant N terminal GST-tagged human FGFR1 (456 to 765) expressed in baculovirus infected Sf21 cells after 40 mins by caliper mobility shift assay
421368	CHEMBL496763	7.400000	40.000000	45093	2009	Inhibition of human recombinant FGFR1
39600	CHEMBL49120	7.370000	43.000000	14555	1998	Inhibition of fibroblast growth factor receptor (FGFr)
174457	CHEMBL205405	7.370000	43.000000	31022	2006	Inhibitory activity against FGFR1
162556	CHEMBL191265	7.360000	44.000000	21341	2005	Inhibition of glutamate/tyrosine (4:1) copolymer phosphorylation by human fibroblast growth factor receptor 1
324609	CHEMBL383417	7.360000	44.000000	31022	2006	Inhibitory activity against FGFR1
161228	CHEMBL188978	7.340000	46.000000	21341	2005	Inhibition of glutamate/tyrosine (4:1) copolymer phosphorylation by human FGFR1 in DELFIA assay
316573	CHEMBL370266	7.340000	46.000000	21286	2005	Inhibition of human fibroblast growth factor receptor 1
325704	CHEMBL380702	7.330000	47.000000	31022	2006	Inhibitory activity against FGFR1
343161	CHEMBL402548	7.330000	47.000000	31867	2006	Inhibition of FGFR1
666665	CHEMBL378299	7.320000	48.000000	31425	2006	Inhibition of FGFR1
36165635	CHEMBL4094883	7.310000	48.800000	104675	2017	Inhibition of recombinant human FGFR1 using poly (Glu,Tyr) 4:1 as substrate after 60 mins by ELISA
238433	CHEMBL278472	7.310000	49.000000	21341	2005	Inhibition of glutamate/tyrosine (4:1) copolymer phosphorylation by human fibroblast growth factor receptor 1
311411	CHEMBL365140	7.310000	49.000000	21341	2005	Inhibition of glutamate/tyrosine (4:1) copolymer phosphorylation by human FGFR1 in DELFIA assay
20459268	CHEMBL3676329	7.310000	49.000000	101332	2016	Inhibition of human FGFR1 by time-resolved fluorescence or time-resolved fluorescence assay
36157956	CHEMBL4076490	7.310000	49.000000	106067	2017	Inhibition of recombinant FGFR1 (unknown origin) using poly (Glu,Tyr)4:1 as substrate after 60 mins by ELISA based spectrophotometric analysis
165229	CHEMBL193136	7.300000	50.000000	21286	2005	Inhibition of human fibroblast growth factor receptor 1
1220271	CHEMBL2322701	7.300000	50.000000	72028	2013	Inhibition of FGFR1 (unknown origin)
19832877	CHEMBL3116050	7.300000	50.000000	76802	2014	Inhibition of human FGFR1
20422111	CHEMBL3681244	7.300000	50.000000	101332	2016	Inhibition of human FGFR1 by time-resolved fluorescence or time-resolved fluorescence assay
173341	CHEMBL204727	7.290000	51.000000	31022	2006	Inhibitory activity against FGFR1
357730	CHEMBL425363	7.280000	52.000000	21341	2005	Inhibition of glutamate/tyrosine (4:1) copolymer phosphorylation by human fibroblast growth factor receptor 1
36172722	CHEMBL4105329	7.250000	55.800000	104675	2017	Inhibition of recombinant human FGFR1 using poly (Glu,Tyr) 4:1 as substrate after 60 mins by ELISA
20425772	CHEMBL3681317	7.250000	56.000000	101332	2016	Inhibition of human FGFR1 by time-resolved fluorescence or time-resolved fluorescence assay
20505081	CHEMBL3753532	7.250000	56.490000	97824	2016	Inhibition of FGFR1 (unknown origin) incubated for 1 hr assessed as luminescence changes using ATP by ADP-Glo Kinase assay
165894	CHEMBL195218	7.240000	58.000000	21286	2005	Inhibition of human fibroblast growth factor receptor 1
305566	CHEMBL363551	7.220000	60.000000	21341	2005	Inhibition of glutamate/tyrosine (4:1) copolymer phosphorylation by human fibroblast growth factor receptor 1
1166805	CHEMBL2088096	7.220000	60.000000	76638	2014	Inhibition of N-terminal GST-tagged human recombinant FGFR1 (456 to 765) after 40 mins by mobility shift assay
278130	CHEMBL327127	7.210000	61.500000	48306	2000	Inhibition of bFGFR
17365459	CHEMBL3348846	7.200000	62.600000	104675	2017	Inhibition of FGFR1 in human NCI-H1581 cells assessed as inhibition of cell proliferation after 72 hrs by cell counting kit-8 assay
1330380	CHEMBL2419762	7.200000	63.000000	74644	2013	Inhibition of FGFR1 (unknown origin)
1330378	CHEMBL2419760	7.200000	63.000000	74644	2013	Inhibition of FGFR1 (unknown origin)
1330380	CHEMBL3040910	7.200000	63.000000	84059	2014	Inhibition of FGFR1 (unknown origin) assessed as incorporation of [32P] gamma-ATP in to myelin basic protein after 30 mins by autoradiographic analysis
1330378	CHEMBL3040861	7.200000	63.000000	84059	2014	Inhibition of FGFR1 (unknown origin) assessed as incorporation of [32P] gamma-ATP in to myelin basic protein after 30 mins by autoradiographic analysis
1156106	CHEMBL2088258	7.200000	63.100000	64943	2012	Inhibition of recombinant N terminal GST-tagged human FGFR1 (456 to 765) expressed in baculovirus infected Sf21 cells after 40 mins by caliper mobility shift assay
1166410	CHEMBL2088093	7.200000	63.100000	64943	2012	Inhibition of recombinant N terminal GST-tagged human FGFR1 (456 to 765) expressed in baculovirus infected Sf21 cells after 40 mins by caliper mobility shift assay
1166804	CHEMBL2088095	7.200000	63.100000	64943	2012	Inhibition of human FGFR1 phosphorylation expressed in COS1 cells after 1 hr by immunoblotting
1168015	CHEMBL2088091	7.200000	63.100000	64943	2012	Inhibition of recombinant N terminal GST-tagged human FGFR1 (456 to 765) expressed in baculovirus infected Sf21 cells after 40 mins by caliper mobility shift assay
1168022	CHEMBL2088256	7.200000	63.100000	64943	2012	Inhibition of recombinant N terminal GST-tagged human FGFR1 (456 to 765) expressed in baculovirus infected Sf21 cells after 40 mins by caliper mobility shift assay
36158022	CHEMBL4077448	7.200000	63.500000	104675	2017	Inhibition of recombinant human FGFR1 using poly (Glu,Tyr) 4:1 as substrate after 60 mins by ELISA
465210	CHEMBL1822792	7.190000	65.000000	58210	2011	Inhibition of human FGFR1
36177651	CHEMBL4100031	7.180000	66.500000	104675	2017	Inhibition of recombinant human FGFR1 using poly (Glu,Tyr) 4:1 as substrate after 60 mins by ELISA
166105	CHEMBL194872	7.170000	68.000000	21286	2005	Inhibition of human fibroblast growth factor receptor 1
20616037	CHEMBL3959997	7.160000	69.000000	101332	2016	Inhibition of human FGFR1 by time-resolved fluorescence or time-resolved fluorescence assay
20488416	CHEMBL3752074	7.160000	69.340000	97824	2016	Inhibition of FGFR1 (unknown origin) incubated for 1 hr assessed as luminescence changes using ATP by ADP-Glo Kinase assay
161324	CHEMBL189691	7.150000	70.000000	21341	2005	Inhibition of glutamate/tyrosine (4:1) copolymer phosphorylation by human fibroblast growth factor receptor 1
429525	CHEMBL498206	7.150000	70.000000	45093	2009	Inhibition of human recombinant FGFR1
328406	CHEMBL380372	7.140000	73.000000	31425	2006	Inhibition of FGFR1
1166121	CHEMBL2088112	7.100000	79.430000	64943	2012	Inhibition of recombinant N terminal GST-tagged human FGFR1 (456 to 765) expressed in baculovirus infected Sf21 cells after 40 mins by caliper mobility shift assay
1167085	CHEMBL2088106	7.100000	79.430000	64943	2012	Inhibition of recombinant N terminal GST-tagged human FGFR1 (456 to 765) expressed in baculovirus infected Sf21 cells after 40 mins by caliper mobility shift assay
1170720	CHEMBL2088098	7.100000	79.430000	64943	2012	Inhibition of recombinant N terminal GST-tagged human FGFR1 (456 to 765) expressed in baculovirus infected Sf21 cells after 40 mins by caliper mobility shift assay
1171074	CHEMBL2088099	7.100000	79.430000	64943	2012	Inhibition of recombinant N terminal GST-tagged human FGFR1 (456 to 765) expressed in baculovirus infected Sf21 cells after 40 mins by caliper mobility shift assay
429524	CHEMBL498205	7.100000	80.000000	45093	2009	Inhibition of human recombinant FGFR1
20491343	CHEMBL3754057	7.090000	81.280000	97824	2016	Inhibition of FGFR1 (unknown origin) incubated for 1 hr assessed as luminescence changes using ATP by ADP-Glo Kinase assay
178159	CHEMBL208600	7.090000	82.000000	31425	2006	Inhibition of FGFR1
20157978	CHEMBL3401358	7.090000	82.000000	91122	2015	Inhibition of FGFR1 (unknown origin) after 90 mins by TR-FRET assay
162556	CHEMBL191265	7.080000	83.000000	21341	2005	Inhibition of glutamate/tyrosine (4:1) copolymer phosphorylation by human FGFR1 in DELFIA assay
420779	CHEMBL495529	7.080000	83.000000	45093	2009	Inhibition of human recombinant FGFR1
316624	CHEMBL370023	7.080000	84.000000	21286	2005	Inhibition of human fibroblast growth factor receptor 1
161761	CHEMBL190783	7.070000	86.000000	21341	2005	Inhibition of glutamate/tyrosine (4:1) copolymer phosphorylation by human FGFR1 in DELFIA assay
161228	CHEMBL188978	7.060000	87.000000	21341	2005	Inhibition of glutamate/tyrosine (4:1) copolymer phosphorylation by human fibroblast growth factor receptor 1
323637	CHEMBL377345	7.050000	90.000000	45093	2009	Inhibition of human recombinant FGFR1
36159276	CHEMBL4077119	7.040000	91.500000	104675	2017	Inhibition of recombinant human FGFR1 using poly (Glu,Tyr) 4:1 as substrate after 60 mins by ELISA
308676	CHEMBL365727	7.030000	93.000000	21341	2005	Inhibition of glutamate/tyrosine (4:1) copolymer phosphorylation by human fibroblast growth factor receptor 1
358868	CHEMBL425247	7.030000	94.000000	31425	2006	Inhibition of FGFR1
20490941	CHEMBL3753811	7.020000	96.150000	97824	2016	Inhibition of FGFR1 (unknown origin) incubated for 1 hr assessed as luminescence changes using ATP by ADP-Glo Kinase assay
179347	CHEMBL208775	7.010000	98.000000	31425	2006	Inhibition of FGFR1
89785	CHEMBL106772	7.010000	98.800000	48306	2000	Inhibition of bFGFR
20490938	CHEMBL3753142	7.000000	99.150000	97824	2016	Inhibition of FGFR1 (unknown origin) incubated for 1 hr assessed as luminescence changes using ATP by ADP-Glo Kinase assay
36178527	CHEMBL4099060	7.000000	99.300000	106067	2017	Inhibition of recombinant FGFR1 (unknown origin) using poly (Glu,Tyr)4:1 as substrate after 60 mins by ELISA based spectrophotometric analysis
20504263	CHEMBL3753623	7.000000	99.750000	97824	2016	Inhibition of FGFR1 (unknown origin) incubated for 1 hr assessed as luminescence changes using ATP by ADP-Glo Kinase assay
177487	CHEMBL209783	7.000000	100.000000	31425	2006	Inhibition of FGFR1
322129	CHEMBL381283	7.000000	100.000000	31022	2006	Inhibitory activity against FGFR1
1155354	CHEMBL2088104	7.000000	100.000000	64943	2012	Inhibition of recombinant N terminal GST-tagged human FGFR1 (456 to 765) expressed in baculovirus infected Sf21 cells after 40 mins by caliper mobility shift assay
1166118	CHEMBL2088109	7.000000	100.000000	64943	2012	Inhibition of recombinant N terminal GST-tagged human FGFR1 (456 to 765) expressed in baculovirus infected Sf21 cells after 40 mins by caliper mobility shift assay
1166803	CHEMBL2088094	7.000000	100.000000	64943	2012	Inhibition of human FGFR1 phosphorylation expressed in COS1 cells after 1 hr by immunoblotting
19826444	CHEMBL3109570	7.000000	100.000000	76638	2014	Inhibition of N-terminal GST-tagged human recombinant FGFR1 (456 to 765) after 40 mins by mobility shift assay
20488019	CHEMBL3753886	6.980000	104.200000	97824	2016	Inhibition of FGFR1 (unknown origin) incubated for 1 hr assessed as luminescence changes using ATP by ADP-Glo Kinase assay
48051	CHEMBL57366	6.960000	110.000000	91122	2015	Inhibition of FGFR1 (unknown origin) after 90 mins by TR-FRET assay
317833	CHEMBL370515	6.960000	110.000000	21286	2005	Inhibition of human fibroblast growth factor receptor 1
334379	CHEMBL386760	6.960000	110.000000	31529	2006	Inhibition of FGF1R
444837	CHEMBL522732	6.960000	110.000000	45093	2009	Inhibition of human recombinant FGFR1
162560	CHEMBL191189	6.920000	120.000000	21341	2005	Inhibition of glutamate/tyrosine (4:1) copolymer phosphorylation by human fibroblast growth factor receptor 1
442083	CHEMBL521552	6.920000	120.000000	45093	2009	Inhibition of human recombinant FGFR1
1166722	CHEMBL2088102	6.900000	125.890000	64943	2012	Inhibition of recombinant N terminal GST-tagged human FGFR1 (456 to 765) expressed in baculovirus infected Sf21 cells after 40 mins by caliper mobility shift assay
36146228	CHEMBL4086068	6.890000	127.900000	104675	2017	Inhibition of recombinant human FGFR1 using poly (Glu,Tyr) 4:1 as substrate after 60 mins by ELISA
20490920	CHEMBL3753208	6.890000	129.860000	97824	2016	Inhibition of FGFR1 (unknown origin) incubated for 1 hr assessed as luminescence changes using ATP by ADP-Glo Kinase assay
20601367	CHEMBL3976548	6.890000	130.000000	101332	2016	Inhibition of human FGFR1 by time-resolved fluorescence or time-resolved fluorescence assay
20505460	CHEMBL3752404	6.860000	138.060000	97824	2016	Inhibition of FGFR1 (unknown origin) incubated for 1 hr assessed as luminescence changes using ATP by ADP-Glo Kinase assay
165936	CHEMBL194929	6.850000	140.000000	21286	2005	Inhibition of human fibroblast growth factor receptor 1
359487	CHEMBL425552	6.850000	140.000000	21341	2005	Inhibition of glutamate/tyrosine (4:1) copolymer phosphorylation by human FGFR1 in DELFIA assay
401016	CHEMBL477772	6.850000	140.000000	44001	2008	Inhibition of human FGFR1
36145973	CHEMBL4087200	6.830000	147.600000	106067	2017	Inhibition of recombinant FGFR1 (unknown origin) using poly (Glu,Tyr)4:1 as substrate after 60 mins by ELISA based spectrophotometric analysis
318014	CHEMBL377300	6.830000	148.000000	30918	2006	Inhibitory activity against FGFR1
313568	CHEMBL372662	6.830000	149.000000	21286	2005	Inhibition of human fibroblast growth factor receptor 1
20501566	CHEMBL3752248	6.810000	154.160000	97824	2016	Inhibition of FGFR1 (unknown origin) incubated for 1 hr assessed as luminescence changes using ATP by ADP-Glo Kinase assay
1168015	CHEMBL2088091	6.800000	158.490000	64943	2012	Inhibition of human FGFR1 phosphorylation expressed in COS1 cells after 1 hr by immunoblotting
1168016	CHEMBL2088092	6.800000	158.490000	64943	2012	Inhibition of human FGFR1 phosphorylation expressed in COS1 cells after 1 hr by immunoblotting
166289	CHEMBL195771	6.800000	160.000000	21286	2005	Inhibition of human fibroblast growth factor receptor 1
1759003	CHEMBL3401782	6.800000	160.000000	91208	2015	Inhibition of FGFR1 (unknown origin) using KKKSPGEYVNIEFG peptide substrate assessed as incorporation of [32P] into peptide by scintillation counting analysis
20165118	CHEMBL3426891	6.800000	160.000000	91755	2015	Inhibition of human FGFR1 using KKKSPGEYVNIEFG peptide substrate by 33P Hotspot assay
20583640	CHEMBL3941474	6.800000	160.000000	101332	2016	Inhibition of human FGFR1 by time-resolved fluorescence or time-resolved fluorescence assay
126716	CHEMBL150894	6.790000	162.000000	17320	2003	Inhibition of Fibroblast growth factor receptor 1
36150875	CHEMBL4084547	6.780000	167.300000	104675	2017	Inhibition of recombinant human FGFR1 using poly (Glu,Tyr) 4:1 as substrate after 60 mins by ELISA
36161312	CHEMBL4095830	6.770000	168.300000	104675	2017	Inhibition of recombinant human FGFR1 using poly (Glu,Tyr) 4:1 as substrate after 60 mins by ELISA
1325445	CHEMBL2380845	6.760000	175.000000	73604	2013	Inhibition of FGFR1 (unknown origin)
1330379	CHEMBL2419761	6.750000	178.000000	74644	2013	Inhibition of FGFR1 (unknown origin)
1330379	CHEMBL3040806	6.750000	178.000000	84059	2014	Inhibition of FGFR1 (unknown origin) assessed as incorporation of [32P] gamma-ATP in to myelin basic protein after 30 mins by autoradiographic analysis
13324066	CHEMBL3401781	6.740000	180.000000	91208	2015	Inhibition of FGFR1 (unknown origin) using KKKSPGEYVNIEFG peptide substrate assessed as incorporation of [32P] into peptide by scintillation counting analysis
162170	CHEMBL190991	6.720000	190.000000	21341	2005	Inhibition of glutamate/tyrosine (4:1) copolymer phosphorylation by human FGFR1 in DELFIA assay
359487	CHEMBL425552	6.720000	190.000000	21341	2005	Inhibition of glutamate/tyrosine (4:1) copolymer phosphorylation by human fibroblast growth factor receptor 1
421951	CHEMBL495984	6.720000	190.000000	45093	2009	Inhibition of human recombinant FGFR1
445273	CHEMBL526836	6.720000	190.000000	45093	2009	Inhibition of human recombinant FGFR1
1166721	CHEMBL2088101	6.700000	199.530000	64943	2012	Inhibition of recombinant N terminal GST-tagged human FGFR1 (456 to 765) expressed in baculovirus infected Sf21 cells after 40 mins by caliper mobility shift assay
1167913	CHEMBL2088103	6.700000	199.530000	64943	2012	Inhibition of recombinant N terminal GST-tagged human FGFR1 (456 to 765) expressed in baculovirus infected Sf21 cells after 40 mins by caliper mobility shift assay
161265	CHEMBL189542	6.700000	200.000000	21341	2005	Inhibition of glutamate/tyrosine (4:1) copolymer phosphorylation by human FGFR1 in DELFIA assay
181982	CHEMBL211940	6.700000	200.000000	31425	2006	Inhibition of FGFR1
36154596	CHEMBL4084614	6.700000	200.000000	105578	2017	Inhibition of human recombinant His-tagged FGFR1 cytoplasmic domain (308 to 731 residues) expressed in baculovirus using Tyr-4 peptide after 1 hr by FRET-based Z'-Lyte assay
322305	CHEMBL378003	6.680000	210.000000	31425	2006	Inhibition of FGFR1
323637	CHEMBL377345	6.670000	215.000000	31022	2006	Inhibitory activity against FGFR1
36171537	CHEMBL4105046	6.660000	219.600000	106067	2017	Inhibition of recombinant FGFR1 (unknown origin) using poly (Glu,Tyr)4:1 as substrate after 60 mins by ELISA based spectrophotometric analysis
162560	CHEMBL191189	6.660000	220.000000	21341	2005	Inhibition of glutamate/tyrosine (4:1) copolymer phosphorylation by human FGFR1 in DELFIA assay
397923	CHEMBL1253194	6.660000	220.000000	52937	2010	Inhibition of His-tagged human FGFR1 expressed in Sf9 cells
20515399	CHEMBL3827811	6.640000	228.200000	99858	2016	Inhibition of recombinant human FGFR1 using poly (Glu, Tyr) 4:1 as substrate after 60 mins by ELISA
36135178	CHEMBL4068896	6.620000	239.900000	103918	2017	Inhibition of His-tagged cytoplasmic recombinant human FGFR1 (308 to 731 residues) expressed in baculovirus expression system using Tyr 4 peptide as substrate incubated for 1 hr by FRET-based Z'-Lyte assay
501184	CHEMBL573820	6.610000	244.000000	48306	2000	Inhibition of bFGFR
20136560	CHEMBL3355065	6.600000	250.000000	90098	2015	Inhibition of FGFR1 (unknown origin)
36165253	CHEMBL4093349	6.600000	250.000000	104496	2017	Inhibition of human FGFR1 using 5-FAM-KKKKEEIYFFF-NH2 as substrate preincubated for 15 mins followed by peptide substrate addition measured after 3 hrs by caliper capillary electrophoresis method
160303	CHEMBL189322	6.590000	260.000000	21341	2005	Inhibition of glutamate/tyrosine (4:1) copolymer phosphorylation by human FGFR1 in DELFIA assay
397924	CHEMBL1254437	6.590000	260.000000	52937	2010	Inhibition of His-tagged human FGFR1 expressed in Sf9 cells
20491366	CHEMBL3754301	6.580000	260.790000	97824	2016	Inhibition of FGFR1 (unknown origin) incubated for 1 hr assessed as luminescence changes using ATP by ADP-Glo Kinase assay
177838	CHEMBL209265	6.570000	270.000000	31425	2006	Inhibition of FGFR1
621753	CHEMBL1254839	6.570000	270.000000	52937	2010	Inhibition of His-tagged human FGFR1 expressed in Sf9 cells
20621491	CHEMBL3981956	6.570000	270.000000	101332	2016	Inhibition of human FGFR1 by time-resolved fluorescence or time-resolved fluorescence assay
20491344	CHEMBL3753836	6.570000	271.850000	97824	2016	Inhibition of FGFR1 (unknown origin) incubated for 1 hr assessed as luminescence changes using ATP by ADP-Glo Kinase assay
161265	CHEMBL189542	6.520000	300.000000	21341	2005	Inhibition of glutamate/tyrosine (4:1) copolymer phosphorylation by human fibroblast growth factor receptor 1
17875312	CHEMBL3781511	6.490000	320.000000	98749	2016	Inhibition of N-terminal GST-tagged recombinant human FGFR1 (456 to 765 residues) expressed in baculovirus infected insect Sf21 cells after 25 mins using KKKSPGEYVNIEFG peptide substrate by scintillation counting analysis
36160271	CHEMBL4078176	6.480000	327.400000	104675	2017	Inhibition of recombinant human FGFR1 using poly (Glu,Tyr) 4:1 as substrate after 60 mins by ELISA
161811	CHEMBL190405	6.480000	330.000000	21341	2005	Inhibition of glutamate/tyrosine (4:1) copolymer phosphorylation by human FGFR1 in DELFIA assay
161825	CHEMBL190866	6.480000	330.000000	21341	2005	Inhibition of glutamate/tyrosine (4:1) copolymer phosphorylation by human FGFR1 in DELFIA assay
20504785	CHEMBL3754709	6.480000	333.890000	97824	2016	Inhibition of FGFR1 (unknown origin) incubated for 1 hr assessed as luminescence changes using ATP by ADP-Glo Kinase assay
174460	CHEMBL205406	6.460000	348.000000	31022	2006	Inhibitory activity against FGFR1
161306	CHEMBL188648	6.460000	350.000000	21341	2005	Inhibition of glutamate/tyrosine (4:1) copolymer phosphorylation by human fibroblast growth factor receptor 1
380082	CHEMBL449593	6.430000	370.000000	45093	2009	Inhibition of human recombinant FGFR1
20501977	CHEMBL3752825	6.430000	370.600000	97824	2016	Inhibition of FGFR1 (unknown origin) incubated for 1 hr assessed as luminescence changes using ATP by ADP-Glo Kinase assay
101510	CHEMBL118440	6.410000	390.000000	45093	2009	Inhibition of human recombinant FGFR1
421950	CHEMBL495983	6.410000	390.000000	45093	2009	Inhibition of human recombinant FGFR1
636556	CHEMBL1255097	6.410000	390.000000	52937	2010	Inhibition of His-tagged human FGFR1 expressed in Sf9 cells
36139904	CHEMBL4062877	6.410000	391.200000	104675	2017	Inhibition of FGFR1 in human NCI-H1581 cells assessed as inhibition of cell proliferation after 72 hrs by cell counting kit-8 assay
1166723	CHEMBL2088105	6.400000	398.110000	64943	2012	Inhibition of recombinant N terminal GST-tagged human FGFR1 (456 to 765) expressed in baculovirus infected Sf21 cells after 40 mins by caliper mobility shift assay
36139323	CHEMBL4062871	6.380000	418.400000	104675	2017	Inhibition of recombinant human FGFR1 using poly (Glu,Tyr) 4:1 as substrate after 60 mins by ELISA
36152323	CHEMBL4082818	6.370000	431.000000	103918	2017	Inhibition of His-tagged cytoplasmic recombinant human FGFR1 (308 to 731 residues) expressed in baculovirus expression system using Tyr 4 peptide as substrate incubated for 1 hr by FRET-based Z'-Lyte assay
36141853	CHEMBL4071491	6.360000	437.300000	104675	2017	Inhibition of recombinant human FGFR1 using poly (Glu,Tyr) 4:1 as substrate after 60 mins by ELISA
20160904	CHEMBL3401780	6.350000	450.000000	91208	2015	Inhibition of FGFR1 (unknown origin) using KKKSPGEYVNIEFG peptide substrate assessed as incorporation of [32P] into peptide by scintillation counting analysis
20587030	CHEMBL3947281	6.350000	450.000000	101332	2016	Inhibition of human FGFR1 by time-resolved fluorescence or time-resolved fluorescence assay
501360	CHEMBL578006	6.350000	451.000000	48306	2000	Inhibition of bFGFR
36136659	CHEMBL4060706	6.340000	456.000000	104675	2017	Inhibition of recombinant human FGFR1 using poly (Glu,Tyr) 4:1 as substrate after 60 mins by ELISA
14689101	CHEMBL3401778	6.300000	500.000000	91208	2015	Inhibition of FGFR1 (unknown origin) using KKKSPGEYVNIEFG peptide substrate assessed as incorporation of [32P] into peptide by scintillation counting analysis
1760574	CHEMBL3401779	6.300000	500.000000	91208	2015	Inhibition of FGFR1 (unknown origin) using KKKSPGEYVNIEFG peptide substrate assessed as incorporation of [32P] into peptide by scintillation counting analysis
1169397	CHEMBL2088089	6.300000	501.190000	64943	2012	Inhibition of recombinant N terminal GST-tagged human FGFR1 (456 to 765) expressed in baculovirus infected Sf21 cells after 40 mins by caliper mobility shift assay
444916	CHEMBL526285	6.260000	550.000000	45093	2009	Inhibition of human recombinant FGFR1
175218	CHEMBL206410	6.240000	576.000000	31022	2006	Inhibitory activity against FGFR1
36149304	CHEMBL4090527	6.230000	591.000000	103835	2017	Inhibition of human N-terminal GST-tagged FGFR1 cytoplasmic domain (398 to 822 residues) expressed in baculovirus expression system using CSKtide as substrate after 90 mins
19019618	CHEMBL3781099	6.220000	600.000000	98749	2016	Inhibition of N-terminal GST-tagged recombinant human FGFR1 (456 to 765 residues) expressed in baculovirus infected insect Sf21 cells after 25 mins using KKKSPGEYVNIEFG peptide substrate by scintillation counting analysis
513943	CHEMBL1254595	6.210000	610.000000	52937	2010	Inhibition of His-tagged human FGFR1 expressed in Sf9 cells
36176222	CHEMBL4102146	6.210000	617.700000	103918	2017	Inhibition of His-tagged cytoplasmic recombinant human FGFR1 (308 to 731 residues) expressed in baculovirus expression system using Tyr 4 peptide as substrate incubated for 1 hr by FRET-based Z'-Lyte assay
161306	CHEMBL188648	6.200000	630.000000	21341	2005	Inhibition of glutamate/tyrosine (4:1) copolymer phosphorylation by human FGFR1 in DELFIA assay
18999081	CHEMBL3781980	6.200000	630.000000	98749	2016	Inhibition of N-terminal GST-tagged recombinant human FGFR1 (456 to 765 residues) expressed in baculovirus infected insect Sf21 cells after 25 mins using KKKSPGEYVNIEFG peptide substrate by scintillation counting analysis
1169398	CHEMBL2088090	6.200000	630.960000	64943	2012	Inhibition of recombinant N terminal GST-tagged human FGFR1 (456 to 765) expressed in baculovirus infected Sf21 cells after 40 mins by caliper mobility shift assay
19888347	CHEMBL3288526	6.190000	643.700000	83939	2014	Inhibition of FGFR-1 (unknown origin) expressed in baculovirus expression system using poly (4 Glu, Tyr) as substrate after 60 mins by ELISA
15966415	CHEMBL3401777	6.150000	700.000000	91208	2015	Inhibition of FGFR1 (unknown origin) using KKKSPGEYVNIEFG peptide substrate assessed as incorporation of [32P] into peptide by scintillation counting analysis
20178406	CHEMBL3526621	6.120000	760.000000	92004	2011	Inhibition of human recombinant FGFR-1
1166119	CHEMBL2088110	6.100000	794.330000	64943	2012	Inhibition of recombinant N terminal GST-tagged human FGFR1 (456 to 765) expressed in baculovirus infected Sf21 cells after 40 mins by caliper mobility shift assay
1166410	CHEMBL2088093	6.100000	794.330000	64943	2012	Inhibition of human FGFR1 phosphorylation expressed in COS1 cells after 1 hr by immunoblotting
36160518	CHEMBL4077138	6.080000	825.300000	103918	2017	Inhibition of His-tagged cytoplasmic recombinant human FGFR1 (308 to 731 residues) expressed in baculovirus expression system using Tyr 4 peptide as substrate incubated for 1 hr by FRET-based Z'-Lyte assay
182001	CHEMBL211708	6.080000	830.000000	31425	2006	Inhibition of FGFR1
36131124	CHEMBL1738735	6.080000	840.000000	103835	2017	Inhibition of recombinant His6-tagged FGFR1 (unknown origin) expressed in Escherichia coli BL21(DE3)-RILP using peptidic substrate by ELISA
329311	CHEMBL1421	6.060000	880.000000	35313	2004	Inhibition of FGFR1 kinase
420780	CHEMBL495530	6.050000	900.000000	45093	2009	Inhibition of human recombinant FGFR1
162170	CHEMBL190991	6.040000	910.000000	21341	2005	Inhibition of glutamate/tyrosine (4:1) copolymer phosphorylation by human fibroblast growth factor receptor 1
504152	CHEMBL574059	6.030000	933.000000	48306	2000	Inhibition of bFGFR
635458	CHEMBL574058	6.030000	934.000000	48306	2000	Inhibition of bFGFR
398728	CHEMBL1254356	6.030000	940.000000	52937	2010	Inhibition of His-tagged human FGFR1 expressed in Sf9 cells
366341	CHEMBL436137	6.020000	960.000000	34878	2006	Inhibition of FGFR1
36175095	CHEMBL4099268	6.010000	975.100000	103918	2017	Inhibition of His-tagged cytoplasmic recombinant human FGFR1 (308 to 731 residues) expressed in baculovirus expression system using Tyr 4 peptide as substrate incubated for 1 hr by FRET-based Z'-Lyte assay
160303	CHEMBL189322	5.960000	1100.000000	21341	2005	Inhibition of glutamate/tyrosine (4:1) copolymer phosphorylation by human fibroblast growth factor receptor 1
161580	CHEMBL190210	5.960000	1100.000000	21341	2005	Inhibition of glutamate/tyrosine (4:1) copolymer phosphorylation by human FGFR1 in DELFIA assay
20577452	CHEMBL3956001	5.960000	1100.000000	101332	2016	Inhibition of human FGFR1 by time-resolved fluorescence or time-resolved fluorescence assay
19019606	CHEMBL3781649	5.950000	1120.000000	98749	2016	Inhibition of N-terminal GST-tagged recombinant human FGFR1 (456 to 765 residues) expressed in baculovirus infected insect Sf21 cells after 25 mins using KKKSPGEYVNIEFG peptide substrate by scintillation counting analysis
20130321	CHEMBL3343787	5.920000	1200.000000	89788	2014	Inhibition of FGFR1 (unknown origin)
11652499	CHEMBL3401775	5.920000	1200.000000	91208	2015	Inhibition of FGFR1 (unknown origin) using KKKSPGEYVNIEFG peptide substrate assessed as incorporation of [32P] into peptide by scintillation counting analysis
329101	CHEMBL386051	5.900000	1250.000000	48306	2000	Inhibition of bFGFR
2872678	CHEMBL3401774	5.900000	1250.000000	91208	2015	Inhibition of FGFR1 (unknown origin) using KKKSPGEYVNIEFG peptide substrate assessed as incorporation of [32P] into peptide by scintillation counting analysis
310541	CHEMBL362502	5.850000	1400.000000	21341	2005	Inhibition of glutamate/tyrosine (4:1) copolymer phosphorylation by human FGFR1 in DELFIA assay
323123	CHEMBL383990	5.850000	1400.000000	31425	2006	Inhibition of FGFR1
161825	CHEMBL190866	5.820000	1500.000000	21341	2005	Inhibition of glutamate/tyrosine (4:1) copolymer phosphorylation by human fibroblast growth factor receptor 1
20157989	CHEMBL3401370	5.810000	1560.000000	91122	2015	Inhibition of FGFR1 (unknown origin) after 90 mins by TR-FRET assay
17225519	CHEMBL3401765	5.800000	1600.000000	91208	2015	Inhibition of FGFR1 (unknown origin) using KKKSPGEYVNIEFG peptide substrate assessed as incorporation of [32P] into peptide by scintillation counting analysis
929564	CHEMBL1626011	5.780000	1660.000000	91208	2015	Inhibition of FGFR1 (unknown origin) using KKKSPGEYVNIEFG peptide substrate assessed as incorporation of [32P] into peptide by scintillation counting analysis
1234658	CHEMBL2312654	5.770000	1710.000000	71957	2013	Inhibition of FGFR1 (unknown origin) in presence of ATP
428085	CHEMBL498348	5.740000	1800.000000	45093	2009	Inhibition of human recombinant FGFR1
18999066	CHEMBL3779986	5.730000	1850.000000	98749	2016	Inhibition of N-terminal GST-tagged recombinant human FGFR1 (456 to 765 residues) expressed in baculovirus infected insect Sf21 cells after 25 mins using KKKSPGEYVNIEFG peptide substrate by scintillation counting analysis
20145675	CHEMBL1231606	5.720000	1900.000000	91122	2015	Inhibition of FGFR1 (unknown origin)
20545123	CHEMBL3905685	5.720000	1900.000000	101332	2016	Inhibition of human FGFR1 by time-resolved fluorescence or time-resolved fluorescence assay
18439793	CHEMBL3780362	5.670000	2120.000000	98749	2016	Inhibition of N-terminal GST-tagged recombinant human FGFR1 (456 to 765 residues) expressed in baculovirus infected insect Sf21 cells after 25 mins using KKKSPGEYVNIEFG peptide substrate by scintillation counting analysis
161507	CHEMBL190132	5.660000	2200.000000	21341	2005	Inhibition of glutamate/tyrosine (4:1) copolymer phosphorylation by human fibroblast growth factor receptor 1
36176746	CHEMBL4100645	5.650000	2264.000000	104463	2017	Inhibition of FGFR1 (unknown origin) using FAM-labeled peptide as substrate preincubated for 10 mins followed by substrate addition in presence of ATP by mobility shift assay
18999169	CHEMBL3780482	5.640000	2280.000000	98749	2016	Inhibition of N-terminal GST-tagged recombinant human FGFR1 (456 to 765 residues) expressed in baculovirus infected insect Sf21 cells after 25 mins using KKKSPGEYVNIEFG peptide substrate by scintillation counting analysis
160305	CHEMBL189325	5.620000	2400.000000	21341	2005	Inhibition of glutamate/tyrosine (4:1) copolymer phosphorylation by human FGFR1 in DELFIA assay
4424054	CHEMBL3401771	5.600000	2500.000000	91208	2015	Inhibition of FGFR1 (unknown origin) using KKKSPGEYVNIEFG peptide substrate assessed as incorporation of [32P] into peptide by scintillation counting analysis
1169397	CHEMBL2088089	5.600000	2511.890000	64943	2012	Inhibition of human FGFR1 phosphorylation expressed in COS1 cells after 1 hr by immunoblotting
327644	CHEMBL383299	5.580000	2660.000000	31022	2006	Inhibitory activity against FGFR1
1333068	CHEMBL2409778	5.570000	2700.000000	74327	2013	Inhibition of FGFR1 (unknown origin) using biotinylated poly-GluTyr as substrate preincubated for 5 mins followed by ATP addition by AlphaScreen assay
327325	CHEMBL383261	5.520000	3000.000000	31022	2006	Inhibitory activity against FGFR1
14684208	CHEMBL3401776	5.520000	3000.000000	91208	2015	Inhibition of FGFR1 (unknown origin) using KKKSPGEYVNIEFG peptide substrate assessed as incorporation of [32P] into peptide by scintillation counting analysis
9064655	CHEMBL3401767	5.520000	3000.000000	91208	2015	Inhibition of FGFR1 (unknown origin) using KKKSPGEYVNIEFG peptide substrate assessed as incorporation of [32P] into peptide by scintillation counting analysis
161473	CHEMBL190351	5.510000	3100.000000	21341	2005	Inhibition of glutamate/tyrosine (4:1) copolymer phosphorylation by human FGFR1 in DELFIA assay
1169398	CHEMBL2088090	5.500000	3162.280000	64943	2012	Inhibition of human FGFR1 phosphorylation expressed in COS1 cells after 1 hr by immunoblotting
628847	CHEMBL205305	5.500000	3170.000000	31022	2006	Inhibitory activity against FGFR1
20157988	CHEMBL3401369	5.500000	3170.000000	91122	2015	Inhibition of FGFR1 (unknown origin) after 90 mins by TR-FRET assay
1810832	CHEMBL3237080	5.490000	3200.000000	91208	2015	Inhibition of FGFR1 (unknown origin) using KKKSPGEYVNIEFG peptide substrate assessed as incorporation of [32P] into peptide by scintillation counting analysis
19019622	CHEMBL3780825	5.480000	3280.000000	98749	2016	Inhibition of N-terminal GST-tagged recombinant human FGFR1 (456 to 765 residues) expressed in baculovirus infected insect Sf21 cells after 25 mins using KKKSPGEYVNIEFG peptide substrate by scintillation counting analysis
161811	CHEMBL190405	5.480000	3300.000000	21341	2005	Inhibition of glutamate/tyrosine (4:1) copolymer phosphorylation by human fibroblast growth factor receptor 1
317448	CHEMBL370328	5.480000	3300.000000	21341	2005	Inhibition of glutamate/tyrosine (4:1) copolymer phosphorylation by human FGFR1 in DELFIA assay
1153036	CHEMBL2071457	5.460000	3480.000000	63022	2012	Inhibition of FGFR1
19019615	CHEMBL3782011	5.460000	3500.000000	98749	2016	Inhibition of N-terminal GST-tagged recombinant human FGFR1 (456 to 765 residues) expressed in baculovirus infected insect Sf21 cells after 25 mins using KKKSPGEYVNIEFG peptide substrate by scintillation counting analysis
18999210	CHEMBL3780794	5.420000	3800.000000	98749	2016	Inhibition of N-terminal GST-tagged recombinant human FGFR1 (456 to 765 residues) expressed in baculovirus infected insect Sf21 cells after 25 mins using KKKSPGEYVNIEFG peptide substrate by scintillation counting analysis
36175246	CHEMBL4101542	5.420000	3800.000000	104675	2017	Inhibition of recombinant human FGFR1 using poly (Glu,Tyr) 4:1 as substrate after 60 mins by ELISA
1145218	CHEMBL2006765	5.390000	4060.000000	104289	2016	Inhibition of FGFR1 (unknown origin) after 60 mins by TR-FRET assay
381755	CHEMBL457985	5.390000	4100.000000	45093	2009	Inhibition of human recombinant FGFR1
967243	CHEMBL1614712	5.370000	4300.000000	98852	2016	Inhibition of FGFR1 (unknown origin) in presence of [gamma33P]ATP
15884133	CHEMBL3400599	5.370000	4300.000000	91208	2015	Inhibition of FGFR1 (unknown origin) using KKKSPGEYVNIEFG peptide substrate assessed as incorporation of [32P] into peptide by scintillation counting analysis
1781719	CHEMBL3401762	5.370000	4300.000000	91208	2015	Inhibition of FGFR1 (unknown origin) using KKKSPGEYVNIEFG peptide substrate assessed as incorporation of [32P] into peptide by scintillation counting analysis
510188	CHEMBL1254671	5.350000	4500.000000	52937	2010	Inhibition of His-tagged human FGFR1 expressed in Sf9 cells
161507	CHEMBL190132	5.340000	4600.000000	21341	2005	Inhibition of glutamate/tyrosine (4:1) copolymer phosphorylation by human FGFR1 in DELFIA assay
36163626	CHEMBL4091741	5.330000	4635.000000	104463	2017	Inhibition of FGFR1 (unknown origin) using FAM-labeled peptide as substrate preincubated for 10 mins followed by substrate addition in presence of ATP by mobility shift assay
20157983	CHEMBL3401364	5.320000	4840.000000	91122	2015	Inhibition of FGFR1 (unknown origin) after 90 mins by TR-FRET assay
177369	CHEMBL207061	5.300000	5000.000000	31022	2006	Inhibitory activity against FGFR1
2463761	CHEMBL3401773	5.300000	5000.000000	91208	2015	Inhibition of FGFR1 (unknown origin) using KKKSPGEYVNIEFG peptide substrate assessed as incorporation of [32P] into peptide by scintillation counting analysis
4388619	CHEMBL3401768	5.300000	5000.000000	91208	2015	Inhibition of FGFR1 (unknown origin) using KKKSPGEYVNIEFG peptide substrate assessed as incorporation of [32P] into peptide by scintillation counting analysis
1167086	CHEMBL2088107	5.300000	5011.870000	64943	2012	Inhibition of recombinant N terminal GST-tagged human FGFR1 (456 to 765) expressed in baculovirus infected Sf21 cells after 40 mins by caliper mobility shift assay
160305	CHEMBL189325	5.290000	5100.000000	21341	2005	Inhibition of glutamate/tyrosine (4:1) copolymer phosphorylation by human fibroblast growth factor receptor 1
20157982	CHEMBL3401363	5.270000	5330.000000	91122	2015	Inhibition of FGFR1 (unknown origin) after 90 mins by TR-FRET assay
592661	CHEMBL223360	5.260000	5479.000000	104463	2017	Inhibition of FGFR1 (unknown origin) using FAM-labeled peptide as substrate preincubated for 10 mins followed by substrate addition in presence of ATP by mobility shift assay
710105	CHEMBL1617780	5.250000	5600.000000	91208	2015	Inhibition of FGFR1 (unknown origin) using KKKSPGEYVNIEFG peptide substrate assessed as incorporation of [32P] into peptide by scintillation counting analysis
1345959	CHEMBL2430323	5.220000	6000.000000	75032	2013	Inhibition of human FGFR1 in presence of 20 uM ATP
5107541	CHEMBL3401761	5.200000	6300.000000	91208	2015	Inhibition of FGFR1 (unknown origin) using KKKSPGEYVNIEFG peptide substrate assessed as incorporation of [32P] into peptide by scintillation counting analysis
604697	CHEMBL1253837	5.190000	6500.000000	52937	2010	Inhibition of His-tagged human FGFR1 expressed in Sf9 cells
120163	CHEMBL141247	5.170000	6700.000000	16264	2001	Inhibition of fibroblast growth factor receptor 1
18243779	CHEMBL3781238	5.150000	7000.000000	98749	2016	Inhibition of N-terminal GST-tagged recombinant human FGFR1 (456 to 765 residues) expressed in baculovirus infected insect Sf21 cells after 25 mins using KKKSPGEYVNIEFG peptide substrate by scintillation counting analysis
161473	CHEMBL190351	5.140000	7300.000000	21341	2005	Inhibition of glutamate/tyrosine (4:1) copolymer phosphorylation by human fibroblast growth factor receptor 1
18999061	CHEMBL3779927	5.140000	7300.000000	98749	2016	Inhibition of N-terminal GST-tagged recombinant human FGFR1 (456 to 765 residues) expressed in baculovirus infected insect Sf21 cells after 25 mins using KKKSPGEYVNIEFG peptide substrate by scintillation counting analysis
308331	CHEMBL365133	5.120000	7500.000000	21341	2005	Inhibition of glutamate/tyrosine (4:1) copolymer phosphorylation by human FGFR1 in DELFIA assay
540597	CHEMBL192668	5.110000	7700.000000	21341	2005	Inhibition of glutamate/tyrosine (4:1) copolymer phosphorylation by human FGFR1 in DELFIA assay
309664	CHEMBL363304	5.100000	7900.000000	21341	2005	Inhibition of glutamate/tyrosine (4:1) copolymer phosphorylation by human FGFR1 in DELFIA assay
424446	CHEMBL496172	5.100000	7900.000000	45093	2009	Inhibition of human recombinant FGFR1
160350	CHEMBL189628	5.080000	8400.000000	21341	2005	Inhibition of glutamate/tyrosine (4:1) copolymer phosphorylation by human FGFR1 in DELFIA assay
164459	CHEMBL191372	5.060000	8700.000000	21341	2005	Inhibition of glutamate/tyrosine (4:1) copolymer phosphorylation by human FGFR1 in DELFIA assay
159542	CHEMBL188431	5.050000	9000.000000	21341	2005	Inhibition of glutamate/tyrosine (4:1) copolymer phosphorylation by human FGFR1 in DELFIA assay
19216993	CHEMBL4090364	5.050000	9000.000000	105206	2017	Inhibition of FGFR1 (unknown origin)
20157986	CHEMBL3401367	5.040000	9130.000000	91122	2015	Inhibition of FGFR1 (unknown origin) after 90 mins by TR-FRET assay
20157987	CHEMBL3401368	5.020000	9590.000000	91122	2015	Inhibition of FGFR1 (unknown origin) after 90 mins by TR-FRET assay
18243773	CHEMBL3781175	5.000000	9900.000000	98749	2016	Inhibition of N-terminal GST-tagged recombinant human FGFR1 (456 to 765 residues) expressed in baculovirus infected insect Sf21 cells after 25 mins using KKKSPGEYVNIEFG peptide substrate by scintillation counting analysis
19019603	CHEMBL3780105	5.000000	10000.000000	98749	2016	Inhibition of N-terminal GST-tagged recombinant human FGFR1 (456 to 765 residues) expressed in baculovirus infected insect Sf21 cells after 25 mins using KKKSPGEYVNIEFG peptide substrate by scintillation counting analysis
8134897	CHEMBL3401764	4.960000	11000.000000	91208	2015	Inhibition of FGFR1 (unknown origin) using KKKSPGEYVNIEFG peptide substrate assessed as incorporation of [32P] into peptide by scintillation counting analysis
18999059	CHEMBL3780392	4.960000	11000.000000	98749	2016	Inhibition of N-terminal GST-tagged recombinant human FGFR1 (456 to 765 residues) expressed in baculovirus infected insect Sf21 cells after 25 mins using KKKSPGEYVNIEFG peptide substrate by scintillation counting analysis
20157980	CHEMBL3401361	4.920000	11910.000000	91122	2015	Inhibition of FGFR1 (unknown origin) after 90 mins by TR-FRET assay
308736	CHEMBL361886	4.920000	12000.000000	21341	2005	Inhibition of glutamate/tyrosine (4:1) copolymer phosphorylation by human fibroblast growth factor receptor 1
317448	CHEMBL370328	4.920000	12000.000000	21341	2005	Inhibition of glutamate/tyrosine (4:1) copolymer phosphorylation by human fibroblast growth factor receptor 1
930047	CHEMBL1574987	4.900000	12500.000000	91208	2015	Inhibition of FGFR1 (unknown origin) using KKKSPGEYVNIEFG peptide substrate assessed as incorporation of [32P] into peptide by scintillation counting analysis
1230149	CHEMBL2312646	4.900000	12510.000000	71957	2013	Inhibition of FGFR1 (unknown origin) in presence of ATP
20157981	CHEMBL3401362	4.900000	12650.000000	91122	2015	Inhibition of FGFR1 (unknown origin) after 90 mins by TR-FRET assay
161580	CHEMBL190210	4.850000	14000.000000	21341	2005	Inhibition of glutamate/tyrosine (4:1) copolymer phosphorylation by human fibroblast growth factor receptor 1
20157985	CHEMBL3401366	4.820000	15040.000000	91122	2015	Inhibition of FGFR1 (unknown origin) after 90 mins by TR-FRET assay
10968128	CHEMBL3401359	4.820000	15180.000000	91122	2015	Inhibition of FGFR1 (unknown origin) after 90 mins by TR-FRET assay
20157979	CHEMBL3401360	4.820000	15220.000000	91122	2015	Inhibition of FGFR1 (unknown origin) after 90 mins by TR-FRET assay
20157984	CHEMBL3401365	4.750000	17840.000000	91122	2015	Inhibition of FGFR1 (unknown origin) after 90 mins by TR-FRET assay
533510	CHEMBL598852	4.740000	18060.000000	74336	2013	Inhibition of FGFR1 (unknown origin) using poly (Glu, Tyr)4:1 as substrate by ELISA
12306889	CHEMBL3401759	4.740000	18200.000000	91208	2015	Inhibition of FGFR1 (unknown origin) using KKKSPGEYVNIEFG peptide substrate assessed as incorporation of [32P] into peptide by scintillation counting analysis
36139647	CHEMBL4063976	4.740000	18325.000000	104463	2017	Inhibition of FGFR1 (unknown origin) using FAM-labeled peptide as substrate preincubated for 10 mins followed by substrate addition in presence of ATP by mobility shift assay
36146901	CHEMBL4087221	4.700000	19999.000000	104463	2017	Inhibition of FGFR1 (unknown origin) using FAM-labeled peptide as substrate preincubated for 10 mins followed by substrate addition in presence of ATP by mobility shift assay
161556	CHEMBL190443	4.700000	20000.000000	21341	2005	Inhibition of glutamate/tyrosine (4:1) copolymer phosphorylation by human FGFR1 in DELFIA assay
19826444	CHEMBL3109570	4.700000	20000.000000	76638	2014	Inhibition of N-terminal GST-tagged human recombinant FGFR1 (456 to 765) after 40 mins by mobility shift assay
308736	CHEMBL361886	4.640000	23000.000000	21341	2005	Inhibition of glutamate/tyrosine (4:1) copolymer phosphorylation by human FGFR1 in DELFIA assay
602609	CHEMBL1253838	4.570000	27000.000000	52937	2010	Inhibition of His-tagged human FGFR1 expressed in Sf9 cells
782481	CHEMBL1457887	4.570000	27000.000000	98749	2016	Inhibition of N-terminal GST-tagged recombinant human FGFR1 (456 to 765 residues) expressed in baculovirus infected insect Sf21 cells after 25 mins using KKKSPGEYVNIEFG peptide substrate by scintillation counting analysis
18999207	CHEMBL3781192	4.570000	27000.000000	98749	2016	Inhibition of N-terminal GST-tagged recombinant human FGFR1 (456 to 765 residues) expressed in baculovirus infected insect Sf21 cells after 25 mins using KKKSPGEYVNIEFG peptide substrate by scintillation counting analysis
310541	CHEMBL362502	4.550000	28000.000000	21341	2005	Inhibition of glutamate/tyrosine (4:1) copolymer phosphorylation by human fibroblast growth factor receptor 1
18999044	CHEMBL3779960	4.550000	28200.000000	98749	2016	Inhibition of N-terminal GST-tagged recombinant human FGFR1 (456 to 765 residues) expressed in baculovirus infected insect Sf21 cells after 25 mins using KKKSPGEYVNIEFG peptide substrate by scintillation counting analysis
528073	CHEMBL598022	4.540000	28790.000000	74336	2013	Inhibition of FGFR1 (unknown origin) using poly (Glu, Tyr)4:1 as substrate by ELISA
1234942	CHEMBL2312652	4.520000	30000.000000	71957	2013	Inhibition of FGFR1 (unknown origin) in presence of ATP
1230214	CHEMBL2312649	4.520000	30000.000000	71957	2013	Inhibition of FGFR1 (unknown origin) in presence of ATP
1230871	CHEMBL2312645	4.520000	30000.000000	71957	2013	Inhibition of FGFR1 (unknown origin) in presence of ATP
36160140	CHEMBL4076032	4.470000	33849.000000	104463	2017	Inhibition of FGFR1 (unknown origin) using FAM-labeled peptide as substrate preincubated for 10 mins followed by substrate addition in presence of ATP by mobility shift assay
186003	CHEMBL217090	4.430000	37000.000000	31836	2006	Inhibition of recombinant FGFR1 by ELISA
36177754	CHEMBL4101778	4.370000	42859.000000	104463	2017	Inhibition of FGFR1 (unknown origin) using FAM-labeled peptide as substrate preincubated for 10 mins followed by substrate addition in presence of ATP by mobility shift assay
100965	CHEMBL120077	4.340000	45800.000000	30310	2005	Inhibitory activity against bFGFR1
