tid	no.Docs	no.Act	no.>=8	no.>=7.5	no.>=7	no.>=6.5	no.>=6	no.>=5.5	no.>=5	no.<5
3	55	708	266	77	114	60	52	46	39	54
8	84	583	174	85	58	56	55	50	45	60
9	266	2989	686	366	415	317	363	213	319	310
11	67	700	158	68	62	48	69	69	64	162
19	105	1444	389	146	195	197	178	176	100	63
25	68	1151	444	224	195	98	87	60	32	11
55	71	1265	9	30	89	163	328	299	257	90
56	74	839	101	71	102	131	138	124	115	57
65	126	1503	144	98	200	204	218	212	231	196
76	43	830	85	94	129	157	158	113	73	21
86	156	1565	79	25	38	74	125	248	371	605
87	58	795	313	117	125	76	61	49	42	12
93	269	2886	315	221	267	319	372	306	421	665
96	94	780	7	8	22	46	74	98	109	416
100	109	1617	325	246	242	210	225	192	144	33
104	163	2428	222	192	266	269	280	283	387	529
118	24	726	374	98	67	73	58	29	26	1
121	137	2073	449	315	305	296	293	227	165	23
126	185	1913	110	103	210	202	273	313	269	433
133	74	925	114	101	100	118	127	163	152	50
146	20	644	118	80	132	113	88	56	36	21
155	115	1112	74	85	139	186	212	178	169	69
163	46	614	13	31	66	96	126	130	109	43
165	795	6289	166	124	171	352	657	1157	1667	1995
174	74	1060	274	179	188	169	99	80	42	29
188	80	925	103	167	154	153	103	80	87	78
194	60	982	245	111	132	120	108	102	60	104
234	59	1032	113	127	201	193	155	119	83	41
238	94	556	105	79	96	83	86	58	28	21
250	57	796	582	63	67	38	37	7	2	0
259	56	601	42	27	41	60	114	163	135	19
10003	42	500	21	12	45	44	74	92	92	120
10102	12	561	190	62	69	75	82	49	26	8
10131	39	692	126	111	108	97	59	40	30	121
10140	89	542	172	50	65	75	56	47	48	29
10142	52	562	162	90	100	87	73	32	17	1
10188	124	2351	579	324	348	328	265	241	163	103
10197	113	1160	198	135	167	154	162	126	105	113
10198	24	567	1	15	78	146	125	79	76	47
10266	63	583	176	96	91	59	49	35	44	33
10434	129	876	195	115	123	113	102	83	74	71
10495	59	931	301	128	161	108	91	59	52	31
10498	57	565	41	36	51	71	112	101	77	76
10517	28	669	4	58	108	91	93	78	105	132
10532	159	1685	147	136	165	99	154	229	248	507
10580	52	1186	431	160	150	87	138	82	56	82
10599	70	916	290	77	90	107	92	94	78	88
10752	41	628	84	102	96	70	73	62	72	69
10781	65	526	101	76	88	85	60	52	33	31
10839	56	698	228	107	82	79	57	57	60	28
10849	84	827	193	103	121	117	107	90	65	31
10869	130	989	23	38	95	194	196	222	109	112
10906	35	566	151	71	98	82	86	30	26	22
10919	51	629	156	104	124	82	62	51	37	13
10938	95	1034	250	114	166	159	141	107	58	39
10980	285	3506	778	512	623	414	378	287	345	169
11024	82	1103	437	130	140	115	83	75	55	68
11082	31	521	35	52	68	59	67	77	88	75
11140	125	2307	597	427	431	295	233	138	73	113
11149	37	669	182	81	109	91	76	62	41	27
11177	93	1158	270	148	171	153	161	116	89	50
11206	130	794	67	55	112	157	149	100	90	64
11208	99	705	88	78	96	118	98	81	68	78
11225	68	1793	939	194	198	167	133	67	61	34
11280	34	519	62	91	110	88	94	48	25	1
11291	58	1108	264	165	157	120	99	74	91	138
11307	174	1569	227	220	324	227	207	182	119	63
11359	53	526	88	40	43	38	75	96	62	84
11362	131	1583	280	167	208	197	233	216	168	114
11398	50	720	25	49	64	69	105	115	132	161
11400	77	822	236	118	140	113	101	52	43	19
11442	18	528	22	42	86	113	114	78	38	35
11451	125	2171	609	408	356	235	228	154	135	46
11473	41	716	204	74	120	88	74	42	77	37
11489	106	2706	826	515	433	330	291	132	104	75
11534	59	1036	207	129	145	181	171	119	50	34
11536	30	643	178	77	120	134	83	26	17	8
11541	46	994	305	188	175	118	131	62	14	1
11575	49	1368	321	235	245	187	159	103	80	38
11638	44	553	122	50	71	64	74	64	51	57
11663	72	1222	221	200	208	175	147	106	101	64
11727	62	1649	658	250	211	155	119	111	61	84
11939	95	960	82	108	106	164	155	128	128	89
12252	166	2766	414	386	445	364	349	275	246	287
12261	37	505	38	51	103	74	79	82	61	17
12425	40	520	58	28	45	61	71	56	62	139
12576	84	1047	187	128	150	120	150	133	106	73
12592	100	804	270	97	81	69	78	75	60	74
12666	70	836	158	78	101	123	123	102	72	79
12670	121	818	190	110	143	104	110	64	62	35
12697	230	2357	313	260	412	408	289	264	211	200
12967	54	790	220	131	96	87	90	51	43	72
13000	81	596	62	47	61	63	78	80	132	73
13001	111	1231	400	109	121	110	107	137	96	151
13004	28	622	103	138	130	71	52	49	56	23
13061	144	1353	2	10	49	61	156	204	379	492
18061	54	2100	224	218	304	366	416	291	162	119
19905	61	1709	467	319	358	246	168	87	56	8
20014	91	699	88	69	123	108	101	67	82	61
20092	40	791	225	125	129	118	71	40	42	41
20131	40	686	295	84	61	53	54	51	43	45
20174	39	1175	367	226	197	136	133	72	24	20
100010	51	764	256	107	123	102	79	30	28	39
100097	63	867	250	183	175	105	71	42	23	18
100098	6	517	21	122	154	103	54	20	26	17
100126	65	769	221	110	122	103	82	44	51	36
100166	32	543	46	43	78	94	87	70	79	46
100417	62	966	345	177	142	105	64	55	58	20
100447	60	701	13	21	30	40	46	108	168	275
100448	59	538	6	4	17	26	30	54	61	340
100643	37	748	7	17	71	59	95	98	125	276
100974	24	501	1	1	11	90	136	117	93	52
101277	55	990	160	79	97	97	186	188	138	45
101414	37	882	101	122	257	176	113	61	41	11
103154	26	541	59	97	115	88	67	69	25	21
103454	56	932	27	35	67	80	156	144	210	213
103982	29	719	104	75	102	77	99	80	110	72
104106	19	536	194	121	80	32	47	29	13	20
